CHECKPOINT
transaction type: TPC-B (sort of)
scaling factor: 140
query mode: simple
number of clients: 8
number of threads: 8
duration: 1800 s
number of transactions actually processed: 9956070
latency average: 1.446 ms
tps = 5531.103090 (including connections establishing)
tps = 5531.112196 (excluding connections establishing)
