NOTICE:  table "pgbench_history" does not exist, skipping
NOTICE:  table "pgbench_tellers" does not exist, skipping
NOTICE:  table "pgbench_accounts" does not exist, skipping
NOTICE:  table "pgbench_branches" does not exist, skipping
creating tables...
100000 of 14000000 tuples (0%) done (elapsed 0.02 s, remaining 3.30 s).
200000 of 14000000 tuples (1%) done (elapsed 0.05 s, remaining 3.28 s).
300000 of 14000000 tuples (2%) done (elapsed 0.07 s, remaining 3.24 s).
400000 of 14000000 tuples (2%) done (elapsed 0.14 s, remaining 4.67 s).
500000 of 14000000 tuples (3%) done (elapsed 0.21 s, remaining 5.56 s).
600000 of 14000000 tuples (4%) done (elapsed 0.32 s, remaining 7.09 s).
700000 of 14000000 tuples (5%) done (elapsed 0.39 s, remaining 7.32 s).
800000 of 14000000 tuples (5%) done (elapsed 0.45 s, remaining 7.48 s).
900000 of 14000000 tuples (6%) done (elapsed 0.56 s, remaining 8.22 s).
1000000 of 14000000 tuples (7%) done (elapsed 0.63 s, remaining 8.23 s).
1100000 of 14000000 tuples (7%) done (elapsed 0.75 s, remaining 8.76 s).
1200000 of 14000000 tuples (8%) done (elapsed 0.86 s, remaining 9.16 s).
1300000 of 14000000 tuples (9%) done (elapsed 0.92 s, remaining 9.02 s).
1400000 of 14000000 tuples (10%) done (elapsed 1.03 s, remaining 9.26 s).
1500000 of 14000000 tuples (10%) done (elapsed 1.09 s, remaining 9.11 s).
1600000 of 14000000 tuples (11%) done (elapsed 1.20 s, remaining 9.28 s).
1700000 of 14000000 tuples (12%) done (elapsed 1.30 s, remaining 9.42 s).
1800000 of 14000000 tuples (12%) done (elapsed 1.37 s, remaining 9.27 s).
1900000 of 14000000 tuples (13%) done (elapsed 1.47 s, remaining 9.37 s).
2000000 of 14000000 tuples (14%) done (elapsed 1.58 s, remaining 9.46 s).
2100000 of 14000000 tuples (15%) done (elapsed 1.64 s, remaining 9.30 s).
2200000 of 14000000 tuples (15%) done (elapsed 1.75 s, remaining 9.36 s).
2300000 of 14000000 tuples (16%) done (elapsed 1.81 s, remaining 9.21 s).
2400000 of 14000000 tuples (17%) done (elapsed 1.92 s, remaining 9.26 s).
2500000 of 14000000 tuples (17%) done (elapsed 2.02 s, remaining 9.29 s).
2600000 of 14000000 tuples (18%) done (elapsed 2.08 s, remaining 9.14 s).
2700000 of 14000000 tuples (19%) done (elapsed 2.19 s, remaining 9.16 s).
2800000 of 14000000 tuples (20%) done (elapsed 2.25 s, remaining 9.01 s).
2900000 of 14000000 tuples (20%) done (elapsed 2.36 s, remaining 9.02 s).
3000000 of 14000000 tuples (21%) done (elapsed 2.46 s, remaining 9.03 s).
3100000 of 14000000 tuples (22%) done (elapsed 2.53 s, remaining 8.88 s).
3200000 of 14000000 tuples (22%) done (elapsed 2.63 s, remaining 8.88 s).
3300000 of 14000000 tuples (23%) done (elapsed 2.74 s, remaining 8.87 s).
3400000 of 14000000 tuples (24%) done (elapsed 2.90 s, remaining 9.04 s).
3500000 of 14000000 tuples (25%) done (elapsed 3.37 s, remaining 10.11 s).
3600000 of 14000000 tuples (25%) done (elapsed 3.92 s, remaining 11.32 s).
3700000 of 14000000 tuples (26%) done (elapsed 4.87 s, remaining 13.57 s).
3800000 of 14000000 tuples (27%) done (elapsed 5.63 s, remaining 15.12 s).
3900000 of 14000000 tuples (27%) done (elapsed 6.50 s, remaining 16.82 s).
4000000 of 14000000 tuples (28%) done (elapsed 7.47 s, remaining 18.68 s).
4100000 of 14000000 tuples (29%) done (elapsed 8.57 s, remaining 20.69 s).
4200000 of 14000000 tuples (30%) done (elapsed 9.80 s, remaining 22.86 s).
4300000 of 14000000 tuples (30%) done (elapsed 11.19 s, remaining 25.25 s).
4400000 of 14000000 tuples (31%) done (elapsed 12.76 s, remaining 27.84 s).
4500000 of 14000000 tuples (32%) done (elapsed 14.55 s, remaining 30.71 s).
4600000 of 14000000 tuples (32%) done (elapsed 16.20 s, remaining 33.11 s).
4700000 of 14000000 tuples (33%) done (elapsed 17.11 s, remaining 33.85 s).
4800000 of 14000000 tuples (34%) done (elapsed 17.61 s, remaining 33.76 s).
4900000 of 14000000 tuples (35%) done (elapsed 17.76 s, remaining 32.98 s).
5000000 of 14000000 tuples (35%) done (elapsed 17.89 s, remaining 32.21 s).
5100000 of 14000000 tuples (36%) done (elapsed 17.97 s, remaining 31.36 s).
5200000 of 14000000 tuples (37%) done (elapsed 18.10 s, remaining 30.64 s).
5300000 of 14000000 tuples (37%) done (elapsed 18.24 s, remaining 29.94 s).
5400000 of 14000000 tuples (38%) done (elapsed 18.38 s, remaining 29.27 s).
5500000 of 14000000 tuples (39%) done (elapsed 18.46 s, remaining 28.53 s).
5600000 of 14000000 tuples (40%) done (elapsed 18.60 s, remaining 27.90 s).
5700000 of 14000000 tuples (40%) done (elapsed 18.74 s, remaining 27.29 s).
5800000 of 14000000 tuples (41%) done (elapsed 18.82 s, remaining 26.60 s).
5900000 of 14000000 tuples (42%) done (elapsed 18.96 s, remaining 26.03 s).
6000000 of 14000000 tuples (42%) done (elapsed 19.09 s, remaining 25.45 s).
6100000 of 14000000 tuples (43%) done (elapsed 19.22 s, remaining 24.89 s).
6200000 of 14000000 tuples (44%) done (elapsed 19.30 s, remaining 24.28 s).
6300000 of 14000000 tuples (45%) done (elapsed 19.43 s, remaining 23.75 s).
6400000 of 14000000 tuples (45%) done (elapsed 19.57 s, remaining 23.24 s).
6500000 of 14000000 tuples (46%) done (elapsed 19.65 s, remaining 22.68 s).
6600000 of 14000000 tuples (47%) done (elapsed 19.79 s, remaining 22.19 s).
6700000 of 14000000 tuples (47%) done (elapsed 19.93 s, remaining 21.71 s).
6800000 of 14000000 tuples (48%) done (elapsed 20.05 s, remaining 21.23 s).
6900000 of 14000000 tuples (49%) done (elapsed 20.13 s, remaining 20.71 s).
7000000 of 14000000 tuples (50%) done (elapsed 20.27 s, remaining 20.27 s).
7100000 of 14000000 tuples (50%) done (elapsed 20.39 s, remaining 19.82 s).
7200000 of 14000000 tuples (51%) done (elapsed 20.47 s, remaining 19.33 s).
7300000 of 14000000 tuples (52%) done (elapsed 20.59 s, remaining 18.90 s).
7400000 of 14000000 tuples (52%) done (elapsed 20.71 s, remaining 18.47 s).
7500000 of 14000000 tuples (53%) done (elapsed 20.79 s, remaining 18.02 s).
7600000 of 14000000 tuples (54%) done (elapsed 20.92 s, remaining 17.62 s).
7700000 of 14000000 tuples (55%) done (elapsed 21.05 s, remaining 17.22 s).
7800000 of 14000000 tuples (55%) done (elapsed 21.20 s, remaining 16.85 s).
7900000 of 14000000 tuples (56%) done (elapsed 21.29 s, remaining 16.44 s).
8000000 of 14000000 tuples (57%) done (elapsed 21.43 s, remaining 16.07 s).
8100000 of 14000000 tuples (57%) done (elapsed 21.58 s, remaining 15.72 s).
8200000 of 14000000 tuples (58%) done (elapsed 21.94 s, remaining 15.52 s).
8300000 of 14000000 tuples (59%) done (elapsed 22.15 s, remaining 15.21 s).
8400000 of 14000000 tuples (60%) done (elapsed 22.23 s, remaining 14.82 s).
8500000 of 14000000 tuples (60%) done (elapsed 22.38 s, remaining 14.48 s).
8600000 of 14000000 tuples (61%) done (elapsed 22.52 s, remaining 14.14 s).
8700000 of 14000000 tuples (62%) done (elapsed 22.68 s, remaining 13.82 s).
8800000 of 14000000 tuples (62%) done (elapsed 22.76 s, remaining 13.45 s).
8900000 of 14000000 tuples (63%) done (elapsed 22.90 s, remaining 13.12 s).
9000000 of 14000000 tuples (64%) done (elapsed 23.04 s, remaining 12.80 s).
9100000 of 14000000 tuples (65%) done (elapsed 23.19 s, remaining 12.49 s).
9200000 of 14000000 tuples (65%) done (elapsed 23.28 s, remaining 12.15 s).
9300000 of 14000000 tuples (66%) done (elapsed 23.39 s, remaining 11.82 s).
9400000 of 14000000 tuples (67%) done (elapsed 23.51 s, remaining 11.51 s).
9500000 of 14000000 tuples (67%) done (elapsed 23.59 s, remaining 11.18 s).
9600000 of 14000000 tuples (68%) done (elapsed 23.73 s, remaining 10.88 s).
9700000 of 14000000 tuples (69%) done (elapsed 23.88 s, remaining 10.59 s).
9800000 of 14000000 tuples (70%) done (elapsed 24.02 s, remaining 10.30 s).
9900000 of 14000000 tuples (70%) done (elapsed 24.11 s, remaining 9.98 s).
10000000 of 14000000 tuples (71%) done (elapsed 24.25 s, remaining 9.70 s).
10100000 of 14000000 tuples (72%) done (elapsed 24.40 s, remaining 9.42 s).
10200000 of 14000000 tuples (72%) done (elapsed 24.54 s, remaining 9.14 s).
10300000 of 14000000 tuples (73%) done (elapsed 24.67 s, remaining 8.86 s).
10400000 of 14000000 tuples (74%) done (elapsed 24.80 s, remaining 8.59 s).
10500000 of 14000000 tuples (75%) done (elapsed 24.94 s, remaining 8.31 s).
10600000 of 14000000 tuples (75%) done (elapsed 25.08 s, remaining 8.04 s).
10700000 of 14000000 tuples (76%) done (elapsed 25.21 s, remaining 7.77 s).
10800000 of 14000000 tuples (77%) done (elapsed 25.34 s, remaining 7.51 s).
10900000 of 14000000 tuples (77%) done (elapsed 25.49 s, remaining 7.25 s).
11000000 of 14000000 tuples (78%) done (elapsed 25.63 s, remaining 6.99 s).
11100000 of 14000000 tuples (79%) done (elapsed 25.78 s, remaining 6.74 s).
11200000 of 14000000 tuples (80%) done (elapsed 25.92 s, remaining 6.48 s).
11300000 of 14000000 tuples (80%) done (elapsed 26.05 s, remaining 6.23 s).
11400000 of 14000000 tuples (81%) done (elapsed 26.19 s, remaining 5.97 s).
11500000 of 14000000 tuples (82%) done (elapsed 26.34 s, remaining 5.73 s).
11600000 of 14000000 tuples (82%) done (elapsed 26.49 s, remaining 5.48 s).
11700000 of 14000000 tuples (83%) done (elapsed 26.89 s, remaining 5.29 s).
11800000 of 14000000 tuples (84%) done (elapsed 27.15 s, remaining 5.06 s).
11900000 of 14000000 tuples (85%) done (elapsed 27.31 s, remaining 4.82 s).
12000000 of 14000000 tuples (85%) done (elapsed 27.45 s, remaining 4.58 s).
12100000 of 14000000 tuples (86%) done (elapsed 27.61 s, remaining 4.34 s).
12200000 of 14000000 tuples (87%) done (elapsed 27.71 s, remaining 4.09 s).
12300000 of 14000000 tuples (87%) done (elapsed 27.77 s, remaining 3.84 s).
12400000 of 14000000 tuples (88%) done (elapsed 27.90 s, remaining 3.60 s).
12500000 of 14000000 tuples (89%) done (elapsed 28.04 s, remaining 3.37 s).
12600000 of 14000000 tuples (90%) done (elapsed 28.19 s, remaining 3.13 s).
12700000 of 14000000 tuples (90%) done (elapsed 28.34 s, remaining 2.90 s).
12800000 of 14000000 tuples (91%) done (elapsed 28.48 s, remaining 2.67 s).
12900000 of 14000000 tuples (92%) done (elapsed 28.63 s, remaining 2.44 s).
13000000 of 14000000 tuples (92%) done (elapsed 28.73 s, remaining 2.21 s).
13100000 of 14000000 tuples (93%) done (elapsed 28.82 s, remaining 1.98 s).
13200000 of 14000000 tuples (94%) done (elapsed 28.90 s, remaining 1.75 s).
13300000 of 14000000 tuples (95%) done (elapsed 29.03 s, remaining 1.53 s).
13400000 of 14000000 tuples (95%) done (elapsed 29.17 s, remaining 1.31 s).
13500000 of 14000000 tuples (96%) done (elapsed 29.28 s, remaining 1.08 s).
13600000 of 14000000 tuples (97%) done (elapsed 29.39 s, remaining 0.86 s).
13700000 of 14000000 tuples (97%) done (elapsed 29.53 s, remaining 0.65 s).
13800000 of 14000000 tuples (98%) done (elapsed 29.67 s, remaining 0.43 s).
13900000 of 14000000 tuples (99%) done (elapsed 29.80 s, remaining 0.21 s).
14000000 of 14000000 tuples (100%) done (elapsed 29.93 s, remaining 0.00 s).
vacuum...
set primary keys...
done.
