CHECKPOINT
transaction type: TPC-B (sort of)
scaling factor: 10
query mode: simple
number of clients: 8
number of threads: 8
duration: 1800 s
number of transactions actually processed: 12758360
latency average: 1.129 ms
tps = 7087.921917 (including connections establishing)
tps = 7087.933624 (excluding connections establishing)
