CHECKPOINT
transaction type: SELECT only
scaling factor: 140
query mode: simple
number of clients: 1
number of threads: 1
duration: 1800 s
number of transactions actually processed: 21029720
latency average: 0.086 ms
tps = 11683.173007 (including connections establishing)
tps = 11683.185268 (excluding connections establishing)
