CHECKPOINT
transaction type: TPC-B (sort of)
scaling factor: 1100
query mode: simple
number of clients: 1
number of threads: 1
duration: 1800 s
number of transactions actually processed: 1782773
latency average: 1.010 ms
tps = 990.428564 (including connections establishing)
tps = 990.429391 (excluding connections establishing)
