CHECKPOINT
transaction type: TPC-B (sort of)
scaling factor: 140
query mode: simple
number of clients: 1
number of threads: 1
duration: 1800 s
number of transactions actually processed: 1476314
latency average: 1.219 ms
tps = 820.174286 (including connections establishing)
tps = 820.174933 (excluding connections establishing)
