CHECKPOINT
transaction type: SELECT only
scaling factor: 1100
query mode: simple
number of clients: 1
number of threads: 1
duration: 1800 s
number of transactions actually processed: 10466873
latency average: 0.172 ms
tps = 5814.927949 (including connections establishing)
tps = 5814.932455 (excluding connections establishing)
