CHECKPOINT
transaction type: SELECT only
scaling factor: 10
query mode: simple
number of clients: 1
number of threads: 1
duration: 1800 s
number of transactions actually processed: 27139126
latency average: 0.066 ms
tps = 15077.291267 (including connections establishing)
tps = 15077.301436 (excluding connections establishing)
