CHECKPOINT
transaction type: TPC-B (sort of)
scaling factor: 10
query mode: simple
number of clients: 4
number of threads: 4
duration: 1800 s
number of transactions actually processed: 4479263
latency average: 1.607 ms
tps = 2488.476902 (including connections establishing)
tps = 2488.479065 (excluding connections establishing)
