NOTICE:  table "pgbench_history" does not exist, skipping
NOTICE:  table "pgbench_tellers" does not exist, skipping
NOTICE:  table "pgbench_accounts" does not exist, skipping
NOTICE:  table "pgbench_branches" does not exist, skipping
creating tables...
100000 of 110000000 tuples (0%) done (elapsed 0.02 s, remaining 26.14 s).
200000 of 110000000 tuples (0%) done (elapsed 0.05 s, remaining 26.16 s).
300000 of 110000000 tuples (0%) done (elapsed 0.07 s, remaining 25.98 s).
400000 of 110000000 tuples (0%) done (elapsed 0.13 s, remaining 36.75 s).
500000 of 110000000 tuples (0%) done (elapsed 0.20 s, remaining 44.67 s).
600000 of 110000000 tuples (0%) done (elapsed 0.31 s, remaining 57.40 s).
700000 of 110000000 tuples (0%) done (elapsed 0.38 s, remaining 59.52 s).
800000 of 110000000 tuples (0%) done (elapsed 0.45 s, remaining 61.08 s).
900000 of 110000000 tuples (0%) done (elapsed 0.56 s, remaining 67.86 s).
1000000 of 110000000 tuples (0%) done (elapsed 0.63 s, remaining 68.38 s).
1100000 of 110000000 tuples (1%) done (elapsed 0.74 s, remaining 73.16 s).
1200000 of 110000000 tuples (1%) done (elapsed 0.85 s, remaining 77.16 s).
1300000 of 110000000 tuples (1%) done (elapsed 0.92 s, remaining 76.58 s).
1400000 of 110000000 tuples (1%) done (elapsed 1.02 s, remaining 79.05 s).
1500000 of 110000000 tuples (1%) done (elapsed 1.08 s, remaining 78.30 s).
1600000 of 110000000 tuples (1%) done (elapsed 1.19 s, remaining 80.44 s).
1700000 of 110000000 tuples (1%) done (elapsed 1.29 s, remaining 82.28 s).
1800000 of 110000000 tuples (1%) done (elapsed 1.36 s, remaining 81.46 s).
1900000 of 110000000 tuples (1%) done (elapsed 1.46 s, remaining 83.02 s).
2000000 of 110000000 tuples (1%) done (elapsed 1.52 s, remaining 82.29 s).
2100000 of 110000000 tuples (1%) done (elapsed 1.63 s, remaining 83.64 s).
2200000 of 110000000 tuples (2%) done (elapsed 1.73 s, remaining 84.84 s).
2300000 of 110000000 tuples (2%) done (elapsed 1.80 s, remaining 84.07 s).
2400000 of 110000000 tuples (2%) done (elapsed 1.90 s, remaining 85.24 s).
2500000 of 110000000 tuples (2%) done (elapsed 2.00 s, remaining 86.19 s).
2600000 of 110000000 tuples (2%) done (elapsed 2.07 s, remaining 85.42 s).
2700000 of 110000000 tuples (2%) done (elapsed 2.18 s, remaining 86.48 s).
2800000 of 110000000 tuples (2%) done (elapsed 2.24 s, remaining 85.85 s).
2900000 of 110000000 tuples (2%) done (elapsed 2.35 s, remaining 86.74 s).
3000000 of 110000000 tuples (2%) done (elapsed 2.46 s, remaining 87.59 s).
3100000 of 110000000 tuples (2%) done (elapsed 2.52 s, remaining 86.96 s).
3200000 of 110000000 tuples (2%) done (elapsed 2.63 s, remaining 87.72 s).
3300000 of 110000000 tuples (3%) done (elapsed 2.69 s, remaining 87.06 s).
3400000 of 110000000 tuples (3%) done (elapsed 2.80 s, remaining 87.77 s).
3500000 of 110000000 tuples (3%) done (elapsed 2.91 s, remaining 88.44 s).
3600000 of 110000000 tuples (3%) done (elapsed 2.97 s, remaining 87.80 s).
3700000 of 110000000 tuples (3%) done (elapsed 3.07 s, remaining 88.33 s).
3800000 of 110000000 tuples (3%) done (elapsed 3.14 s, remaining 87.74 s).
3900000 of 110000000 tuples (3%) done (elapsed 3.25 s, remaining 88.32 s).
4000000 of 110000000 tuples (3%) done (elapsed 3.35 s, remaining 88.79 s).
4100000 of 110000000 tuples (3%) done (elapsed 3.41 s, remaining 88.19 s).
4200000 of 110000000 tuples (3%) done (elapsed 3.52 s, remaining 88.70 s).
4300000 of 110000000 tuples (3%) done (elapsed 3.59 s, remaining 88.14 s).
4400000 of 110000000 tuples (4%) done (elapsed 3.69 s, remaining 88.55 s).
4500000 of 110000000 tuples (4%) done (elapsed 3.79 s, remaining 88.95 s).
4600000 of 110000000 tuples (4%) done (elapsed 3.86 s, remaining 88.45 s).
4700000 of 110000000 tuples (4%) done (elapsed 3.97 s, remaining 88.88 s).
4800000 of 110000000 tuples (4%) done (elapsed 4.07 s, remaining 89.22 s).
4900000 of 110000000 tuples (4%) done (elapsed 4.14 s, remaining 88.71 s).
5000000 of 110000000 tuples (4%) done (elapsed 4.24 s, remaining 89.09 s).
5100000 of 110000000 tuples (4%) done (elapsed 4.31 s, remaining 88.58 s).
5200000 of 110000000 tuples (4%) done (elapsed 4.41 s, remaining 88.89 s).
5300000 of 110000000 tuples (4%) done (elapsed 4.52 s, remaining 89.25 s).
5400000 of 110000000 tuples (4%) done (elapsed 4.58 s, remaining 88.78 s).
5500000 of 110000000 tuples (5%) done (elapsed 4.69 s, remaining 89.07 s).
5600000 of 110000000 tuples (5%) done (elapsed 4.75 s, remaining 88.59 s).
5700000 of 110000000 tuples (5%) done (elapsed 4.86 s, remaining 88.98 s).
5800000 of 110000000 tuples (5%) done (elapsed 4.97 s, remaining 89.24 s).
5900000 of 110000000 tuples (5%) done (elapsed 5.03 s, remaining 88.78 s).
6000000 of 110000000 tuples (5%) done (elapsed 5.14 s, remaining 89.05 s).
6100000 of 110000000 tuples (5%) done (elapsed 5.20 s, remaining 88.63 s).
6200000 of 110000000 tuples (5%) done (elapsed 5.31 s, remaining 88.88 s).
6300000 of 110000000 tuples (5%) done (elapsed 5.41 s, remaining 89.10 s).
6400000 of 110000000 tuples (5%) done (elapsed 5.48 s, remaining 88.67 s).
6500000 of 110000000 tuples (5%) done (elapsed 5.59 s, remaining 88.94 s).
6600000 of 110000000 tuples (6%) done (elapsed 5.69 s, remaining 89.14 s).
6700000 of 110000000 tuples (6%) done (elapsed 5.75 s, remaining 88.71 s).
6800000 of 110000000 tuples (6%) done (elapsed 5.86 s, remaining 88.93 s).
6900000 of 110000000 tuples (6%) done (elapsed 5.92 s, remaining 88.53 s).
7000000 of 110000000 tuples (6%) done (elapsed 6.03 s, remaining 88.71 s).
7100000 of 110000000 tuples (6%) done (elapsed 6.13 s, remaining 88.89 s).
7200000 of 110000000 tuples (6%) done (elapsed 6.20 s, remaining 88.51 s).
7300000 of 110000000 tuples (6%) done (elapsed 6.30 s, remaining 88.69 s).
7400000 of 110000000 tuples (6%) done (elapsed 6.37 s, remaining 88.28 s).
7500000 of 110000000 tuples (6%) done (elapsed 6.47 s, remaining 88.43 s).
7600000 of 110000000 tuples (6%) done (elapsed 6.58 s, remaining 88.61 s).
7700000 of 110000000 tuples (7%) done (elapsed 6.64 s, remaining 88.22 s).
7800000 of 110000000 tuples (7%) done (elapsed 6.74 s, remaining 88.35 s).
7900000 of 110000000 tuples (7%) done (elapsed 6.81 s, remaining 87.98 s).
8000000 of 110000000 tuples (7%) done (elapsed 6.91 s, remaining 88.14 s).
8100000 of 110000000 tuples (7%) done (elapsed 7.02 s, remaining 88.26 s).
8200000 of 110000000 tuples (7%) done (elapsed 7.08 s, remaining 87.89 s).
8300000 of 110000000 tuples (7%) done (elapsed 7.18 s, remaining 88.03 s).
8400000 of 110000000 tuples (7%) done (elapsed 7.29 s, remaining 88.16 s).
8500000 of 110000000 tuples (7%) done (elapsed 7.35 s, remaining 87.79 s).
8600000 of 110000000 tuples (7%) done (elapsed 7.46 s, remaining 87.90 s).
8700000 of 110000000 tuples (7%) done (elapsed 7.52 s, remaining 87.56 s).
8800000 of 110000000 tuples (8%) done (elapsed 7.62 s, remaining 87.68 s).
8900000 of 110000000 tuples (8%) done (elapsed 7.73 s, remaining 87.79 s).
9000000 of 110000000 tuples (8%) done (elapsed 7.79 s, remaining 87.44 s).
9100000 of 110000000 tuples (8%) done (elapsed 7.90 s, remaining 87.56 s).
9200000 of 110000000 tuples (8%) done (elapsed 7.96 s, remaining 87.22 s).
9300000 of 110000000 tuples (8%) done (elapsed 8.06 s, remaining 87.32 s).
9400000 of 110000000 tuples (8%) done (elapsed 8.17 s, remaining 87.42 s).
9500000 of 110000000 tuples (8%) done (elapsed 8.23 s, remaining 87.10 s).
9600000 of 110000000 tuples (8%) done (elapsed 8.34 s, remaining 87.18 s).
9700000 of 110000000 tuples (8%) done (elapsed 8.40 s, remaining 86.86 s).
9800000 of 110000000 tuples (8%) done (elapsed 8.50 s, remaining 86.96 s).
9900000 of 110000000 tuples (9%) done (elapsed 8.61 s, remaining 87.05 s).
10000000 of 110000000 tuples (9%) done (elapsed 8.67 s, remaining 86.73 s).
10100000 of 110000000 tuples (9%) done (elapsed 8.78 s, remaining 86.84 s).
10200000 of 110000000 tuples (9%) done (elapsed 8.88 s, remaining 86.92 s).
10300000 of 110000000 tuples (9%) done (elapsed 8.98 s, remaining 86.94 s).
10400000 of 110000000 tuples (9%) done (elapsed 9.04 s, remaining 86.60 s).
10500000 of 110000000 tuples (9%) done (elapsed 9.14 s, remaining 86.65 s).
10600000 of 110000000 tuples (9%) done (elapsed 9.24 s, remaining 86.66 s).
10700000 of 110000000 tuples (9%) done (elapsed 9.34 s, remaining 86.68 s).
10800000 of 110000000 tuples (9%) done (elapsed 9.40 s, remaining 86.35 s).
10900000 of 110000000 tuples (9%) done (elapsed 9.50 s, remaining 86.36 s).
11000000 of 110000000 tuples (10%) done (elapsed 9.60 s, remaining 86.39 s).
11100000 of 110000000 tuples (10%) done (elapsed 9.69 s, remaining 86.38 s).
11200000 of 110000000 tuples (10%) done (elapsed 9.76 s, remaining 86.07 s).
11300000 of 110000000 tuples (10%) done (elapsed 9.86 s, remaining 86.12 s).
11400000 of 110000000 tuples (10%) done (elapsed 9.96 s, remaining 86.13 s).
11500000 of 110000000 tuples (10%) done (elapsed 10.05 s, remaining 86.12 s).
11600000 of 110000000 tuples (10%) done (elapsed 10.12 s, remaining 85.82 s).
11700000 of 110000000 tuples (10%) done (elapsed 10.22 s, remaining 85.83 s).
11800000 of 110000000 tuples (10%) done (elapsed 10.31 s, remaining 85.82 s).
11900000 of 110000000 tuples (10%) done (elapsed 10.41 s, remaining 85.82 s).
12000000 of 110000000 tuples (10%) done (elapsed 10.47 s, remaining 85.54 s).
12100000 of 110000000 tuples (11%) done (elapsed 10.57 s, remaining 85.55 s).
12200000 of 110000000 tuples (11%) done (elapsed 10.67 s, remaining 85.54 s).
12300000 of 110000000 tuples (11%) done (elapsed 10.77 s, remaining 85.54 s).
12400000 of 110000000 tuples (11%) done (elapsed 10.83 s, remaining 85.27 s).
12500000 of 110000000 tuples (11%) done (elapsed 10.93 s, remaining 85.26 s).
12600000 of 110000000 tuples (11%) done (elapsed 11.03 s, remaining 85.25 s).
12700000 of 110000000 tuples (11%) done (elapsed 11.13 s, remaining 85.24 s).
12800000 of 110000000 tuples (11%) done (elapsed 11.19 s, remaining 84.96 s).
12900000 of 110000000 tuples (11%) done (elapsed 11.29 s, remaining 84.95 s).
13000000 of 110000000 tuples (11%) done (elapsed 11.38 s, remaining 84.94 s).
13100000 of 110000000 tuples (11%) done (elapsed 11.48 s, remaining 84.93 s).
13200000 of 110000000 tuples (12%) done (elapsed 11.58 s, remaining 84.91 s).
13300000 of 110000000 tuples (12%) done (elapsed 11.64 s, remaining 84.63 s).
13400000 of 110000000 tuples (12%) done (elapsed 11.74 s, remaining 84.60 s).
13500000 of 110000000 tuples (12%) done (elapsed 11.83 s, remaining 84.59 s).
13600000 of 110000000 tuples (12%) done (elapsed 11.93 s, remaining 84.57 s).
13700000 of 110000000 tuples (12%) done (elapsed 11.99 s, remaining 84.31 s).
13800000 of 110000000 tuples (12%) done (elapsed 12.09 s, remaining 84.29 s).
13900000 of 110000000 tuples (12%) done (elapsed 12.19 s, remaining 84.28 s).
14000000 of 110000000 tuples (12%) done (elapsed 12.29 s, remaining 84.27 s).
14100000 of 110000000 tuples (12%) done (elapsed 12.35 s, remaining 84.01 s).
14200000 of 110000000 tuples (12%) done (elapsed 12.45 s, remaining 83.99 s).
14300000 of 110000000 tuples (13%) done (elapsed 12.55 s, remaining 83.98 s).
14400000 of 110000000 tuples (13%) done (elapsed 12.65 s, remaining 83.96 s).
14500000 of 110000000 tuples (13%) done (elapsed 12.71 s, remaining 83.69 s).
14600000 of 110000000 tuples (13%) done (elapsed 12.81 s, remaining 83.68 s).
14700000 of 110000000 tuples (13%) done (elapsed 12.91 s, remaining 83.67 s).
14800000 of 110000000 tuples (13%) done (elapsed 13.00 s, remaining 83.65 s).
14900000 of 110000000 tuples (13%) done (elapsed 13.06 s, remaining 83.39 s).
15000000 of 110000000 tuples (13%) done (elapsed 13.16 s, remaining 83.38 s).
15100000 of 110000000 tuples (13%) done (elapsed 13.26 s, remaining 83.36 s).
15200000 of 110000000 tuples (13%) done (elapsed 13.36 s, remaining 83.34 s).
15300000 of 110000000 tuples (13%) done (elapsed 13.42 s, remaining 83.09 s).
15400000 of 110000000 tuples (14%) done (elapsed 13.52 s, remaining 83.08 s).
15500000 of 110000000 tuples (14%) done (elapsed 13.62 s, remaining 83.06 s).
15600000 of 110000000 tuples (14%) done (elapsed 13.72 s, remaining 83.04 s).
15700000 of 110000000 tuples (14%) done (elapsed 13.78 s, remaining 82.79 s).
15800000 of 110000000 tuples (14%) done (elapsed 13.88 s, remaining 82.77 s).
15900000 of 110000000 tuples (14%) done (elapsed 13.98 s, remaining 82.73 s).
16000000 of 110000000 tuples (14%) done (elapsed 14.08 s, remaining 82.69 s).
16100000 of 110000000 tuples (14%) done (elapsed 14.14 s, remaining 82.45 s).
16200000 of 110000000 tuples (14%) done (elapsed 14.24 s, remaining 82.43 s).
16300000 of 110000000 tuples (14%) done (elapsed 14.33 s, remaining 82.39 s).
16400000 of 110000000 tuples (14%) done (elapsed 14.43 s, remaining 82.35 s).
16500000 of 110000000 tuples (15%) done (elapsed 14.53 s, remaining 82.33 s).
16600000 of 110000000 tuples (15%) done (elapsed 14.59 s, remaining 82.09 s).
16700000 of 110000000 tuples (15%) done (elapsed 14.69 s, remaining 82.05 s).
16800000 of 110000000 tuples (15%) done (elapsed 14.78 s, remaining 82.01 s).
16900000 of 110000000 tuples (15%) done (elapsed 14.88 s, remaining 81.98 s).
17000000 of 110000000 tuples (15%) done (elapsed 14.94 s, remaining 81.76 s).
17100000 of 110000000 tuples (15%) done (elapsed 15.04 s, remaining 81.73 s).
17200000 of 110000000 tuples (15%) done (elapsed 15.14 s, remaining 81.70 s).
17300000 of 110000000 tuples (15%) done (elapsed 15.24 s, remaining 81.67 s).
17400000 of 110000000 tuples (15%) done (elapsed 15.30 s, remaining 81.44 s).
17500000 of 110000000 tuples (15%) done (elapsed 15.40 s, remaining 81.41 s).
17600000 of 110000000 tuples (16%) done (elapsed 15.50 s, remaining 81.38 s).
17700000 of 110000000 tuples (16%) done (elapsed 15.60 s, remaining 81.34 s).
17800000 of 110000000 tuples (16%) done (elapsed 15.66 s, remaining 81.12 s).
17900000 of 110000000 tuples (16%) done (elapsed 15.76 s, remaining 81.08 s).
18000000 of 110000000 tuples (16%) done (elapsed 15.86 s, remaining 81.06 s).
18100000 of 110000000 tuples (16%) done (elapsed 15.96 s, remaining 81.01 s).
18200000 of 110000000 tuples (16%) done (elapsed 16.02 s, remaining 80.79 s).
18300000 of 110000000 tuples (16%) done (elapsed 16.12 s, remaining 80.75 s).
18400000 of 110000000 tuples (16%) done (elapsed 16.21 s, remaining 80.72 s).
18500000 of 110000000 tuples (16%) done (elapsed 16.31 s, remaining 80.68 s).
18600000 of 110000000 tuples (16%) done (elapsed 16.41 s, remaining 80.63 s).
18700000 of 110000000 tuples (17%) done (elapsed 16.47 s, remaining 80.41 s).
18800000 of 110000000 tuples (17%) done (elapsed 16.57 s, remaining 80.37 s).
18900000 of 110000000 tuples (17%) done (elapsed 16.67 s, remaining 80.34 s).
19000000 of 110000000 tuples (17%) done (elapsed 16.77 s, remaining 80.30 s).
19100000 of 110000000 tuples (17%) done (elapsed 16.83 s, remaining 80.09 s).
19200000 of 110000000 tuples (17%) done (elapsed 16.93 s, remaining 80.05 s).
19300000 of 110000000 tuples (17%) done (elapsed 17.02 s, remaining 80.00 s).
19400000 of 110000000 tuples (17%) done (elapsed 17.12 s, remaining 79.96 s).
19500000 of 110000000 tuples (17%) done (elapsed 17.18 s, remaining 79.75 s).
19600000 of 110000000 tuples (17%) done (elapsed 17.28 s, remaining 79.70 s).
19700000 of 110000000 tuples (17%) done (elapsed 17.38 s, remaining 79.65 s).
19800000 of 110000000 tuples (18%) done (elapsed 17.48 s, remaining 79.62 s).
19900000 of 110000000 tuples (18%) done (elapsed 17.57 s, remaining 79.57 s).
20000000 of 110000000 tuples (18%) done (elapsed 17.64 s, remaining 79.37 s).
20100000 of 110000000 tuples (18%) done (elapsed 17.73 s, remaining 79.31 s).
20200000 of 110000000 tuples (18%) done (elapsed 17.83 s, remaining 79.28 s).
20300000 of 110000000 tuples (18%) done (elapsed 17.89 s, remaining 79.07 s).
20400000 of 110000000 tuples (18%) done (elapsed 17.99 s, remaining 79.03 s).
20500000 of 110000000 tuples (18%) done (elapsed 18.09 s, remaining 78.98 s).
20600000 of 110000000 tuples (18%) done (elapsed 18.19 s, remaining 78.94 s).
20700000 of 110000000 tuples (18%) done (elapsed 18.29 s, remaining 78.88 s).
20800000 of 110000000 tuples (18%) done (elapsed 18.35 s, remaining 78.68 s).
20900000 of 110000000 tuples (19%) done (elapsed 18.44 s, remaining 78.63 s).
21000000 of 110000000 tuples (19%) done (elapsed 18.54 s, remaining 78.59 s).
21100000 of 110000000 tuples (19%) done (elapsed 18.64 s, remaining 78.54 s).
21200000 of 110000000 tuples (19%) done (elapsed 18.70 s, remaining 78.34 s).
21300000 of 110000000 tuples (19%) done (elapsed 18.80 s, remaining 78.30 s).
21400000 of 110000000 tuples (19%) done (elapsed 18.90 s, remaining 78.25 s).
21500000 of 110000000 tuples (19%) done (elapsed 19.00 s, remaining 78.20 s).
21600000 of 110000000 tuples (19%) done (elapsed 19.06 s, remaining 78.00 s).
21700000 of 110000000 tuples (19%) done (elapsed 19.16 s, remaining 77.96 s).
21800000 of 110000000 tuples (19%) done (elapsed 19.26 s, remaining 77.92 s).
21900000 of 110000000 tuples (19%) done (elapsed 19.32 s, remaining 77.72 s).
22000000 of 110000000 tuples (20%) done (elapsed 19.42 s, remaining 77.67 s).
22100000 of 110000000 tuples (20%) done (elapsed 19.52 s, remaining 77.63 s).
22200000 of 110000000 tuples (20%) done (elapsed 19.62 s, remaining 77.58 s).
22300000 of 110000000 tuples (20%) done (elapsed 19.68 s, remaining 77.38 s).
22400000 of 110000000 tuples (20%) done (elapsed 19.78 s, remaining 77.34 s).
22500000 of 110000000 tuples (20%) done (elapsed 19.87 s, remaining 77.29 s).
22600000 of 110000000 tuples (20%) done (elapsed 19.97 s, remaining 77.23 s).
22700000 of 110000000 tuples (20%) done (elapsed 20.03 s, remaining 77.04 s).
22800000 of 110000000 tuples (20%) done (elapsed 20.13 s, remaining 77.00 s).
22900000 of 110000000 tuples (20%) done (elapsed 20.23 s, remaining 76.95 s).
23000000 of 110000000 tuples (20%) done (elapsed 20.33 s, remaining 76.90 s).
23100000 of 110000000 tuples (21%) done (elapsed 20.39 s, remaining 76.70 s).
23200000 of 110000000 tuples (21%) done (elapsed 20.49 s, remaining 76.66 s).
23300000 of 110000000 tuples (21%) done (elapsed 20.59 s, remaining 76.61 s).
23400000 of 110000000 tuples (21%) done (elapsed 20.68 s, remaining 76.55 s).
23500000 of 110000000 tuples (21%) done (elapsed 20.75 s, remaining 76.37 s).
23600000 of 110000000 tuples (21%) done (elapsed 20.85 s, remaining 76.32 s).
23700000 of 110000000 tuples (21%) done (elapsed 20.94 s, remaining 76.26 s).
23800000 of 110000000 tuples (21%) done (elapsed 21.04 s, remaining 76.20 s).
23900000 of 110000000 tuples (21%) done (elapsed 21.10 s, remaining 76.02 s).
24000000 of 110000000 tuples (21%) done (elapsed 21.20 s, remaining 75.97 s).
24100000 of 110000000 tuples (21%) done (elapsed 21.30 s, remaining 75.91 s).
24200000 of 110000000 tuples (22%) done (elapsed 21.40 s, remaining 75.86 s).
24300000 of 110000000 tuples (22%) done (elapsed 21.49 s, remaining 75.80 s).
24400000 of 110000000 tuples (22%) done (elapsed 21.55 s, remaining 75.62 s).
24500000 of 110000000 tuples (22%) done (elapsed 21.65 s, remaining 75.56 s).
24600000 of 110000000 tuples (22%) done (elapsed 21.75 s, remaining 75.50 s).
24700000 of 110000000 tuples (22%) done (elapsed 21.85 s, remaining 75.45 s).
24800000 of 110000000 tuples (22%) done (elapsed 21.91 s, remaining 75.26 s).
24900000 of 110000000 tuples (22%) done (elapsed 22.00 s, remaining 75.20 s).
25000000 of 110000000 tuples (22%) done (elapsed 22.10 s, remaining 75.16 s).
25100000 of 110000000 tuples (22%) done (elapsed 22.20 s, remaining 75.10 s).
25200000 of 110000000 tuples (22%) done (elapsed 22.27 s, remaining 74.92 s).
25300000 of 110000000 tuples (23%) done (elapsed 22.36 s, remaining 74.86 s).
25400000 of 110000000 tuples (23%) done (elapsed 22.46 s, remaining 74.80 s).
25500000 of 110000000 tuples (23%) done (elapsed 22.56 s, remaining 74.75 s).
25600000 of 110000000 tuples (23%) done (elapsed 22.62 s, remaining 74.57 s).
25700000 of 110000000 tuples (23%) done (elapsed 22.72 s, remaining 74.51 s).
25800000 of 110000000 tuples (23%) done (elapsed 22.82 s, remaining 74.46 s).
25900000 of 110000000 tuples (23%) done (elapsed 22.91 s, remaining 74.40 s).
26000000 of 110000000 tuples (23%) done (elapsed 22.98 s, remaining 74.23 s).
26100000 of 110000000 tuples (23%) done (elapsed 23.07 s, remaining 74.17 s).
26200000 of 110000000 tuples (23%) done (elapsed 23.17 s, remaining 74.12 s).
26300000 of 110000000 tuples (23%) done (elapsed 23.27 s, remaining 74.06 s).
26400000 of 110000000 tuples (24%) done (elapsed 23.33 s, remaining 73.88 s).
26500000 of 110000000 tuples (24%) done (elapsed 23.43 s, remaining 73.83 s).
26600000 of 110000000 tuples (24%) done (elapsed 23.53 s, remaining 73.77 s).
26700000 of 110000000 tuples (24%) done (elapsed 23.63 s, remaining 73.71 s).
26800000 of 110000000 tuples (24%) done (elapsed 23.69 s, remaining 73.54 s).
26900000 of 110000000 tuples (24%) done (elapsed 23.79 s, remaining 73.49 s).
27000000 of 110000000 tuples (24%) done (elapsed 23.89 s, remaining 73.43 s).
27100000 of 110000000 tuples (24%) done (elapsed 23.98 s, remaining 73.37 s).
27200000 of 110000000 tuples (24%) done (elapsed 24.05 s, remaining 73.20 s).
27300000 of 110000000 tuples (24%) done (elapsed 24.15 s, remaining 73.15 s).
27400000 of 110000000 tuples (24%) done (elapsed 24.25 s, remaining 73.09 s).
27500000 of 110000000 tuples (25%) done (elapsed 24.31 s, remaining 72.93 s).
27600000 of 110000000 tuples (25%) done (elapsed 24.41 s, remaining 72.87 s).
27700000 of 110000000 tuples (25%) done (elapsed 24.51 s, remaining 72.82 s).
27800000 of 110000000 tuples (25%) done (elapsed 24.61 s, remaining 72.75 s).
27900000 of 110000000 tuples (25%) done (elapsed 24.67 s, remaining 72.59 s).
28000000 of 110000000 tuples (25%) done (elapsed 24.77 s, remaining 72.54 s).
28100000 of 110000000 tuples (25%) done (elapsed 24.87 s, remaining 72.48 s).
28200000 of 110000000 tuples (25%) done (elapsed 24.97 s, remaining 72.42 s).
28300000 of 110000000 tuples (25%) done (elapsed 25.03 s, remaining 72.26 s).
28400000 of 110000000 tuples (25%) done (elapsed 25.13 s, remaining 72.20 s).
28500000 of 110000000 tuples (25%) done (elapsed 25.23 s, remaining 72.15 s).
28600000 of 110000000 tuples (26%) done (elapsed 25.33 s, remaining 72.08 s).
28700000 of 110000000 tuples (26%) done (elapsed 25.43 s, remaining 72.02 s).
28800000 of 110000000 tuples (26%) done (elapsed 25.49 s, remaining 71.86 s).
28900000 of 110000000 tuples (26%) done (elapsed 25.59 s, remaining 71.81 s).
29000000 of 110000000 tuples (26%) done (elapsed 25.69 s, remaining 71.75 s).
29100000 of 110000000 tuples (26%) done (elapsed 25.79 s, remaining 71.69 s).
29200000 of 110000000 tuples (26%) done (elapsed 25.85 s, remaining 71.53 s).
29300000 of 110000000 tuples (26%) done (elapsed 25.95 s, remaining 71.47 s).
29400000 of 110000000 tuples (26%) done (elapsed 26.05 s, remaining 71.40 s).
29500000 of 110000000 tuples (26%) done (elapsed 26.15 s, remaining 71.35 s).
29600000 of 110000000 tuples (26%) done (elapsed 26.25 s, remaining 71.29 s).
29700000 of 110000000 tuples (27%) done (elapsed 26.31 s, remaining 71.13 s).
29800000 of 110000000 tuples (27%) done (elapsed 26.41 s, remaining 71.06 s).
29900000 of 110000000 tuples (27%) done (elapsed 26.50 s, remaining 71.00 s).
30000000 of 110000000 tuples (27%) done (elapsed 26.60 s, remaining 70.95 s).
30100000 of 110000000 tuples (27%) done (elapsed 26.67 s, remaining 70.78 s).
30200000 of 110000000 tuples (27%) done (elapsed 26.76 s, remaining 70.72 s).
30300000 of 110000000 tuples (27%) done (elapsed 26.87 s, remaining 70.67 s).
30400000 of 110000000 tuples (27%) done (elapsed 26.97 s, remaining 70.61 s).
30500000 of 110000000 tuples (27%) done (elapsed 27.06 s, remaining 70.54 s).
30600000 of 110000000 tuples (27%) done (elapsed 27.13 s, remaining 70.38 s).
30700000 of 110000000 tuples (27%) done (elapsed 27.23 s, remaining 70.33 s).
30800000 of 110000000 tuples (28%) done (elapsed 27.32 s, remaining 70.26 s).
30900000 of 110000000 tuples (28%) done (elapsed 27.42 s, remaining 70.19 s).
31000000 of 110000000 tuples (28%) done (elapsed 27.48 s, remaining 70.04 s).
31100000 of 110000000 tuples (28%) done (elapsed 27.58 s, remaining 69.97 s).
31200000 of 110000000 tuples (28%) done (elapsed 27.68 s, remaining 69.90 s).
31300000 of 110000000 tuples (28%) done (elapsed 27.78 s, remaining 69.84 s).
31400000 of 110000000 tuples (28%) done (elapsed 27.84 s, remaining 69.69 s).
31500000 of 110000000 tuples (28%) done (elapsed 27.94 s, remaining 69.63 s).
31600000 of 110000000 tuples (28%) done (elapsed 28.04 s, remaining 69.56 s).
31700000 of 110000000 tuples (28%) done (elapsed 28.14 s, remaining 69.50 s).
31800000 of 110000000 tuples (28%) done (elapsed 28.20 s, remaining 69.34 s).
31900000 of 110000000 tuples (29%) done (elapsed 28.29 s, remaining 69.27 s).
32000000 of 110000000 tuples (29%) done (elapsed 28.39 s, remaining 69.21 s).
32100000 of 110000000 tuples (29%) done (elapsed 28.49 s, remaining 69.14 s).
32200000 of 110000000 tuples (29%) done (elapsed 28.55 s, remaining 68.99 s).
32300000 of 110000000 tuples (29%) done (elapsed 28.65 s, remaining 68.92 s).
32400000 of 110000000 tuples (29%) done (elapsed 28.75 s, remaining 68.85 s).
32500000 of 110000000 tuples (29%) done (elapsed 28.84 s, remaining 68.78 s).
32600000 of 110000000 tuples (29%) done (elapsed 28.94 s, remaining 68.72 s).
32700000 of 110000000 tuples (29%) done (elapsed 29.01 s, remaining 68.57 s).
32800000 of 110000000 tuples (29%) done (elapsed 29.10 s, remaining 68.50 s).
32900000 of 110000000 tuples (29%) done (elapsed 29.20 s, remaining 68.43 s).
33000000 of 110000000 tuples (30%) done (elapsed 29.30 s, remaining 68.37 s).
33100000 of 110000000 tuples (30%) done (elapsed 29.36 s, remaining 68.21 s).
33200000 of 110000000 tuples (30%) done (elapsed 29.46 s, remaining 68.15 s).
33300000 of 110000000 tuples (30%) done (elapsed 29.56 s, remaining 68.08 s).
33400000 of 110000000 tuples (30%) done (elapsed 29.65 s, remaining 68.01 s).
33500000 of 110000000 tuples (30%) done (elapsed 29.71 s, remaining 67.86 s).
33600000 of 110000000 tuples (30%) done (elapsed 29.81 s, remaining 67.79 s).
33700000 of 110000000 tuples (30%) done (elapsed 29.91 s, remaining 67.72 s).
33800000 of 110000000 tuples (30%) done (elapsed 30.01 s, remaining 67.65 s).
33900000 of 110000000 tuples (30%) done (elapsed 30.07 s, remaining 67.50 s).
34000000 of 110000000 tuples (30%) done (elapsed 30.17 s, remaining 67.44 s).
34100000 of 110000000 tuples (31%) done (elapsed 30.27 s, remaining 67.37 s).
34200000 of 110000000 tuples (31%) done (elapsed 30.37 s, remaining 67.30 s).
34300000 of 110000000 tuples (31%) done (elapsed 30.46 s, remaining 67.23 s).
34400000 of 110000000 tuples (31%) done (elapsed 30.53 s, remaining 67.08 s).
34500000 of 110000000 tuples (31%) done (elapsed 30.62 s, remaining 67.02 s).
34600000 of 110000000 tuples (31%) done (elapsed 30.72 s, remaining 66.95 s).
34700000 of 110000000 tuples (31%) done (elapsed 30.82 s, remaining 66.88 s).
34800000 of 110000000 tuples (31%) done (elapsed 30.88 s, remaining 66.74 s).
34900000 of 110000000 tuples (31%) done (elapsed 30.98 s, remaining 66.67 s).
35000000 of 110000000 tuples (31%) done (elapsed 31.08 s, remaining 66.60 s).
35100000 of 110000000 tuples (31%) done (elapsed 31.18 s, remaining 66.53 s).
35200000 of 110000000 tuples (32%) done (elapsed 31.24 s, remaining 66.38 s).
35300000 of 110000000 tuples (32%) done (elapsed 31.34 s, remaining 66.32 s).
35400000 of 110000000 tuples (32%) done (elapsed 31.44 s, remaining 66.25 s).
35500000 of 110000000 tuples (32%) done (elapsed 31.53 s, remaining 66.18 s).
35600000 of 110000000 tuples (32%) done (elapsed 31.60 s, remaining 66.03 s).
35700000 of 110000000 tuples (32%) done (elapsed 31.69 s, remaining 65.96 s).
35800000 of 110000000 tuples (32%) done (elapsed 31.79 s, remaining 65.89 s).
35900000 of 110000000 tuples (32%) done (elapsed 31.89 s, remaining 65.82 s).
36000000 of 110000000 tuples (32%) done (elapsed 31.99 s, remaining 65.75 s).
36100000 of 110000000 tuples (32%) done (elapsed 32.05 s, remaining 65.61 s).
36200000 of 110000000 tuples (32%) done (elapsed 32.15 s, remaining 65.54 s).
36300000 of 110000000 tuples (33%) done (elapsed 32.25 s, remaining 65.47 s).
36400000 of 110000000 tuples (33%) done (elapsed 32.34 s, remaining 65.40 s).
36500000 of 110000000 tuples (33%) done (elapsed 32.40 s, remaining 65.25 s).
36600000 of 110000000 tuples (33%) done (elapsed 32.50 s, remaining 65.18 s).
36700000 of 110000000 tuples (33%) done (elapsed 32.60 s, remaining 65.11 s).
36800000 of 110000000 tuples (33%) done (elapsed 32.70 s, remaining 65.04 s).
36900000 of 110000000 tuples (33%) done (elapsed 32.76 s, remaining 64.90 s).
37000000 of 110000000 tuples (33%) done (elapsed 32.86 s, remaining 64.83 s).
37100000 of 110000000 tuples (33%) done (elapsed 32.96 s, remaining 64.76 s).
37200000 of 110000000 tuples (33%) done (elapsed 33.06 s, remaining 64.69 s).
37300000 of 110000000 tuples (33%) done (elapsed 33.12 s, remaining 64.55 s).
37400000 of 110000000 tuples (34%) done (elapsed 33.22 s, remaining 64.48 s).
37500000 of 110000000 tuples (34%) done (elapsed 33.32 s, remaining 64.41 s).
37600000 of 110000000 tuples (34%) done (elapsed 33.42 s, remaining 64.34 s).
37700000 of 110000000 tuples (34%) done (elapsed 33.48 s, remaining 64.20 s).
37800000 of 110000000 tuples (34%) done (elapsed 33.58 s, remaining 64.13 s).
37900000 of 110000000 tuples (34%) done (elapsed 33.67 s, remaining 64.06 s).
38000000 of 110000000 tuples (34%) done (elapsed 33.77 s, remaining 63.98 s).
38100000 of 110000000 tuples (34%) done (elapsed 33.83 s, remaining 63.85 s).
38200000 of 110000000 tuples (34%) done (elapsed 33.93 s, remaining 63.78 s).
38300000 of 110000000 tuples (34%) done (elapsed 34.03 s, remaining 63.70 s).
38400000 of 110000000 tuples (34%) done (elapsed 34.13 s, remaining 63.63 s).
38500000 of 110000000 tuples (35%) done (elapsed 34.23 s, remaining 63.57 s).
38600000 of 110000000 tuples (35%) done (elapsed 34.29 s, remaining 63.43 s).
38700000 of 110000000 tuples (35%) done (elapsed 34.39 s, remaining 63.35 s).
38800000 of 110000000 tuples (35%) done (elapsed 34.49 s, remaining 63.29 s).
38900000 of 110000000 tuples (35%) done (elapsed 34.59 s, remaining 63.21 s).
39000000 of 110000000 tuples (35%) done (elapsed 34.65 s, remaining 63.07 s).
39100000 of 110000000 tuples (35%) done (elapsed 34.74 s, remaining 63.00 s).
39200000 of 110000000 tuples (35%) done (elapsed 34.84 s, remaining 62.93 s).
39300000 of 110000000 tuples (35%) done (elapsed 34.94 s, remaining 62.86 s).
39400000 of 110000000 tuples (35%) done (elapsed 35.00 s, remaining 62.72 s).
39500000 of 110000000 tuples (35%) done (elapsed 35.10 s, remaining 62.65 s).
39600000 of 110000000 tuples (36%) done (elapsed 35.20 s, remaining 62.58 s).
39700000 of 110000000 tuples (36%) done (elapsed 35.30 s, remaining 62.51 s).
39800000 of 110000000 tuples (36%) done (elapsed 35.36 s, remaining 62.37 s).
39900000 of 110000000 tuples (36%) done (elapsed 35.46 s, remaining 62.29 s).
40000000 of 110000000 tuples (36%) done (elapsed 35.56 s, remaining 62.22 s).
40100000 of 110000000 tuples (36%) done (elapsed 35.66 s, remaining 62.15 s).
40200000 of 110000000 tuples (36%) done (elapsed 35.72 s, remaining 62.02 s).
40300000 of 110000000 tuples (36%) done (elapsed 35.81 s, remaining 61.94 s).
40400000 of 110000000 tuples (36%) done (elapsed 35.91 s, remaining 61.87 s).
40500000 of 110000000 tuples (36%) done (elapsed 36.01 s, remaining 61.79 s).
40600000 of 110000000 tuples (36%) done (elapsed 36.11 s, remaining 61.72 s).
40700000 of 110000000 tuples (37%) done (elapsed 36.17 s, remaining 61.58 s).
40800000 of 110000000 tuples (37%) done (elapsed 36.27 s, remaining 61.51 s).
40900000 of 110000000 tuples (37%) done (elapsed 36.36 s, remaining 61.44 s).
41000000 of 110000000 tuples (37%) done (elapsed 36.46 s, remaining 61.36 s).
41100000 of 110000000 tuples (37%) done (elapsed 36.52 s, remaining 61.23 s).
41200000 of 110000000 tuples (37%) done (elapsed 36.62 s, remaining 61.15 s).
41300000 of 110000000 tuples (37%) done (elapsed 36.72 s, remaining 61.08 s).
41400000 of 110000000 tuples (37%) done (elapsed 36.82 s, remaining 61.01 s).
41500000 of 110000000 tuples (37%) done (elapsed 36.88 s, remaining 60.87 s).
41600000 of 110000000 tuples (37%) done (elapsed 36.98 s, remaining 60.80 s).
41700000 of 110000000 tuples (37%) done (elapsed 37.08 s, remaining 60.73 s).
41800000 of 110000000 tuples (38%) done (elapsed 37.18 s, remaining 60.66 s).
41900000 of 110000000 tuples (38%) done (elapsed 37.24 s, remaining 60.52 s).
42000000 of 110000000 tuples (38%) done (elapsed 37.34 s, remaining 60.45 s).
42100000 of 110000000 tuples (38%) done (elapsed 37.44 s, remaining 60.38 s).
42200000 of 110000000 tuples (38%) done (elapsed 37.53 s, remaining 60.30 s).
42300000 of 110000000 tuples (38%) done (elapsed 37.60 s, remaining 60.17 s).
42400000 of 110000000 tuples (38%) done (elapsed 37.69 s, remaining 60.10 s).
42500000 of 110000000 tuples (38%) done (elapsed 37.79 s, remaining 60.02 s).
42600000 of 110000000 tuples (38%) done (elapsed 37.89 s, remaining 59.95 s).
42700000 of 110000000 tuples (38%) done (elapsed 37.99 s, remaining 59.87 s).
42800000 of 110000000 tuples (38%) done (elapsed 38.05 s, remaining 59.74 s).
42900000 of 110000000 tuples (39%) done (elapsed 38.15 s, remaining 59.66 s).
43000000 of 110000000 tuples (39%) done (elapsed 38.25 s, remaining 59.59 s).
43100000 of 110000000 tuples (39%) done (elapsed 38.34 s, remaining 59.52 s).
43200000 of 110000000 tuples (39%) done (elapsed 38.40 s, remaining 59.39 s).
43300000 of 110000000 tuples (39%) done (elapsed 38.50 s, remaining 59.31 s).
43400000 of 110000000 tuples (39%) done (elapsed 38.60 s, remaining 59.24 s).
43500000 of 110000000 tuples (39%) done (elapsed 38.70 s, remaining 59.16 s).
43600000 of 110000000 tuples (39%) done (elapsed 38.76 s, remaining 59.03 s).
43700000 of 110000000 tuples (39%) done (elapsed 38.86 s, remaining 58.96 s).
43800000 of 110000000 tuples (39%) done (elapsed 38.96 s, remaining 58.89 s).
43900000 of 110000000 tuples (39%) done (elapsed 39.02 s, remaining 58.76 s).
44000000 of 110000000 tuples (40%) done (elapsed 39.12 s, remaining 58.68 s).
44100000 of 110000000 tuples (40%) done (elapsed 39.22 s, remaining 58.61 s).
44200000 of 110000000 tuples (40%) done (elapsed 39.32 s, remaining 58.54 s).
44300000 of 110000000 tuples (40%) done (elapsed 39.38 s, remaining 58.41 s).
44400000 of 110000000 tuples (40%) done (elapsed 39.48 s, remaining 58.33 s).
44500000 of 110000000 tuples (40%) done (elapsed 39.58 s, remaining 58.26 s).
44600000 of 110000000 tuples (40%) done (elapsed 39.68 s, remaining 58.18 s).
44700000 of 110000000 tuples (40%) done (elapsed 39.78 s, remaining 58.11 s).
44800000 of 110000000 tuples (40%) done (elapsed 39.84 s, remaining 57.97 s).
44900000 of 110000000 tuples (40%) done (elapsed 39.93 s, remaining 57.90 s).
45000000 of 110000000 tuples (40%) done (elapsed 40.03 s, remaining 57.83 s).
45100000 of 110000000 tuples (41%) done (elapsed 40.13 s, remaining 57.75 s).
45200000 of 110000000 tuples (41%) done (elapsed 40.19 s, remaining 57.62 s).
45300000 of 110000000 tuples (41%) done (elapsed 40.29 s, remaining 57.55 s).
45400000 of 110000000 tuples (41%) done (elapsed 40.39 s, remaining 57.47 s).
45500000 of 110000000 tuples (41%) done (elapsed 40.49 s, remaining 57.39 s).
45600000 of 110000000 tuples (41%) done (elapsed 40.55 s, remaining 57.26 s).
45700000 of 110000000 tuples (41%) done (elapsed 40.65 s, remaining 57.19 s).
45800000 of 110000000 tuples (41%) done (elapsed 40.74 s, remaining 57.11 s).
45900000 of 110000000 tuples (41%) done (elapsed 40.84 s, remaining 57.04 s).
46000000 of 110000000 tuples (41%) done (elapsed 40.90 s, remaining 56.91 s).
46100000 of 110000000 tuples (41%) done (elapsed 41.00 s, remaining 56.83 s).
46200000 of 110000000 tuples (42%) done (elapsed 41.10 s, remaining 56.76 s).
46300000 of 110000000 tuples (42%) done (elapsed 41.20 s, remaining 56.68 s).
46400000 of 110000000 tuples (42%) done (elapsed 41.26 s, remaining 56.56 s).
46500000 of 110000000 tuples (42%) done (elapsed 41.36 s, remaining 56.48 s).
46600000 of 110000000 tuples (42%) done (elapsed 41.46 s, remaining 56.40 s).
46700000 of 110000000 tuples (42%) done (elapsed 41.55 s, remaining 56.33 s).
46800000 of 110000000 tuples (42%) done (elapsed 41.62 s, remaining 56.20 s).
46900000 of 110000000 tuples (42%) done (elapsed 41.71 s, remaining 56.12 s).
47000000 of 110000000 tuples (42%) done (elapsed 41.81 s, remaining 56.05 s).
47100000 of 110000000 tuples (42%) done (elapsed 41.91 s, remaining 55.97 s).
47200000 of 110000000 tuples (42%) done (elapsed 42.01 s, remaining 55.89 s).
47300000 of 110000000 tuples (43%) done (elapsed 42.07 s, remaining 55.77 s).
47400000 of 110000000 tuples (43%) done (elapsed 42.17 s, remaining 55.69 s).
47500000 of 110000000 tuples (43%) done (elapsed 42.27 s, remaining 55.61 s).
47600000 of 110000000 tuples (43%) done (elapsed 42.36 s, remaining 55.53 s).
47700000 of 110000000 tuples (43%) done (elapsed 42.42 s, remaining 55.41 s).
47800000 of 110000000 tuples (43%) done (elapsed 42.52 s, remaining 55.33 s).
47900000 of 110000000 tuples (43%) done (elapsed 42.62 s, remaining 55.25 s).
48000000 of 110000000 tuples (43%) done (elapsed 42.72 s, remaining 55.18 s).
48100000 of 110000000 tuples (43%) done (elapsed 42.78 s, remaining 55.05 s).
48200000 of 110000000 tuples (43%) done (elapsed 42.88 s, remaining 54.98 s).
48300000 of 110000000 tuples (43%) done (elapsed 42.98 s, remaining 54.90 s).
48400000 of 110000000 tuples (44%) done (elapsed 43.07 s, remaining 54.82 s).
48500000 of 110000000 tuples (44%) done (elapsed 43.17 s, remaining 54.74 s).
48600000 of 110000000 tuples (44%) done (elapsed 43.23 s, remaining 54.62 s).
48700000 of 110000000 tuples (44%) done (elapsed 43.33 s, remaining 54.54 s).
48800000 of 110000000 tuples (44%) done (elapsed 43.43 s, remaining 54.46 s).
48900000 of 110000000 tuples (44%) done (elapsed 43.49 s, remaining 54.34 s).
49000000 of 110000000 tuples (44%) done (elapsed 43.59 s, remaining 54.27 s).
49100000 of 110000000 tuples (44%) done (elapsed 43.69 s, remaining 54.19 s).
49200000 of 110000000 tuples (44%) done (elapsed 43.79 s, remaining 54.11 s).
49300000 of 110000000 tuples (44%) done (elapsed 43.85 s, remaining 53.99 s).
49400000 of 110000000 tuples (44%) done (elapsed 43.94 s, remaining 53.91 s).
49500000 of 110000000 tuples (45%) done (elapsed 44.04 s, remaining 53.83 s).
49600000 of 110000000 tuples (45%) done (elapsed 44.14 s, remaining 53.75 s).
49700000 of 110000000 tuples (45%) done (elapsed 44.24 s, remaining 53.67 s).
49800000 of 110000000 tuples (45%) done (elapsed 44.30 s, remaining 53.55 s).
49900000 of 110000000 tuples (45%) done (elapsed 44.39 s, remaining 53.47 s).
50000000 of 110000000 tuples (45%) done (elapsed 44.49 s, remaining 53.39 s).
50100000 of 110000000 tuples (45%) done (elapsed 44.59 s, remaining 53.32 s).
50200000 of 110000000 tuples (45%) done (elapsed 44.65 s, remaining 53.19 s).
50300000 of 110000000 tuples (45%) done (elapsed 44.75 s, remaining 53.11 s).
50400000 of 110000000 tuples (45%) done (elapsed 44.85 s, remaining 53.04 s).
50500000 of 110000000 tuples (45%) done (elapsed 44.95 s, remaining 52.96 s).
50600000 of 110000000 tuples (46%) done (elapsed 45.01 s, remaining 52.84 s).
50700000 of 110000000 tuples (46%) done (elapsed 45.11 s, remaining 52.76 s).
50800000 of 110000000 tuples (46%) done (elapsed 45.21 s, remaining 52.68 s).
50900000 of 110000000 tuples (46%) done (elapsed 45.31 s, remaining 52.61 s).
51000000 of 110000000 tuples (46%) done (elapsed 45.37 s, remaining 52.48 s).
51100000 of 110000000 tuples (46%) done (elapsed 45.47 s, remaining 52.41 s).
51200000 of 110000000 tuples (46%) done (elapsed 45.56 s, remaining 52.33 s).
51300000 of 110000000 tuples (46%) done (elapsed 45.66 s, remaining 52.25 s).
51400000 of 110000000 tuples (46%) done (elapsed 45.72 s, remaining 52.13 s).
51500000 of 110000000 tuples (46%) done (elapsed 45.82 s, remaining 52.05 s).
51600000 of 110000000 tuples (46%) done (elapsed 45.92 s, remaining 51.97 s).
51700000 of 110000000 tuples (47%) done (elapsed 46.02 s, remaining 51.89 s).
51800000 of 110000000 tuples (47%) done (elapsed 46.08 s, remaining 51.77 s).
51900000 of 110000000 tuples (47%) done (elapsed 46.18 s, remaining 51.70 s).
52000000 of 110000000 tuples (47%) done (elapsed 46.28 s, remaining 51.62 s).
52100000 of 110000000 tuples (47%) done (elapsed 46.38 s, remaining 51.54 s).
52200000 of 110000000 tuples (47%) done (elapsed 46.44 s, remaining 51.42 s).
52300000 of 110000000 tuples (47%) done (elapsed 46.53 s, remaining 51.34 s).
52400000 of 110000000 tuples (47%) done (elapsed 46.63 s, remaining 51.26 s).
52500000 of 110000000 tuples (47%) done (elapsed 46.74 s, remaining 51.19 s).
52600000 of 110000000 tuples (47%) done (elapsed 46.80 s, remaining 51.07 s).
52700000 of 110000000 tuples (47%) done (elapsed 46.89 s, remaining 50.99 s).
52800000 of 110000000 tuples (48%) done (elapsed 46.99 s, remaining 50.91 s).
52900000 of 110000000 tuples (48%) done (elapsed 47.09 s, remaining 50.83 s).
53000000 of 110000000 tuples (48%) done (elapsed 47.15 s, remaining 50.71 s).
53100000 of 110000000 tuples (48%) done (elapsed 47.25 s, remaining 50.63 s).
53200000 of 110000000 tuples (48%) done (elapsed 47.35 s, remaining 50.55 s).
53300000 of 110000000 tuples (48%) done (elapsed 47.45 s, remaining 50.48 s).
53400000 of 110000000 tuples (48%) done (elapsed 47.51 s, remaining 50.36 s).
53500000 of 110000000 tuples (48%) done (elapsed 47.61 s, remaining 50.28 s).
53600000 of 110000000 tuples (48%) done (elapsed 47.71 s, remaining 50.20 s).
53700000 of 110000000 tuples (48%) done (elapsed 47.81 s, remaining 50.12 s).
53800000 of 110000000 tuples (48%) done (elapsed 47.87 s, remaining 50.00 s).
53900000 of 110000000 tuples (49%) done (elapsed 47.97 s, remaining 49.92 s).
54000000 of 110000000 tuples (49%) done (elapsed 48.07 s, remaining 49.85 s).
54100000 of 110000000 tuples (49%) done (elapsed 48.17 s, remaining 49.77 s).
54200000 of 110000000 tuples (49%) done (elapsed 48.23 s, remaining 49.65 s).
54300000 of 110000000 tuples (49%) done (elapsed 48.33 s, remaining 49.57 s).
54400000 of 110000000 tuples (49%) done (elapsed 48.42 s, remaining 49.49 s).
54500000 of 110000000 tuples (49%) done (elapsed 48.52 s, remaining 49.41 s).
54600000 of 110000000 tuples (49%) done (elapsed 48.62 s, remaining 49.34 s).
54700000 of 110000000 tuples (49%) done (elapsed 48.69 s, remaining 49.22 s).
54800000 of 110000000 tuples (49%) done (elapsed 48.79 s, remaining 49.14 s).
54900000 of 110000000 tuples (49%) done (elapsed 48.88 s, remaining 49.06 s).
55000000 of 110000000 tuples (50%) done (elapsed 48.98 s, remaining 48.98 s).
55100000 of 110000000 tuples (50%) done (elapsed 49.04 s, remaining 48.86 s).
55200000 of 110000000 tuples (50%) done (elapsed 49.14 s, remaining 48.79 s).
55300000 of 110000000 tuples (50%) done (elapsed 49.24 s, remaining 48.71 s).
55400000 of 110000000 tuples (50%) done (elapsed 49.34 s, remaining 48.63 s).
55500000 of 110000000 tuples (50%) done (elapsed 49.44 s, remaining 48.55 s).
55600000 of 110000000 tuples (50%) done (elapsed 49.50 s, remaining 48.43 s).
55700000 of 110000000 tuples (50%) done (elapsed 49.60 s, remaining 48.36 s).
55800000 of 110000000 tuples (50%) done (elapsed 49.70 s, remaining 48.28 s).
55900000 of 110000000 tuples (50%) done (elapsed 49.80 s, remaining 48.20 s).
56000000 of 110000000 tuples (50%) done (elapsed 49.86 s, remaining 48.08 s).
56100000 of 110000000 tuples (51%) done (elapsed 49.96 s, remaining 48.00 s).
56200000 of 110000000 tuples (51%) done (elapsed 50.06 s, remaining 47.92 s).
56300000 of 110000000 tuples (51%) done (elapsed 50.16 s, remaining 47.84 s).
56400000 of 110000000 tuples (51%) done (elapsed 50.26 s, remaining 47.76 s).
56500000 of 110000000 tuples (51%) done (elapsed 50.32 s, remaining 47.65 s).
56600000 of 110000000 tuples (51%) done (elapsed 50.42 s, remaining 47.57 s).
56700000 of 110000000 tuples (51%) done (elapsed 50.52 s, remaining 47.49 s).
56800000 of 110000000 tuples (51%) done (elapsed 50.62 s, remaining 47.41 s).
56900000 of 110000000 tuples (51%) done (elapsed 50.68 s, remaining 47.30 s).
57000000 of 110000000 tuples (51%) done (elapsed 50.78 s, remaining 47.21 s).
57100000 of 110000000 tuples (51%) done (elapsed 50.88 s, remaining 47.14 s).
57200000 of 110000000 tuples (52%) done (elapsed 50.98 s, remaining 47.06 s).
57300000 of 110000000 tuples (52%) done (elapsed 51.08 s, remaining 46.98 s).
57400000 of 110000000 tuples (52%) done (elapsed 51.14 s, remaining 46.86 s).
57500000 of 110000000 tuples (52%) done (elapsed 51.24 s, remaining 46.78 s).
57600000 of 110000000 tuples (52%) done (elapsed 51.34 s, remaining 46.70 s).
57700000 of 110000000 tuples (52%) done (elapsed 51.44 s, remaining 46.62 s).
57800000 of 110000000 tuples (52%) done (elapsed 51.50 s, remaining 46.51 s).
57900000 of 110000000 tuples (52%) done (elapsed 51.60 s, remaining 46.43 s).
58000000 of 110000000 tuples (52%) done (elapsed 51.70 s, remaining 46.35 s).
58100000 of 110000000 tuples (52%) done (elapsed 51.80 s, remaining 46.27 s).
58200000 of 110000000 tuples (52%) done (elapsed 51.90 s, remaining 46.19 s).
58300000 of 110000000 tuples (53%) done (elapsed 51.96 s, remaining 46.08 s).
58400000 of 110000000 tuples (53%) done (elapsed 52.06 s, remaining 46.00 s).
58500000 of 110000000 tuples (53%) done (elapsed 52.16 s, remaining 45.91 s).
58600000 of 110000000 tuples (53%) done (elapsed 52.26 s, remaining 45.84 s).
58700000 of 110000000 tuples (53%) done (elapsed 52.36 s, remaining 45.76 s).
58800000 of 110000000 tuples (53%) done (elapsed 52.42 s, remaining 45.64 s).
58900000 of 110000000 tuples (53%) done (elapsed 52.52 s, remaining 45.56 s).
59000000 of 110000000 tuples (53%) done (elapsed 52.62 s, remaining 45.48 s).
59100000 of 110000000 tuples (53%) done (elapsed 52.72 s, remaining 45.40 s).
59200000 of 110000000 tuples (53%) done (elapsed 52.78 s, remaining 45.29 s).
59300000 of 110000000 tuples (53%) done (elapsed 52.87 s, remaining 45.20 s).
59400000 of 110000000 tuples (54%) done (elapsed 52.97 s, remaining 45.12 s).
59500000 of 110000000 tuples (54%) done (elapsed 53.07 s, remaining 45.04 s).
59600000 of 110000000 tuples (54%) done (elapsed 53.13 s, remaining 44.93 s).
59700000 of 110000000 tuples (54%) done (elapsed 53.23 s, remaining 44.85 s).
59800000 of 110000000 tuples (54%) done (elapsed 53.33 s, remaining 44.77 s).
59900000 of 110000000 tuples (54%) done (elapsed 53.43 s, remaining 44.69 s).
60000000 of 110000000 tuples (54%) done (elapsed 53.49 s, remaining 44.57 s).
60100000 of 110000000 tuples (54%) done (elapsed 53.59 s, remaining 44.49 s).
60200000 of 110000000 tuples (54%) done (elapsed 53.69 s, remaining 44.41 s).
60300000 of 110000000 tuples (54%) done (elapsed 53.78 s, remaining 44.33 s).
60400000 of 110000000 tuples (54%) done (elapsed 53.84 s, remaining 44.22 s).
60500000 of 110000000 tuples (55%) done (elapsed 53.94 s, remaining 44.14 s).
60600000 of 110000000 tuples (55%) done (elapsed 54.04 s, remaining 44.05 s).
60700000 of 110000000 tuples (55%) done (elapsed 54.14 s, remaining 43.97 s).
60800000 of 110000000 tuples (55%) done (elapsed 54.20 s, remaining 43.86 s).
60900000 of 110000000 tuples (55%) done (elapsed 54.30 s, remaining 43.78 s).
61000000 of 110000000 tuples (55%) done (elapsed 54.40 s, remaining 43.70 s).
61100000 of 110000000 tuples (55%) done (elapsed 54.50 s, remaining 43.62 s).
61200000 of 110000000 tuples (55%) done (elapsed 54.56 s, remaining 43.51 s).
61300000 of 110000000 tuples (55%) done (elapsed 54.66 s, remaining 43.43 s).
61400000 of 110000000 tuples (55%) done (elapsed 54.76 s, remaining 43.35 s).
61500000 of 110000000 tuples (55%) done (elapsed 54.83 s, remaining 43.24 s).
61600000 of 110000000 tuples (56%) done (elapsed 54.93 s, remaining 43.16 s).
61700000 of 110000000 tuples (56%) done (elapsed 55.03 s, remaining 43.08 s).
61800000 of 110000000 tuples (56%) done (elapsed 55.12 s, remaining 42.99 s).
61900000 of 110000000 tuples (56%) done (elapsed 55.18 s, remaining 42.88 s).
62000000 of 110000000 tuples (56%) done (elapsed 55.28 s, remaining 42.80 s).
62100000 of 110000000 tuples (56%) done (elapsed 55.38 s, remaining 42.72 s).
62200000 of 110000000 tuples (56%) done (elapsed 55.48 s, remaining 42.64 s).
62300000 of 110000000 tuples (56%) done (elapsed 55.54 s, remaining 42.52 s).
62400000 of 110000000 tuples (56%) done (elapsed 55.64 s, remaining 42.44 s).
62500000 of 110000000 tuples (56%) done (elapsed 55.74 s, remaining 42.36 s).
62600000 of 110000000 tuples (56%) done (elapsed 55.84 s, remaining 42.28 s).
62700000 of 110000000 tuples (57%) done (elapsed 55.90 s, remaining 42.17 s).
62800000 of 110000000 tuples (57%) done (elapsed 56.00 s, remaining 42.09 s).
62900000 of 110000000 tuples (57%) done (elapsed 56.09 s, remaining 42.00 s).
63000000 of 110000000 tuples (57%) done (elapsed 56.19 s, remaining 41.92 s).
63100000 of 110000000 tuples (57%) done (elapsed 56.25 s, remaining 41.81 s).
63200000 of 110000000 tuples (57%) done (elapsed 56.35 s, remaining 41.73 s).
63300000 of 110000000 tuples (57%) done (elapsed 56.45 s, remaining 41.65 s).
63400000 of 110000000 tuples (57%) done (elapsed 56.55 s, remaining 41.57 s).
63500000 of 110000000 tuples (57%) done (elapsed 56.62 s, remaining 41.46 s).
63600000 of 110000000 tuples (57%) done (elapsed 56.71 s, remaining 41.38 s).
63700000 of 110000000 tuples (57%) done (elapsed 56.81 s, remaining 41.29 s).
63800000 of 110000000 tuples (58%) done (elapsed 56.91 s, remaining 41.21 s).
63900000 of 110000000 tuples (58%) done (elapsed 56.97 s, remaining 41.10 s).
64000000 of 110000000 tuples (58%) done (elapsed 57.07 s, remaining 41.02 s).
64100000 of 110000000 tuples (58%) done (elapsed 57.16 s, remaining 40.93 s).
64200000 of 110000000 tuples (58%) done (elapsed 57.26 s, remaining 40.85 s).
64300000 of 110000000 tuples (58%) done (elapsed 57.32 s, remaining 40.74 s).
64400000 of 110000000 tuples (58%) done (elapsed 57.42 s, remaining 40.66 s).
64500000 of 110000000 tuples (58%) done (elapsed 57.52 s, remaining 40.57 s).
64600000 of 110000000 tuples (58%) done (elapsed 57.62 s, remaining 40.49 s).
64700000 of 110000000 tuples (58%) done (elapsed 57.71 s, remaining 40.41 s).
64800000 of 110000000 tuples (58%) done (elapsed 57.78 s, remaining 40.30 s).
64900000 of 110000000 tuples (59%) done (elapsed 57.87 s, remaining 40.22 s).
65000000 of 110000000 tuples (59%) done (elapsed 57.97 s, remaining 40.14 s).
65100000 of 110000000 tuples (59%) done (elapsed 58.07 s, remaining 40.05 s).
65200000 of 110000000 tuples (59%) done (elapsed 58.14 s, remaining 39.95 s).
65300000 of 110000000 tuples (59%) done (elapsed 58.23 s, remaining 39.86 s).
65400000 of 110000000 tuples (59%) done (elapsed 58.33 s, remaining 39.78 s).
65500000 of 110000000 tuples (59%) done (elapsed 58.43 s, remaining 39.70 s).
65600000 of 110000000 tuples (59%) done (elapsed 58.49 s, remaining 39.59 s).
65700000 of 110000000 tuples (59%) done (elapsed 58.59 s, remaining 39.51 s).
65800000 of 110000000 tuples (59%) done (elapsed 58.69 s, remaining 39.42 s).
65900000 of 110000000 tuples (59%) done (elapsed 58.79 s, remaining 39.34 s).
66000000 of 110000000 tuples (60%) done (elapsed 58.85 s, remaining 39.23 s).
66100000 of 110000000 tuples (60%) done (elapsed 58.95 s, remaining 39.15 s).
66200000 of 110000000 tuples (60%) done (elapsed 59.05 s, remaining 39.07 s).
66300000 of 110000000 tuples (60%) done (elapsed 59.14 s, remaining 38.98 s).
66400000 of 110000000 tuples (60%) done (elapsed 59.20 s, remaining 38.88 s).
66500000 of 110000000 tuples (60%) done (elapsed 59.30 s, remaining 38.79 s).
66600000 of 110000000 tuples (60%) done (elapsed 59.40 s, remaining 38.71 s).
66700000 of 110000000 tuples (60%) done (elapsed 59.50 s, remaining 38.63 s).
66800000 of 110000000 tuples (60%) done (elapsed 59.56 s, remaining 38.52 s).
66900000 of 110000000 tuples (60%) done (elapsed 59.66 s, remaining 38.44 s).
67000000 of 110000000 tuples (60%) done (elapsed 59.76 s, remaining 38.35 s).
67100000 of 110000000 tuples (61%) done (elapsed 59.86 s, remaining 38.27 s).
67200000 of 110000000 tuples (61%) done (elapsed 59.95 s, remaining 38.18 s).
67300000 of 110000000 tuples (61%) done (elapsed 60.01 s, remaining 38.08 s).
67400000 of 110000000 tuples (61%) done (elapsed 60.11 s, remaining 37.99 s).
67500000 of 110000000 tuples (61%) done (elapsed 60.21 s, remaining 37.91 s).
67600000 of 110000000 tuples (61%) done (elapsed 60.31 s, remaining 37.83 s).
67700000 of 110000000 tuples (61%) done (elapsed 60.37 s, remaining 37.72 s).
67800000 of 110000000 tuples (61%) done (elapsed 60.47 s, remaining 37.64 s).
67900000 of 110000000 tuples (61%) done (elapsed 60.57 s, remaining 37.55 s).
68000000 of 110000000 tuples (61%) done (elapsed 60.67 s, remaining 37.47 s).
68100000 of 110000000 tuples (61%) done (elapsed 60.73 s, remaining 37.36 s).
68200000 of 110000000 tuples (62%) done (elapsed 60.83 s, remaining 37.28 s).
68300000 of 110000000 tuples (62%) done (elapsed 60.92 s, remaining 37.20 s).
68400000 of 110000000 tuples (62%) done (elapsed 61.02 s, remaining 37.11 s).
68500000 of 110000000 tuples (62%) done (elapsed 61.12 s, remaining 37.03 s).
68600000 of 110000000 tuples (62%) done (elapsed 61.18 s, remaining 36.92 s).
68700000 of 110000000 tuples (62%) done (elapsed 61.28 s, remaining 36.84 s).
68800000 of 110000000 tuples (62%) done (elapsed 61.38 s, remaining 36.76 s).
68900000 of 110000000 tuples (62%) done (elapsed 61.48 s, remaining 36.67 s).
69000000 of 110000000 tuples (62%) done (elapsed 61.54 s, remaining 36.57 s).
69100000 of 110000000 tuples (62%) done (elapsed 61.64 s, remaining 36.48 s).
69200000 of 110000000 tuples (62%) done (elapsed 61.73 s, remaining 36.40 s).
69300000 of 110000000 tuples (63%) done (elapsed 61.83 s, remaining 36.31 s).
69400000 of 110000000 tuples (63%) done (elapsed 61.90 s, remaining 36.21 s).
69500000 of 110000000 tuples (63%) done (elapsed 61.99 s, remaining 36.12 s).
69600000 of 110000000 tuples (63%) done (elapsed 62.09 s, remaining 36.04 s).
69700000 of 110000000 tuples (63%) done (elapsed 62.19 s, remaining 35.96 s).
69800000 of 110000000 tuples (63%) done (elapsed 62.25 s, remaining 35.85 s).
69900000 of 110000000 tuples (63%) done (elapsed 62.35 s, remaining 35.77 s).
70000000 of 110000000 tuples (63%) done (elapsed 62.45 s, remaining 35.68 s).
70100000 of 110000000 tuples (63%) done (elapsed 62.54 s, remaining 35.60 s).
70200000 of 110000000 tuples (63%) done (elapsed 62.64 s, remaining 35.51 s).
70300000 of 110000000 tuples (63%) done (elapsed 62.70 s, remaining 35.41 s).
70400000 of 110000000 tuples (64%) done (elapsed 62.80 s, remaining 35.33 s).
70500000 of 110000000 tuples (64%) done (elapsed 62.90 s, remaining 35.24 s).
70600000 of 110000000 tuples (64%) done (elapsed 62.96 s, remaining 35.14 s).
70700000 of 110000000 tuples (64%) done (elapsed 63.07 s, remaining 35.06 s).
70800000 of 110000000 tuples (64%) done (elapsed 63.16 s, remaining 34.97 s).
70900000 of 110000000 tuples (64%) done (elapsed 63.26 s, remaining 34.89 s).
71000000 of 110000000 tuples (64%) done (elapsed 63.33 s, remaining 34.79 s).
71100000 of 110000000 tuples (64%) done (elapsed 63.43 s, remaining 34.70 s).
71200000 of 110000000 tuples (64%) done (elapsed 63.53 s, remaining 34.62 s).
71300000 of 110000000 tuples (64%) done (elapsed 63.63 s, remaining 34.53 s).
71400000 of 110000000 tuples (64%) done (elapsed 63.69 s, remaining 34.43 s).
71500000 of 110000000 tuples (65%) done (elapsed 63.79 s, remaining 34.35 s).
71600000 of 110000000 tuples (65%) done (elapsed 63.88 s, remaining 34.26 s).
71700000 of 110000000 tuples (65%) done (elapsed 63.98 s, remaining 34.18 s).
71800000 of 110000000 tuples (65%) done (elapsed 64.04 s, remaining 34.07 s).
71900000 of 110000000 tuples (65%) done (elapsed 64.14 s, remaining 33.99 s).
72000000 of 110000000 tuples (65%) done (elapsed 64.24 s, remaining 33.90 s).
72100000 of 110000000 tuples (65%) done (elapsed 64.34 s, remaining 33.82 s).
72200000 of 110000000 tuples (65%) done (elapsed 64.40 s, remaining 33.72 s).
72300000 of 110000000 tuples (65%) done (elapsed 64.50 s, remaining 33.63 s).
72400000 of 110000000 tuples (65%) done (elapsed 64.60 s, remaining 33.55 s).
72500000 of 110000000 tuples (65%) done (elapsed 64.70 s, remaining 33.46 s).
72600000 of 110000000 tuples (66%) done (elapsed 64.76 s, remaining 33.36 s).
72700000 of 110000000 tuples (66%) done (elapsed 64.86 s, remaining 33.28 s).
72800000 of 110000000 tuples (66%) done (elapsed 64.95 s, remaining 33.19 s).
72900000 of 110000000 tuples (66%) done (elapsed 65.05 s, remaining 33.11 s).
73000000 of 110000000 tuples (66%) done (elapsed 65.15 s, remaining 33.02 s).
73100000 of 110000000 tuples (66%) done (elapsed 65.21 s, remaining 32.92 s).
73200000 of 110000000 tuples (66%) done (elapsed 65.31 s, remaining 32.83 s).
73300000 of 110000000 tuples (66%) done (elapsed 65.41 s, remaining 32.75 s).
73400000 of 110000000 tuples (66%) done (elapsed 65.51 s, remaining 32.66 s).
73500000 of 110000000 tuples (66%) done (elapsed 65.57 s, remaining 32.56 s).
73600000 of 110000000 tuples (66%) done (elapsed 65.66 s, remaining 32.47 s).
73700000 of 110000000 tuples (67%) done (elapsed 65.76 s, remaining 32.39 s).
73800000 of 110000000 tuples (67%) done (elapsed 65.86 s, remaining 32.31 s).
73900000 of 110000000 tuples (67%) done (elapsed 65.92 s, remaining 32.20 s).
74000000 of 110000000 tuples (67%) done (elapsed 66.02 s, remaining 32.12 s).
74100000 of 110000000 tuples (67%) done (elapsed 66.12 s, remaining 32.03 s).
74200000 of 110000000 tuples (67%) done (elapsed 66.22 s, remaining 31.95 s).
74300000 of 110000000 tuples (67%) done (elapsed 66.28 s, remaining 31.85 s).
74400000 of 110000000 tuples (67%) done (elapsed 66.38 s, remaining 31.76 s).
74500000 of 110000000 tuples (67%) done (elapsed 66.48 s, remaining 31.68 s).
74600000 of 110000000 tuples (67%) done (elapsed 66.58 s, remaining 31.59 s).
74700000 of 110000000 tuples (67%) done (elapsed 66.64 s, remaining 31.49 s).
74800000 of 110000000 tuples (68%) done (elapsed 66.74 s, remaining 31.40 s).
74900000 of 110000000 tuples (68%) done (elapsed 66.83 s, remaining 31.32 s).
75000000 of 110000000 tuples (68%) done (elapsed 66.93 s, remaining 31.23 s).
75100000 of 110000000 tuples (68%) done (elapsed 66.99 s, remaining 31.13 s).
75200000 of 110000000 tuples (68%) done (elapsed 67.09 s, remaining 31.05 s).
75300000 of 110000000 tuples (68%) done (elapsed 67.19 s, remaining 30.96 s).
75400000 of 110000000 tuples (68%) done (elapsed 67.29 s, remaining 30.88 s).
75500000 of 110000000 tuples (68%) done (elapsed 67.35 s, remaining 30.77 s).
75600000 of 110000000 tuples (68%) done (elapsed 67.45 s, remaining 30.69 s).
75700000 of 110000000 tuples (68%) done (elapsed 67.55 s, remaining 30.61 s).
75800000 of 110000000 tuples (68%) done (elapsed 67.65 s, remaining 30.52 s).
75900000 of 110000000 tuples (69%) done (elapsed 67.71 s, remaining 30.42 s).
76000000 of 110000000 tuples (69%) done (elapsed 67.81 s, remaining 30.34 s).
76100000 of 110000000 tuples (69%) done (elapsed 67.91 s, remaining 30.25 s).
76200000 of 110000000 tuples (69%) done (elapsed 68.00 s, remaining 30.16 s).
76300000 of 110000000 tuples (69%) done (elapsed 68.06 s, remaining 30.06 s).
76400000 of 110000000 tuples (69%) done (elapsed 68.16 s, remaining 29.98 s).
76500000 of 110000000 tuples (69%) done (elapsed 68.26 s, remaining 29.89 s).
76600000 of 110000000 tuples (69%) done (elapsed 68.36 s, remaining 29.81 s).
76700000 of 110000000 tuples (69%) done (elapsed 68.42 s, remaining 29.71 s).
76800000 of 110000000 tuples (69%) done (elapsed 68.52 s, remaining 29.62 s).
76900000 of 110000000 tuples (69%) done (elapsed 68.62 s, remaining 29.53 s).
77000000 of 110000000 tuples (70%) done (elapsed 68.72 s, remaining 29.45 s).
77100000 of 110000000 tuples (70%) done (elapsed 68.81 s, remaining 29.36 s).
77200000 of 110000000 tuples (70%) done (elapsed 68.88 s, remaining 29.26 s).
77300000 of 110000000 tuples (70%) done (elapsed 68.97 s, remaining 29.18 s).
77400000 of 110000000 tuples (70%) done (elapsed 69.07 s, remaining 29.09 s).
77500000 of 110000000 tuples (70%) done (elapsed 69.17 s, remaining 29.01 s).
77600000 of 110000000 tuples (70%) done (elapsed 69.23 s, remaining 28.91 s).
77700000 of 110000000 tuples (70%) done (elapsed 69.33 s, remaining 28.82 s).
77800000 of 110000000 tuples (70%) done (elapsed 69.44 s, remaining 28.74 s).
77900000 of 110000000 tuples (70%) done (elapsed 69.54 s, remaining 28.65 s).
78000000 of 110000000 tuples (70%) done (elapsed 69.60 s, remaining 28.55 s).
78100000 of 110000000 tuples (71%) done (elapsed 69.69 s, remaining 28.47 s).
78200000 of 110000000 tuples (71%) done (elapsed 69.79 s, remaining 28.38 s).
78300000 of 110000000 tuples (71%) done (elapsed 69.89 s, remaining 28.30 s).
78400000 of 110000000 tuples (71%) done (elapsed 69.99 s, remaining 28.21 s).
78500000 of 110000000 tuples (71%) done (elapsed 70.05 s, remaining 28.11 s).
78600000 of 110000000 tuples (71%) done (elapsed 70.15 s, remaining 28.03 s).
78700000 of 110000000 tuples (71%) done (elapsed 70.25 s, remaining 27.94 s).
78800000 of 110000000 tuples (71%) done (elapsed 70.35 s, remaining 27.86 s).
78900000 of 110000000 tuples (71%) done (elapsed 70.45 s, remaining 27.77 s).
79000000 of 110000000 tuples (71%) done (elapsed 70.51 s, remaining 27.67 s).
79100000 of 110000000 tuples (71%) done (elapsed 70.61 s, remaining 27.58 s).
79200000 of 110000000 tuples (72%) done (elapsed 70.71 s, remaining 27.50 s).
79300000 of 110000000 tuples (72%) done (elapsed 70.81 s, remaining 27.41 s).
79400000 of 110000000 tuples (72%) done (elapsed 70.87 s, remaining 27.31 s).
79500000 of 110000000 tuples (72%) done (elapsed 70.97 s, remaining 27.23 s).
79600000 of 110000000 tuples (72%) done (elapsed 71.07 s, remaining 27.14 s).
79700000 of 110000000 tuples (72%) done (elapsed 71.17 s, remaining 27.06 s).
79800000 of 110000000 tuples (72%) done (elapsed 71.27 s, remaining 26.97 s).
79900000 of 110000000 tuples (72%) done (elapsed 71.33 s, remaining 26.87 s).
80000000 of 110000000 tuples (72%) done (elapsed 71.43 s, remaining 26.79 s).
80100000 of 110000000 tuples (72%) done (elapsed 71.53 s, remaining 26.70 s).
80200000 of 110000000 tuples (72%) done (elapsed 71.63 s, remaining 26.62 s).
80300000 of 110000000 tuples (73%) done (elapsed 71.69 s, remaining 26.52 s).
80400000 of 110000000 tuples (73%) done (elapsed 71.79 s, remaining 26.43 s).
80500000 of 110000000 tuples (73%) done (elapsed 71.89 s, remaining 26.35 s).
80600000 of 110000000 tuples (73%) done (elapsed 71.99 s, remaining 26.26 s).
80700000 of 110000000 tuples (73%) done (elapsed 72.09 s, remaining 26.17 s).
80800000 of 110000000 tuples (73%) done (elapsed 72.16 s, remaining 26.08 s).
80900000 of 110000000 tuples (73%) done (elapsed 72.26 s, remaining 25.99 s).
81000000 of 110000000 tuples (73%) done (elapsed 72.36 s, remaining 25.91 s).
81100000 of 110000000 tuples (73%) done (elapsed 72.46 s, remaining 25.82 s).
81200000 of 110000000 tuples (73%) done (elapsed 72.52 s, remaining 25.72 s).
81300000 of 110000000 tuples (73%) done (elapsed 72.62 s, remaining 25.64 s).
81400000 of 110000000 tuples (74%) done (elapsed 72.72 s, remaining 25.55 s).
81500000 of 110000000 tuples (74%) done (elapsed 72.82 s, remaining 25.46 s).
81600000 of 110000000 tuples (74%) done (elapsed 72.88 s, remaining 25.36 s).
81700000 of 110000000 tuples (74%) done (elapsed 72.98 s, remaining 25.28 s).
81800000 of 110000000 tuples (74%) done (elapsed 73.08 s, remaining 25.19 s).
81900000 of 110000000 tuples (74%) done (elapsed 73.18 s, remaining 25.11 s).
82000000 of 110000000 tuples (74%) done (elapsed 73.28 s, remaining 25.02 s).
82100000 of 110000000 tuples (74%) done (elapsed 73.34 s, remaining 24.92 s).
82200000 of 110000000 tuples (74%) done (elapsed 73.44 s, remaining 24.84 s).
82300000 of 110000000 tuples (74%) done (elapsed 73.54 s, remaining 24.75 s).
82400000 of 110000000 tuples (74%) done (elapsed 73.64 s, remaining 24.66 s).
82500000 of 110000000 tuples (75%) done (elapsed 73.70 s, remaining 24.57 s).
82600000 of 110000000 tuples (75%) done (elapsed 73.80 s, remaining 24.48 s).
82700000 of 110000000 tuples (75%) done (elapsed 73.90 s, remaining 24.39 s).
82800000 of 110000000 tuples (75%) done (elapsed 74.00 s, remaining 24.31 s).
82900000 of 110000000 tuples (75%) done (elapsed 74.10 s, remaining 24.22 s).
83000000 of 110000000 tuples (75%) done (elapsed 74.16 s, remaining 24.12 s).
83100000 of 110000000 tuples (75%) done (elapsed 74.26 s, remaining 24.04 s).
83200000 of 110000000 tuples (75%) done (elapsed 74.36 s, remaining 23.95 s).
83300000 of 110000000 tuples (75%) done (elapsed 74.46 s, remaining 23.87 s).
83400000 of 110000000 tuples (75%) done (elapsed 74.52 s, remaining 23.77 s).
83500000 of 110000000 tuples (75%) done (elapsed 74.62 s, remaining 23.68 s).
83600000 of 110000000 tuples (76%) done (elapsed 74.72 s, remaining 23.60 s).
83700000 of 110000000 tuples (76%) done (elapsed 74.82 s, remaining 23.51 s).
83800000 of 110000000 tuples (76%) done (elapsed 74.92 s, remaining 23.42 s).
83900000 of 110000000 tuples (76%) done (elapsed 74.98 s, remaining 23.33 s).
84000000 of 110000000 tuples (76%) done (elapsed 75.08 s, remaining 23.24 s).
84100000 of 110000000 tuples (76%) done (elapsed 75.18 s, remaining 23.15 s).
84200000 of 110000000 tuples (76%) done (elapsed 75.28 s, remaining 23.07 s).
84300000 of 110000000 tuples (76%) done (elapsed 75.34 s, remaining 22.97 s).
84400000 of 110000000 tuples (76%) done (elapsed 75.44 s, remaining 22.88 s).
84500000 of 110000000 tuples (76%) done (elapsed 75.54 s, remaining 22.80 s).
84600000 of 110000000 tuples (76%) done (elapsed 75.64 s, remaining 22.71 s).
84700000 of 110000000 tuples (77%) done (elapsed 75.74 s, remaining 22.62 s).
84800000 of 110000000 tuples (77%) done (elapsed 75.80 s, remaining 22.53 s).
84900000 of 110000000 tuples (77%) done (elapsed 75.90 s, remaining 22.44 s).
85000000 of 110000000 tuples (77%) done (elapsed 76.00 s, remaining 22.35 s).
85100000 of 110000000 tuples (77%) done (elapsed 76.10 s, remaining 22.27 s).
85200000 of 110000000 tuples (77%) done (elapsed 76.16 s, remaining 22.17 s).
85300000 of 110000000 tuples (77%) done (elapsed 76.26 s, remaining 22.08 s).
85400000 of 110000000 tuples (77%) done (elapsed 76.36 s, remaining 22.00 s).
85500000 of 110000000 tuples (77%) done (elapsed 76.46 s, remaining 21.91 s).
85600000 of 110000000 tuples (77%) done (elapsed 76.56 s, remaining 21.82 s).
85700000 of 110000000 tuples (77%) done (elapsed 76.62 s, remaining 21.73 s).
85800000 of 110000000 tuples (78%) done (elapsed 76.72 s, remaining 21.64 s).
85900000 of 110000000 tuples (78%) done (elapsed 76.82 s, remaining 21.55 s).
86000000 of 110000000 tuples (78%) done (elapsed 76.92 s, remaining 21.47 s).
86100000 of 110000000 tuples (78%) done (elapsed 76.98 s, remaining 21.37 s).
86200000 of 110000000 tuples (78%) done (elapsed 77.08 s, remaining 21.28 s).
86300000 of 110000000 tuples (78%) done (elapsed 77.18 s, remaining 21.20 s).
86400000 of 110000000 tuples (78%) done (elapsed 77.28 s, remaining 21.11 s).
86500000 of 110000000 tuples (78%) done (elapsed 77.38 s, remaining 21.02 s).
86600000 of 110000000 tuples (78%) done (elapsed 77.44 s, remaining 20.93 s).
86700000 of 110000000 tuples (78%) done (elapsed 77.54 s, remaining 20.84 s).
86800000 of 110000000 tuples (78%) done (elapsed 77.64 s, remaining 20.75 s).
86900000 of 110000000 tuples (79%) done (elapsed 77.74 s, remaining 20.67 s).
87000000 of 110000000 tuples (79%) done (elapsed 77.80 s, remaining 20.57 s).
87100000 of 110000000 tuples (79%) done (elapsed 77.90 s, remaining 20.48 s).
87200000 of 110000000 tuples (79%) done (elapsed 78.00 s, remaining 20.40 s).
87300000 of 110000000 tuples (79%) done (elapsed 78.10 s, remaining 20.31 s).
87400000 of 110000000 tuples (79%) done (elapsed 78.20 s, remaining 20.22 s).
87500000 of 110000000 tuples (79%) done (elapsed 78.26 s, remaining 20.13 s).
87600000 of 110000000 tuples (79%) done (elapsed 78.36 s, remaining 20.04 s).
87700000 of 110000000 tuples (79%) done (elapsed 78.46 s, remaining 19.95 s).
87800000 of 110000000 tuples (79%) done (elapsed 78.56 s, remaining 19.86 s).
87900000 of 110000000 tuples (79%) done (elapsed 78.63 s, remaining 19.77 s).
88000000 of 110000000 tuples (80%) done (elapsed 78.73 s, remaining 19.68 s).
88100000 of 110000000 tuples (80%) done (elapsed 78.83 s, remaining 19.59 s).
88200000 of 110000000 tuples (80%) done (elapsed 78.92 s, remaining 19.51 s).
88300000 of 110000000 tuples (80%) done (elapsed 79.03 s, remaining 19.42 s).
88400000 of 110000000 tuples (80%) done (elapsed 79.09 s, remaining 19.32 s).
88500000 of 110000000 tuples (80%) done (elapsed 79.18 s, remaining 19.24 s).
88600000 of 110000000 tuples (80%) done (elapsed 79.28 s, remaining 19.15 s).
88700000 of 110000000 tuples (80%) done (elapsed 79.38 s, remaining 19.06 s).
88800000 of 110000000 tuples (80%) done (elapsed 79.45 s, remaining 18.97 s).
88900000 of 110000000 tuples (80%) done (elapsed 79.54 s, remaining 18.88 s).
89000000 of 110000000 tuples (80%) done (elapsed 79.64 s, remaining 18.79 s).
89100000 of 110000000 tuples (81%) done (elapsed 79.74 s, remaining 18.71 s).
89200000 of 110000000 tuples (81%) done (elapsed 79.84 s, remaining 18.62 s).
89300000 of 110000000 tuples (81%) done (elapsed 79.90 s, remaining 18.52 s).
89400000 of 110000000 tuples (81%) done (elapsed 80.00 s, remaining 18.43 s).
89500000 of 110000000 tuples (81%) done (elapsed 80.10 s, remaining 18.35 s).
89600000 of 110000000 tuples (81%) done (elapsed 80.20 s, remaining 18.26 s).
89700000 of 110000000 tuples (81%) done (elapsed 80.26 s, remaining 18.16 s).
89800000 of 110000000 tuples (81%) done (elapsed 80.36 s, remaining 18.08 s).
89900000 of 110000000 tuples (81%) done (elapsed 80.46 s, remaining 17.99 s).
90000000 of 110000000 tuples (81%) done (elapsed 80.56 s, remaining 17.90 s).
90100000 of 110000000 tuples (81%) done (elapsed 80.66 s, remaining 17.82 s).
90200000 of 110000000 tuples (82%) done (elapsed 80.72 s, remaining 17.72 s).
90300000 of 110000000 tuples (82%) done (elapsed 80.82 s, remaining 17.63 s).
90400000 of 110000000 tuples (82%) done (elapsed 80.92 s, remaining 17.54 s).
90500000 of 110000000 tuples (82%) done (elapsed 81.02 s, remaining 17.46 s).
90600000 of 110000000 tuples (82%) done (elapsed 81.08 s, remaining 17.36 s).
90700000 of 110000000 tuples (82%) done (elapsed 81.18 s, remaining 17.27 s).
90800000 of 110000000 tuples (82%) done (elapsed 81.28 s, remaining 17.19 s).
90900000 of 110000000 tuples (82%) done (elapsed 81.38 s, remaining 17.10 s).
91000000 of 110000000 tuples (82%) done (elapsed 81.48 s, remaining 17.01 s).
91100000 of 110000000 tuples (82%) done (elapsed 81.54 s, remaining 16.92 s).
91200000 of 110000000 tuples (82%) done (elapsed 81.64 s, remaining 16.83 s).
91300000 of 110000000 tuples (83%) done (elapsed 81.74 s, remaining 16.74 s).
91400000 of 110000000 tuples (83%) done (elapsed 81.84 s, remaining 16.65 s).
91500000 of 110000000 tuples (83%) done (elapsed 81.90 s, remaining 16.56 s).
91600000 of 110000000 tuples (83%) done (elapsed 82.00 s, remaining 16.47 s).
91700000 of 110000000 tuples (83%) done (elapsed 82.10 s, remaining 16.38 s).
91800000 of 110000000 tuples (83%) done (elapsed 82.20 s, remaining 16.30 s).
91900000 of 110000000 tuples (83%) done (elapsed 82.30 s, remaining 16.21 s).
92000000 of 110000000 tuples (83%) done (elapsed 82.36 s, remaining 16.11 s).
92100000 of 110000000 tuples (83%) done (elapsed 82.46 s, remaining 16.03 s).
92200000 of 110000000 tuples (83%) done (elapsed 82.56 s, remaining 15.94 s).
92300000 of 110000000 tuples (83%) done (elapsed 82.66 s, remaining 15.85 s).
92400000 of 110000000 tuples (84%) done (elapsed 82.72 s, remaining 15.76 s).
92500000 of 110000000 tuples (84%) done (elapsed 82.82 s, remaining 15.67 s).
92600000 of 110000000 tuples (84%) done (elapsed 82.92 s, remaining 15.58 s).
92700000 of 110000000 tuples (84%) done (elapsed 83.02 s, remaining 15.49 s).
92800000 of 110000000 tuples (84%) done (elapsed 83.12 s, remaining 15.41 s).
92900000 of 110000000 tuples (84%) done (elapsed 83.18 s, remaining 15.31 s).
93000000 of 110000000 tuples (84%) done (elapsed 83.28 s, remaining 15.22 s).
93100000 of 110000000 tuples (84%) done (elapsed 83.38 s, remaining 15.13 s).
93200000 of 110000000 tuples (84%) done (elapsed 83.48 s, remaining 15.05 s).
93300000 of 110000000 tuples (84%) done (elapsed 83.57 s, remaining 14.96 s).
93400000 of 110000000 tuples (84%) done (elapsed 83.64 s, remaining 14.86 s).
93500000 of 110000000 tuples (85%) done (elapsed 83.74 s, remaining 14.78 s).
93600000 of 110000000 tuples (85%) done (elapsed 83.84 s, remaining 14.69 s).
93700000 of 110000000 tuples (85%) done (elapsed 83.93 s, remaining 14.60 s).
93800000 of 110000000 tuples (85%) done (elapsed 83.99 s, remaining 14.51 s).
93900000 of 110000000 tuples (85%) done (elapsed 84.10 s, remaining 14.42 s).
94000000 of 110000000 tuples (85%) done (elapsed 84.19 s, remaining 14.33 s).
94100000 of 110000000 tuples (85%) done (elapsed 84.29 s, remaining 14.24 s).
94200000 of 110000000 tuples (85%) done (elapsed 84.39 s, remaining 14.15 s).
94300000 of 110000000 tuples (85%) done (elapsed 84.46 s, remaining 14.06 s).
94400000 of 110000000 tuples (85%) done (elapsed 84.55 s, remaining 13.97 s).
94500000 of 110000000 tuples (85%) done (elapsed 84.65 s, remaining 13.88 s).
94600000 of 110000000 tuples (86%) done (elapsed 84.75 s, remaining 13.80 s).
94700000 of 110000000 tuples (86%) done (elapsed 84.82 s, remaining 13.70 s).
94800000 of 110000000 tuples (86%) done (elapsed 84.92 s, remaining 13.62 s).
94900000 of 110000000 tuples (86%) done (elapsed 85.01 s, remaining 13.53 s).
95000000 of 110000000 tuples (86%) done (elapsed 85.11 s, remaining 13.44 s).
95100000 of 110000000 tuples (86%) done (elapsed 85.21 s, remaining 13.35 s).
95200000 of 110000000 tuples (86%) done (elapsed 85.27 s, remaining 13.26 s).
95300000 of 110000000 tuples (86%) done (elapsed 85.37 s, remaining 13.17 s).
95400000 of 110000000 tuples (86%) done (elapsed 85.47 s, remaining 13.08 s).
95500000 of 110000000 tuples (86%) done (elapsed 85.57 s, remaining 12.99 s).
95600000 of 110000000 tuples (86%) done (elapsed 85.63 s, remaining 12.90 s).
95700000 of 110000000 tuples (87%) done (elapsed 85.73 s, remaining 12.81 s).
95800000 of 110000000 tuples (87%) done (elapsed 85.83 s, remaining 12.72 s).
95900000 of 110000000 tuples (87%) done (elapsed 85.93 s, remaining 12.63 s).
96000000 of 110000000 tuples (87%) done (elapsed 86.03 s, remaining 12.55 s).
96100000 of 110000000 tuples (87%) done (elapsed 86.09 s, remaining 12.45 s).
96200000 of 110000000 tuples (87%) done (elapsed 86.19 s, remaining 12.36 s).
96300000 of 110000000 tuples (87%) done (elapsed 86.29 s, remaining 12.28 s).
96400000 of 110000000 tuples (87%) done (elapsed 86.39 s, remaining 12.19 s).
96500000 of 110000000 tuples (87%) done (elapsed 86.45 s, remaining 12.09 s).
96600000 of 110000000 tuples (87%) done (elapsed 86.55 s, remaining 12.01 s).
96700000 of 110000000 tuples (87%) done (elapsed 86.65 s, remaining 11.92 s).
96800000 of 110000000 tuples (88%) done (elapsed 86.75 s, remaining 11.83 s).
96900000 of 110000000 tuples (88%) done (elapsed 86.85 s, remaining 11.74 s).
97000000 of 110000000 tuples (88%) done (elapsed 86.91 s, remaining 11.65 s).
97100000 of 110000000 tuples (88%) done (elapsed 87.01 s, remaining 11.56 s).
97200000 of 110000000 tuples (88%) done (elapsed 87.11 s, remaining 11.47 s).
97300000 of 110000000 tuples (88%) done (elapsed 87.21 s, remaining 11.38 s).
97400000 of 110000000 tuples (88%) done (elapsed 87.27 s, remaining 11.29 s).
97500000 of 110000000 tuples (88%) done (elapsed 87.37 s, remaining 11.20 s).
97600000 of 110000000 tuples (88%) done (elapsed 87.47 s, remaining 11.11 s).
97700000 of 110000000 tuples (88%) done (elapsed 87.57 s, remaining 11.02 s).
97800000 of 110000000 tuples (88%) done (elapsed 87.67 s, remaining 10.94 s).
97900000 of 110000000 tuples (89%) done (elapsed 87.73 s, remaining 10.84 s).
98000000 of 110000000 tuples (89%) done (elapsed 87.83 s, remaining 10.75 s).
98100000 of 110000000 tuples (89%) done (elapsed 87.93 s, remaining 10.67 s).
98200000 of 110000000 tuples (89%) done (elapsed 88.03 s, remaining 10.58 s).
98300000 of 110000000 tuples (89%) done (elapsed 88.09 s, remaining 10.48 s).
98400000 of 110000000 tuples (89%) done (elapsed 88.19 s, remaining 10.40 s).
98500000 of 110000000 tuples (89%) done (elapsed 88.29 s, remaining 10.31 s).
98600000 of 110000000 tuples (89%) done (elapsed 88.39 s, remaining 10.22 s).
98700000 of 110000000 tuples (89%) done (elapsed 88.49 s, remaining 10.13 s).
98800000 of 110000000 tuples (89%) done (elapsed 88.55 s, remaining 10.04 s).
98900000 of 110000000 tuples (89%) done (elapsed 88.65 s, remaining 9.95 s).
99000000 of 110000000 tuples (90%) done (elapsed 88.75 s, remaining 9.86 s).
99100000 of 110000000 tuples (90%) done (elapsed 88.85 s, remaining 9.77 s).
99200000 of 110000000 tuples (90%) done (elapsed 88.91 s, remaining 9.68 s).
99300000 of 110000000 tuples (90%) done (elapsed 89.01 s, remaining 9.59 s).
99400000 of 110000000 tuples (90%) done (elapsed 89.11 s, remaining 9.50 s).
99500000 of 110000000 tuples (90%) done (elapsed 89.21 s, remaining 9.41 s).
99600000 of 110000000 tuples (90%) done (elapsed 89.31 s, remaining 9.33 s).
99700000 of 110000000 tuples (90%) done (elapsed 89.37 s, remaining 9.23 s).
99800000 of 110000000 tuples (90%) done (elapsed 89.47 s, remaining 9.14 s).
99900000 of 110000000 tuples (90%) done (elapsed 89.57 s, remaining 9.06 s).
100000000 of 110000000 tuples (90%) done (elapsed 89.67 s, remaining 8.97 s).
100100000 of 110000000 tuples (91%) done (elapsed 89.77 s, remaining 8.88 s).
100200000 of 110000000 tuples (91%) done (elapsed 89.86 s, remaining 8.79 s).
100300000 of 110000000 tuples (91%) done (elapsed 89.96 s, remaining 8.70 s).
100400000 of 110000000 tuples (91%) done (elapsed 90.05 s, remaining 8.61 s).
100500000 of 110000000 tuples (91%) done (elapsed 90.15 s, remaining 8.52 s).
100600000 of 110000000 tuples (91%) done (elapsed 90.24 s, remaining 8.43 s).
100700000 of 110000000 tuples (91%) done (elapsed 90.30 s, remaining 8.34 s).
100800000 of 110000000 tuples (91%) done (elapsed 90.39 s, remaining 8.25 s).
100900000 of 110000000 tuples (91%) done (elapsed 90.49 s, remaining 8.16 s).
101000000 of 110000000 tuples (91%) done (elapsed 90.58 s, remaining 8.07 s).
101100000 of 110000000 tuples (91%) done (elapsed 90.68 s, remaining 7.98 s).
101200000 of 110000000 tuples (92%) done (elapsed 90.77 s, remaining 7.89 s).
101300000 of 110000000 tuples (92%) done (elapsed 90.87 s, remaining 7.80 s).
101400000 of 110000000 tuples (92%) done (elapsed 90.96 s, remaining 7.71 s).
101500000 of 110000000 tuples (92%) done (elapsed 91.06 s, remaining 7.63 s).
101600000 of 110000000 tuples (92%) done (elapsed 91.15 s, remaining 7.54 s).
101700000 of 110000000 tuples (92%) done (elapsed 91.25 s, remaining 7.45 s).
101800000 of 110000000 tuples (92%) done (elapsed 91.34 s, remaining 7.36 s).
101900000 of 110000000 tuples (92%) done (elapsed 91.43 s, remaining 7.27 s).
102000000 of 110000000 tuples (92%) done (elapsed 91.53 s, remaining 7.18 s).
102100000 of 110000000 tuples (92%) done (elapsed 91.62 s, remaining 7.09 s).
102200000 of 110000000 tuples (92%) done (elapsed 91.72 s, remaining 7.00 s).
102300000 of 110000000 tuples (93%) done (elapsed 91.81 s, remaining 6.91 s).
102400000 of 110000000 tuples (93%) done (elapsed 91.90 s, remaining 6.82 s).
102500000 of 110000000 tuples (93%) done (elapsed 91.96 s, remaining 6.73 s).
102600000 of 110000000 tuples (93%) done (elapsed 92.06 s, remaining 6.64 s).
102700000 of 110000000 tuples (93%) done (elapsed 92.15 s, remaining 6.55 s).
102800000 of 110000000 tuples (93%) done (elapsed 92.25 s, remaining 6.46 s).
102900000 of 110000000 tuples (93%) done (elapsed 92.34 s, remaining 6.37 s).
103000000 of 110000000 tuples (93%) done (elapsed 92.43 s, remaining 6.28 s).
103100000 of 110000000 tuples (93%) done (elapsed 92.53 s, remaining 6.19 s).
103200000 of 110000000 tuples (93%) done (elapsed 92.62 s, remaining 6.10 s).
103300000 of 110000000 tuples (93%) done (elapsed 92.72 s, remaining 6.01 s).
103400000 of 110000000 tuples (94%) done (elapsed 92.81 s, remaining 5.92 s).
103500000 of 110000000 tuples (94%) done (elapsed 92.90 s, remaining 5.83 s).
103600000 of 110000000 tuples (94%) done (elapsed 93.00 s, remaining 5.75 s).
103700000 of 110000000 tuples (94%) done (elapsed 93.09 s, remaining 5.66 s).
103800000 of 110000000 tuples (94%) done (elapsed 93.19 s, remaining 5.57 s).
103900000 of 110000000 tuples (94%) done (elapsed 93.28 s, remaining 5.48 s).
104000000 of 110000000 tuples (94%) done (elapsed 93.38 s, remaining 5.39 s).
104100000 of 110000000 tuples (94%) done (elapsed 93.47 s, remaining 5.30 s).
104200000 of 110000000 tuples (94%) done (elapsed 93.56 s, remaining 5.21 s).
104300000 of 110000000 tuples (94%) done (elapsed 93.66 s, remaining 5.12 s).
104400000 of 110000000 tuples (94%) done (elapsed 93.75 s, remaining 5.03 s).
104500000 of 110000000 tuples (95%) done (elapsed 93.81 s, remaining 4.94 s).
104600000 of 110000000 tuples (95%) done (elapsed 93.90 s, remaining 4.85 s).
104700000 of 110000000 tuples (95%) done (elapsed 94.00 s, remaining 4.76 s).
104800000 of 110000000 tuples (95%) done (elapsed 94.09 s, remaining 4.67 s).
104900000 of 110000000 tuples (95%) done (elapsed 94.19 s, remaining 4.58 s).
105000000 of 110000000 tuples (95%) done (elapsed 94.28 s, remaining 4.49 s).
105100000 of 110000000 tuples (95%) done (elapsed 94.38 s, remaining 4.40 s).
105200000 of 110000000 tuples (95%) done (elapsed 94.47 s, remaining 4.31 s).
105300000 of 110000000 tuples (95%) done (elapsed 94.56 s, remaining 4.22 s).
105400000 of 110000000 tuples (95%) done (elapsed 94.66 s, remaining 4.13 s).
105500000 of 110000000 tuples (95%) done (elapsed 94.75 s, remaining 4.04 s).
105600000 of 110000000 tuples (96%) done (elapsed 94.85 s, remaining 3.95 s).
105700000 of 110000000 tuples (96%) done (elapsed 94.94 s, remaining 3.86 s).
105800000 of 110000000 tuples (96%) done (elapsed 95.04 s, remaining 3.77 s).
105900000 of 110000000 tuples (96%) done (elapsed 95.13 s, remaining 3.68 s).
106000000 of 110000000 tuples (96%) done (elapsed 95.22 s, remaining 3.59 s).
106100000 of 110000000 tuples (96%) done (elapsed 95.32 s, remaining 3.50 s).
106200000 of 110000000 tuples (96%) done (elapsed 95.41 s, remaining 3.41 s).
106300000 of 110000000 tuples (96%) done (elapsed 95.51 s, remaining 3.32 s).
106400000 of 110000000 tuples (96%) done (elapsed 95.60 s, remaining 3.23 s).
106500000 of 110000000 tuples (96%) done (elapsed 95.70 s, remaining 3.14 s).
106600000 of 110000000 tuples (96%) done (elapsed 95.76 s, remaining 3.05 s).
106700000 of 110000000 tuples (97%) done (elapsed 95.85 s, remaining 2.96 s).
106800000 of 110000000 tuples (97%) done (elapsed 95.94 s, remaining 2.87 s).
106900000 of 110000000 tuples (97%) done (elapsed 96.04 s, remaining 2.78 s).
107000000 of 110000000 tuples (97%) done (elapsed 96.13 s, remaining 2.70 s).
107100000 of 110000000 tuples (97%) done (elapsed 96.23 s, remaining 2.61 s).
107200000 of 110000000 tuples (97%) done (elapsed 96.32 s, remaining 2.52 s).
107300000 of 110000000 tuples (97%) done (elapsed 96.41 s, remaining 2.43 s).
107400000 of 110000000 tuples (97%) done (elapsed 96.51 s, remaining 2.34 s).
107500000 of 110000000 tuples (97%) done (elapsed 96.60 s, remaining 2.25 s).
107600000 of 110000000 tuples (97%) done (elapsed 96.70 s, remaining 2.16 s).
107700000 of 110000000 tuples (97%) done (elapsed 96.79 s, remaining 2.07 s).
107800000 of 110000000 tuples (98%) done (elapsed 96.89 s, remaining 1.98 s).
107900000 of 110000000 tuples (98%) done (elapsed 96.98 s, remaining 1.89 s).
108000000 of 110000000 tuples (98%) done (elapsed 97.08 s, remaining 1.80 s).
108100000 of 110000000 tuples (98%) done (elapsed 97.17 s, remaining 1.71 s).
108200000 of 110000000 tuples (98%) done (elapsed 97.26 s, remaining 1.62 s).
108300000 of 110000000 tuples (98%) done (elapsed 97.36 s, remaining 1.53 s).
108400000 of 110000000 tuples (98%) done (elapsed 97.45 s, remaining 1.44 s).
108500000 of 110000000 tuples (98%) done (elapsed 97.51 s, remaining 1.35 s).
108600000 of 110000000 tuples (98%) done (elapsed 97.61 s, remaining 1.26 s).
108700000 of 110000000 tuples (98%) done (elapsed 97.70 s, remaining 1.17 s).
108800000 of 110000000 tuples (98%) done (elapsed 97.79 s, remaining 1.08 s).
108900000 of 110000000 tuples (99%) done (elapsed 97.89 s, remaining 0.99 s).
109000000 of 110000000 tuples (99%) done (elapsed 97.98 s, remaining 0.90 s).
109100000 of 110000000 tuples (99%) done (elapsed 98.08 s, remaining 0.81 s).
109200000 of 110000000 tuples (99%) done (elapsed 98.17 s, remaining 0.72 s).
109300000 of 110000000 tuples (99%) done (elapsed 98.27 s, remaining 0.63 s).
109400000 of 110000000 tuples (99%) done (elapsed 98.36 s, remaining 0.54 s).
109500000 of 110000000 tuples (99%) done (elapsed 98.45 s, remaining 0.45 s).
109600000 of 110000000 tuples (99%) done (elapsed 98.55 s, remaining 0.36 s).
109700000 of 110000000 tuples (99%) done (elapsed 98.64 s, remaining 0.27 s).
109800000 of 110000000 tuples (99%) done (elapsed 98.74 s, remaining 0.18 s).
109900000 of 110000000 tuples (99%) done (elapsed 98.83 s, remaining 0.09 s).
110000000 of 110000000 tuples (100%) done (elapsed 98.92 s, remaining 0.00 s).
vacuum...
set primary keys...
done.
