CHECKPOINT
transaction type: TPC-B (sort of)
scaling factor: 10
query mode: simple
number of clients: 1
number of threads: 1
duration: 1800 s
number of transactions actually processed: 1872382
latency average: 0.961 ms
tps = 1040.211771 (including connections establishing)
tps = 1040.212529 (excluding connections establishing)
