NOTICE:  table "pgbench_history" does not exist, skipping
NOTICE:  table "pgbench_tellers" does not exist, skipping
NOTICE:  table "pgbench_accounts" does not exist, skipping
NOTICE:  table "pgbench_branches" does not exist, skipping
creating tables...
100000 of 110000000 tuples (0%) done (elapsed 0.02 s, remaining 26.06 s).
200000 of 110000000 tuples (0%) done (elapsed 0.05 s, remaining 26.13 s).
300000 of 110000000 tuples (0%) done (elapsed 0.07 s, remaining 25.94 s).
400000 of 110000000 tuples (0%) done (elapsed 0.09 s, remaining 25.84 s).
500000 of 110000000 tuples (0%) done (elapsed 0.19 s, remaining 41.72 s).
600000 of 110000000 tuples (0%) done (elapsed 0.25 s, remaining 45.61 s).
700000 of 110000000 tuples (0%) done (elapsed 0.31 s, remaining 48.37 s).
800000 of 110000000 tuples (0%) done (elapsed 0.40 s, remaining 54.79 s).
900000 of 110000000 tuples (0%) done (elapsed 0.50 s, remaining 60.15 s).
1000000 of 110000000 tuples (0%) done (elapsed 0.56 s, remaining 60.65 s).
1100000 of 110000000 tuples (1%) done (elapsed 0.69 s, remaining 67.88 s).
1200000 of 110000000 tuples (1%) done (elapsed 0.74 s, remaining 67.40 s).
1300000 of 110000000 tuples (1%) done (elapsed 0.83 s, remaining 69.60 s).
1400000 of 110000000 tuples (1%) done (elapsed 0.89 s, remaining 68.91 s).
1500000 of 110000000 tuples (1%) done (elapsed 0.97 s, remaining 70.33 s).
1600000 of 110000000 tuples (1%) done (elapsed 1.06 s, remaining 71.77 s).
1700000 of 110000000 tuples (1%) done (elapsed 1.12 s, remaining 71.04 s).
1800000 of 110000000 tuples (1%) done (elapsed 1.23 s, remaining 74.09 s).
1900000 of 110000000 tuples (1%) done (elapsed 1.29 s, remaining 73.27 s).
2000000 of 110000000 tuples (1%) done (elapsed 1.38 s, remaining 74.28 s).
2100000 of 110000000 tuples (1%) done (elapsed 1.43 s, remaining 73.54 s).
2200000 of 110000000 tuples (2%) done (elapsed 1.55 s, remaining 75.73 s).
2300000 of 110000000 tuples (2%) done (elapsed 1.60 s, remaining 75.05 s).
2400000 of 110000000 tuples (2%) done (elapsed 1.69 s, remaining 75.79 s).
2500000 of 110000000 tuples (2%) done (elapsed 1.75 s, remaining 75.10 s).
2600000 of 110000000 tuples (2%) done (elapsed 1.83 s, remaining 75.61 s).
2700000 of 110000000 tuples (2%) done (elapsed 1.92 s, remaining 76.31 s).
2800000 of 110000000 tuples (2%) done (elapsed 1.98 s, remaining 75.66 s).
2900000 of 110000000 tuples (2%) done (elapsed 2.09 s, remaining 77.32 s).
3000000 of 110000000 tuples (2%) done (elapsed 2.15 s, remaining 76.65 s).
3100000 of 110000000 tuples (2%) done (elapsed 2.24 s, remaining 77.17 s).
3200000 of 110000000 tuples (2%) done (elapsed 2.29 s, remaining 76.54 s).
3300000 of 110000000 tuples (3%) done (elapsed 2.40 s, remaining 77.68 s).
3400000 of 110000000 tuples (3%) done (elapsed 2.46 s, remaining 77.11 s).
3500000 of 110000000 tuples (3%) done (elapsed 2.55 s, remaining 77.51 s).
3600000 of 110000000 tuples (3%) done (elapsed 2.60 s, remaining 76.93 s).
3700000 of 110000000 tuples (3%) done (elapsed 2.69 s, remaining 77.36 s).
3800000 of 110000000 tuples (3%) done (elapsed 2.78 s, remaining 77.72 s).
3900000 of 110000000 tuples (3%) done (elapsed 2.84 s, remaining 77.18 s).
4000000 of 110000000 tuples (3%) done (elapsed 2.96 s, remaining 78.36 s).
4100000 of 110000000 tuples (3%) done (elapsed 3.01 s, remaining 77.81 s).
4200000 of 110000000 tuples (3%) done (elapsed 3.10 s, remaining 78.09 s).
4300000 of 110000000 tuples (3%) done (elapsed 3.16 s, remaining 77.58 s).
4400000 of 110000000 tuples (4%) done (elapsed 3.28 s, remaining 78.69 s).
4500000 of 110000000 tuples (4%) done (elapsed 3.34 s, remaining 78.20 s).
4600000 of 110000000 tuples (4%) done (elapsed 3.42 s, remaining 78.43 s).
4700000 of 110000000 tuples (4%) done (elapsed 3.48 s, remaining 77.94 s).
4800000 of 110000000 tuples (4%) done (elapsed 3.56 s, remaining 78.03 s).
4900000 of 110000000 tuples (4%) done (elapsed 3.65 s, remaining 78.29 s).
5000000 of 110000000 tuples (4%) done (elapsed 3.71 s, remaining 77.82 s).
5100000 of 110000000 tuples (4%) done (elapsed 3.79 s, remaining 78.02 s).
5200000 of 110000000 tuples (4%) done (elapsed 3.87 s, remaining 78.05 s).
5300000 of 110000000 tuples (4%) done (elapsed 3.96 s, remaining 78.24 s).
5400000 of 110000000 tuples (4%) done (elapsed 4.02 s, remaining 77.80 s).
5500000 of 110000000 tuples (5%) done (elapsed 4.14 s, remaining 78.68 s).
5600000 of 110000000 tuples (5%) done (elapsed 4.20 s, remaining 78.27 s).
5700000 of 110000000 tuples (5%) done (elapsed 4.25 s, remaining 77.84 s).
5800000 of 110000000 tuples (5%) done (elapsed 4.34 s, remaining 77.99 s).
5900000 of 110000000 tuples (5%) done (elapsed 4.43 s, remaining 78.10 s).
6000000 of 110000000 tuples (5%) done (elapsed 4.52 s, remaining 78.28 s).
6100000 of 110000000 tuples (5%) done (elapsed 4.57 s, remaining 77.87 s).
6200000 of 110000000 tuples (5%) done (elapsed 4.66 s, remaining 78.01 s).
6300000 of 110000000 tuples (5%) done (elapsed 4.74 s, remaining 78.04 s).
6400000 of 110000000 tuples (5%) done (elapsed 4.83 s, remaining 78.20 s).
6500000 of 110000000 tuples (5%) done (elapsed 4.89 s, remaining 77.83 s).
6600000 of 110000000 tuples (6%) done (elapsed 4.94 s, remaining 77.45 s).
6700000 of 110000000 tuples (6%) done (elapsed 5.06 s, remaining 78.06 s).
6800000 of 110000000 tuples (6%) done (elapsed 5.12 s, remaining 77.69 s).
6900000 of 110000000 tuples (6%) done (elapsed 5.21 s, remaining 77.79 s).
7000000 of 110000000 tuples (6%) done (elapsed 5.30 s, remaining 77.92 s).
7100000 of 110000000 tuples (6%) done (elapsed 5.39 s, remaining 78.05 s).
7200000 of 110000000 tuples (6%) done (elapsed 5.44 s, remaining 77.69 s).
7300000 of 110000000 tuples (6%) done (elapsed 5.50 s, remaining 77.34 s).
7400000 of 110000000 tuples (6%) done (elapsed 5.62 s, remaining 77.93 s).
7500000 of 110000000 tuples (6%) done (elapsed 5.68 s, remaining 77.59 s).
7600000 of 110000000 tuples (6%) done (elapsed 5.76 s, remaining 77.67 s).
7700000 of 110000000 tuples (7%) done (elapsed 5.82 s, remaining 77.33 s).
7800000 of 110000000 tuples (7%) done (elapsed 5.95 s, remaining 77.91 s).
7900000 of 110000000 tuples (7%) done (elapsed 6.00 s, remaining 77.59 s).
8000000 of 110000000 tuples (7%) done (elapsed 6.09 s, remaining 77.70 s).
8100000 of 110000000 tuples (7%) done (elapsed 6.19 s, remaining 77.83 s).
8200000 of 110000000 tuples (7%) done (elapsed 6.27 s, remaining 77.89 s).
8300000 of 110000000 tuples (7%) done (elapsed 6.33 s, remaining 77.56 s).
8400000 of 110000000 tuples (7%) done (elapsed 6.38 s, remaining 77.23 s).
8500000 of 110000000 tuples (7%) done (elapsed 6.49 s, remaining 77.46 s).
8600000 of 110000000 tuples (7%) done (elapsed 6.57 s, remaining 77.51 s).
8700000 of 110000000 tuples (7%) done (elapsed 6.63 s, remaining 77.19 s).
8800000 of 110000000 tuples (8%) done (elapsed 6.69 s, remaining 76.88 s).
8900000 of 110000000 tuples (8%) done (elapsed 6.80 s, remaining 77.22 s).
9000000 of 110000000 tuples (8%) done (elapsed 6.85 s, remaining 76.91 s).
9100000 of 110000000 tuples (8%) done (elapsed 6.94 s, remaining 76.95 s).
9200000 of 110000000 tuples (8%) done (elapsed 7.03 s, remaining 77.04 s).
9300000 of 110000000 tuples (8%) done (elapsed 7.12 s, remaining 77.07 s).
9400000 of 110000000 tuples (8%) done (elapsed 7.17 s, remaining 76.78 s).
9500000 of 110000000 tuples (8%) done (elapsed 7.26 s, remaining 76.82 s).
9600000 of 110000000 tuples (8%) done (elapsed 7.34 s, remaining 76.81 s).
9700000 of 110000000 tuples (8%) done (elapsed 7.43 s, remaining 76.84 s).
9800000 of 110000000 tuples (8%) done (elapsed 7.49 s, remaining 76.55 s).
9900000 of 110000000 tuples (9%) done (elapsed 7.54 s, remaining 76.27 s).
10000000 of 110000000 tuples (9%) done (elapsed 7.66 s, remaining 76.57 s).
10100000 of 110000000 tuples (9%) done (elapsed 7.75 s, remaining 76.62 s).
10200000 of 110000000 tuples (9%) done (elapsed 7.80 s, remaining 76.34 s).
10300000 of 110000000 tuples (9%) done (elapsed 7.91 s, remaining 76.61 s).
10400000 of 110000000 tuples (9%) done (elapsed 8.00 s, remaining 76.59 s).
10500000 of 110000000 tuples (9%) done (elapsed 8.05 s, remaining 76.29 s).
10600000 of 110000000 tuples (9%) done (elapsed 8.13 s, remaining 76.27 s).
10700000 of 110000000 tuples (9%) done (elapsed 8.24 s, remaining 76.45 s).
10800000 of 110000000 tuples (9%) done (elapsed 8.29 s, remaining 76.16 s).
10900000 of 110000000 tuples (9%) done (elapsed 8.37 s, remaining 76.14 s).
11000000 of 110000000 tuples (10%) done (elapsed 8.43 s, remaining 75.91 s).
11100000 of 110000000 tuples (10%) done (elapsed 8.53 s, remaining 76.03 s).
11200000 of 110000000 tuples (10%) done (elapsed 8.62 s, remaining 76.01 s).
11300000 of 110000000 tuples (10%) done (elapsed 8.67 s, remaining 75.73 s).
11400000 of 110000000 tuples (10%) done (elapsed 8.78 s, remaining 75.93 s).
11500000 of 110000000 tuples (10%) done (elapsed 8.86 s, remaining 75.90 s).
11600000 of 110000000 tuples (10%) done (elapsed 8.91 s, remaining 75.62 s).
11700000 of 110000000 tuples (10%) done (elapsed 9.00 s, remaining 75.59 s).
11800000 of 110000000 tuples (10%) done (elapsed 9.06 s, remaining 75.43 s).
11900000 of 110000000 tuples (10%) done (elapsed 9.15 s, remaining 75.40 s).
12000000 of 110000000 tuples (10%) done (elapsed 9.20 s, remaining 75.13 s).
12100000 of 110000000 tuples (11%) done (elapsed 9.28 s, remaining 75.10 s).
12200000 of 110000000 tuples (11%) done (elapsed 9.36 s, remaining 75.07 s).
12300000 of 110000000 tuples (11%) done (elapsed 9.45 s, remaining 75.06 s).
12400000 of 110000000 tuples (11%) done (elapsed 9.53 s, remaining 75.02 s).
12500000 of 110000000 tuples (11%) done (elapsed 9.59 s, remaining 74.83 s).
12600000 of 110000000 tuples (11%) done (elapsed 9.69 s, remaining 74.89 s).
12700000 of 110000000 tuples (11%) done (elapsed 9.77 s, remaining 74.85 s).
12800000 of 110000000 tuples (11%) done (elapsed 9.82 s, remaining 74.60 s).
12900000 of 110000000 tuples (11%) done (elapsed 9.93 s, remaining 74.77 s).
13000000 of 110000000 tuples (11%) done (elapsed 10.02 s, remaining 74.75 s).
13100000 of 110000000 tuples (11%) done (elapsed 10.07 s, remaining 74.49 s).
13200000 of 110000000 tuples (12%) done (elapsed 10.18 s, remaining 74.64 s).
13300000 of 110000000 tuples (12%) done (elapsed 10.23 s, remaining 74.39 s).
13400000 of 110000000 tuples (12%) done (elapsed 10.31 s, remaining 74.35 s).
13500000 of 110000000 tuples (12%) done (elapsed 10.39 s, remaining 74.30 s).
13600000 of 110000000 tuples (12%) done (elapsed 10.48 s, remaining 74.30 s).
13700000 of 110000000 tuples (12%) done (elapsed 10.57 s, remaining 74.27 s).
13800000 of 110000000 tuples (12%) done (elapsed 10.62 s, remaining 74.03 s).
13900000 of 110000000 tuples (12%) done (elapsed 10.70 s, remaining 73.99 s).
14000000 of 110000000 tuples (12%) done (elapsed 10.81 s, remaining 74.13 s).
14100000 of 110000000 tuples (12%) done (elapsed 10.86 s, remaining 73.89 s).
14200000 of 110000000 tuples (12%) done (elapsed 10.95 s, remaining 73.85 s).
14300000 of 110000000 tuples (13%) done (elapsed 11.05 s, remaining 73.95 s).
14400000 of 110000000 tuples (13%) done (elapsed 11.10 s, remaining 73.72 s).
14500000 of 110000000 tuples (13%) done (elapsed 11.19 s, remaining 73.68 s).
14600000 of 110000000 tuples (13%) done (elapsed 11.24 s, remaining 73.44 s).
14700000 of 110000000 tuples (13%) done (elapsed 11.35 s, remaining 73.56 s).
14800000 of 110000000 tuples (13%) done (elapsed 11.40 s, remaining 73.33 s).
14900000 of 110000000 tuples (13%) done (elapsed 11.48 s, remaining 73.28 s).
15000000 of 110000000 tuples (13%) done (elapsed 11.60 s, remaining 73.44 s).
15100000 of 110000000 tuples (13%) done (elapsed 11.65 s, remaining 73.22 s).
15200000 of 110000000 tuples (13%) done (elapsed 11.73 s, remaining 73.18 s).
15300000 of 110000000 tuples (13%) done (elapsed 11.79 s, remaining 72.95 s).
15400000 of 110000000 tuples (14%) done (elapsed 11.89 s, remaining 73.06 s).
15500000 of 110000000 tuples (14%) done (elapsed 11.98 s, remaining 73.02 s).
15600000 of 110000000 tuples (14%) done (elapsed 12.03 s, remaining 72.80 s).
15700000 of 110000000 tuples (14%) done (elapsed 12.11 s, remaining 72.75 s).
15800000 of 110000000 tuples (14%) done (elapsed 12.22 s, remaining 72.85 s).
15900000 of 110000000 tuples (14%) done (elapsed 12.27 s, remaining 72.64 s).
16000000 of 110000000 tuples (14%) done (elapsed 12.36 s, remaining 72.59 s).
16100000 of 110000000 tuples (14%) done (elapsed 12.46 s, remaining 72.70 s).
16200000 of 110000000 tuples (14%) done (elapsed 12.52 s, remaining 72.48 s).
16300000 of 110000000 tuples (14%) done (elapsed 12.60 s, remaining 72.43 s).
16400000 of 110000000 tuples (14%) done (elapsed 12.65 s, remaining 72.22 s).
16500000 of 110000000 tuples (15%) done (elapsed 12.76 s, remaining 72.28 s).
16600000 of 110000000 tuples (15%) done (elapsed 12.84 s, remaining 72.25 s).
16700000 of 110000000 tuples (15%) done (elapsed 12.89 s, remaining 72.04 s).
16800000 of 110000000 tuples (15%) done (elapsed 12.98 s, remaining 71.99 s).
16900000 of 110000000 tuples (15%) done (elapsed 13.08 s, remaining 72.04 s).
17000000 of 110000000 tuples (15%) done (elapsed 13.13 s, remaining 71.83 s).
17100000 of 110000000 tuples (15%) done (elapsed 13.21 s, remaining 71.78 s).
17200000 of 110000000 tuples (15%) done (elapsed 13.31 s, remaining 71.83 s).
17300000 of 110000000 tuples (15%) done (elapsed 13.37 s, remaining 71.62 s).
17400000 of 110000000 tuples (15%) done (elapsed 13.45 s, remaining 71.57 s).
17500000 of 110000000 tuples (15%) done (elapsed 13.50 s, remaining 71.37 s).
17600000 of 110000000 tuples (16%) done (elapsed 13.61 s, remaining 71.46 s).
17700000 of 110000000 tuples (16%) done (elapsed 13.69 s, remaining 71.41 s).
17800000 of 110000000 tuples (16%) done (elapsed 13.75 s, remaining 71.21 s).
17900000 of 110000000 tuples (16%) done (elapsed 13.86 s, remaining 71.30 s).
18000000 of 110000000 tuples (16%) done (elapsed 13.94 s, remaining 71.25 s).
18100000 of 110000000 tuples (16%) done (elapsed 13.99 s, remaining 71.05 s).
18200000 of 110000000 tuples (16%) done (elapsed 14.08 s, remaining 71.00 s).
18300000 of 110000000 tuples (16%) done (elapsed 14.16 s, remaining 70.94 s).
18400000 of 110000000 tuples (16%) done (elapsed 14.24 s, remaining 70.89 s).
18500000 of 110000000 tuples (16%) done (elapsed 14.32 s, remaining 70.83 s).
18600000 of 110000000 tuples (16%) done (elapsed 14.37 s, remaining 70.64 s).
18700000 of 110000000 tuples (17%) done (elapsed 14.48 s, remaining 70.72 s).
18800000 of 110000000 tuples (17%) done (elapsed 14.54 s, remaining 70.53 s).
18900000 of 110000000 tuples (17%) done (elapsed 14.62 s, remaining 70.47 s).
19000000 of 110000000 tuples (17%) done (elapsed 14.73 s, remaining 70.53 s).
19100000 of 110000000 tuples (17%) done (elapsed 14.78 s, remaining 70.33 s).
19200000 of 110000000 tuples (17%) done (elapsed 14.86 s, remaining 70.28 s).
19300000 of 110000000 tuples (17%) done (elapsed 14.97 s, remaining 70.34 s).
19400000 of 110000000 tuples (17%) done (elapsed 15.02 s, remaining 70.16 s).
19500000 of 110000000 tuples (17%) done (elapsed 15.11 s, remaining 70.11 s).
19600000 of 110000000 tuples (17%) done (elapsed 15.16 s, remaining 69.92 s).
19700000 of 110000000 tuples (17%) done (elapsed 15.27 s, remaining 70.01 s).
19800000 of 110000000 tuples (18%) done (elapsed 15.33 s, remaining 69.83 s).
19900000 of 110000000 tuples (18%) done (elapsed 15.41 s, remaining 69.77 s).
20000000 of 110000000 tuples (18%) done (elapsed 15.49 s, remaining 69.72 s).
20100000 of 110000000 tuples (18%) done (elapsed 15.58 s, remaining 69.68 s).
20200000 of 110000000 tuples (18%) done (elapsed 15.66 s, remaining 69.62 s).
20300000 of 110000000 tuples (18%) done (elapsed 15.71 s, remaining 69.43 s).
20400000 of 110000000 tuples (18%) done (elapsed 15.80 s, remaining 69.38 s).
20500000 of 110000000 tuples (18%) done (elapsed 15.90 s, remaining 69.41 s).
20600000 of 110000000 tuples (18%) done (elapsed 15.95 s, remaining 69.24 s).
20700000 of 110000000 tuples (18%) done (elapsed 16.04 s, remaining 69.18 s).
20800000 of 110000000 tuples (18%) done (elapsed 16.15 s, remaining 69.25 s).
20900000 of 110000000 tuples (19%) done (elapsed 16.23 s, remaining 69.19 s).
21000000 of 110000000 tuples (19%) done (elapsed 16.28 s, remaining 69.01 s).
21100000 of 110000000 tuples (19%) done (elapsed 16.40 s, remaining 69.09 s).
21200000 of 110000000 tuples (19%) done (elapsed 16.45 s, remaining 68.91 s).
21300000 of 110000000 tuples (19%) done (elapsed 16.54 s, remaining 68.86 s).
21400000 of 110000000 tuples (19%) done (elapsed 16.62 s, remaining 68.80 s).
21500000 of 110000000 tuples (19%) done (elapsed 16.70 s, remaining 68.74 s).
21600000 of 110000000 tuples (19%) done (elapsed 16.78 s, remaining 68.68 s).
21700000 of 110000000 tuples (19%) done (elapsed 16.83 s, remaining 68.50 s).
21800000 of 110000000 tuples (19%) done (elapsed 16.94 s, remaining 68.54 s).
21900000 of 110000000 tuples (19%) done (elapsed 17.02 s, remaining 68.48 s).
22000000 of 110000000 tuples (20%) done (elapsed 17.08 s, remaining 68.31 s).
22100000 of 110000000 tuples (20%) done (elapsed 17.16 s, remaining 68.25 s).
22200000 of 110000000 tuples (20%) done (elapsed 17.23 s, remaining 68.16 s).
22300000 of 110000000 tuples (20%) done (elapsed 17.32 s, remaining 68.10 s).
22400000 of 110000000 tuples (20%) done (elapsed 17.40 s, remaining 68.04 s).
22500000 of 110000000 tuples (20%) done (elapsed 17.49 s, remaining 68.00 s).
22600000 of 110000000 tuples (20%) done (elapsed 17.57 s, remaining 67.94 s).
22700000 of 110000000 tuples (20%) done (elapsed 17.65 s, remaining 67.88 s).
22800000 of 110000000 tuples (20%) done (elapsed 17.70 s, remaining 67.71 s).
22900000 of 110000000 tuples (20%) done (elapsed 17.80 s, remaining 67.72 s).
23000000 of 110000000 tuples (20%) done (elapsed 17.88 s, remaining 67.65 s).
23100000 of 110000000 tuples (21%) done (elapsed 17.92 s, remaining 67.41 s).
23200000 of 110000000 tuples (21%) done (elapsed 17.95 s, remaining 67.16 s).
23300000 of 110000000 tuples (21%) done (elapsed 18.02 s, remaining 67.07 s).
23400000 of 110000000 tuples (21%) done (elapsed 18.11 s, remaining 67.03 s).
23500000 of 110000000 tuples (21%) done (elapsed 18.21 s, remaining 67.01 s).
23600000 of 110000000 tuples (21%) done (elapsed 18.26 s, remaining 66.85 s).
23700000 of 110000000 tuples (21%) done (elapsed 18.37 s, remaining 66.89 s).
23800000 of 110000000 tuples (21%) done (elapsed 18.41 s, remaining 66.69 s).
23900000 of 110000000 tuples (21%) done (elapsed 18.52 s, remaining 66.72 s).
24000000 of 110000000 tuples (21%) done (elapsed 18.57 s, remaining 66.55 s).
24100000 of 110000000 tuples (21%) done (elapsed 18.71 s, remaining 66.70 s).
24200000 of 110000000 tuples (22%) done (elapsed 18.76 s, remaining 66.51 s).
24300000 of 110000000 tuples (22%) done (elapsed 18.87 s, remaining 66.55 s).
24400000 of 110000000 tuples (22%) done (elapsed 18.94 s, remaining 66.46 s).
24500000 of 110000000 tuples (22%) done (elapsed 19.04 s, remaining 66.45 s).
24600000 of 110000000 tuples (22%) done (elapsed 19.08 s, remaining 66.22 s).
24700000 of 110000000 tuples (22%) done (elapsed 19.16 s, remaining 66.17 s).
24800000 of 110000000 tuples (22%) done (elapsed 19.26 s, remaining 66.18 s).
24900000 of 110000000 tuples (22%) done (elapsed 19.34 s, remaining 66.11 s).
25000000 of 110000000 tuples (22%) done (elapsed 19.38 s, remaining 65.90 s).
25100000 of 110000000 tuples (22%) done (elapsed 19.53 s, remaining 66.05 s).
25200000 of 110000000 tuples (22%) done (elapsed 19.61 s, remaining 65.99 s).
25300000 of 110000000 tuples (23%) done (elapsed 19.65 s, remaining 65.77 s).
25400000 of 110000000 tuples (23%) done (elapsed 19.74 s, remaining 65.74 s).
25500000 of 110000000 tuples (23%) done (elapsed 19.83 s, remaining 65.70 s).
25600000 of 110000000 tuples (23%) done (elapsed 19.92 s, remaining 65.68 s).
25700000 of 110000000 tuples (23%) done (elapsed 19.96 s, remaining 65.48 s).
25800000 of 110000000 tuples (23%) done (elapsed 20.08 s, remaining 65.54 s).
25900000 of 110000000 tuples (23%) done (elapsed 20.17 s, remaining 65.48 s).
26000000 of 110000000 tuples (23%) done (elapsed 20.20 s, remaining 65.27 s).
26100000 of 110000000 tuples (23%) done (elapsed 20.31 s, remaining 65.28 s).
26200000 of 110000000 tuples (23%) done (elapsed 20.39 s, remaining 65.21 s).
26300000 of 110000000 tuples (23%) done (elapsed 20.47 s, remaining 65.14 s).
26400000 of 110000000 tuples (24%) done (elapsed 20.58 s, remaining 65.16 s).
26500000 of 110000000 tuples (24%) done (elapsed 20.61 s, remaining 64.93 s).
26600000 of 110000000 tuples (24%) done (elapsed 20.69 s, remaining 64.87 s).
26700000 of 110000000 tuples (24%) done (elapsed 20.77 s, remaining 64.80 s).
26800000 of 110000000 tuples (24%) done (elapsed 20.87 s, remaining 64.80 s).
26900000 of 110000000 tuples (24%) done (elapsed 20.96 s, remaining 64.74 s).
27000000 of 110000000 tuples (24%) done (elapsed 21.04 s, remaining 64.67 s).
27100000 of 110000000 tuples (24%) done (elapsed 21.12 s, remaining 64.62 s).
27200000 of 110000000 tuples (24%) done (elapsed 21.20 s, remaining 64.54 s).
27300000 of 110000000 tuples (24%) done (elapsed 21.28 s, remaining 64.46 s).
27400000 of 110000000 tuples (24%) done (elapsed 21.38 s, remaining 64.45 s).
27500000 of 110000000 tuples (25%) done (elapsed 21.41 s, remaining 64.24 s).
27600000 of 110000000 tuples (25%) done (elapsed 21.49 s, remaining 64.15 s).
27700000 of 110000000 tuples (25%) done (elapsed 21.56 s, remaining 64.06 s).
27800000 of 110000000 tuples (25%) done (elapsed 21.66 s, remaining 64.04 s).
27900000 of 110000000 tuples (25%) done (elapsed 21.74 s, remaining 63.96 s).
28000000 of 110000000 tuples (25%) done (elapsed 21.81 s, remaining 63.88 s).
28100000 of 110000000 tuples (25%) done (elapsed 21.91 s, remaining 63.87 s).
28200000 of 110000000 tuples (25%) done (elapsed 21.99 s, remaining 63.78 s).
28300000 of 110000000 tuples (25%) done (elapsed 22.07 s, remaining 63.72 s).
28400000 of 110000000 tuples (25%) done (elapsed 22.18 s, remaining 63.71 s).
28500000 of 110000000 tuples (25%) done (elapsed 22.25 s, remaining 63.62 s).
28600000 of 110000000 tuples (26%) done (elapsed 22.32 s, remaining 63.53 s).
28700000 of 110000000 tuples (26%) done (elapsed 22.43 s, remaining 63.54 s).
28800000 of 110000000 tuples (26%) done (elapsed 22.50 s, remaining 63.45 s).
28900000 of 110000000 tuples (26%) done (elapsed 22.53 s, remaining 63.22 s).
29000000 of 110000000 tuples (26%) done (elapsed 22.60 s, remaining 63.13 s).
29100000 of 110000000 tuples (26%) done (elapsed 22.71 s, remaining 63.15 s).
29200000 of 110000000 tuples (26%) done (elapsed 22.79 s, remaining 63.06 s).
29300000 of 110000000 tuples (26%) done (elapsed 22.86 s, remaining 62.97 s).
29400000 of 110000000 tuples (26%) done (elapsed 22.96 s, remaining 62.94 s).
29500000 of 110000000 tuples (26%) done (elapsed 23.03 s, remaining 62.85 s).
29600000 of 110000000 tuples (26%) done (elapsed 23.11 s, remaining 62.76 s).
29700000 of 110000000 tuples (27%) done (elapsed 23.21 s, remaining 62.75 s).
29800000 of 110000000 tuples (27%) done (elapsed 23.29 s, remaining 62.68 s).
29900000 of 110000000 tuples (27%) done (elapsed 23.37 s, remaining 62.62 s).
30000000 of 110000000 tuples (27%) done (elapsed 23.40 s, remaining 62.40 s).
30100000 of 110000000 tuples (27%) done (elapsed 23.50 s, remaining 62.38 s).
30200000 of 110000000 tuples (27%) done (elapsed 23.57 s, remaining 62.29 s).
30300000 of 110000000 tuples (27%) done (elapsed 23.66 s, remaining 62.22 s).
30400000 of 110000000 tuples (27%) done (elapsed 23.74 s, remaining 62.17 s).
30500000 of 110000000 tuples (27%) done (elapsed 23.83 s, remaining 62.11 s).
30600000 of 110000000 tuples (27%) done (elapsed 23.90 s, remaining 62.02 s).
30700000 of 110000000 tuples (27%) done (elapsed 24.00 s, remaining 61.99 s).
30800000 of 110000000 tuples (28%) done (elapsed 24.07 s, remaining 61.90 s).
30900000 of 110000000 tuples (28%) done (elapsed 24.15 s, remaining 61.82 s).
31000000 of 110000000 tuples (28%) done (elapsed 24.24 s, remaining 61.78 s).
31100000 of 110000000 tuples (28%) done (elapsed 24.32 s, remaining 61.70 s).
31200000 of 110000000 tuples (28%) done (elapsed 24.39 s, remaining 61.61 s).
31300000 of 110000000 tuples (28%) done (elapsed 24.49 s, remaining 61.57 s).
31400000 of 110000000 tuples (28%) done (elapsed 24.51 s, remaining 61.36 s).
31500000 of 110000000 tuples (28%) done (elapsed 24.60 s, remaining 61.31 s).
31600000 of 110000000 tuples (28%) done (elapsed 24.68 s, remaining 61.22 s).
31700000 of 110000000 tuples (28%) done (elapsed 24.77 s, remaining 61.18 s).
31800000 of 110000000 tuples (28%) done (elapsed 24.84 s, remaining 61.09 s).
31900000 of 110000000 tuples (29%) done (elapsed 24.92 s, remaining 61.02 s).
32000000 of 110000000 tuples (29%) done (elapsed 25.02 s, remaining 60.99 s).
32100000 of 110000000 tuples (29%) done (elapsed 25.10 s, remaining 60.92 s).
32200000 of 110000000 tuples (29%) done (elapsed 25.18 s, remaining 60.83 s).
32300000 of 110000000 tuples (29%) done (elapsed 25.29 s, remaining 60.84 s).
32400000 of 110000000 tuples (29%) done (elapsed 25.36 s, remaining 60.74 s).
32500000 of 110000000 tuples (29%) done (elapsed 25.41 s, remaining 60.58 s).
32600000 of 110000000 tuples (29%) done (elapsed 25.50 s, remaining 60.55 s).
32700000 of 110000000 tuples (29%) done (elapsed 25.58 s, remaining 60.47 s).
32800000 of 110000000 tuples (29%) done (elapsed 25.65 s, remaining 60.38 s).
32900000 of 110000000 tuples (29%) done (elapsed 25.77 s, remaining 60.40 s).
33000000 of 110000000 tuples (30%) done (elapsed 25.84 s, remaining 60.30 s).
33100000 of 110000000 tuples (30%) done (elapsed 25.92 s, remaining 60.21 s).
33200000 of 110000000 tuples (30%) done (elapsed 25.95 s, remaining 60.03 s).
33300000 of 110000000 tuples (30%) done (elapsed 26.05 s, remaining 59.99 s).
33400000 of 110000000 tuples (30%) done (elapsed 26.14 s, remaining 59.94 s).
33500000 of 110000000 tuples (30%) done (elapsed 26.21 s, remaining 59.85 s).
33600000 of 110000000 tuples (30%) done (elapsed 26.31 s, remaining 59.82 s).
33700000 of 110000000 tuples (30%) done (elapsed 26.38 s, remaining 59.73 s).
33800000 of 110000000 tuples (30%) done (elapsed 26.46 s, remaining 59.66 s).
33900000 of 110000000 tuples (30%) done (elapsed 26.55 s, remaining 59.59 s).
34000000 of 110000000 tuples (30%) done (elapsed 26.62 s, remaining 59.50 s).
34100000 of 110000000 tuples (31%) done (elapsed 26.70 s, remaining 59.42 s).
34200000 of 110000000 tuples (31%) done (elapsed 26.80 s, remaining 59.40 s).
34300000 of 110000000 tuples (31%) done (elapsed 26.84 s, remaining 59.23 s).
34400000 of 110000000 tuples (31%) done (elapsed 26.91 s, remaining 59.14 s).
34500000 of 110000000 tuples (31%) done (elapsed 26.99 s, remaining 59.07 s).
34600000 of 110000000 tuples (31%) done (elapsed 27.08 s, remaining 59.02 s).
34700000 of 110000000 tuples (31%) done (elapsed 27.15 s, remaining 58.93 s).
34800000 of 110000000 tuples (31%) done (elapsed 27.24 s, remaining 58.87 s).
34900000 of 110000000 tuples (31%) done (elapsed 27.32 s, remaining 58.80 s).
35000000 of 110000000 tuples (31%) done (elapsed 27.40 s, remaining 58.71 s).
35100000 of 110000000 tuples (31%) done (elapsed 27.48 s, remaining 58.64 s).
35200000 of 110000000 tuples (32%) done (elapsed 27.57 s, remaining 58.59 s).
35300000 of 110000000 tuples (32%) done (elapsed 27.65 s, remaining 58.51 s).
35400000 of 110000000 tuples (32%) done (elapsed 27.72 s, remaining 58.42 s).
35500000 of 110000000 tuples (32%) done (elapsed 27.83 s, remaining 58.39 s).
35600000 of 110000000 tuples (32%) done (elapsed 27.90 s, remaining 58.31 s).
35700000 of 110000000 tuples (32%) done (elapsed 27.98 s, remaining 58.22 s).
35800000 of 110000000 tuples (32%) done (elapsed 28.07 s, remaining 58.19 s).
35900000 of 110000000 tuples (32%) done (elapsed 28.15 s, remaining 58.10 s).
36000000 of 110000000 tuples (32%) done (elapsed 28.18 s, remaining 57.93 s).
36100000 of 110000000 tuples (32%) done (elapsed 28.32 s, remaining 57.97 s).
36200000 of 110000000 tuples (32%) done (elapsed 28.34 s, remaining 57.78 s).
36300000 of 110000000 tuples (33%) done (elapsed 28.42 s, remaining 57.70 s).
36400000 of 110000000 tuples (33%) done (elapsed 28.49 s, remaining 57.61 s).
36500000 of 110000000 tuples (33%) done (elapsed 28.58 s, remaining 57.56 s).
36600000 of 110000000 tuples (33%) done (elapsed 28.66 s, remaining 57.48 s).
36700000 of 110000000 tuples (33%) done (elapsed 28.74 s, remaining 57.39 s).
36800000 of 110000000 tuples (33%) done (elapsed 28.83 s, remaining 57.34 s).
36900000 of 110000000 tuples (33%) done (elapsed 28.91 s, remaining 57.28 s).
37000000 of 110000000 tuples (33%) done (elapsed 28.99 s, remaining 57.19 s).
37100000 of 110000000 tuples (33%) done (elapsed 29.08 s, remaining 57.14 s).
37200000 of 110000000 tuples (33%) done (elapsed 29.15 s, remaining 57.05 s).
37300000 of 110000000 tuples (33%) done (elapsed 29.22 s, remaining 56.96 s).
37400000 of 110000000 tuples (34%) done (elapsed 29.32 s, remaining 56.91 s).
37500000 of 110000000 tuples (34%) done (elapsed 29.39 s, remaining 56.83 s).
37600000 of 110000000 tuples (34%) done (elapsed 29.47 s, remaining 56.75 s).
37700000 of 110000000 tuples (34%) done (elapsed 29.56 s, remaining 56.70 s).
37800000 of 110000000 tuples (34%) done (elapsed 29.64 s, remaining 56.61 s).
37900000 of 110000000 tuples (34%) done (elapsed 29.67 s, remaining 56.44 s).
38000000 of 110000000 tuples (34%) done (elapsed 29.75 s, remaining 56.36 s).
38100000 of 110000000 tuples (34%) done (elapsed 29.83 s, remaining 56.29 s).
38200000 of 110000000 tuples (34%) done (elapsed 29.91 s, remaining 56.21 s).
38300000 of 110000000 tuples (34%) done (elapsed 29.98 s, remaining 56.13 s).
38400000 of 110000000 tuples (34%) done (elapsed 30.08 s, remaining 56.09 s).
38500000 of 110000000 tuples (35%) done (elapsed 30.16 s, remaining 56.01 s).
38600000 of 110000000 tuples (35%) done (elapsed 30.24 s, remaining 55.94 s).
38700000 of 110000000 tuples (35%) done (elapsed 30.32 s, remaining 55.87 s).
38800000 of 110000000 tuples (35%) done (elapsed 30.40 s, remaining 55.78 s).
38900000 of 110000000 tuples (35%) done (elapsed 30.49 s, remaining 55.72 s).
39000000 of 110000000 tuples (35%) done (elapsed 30.57 s, remaining 55.66 s).
39100000 of 110000000 tuples (35%) done (elapsed 30.65 s, remaining 55.58 s).
39200000 of 110000000 tuples (35%) done (elapsed 30.72 s, remaining 55.49 s).
39300000 of 110000000 tuples (35%) done (elapsed 30.82 s, remaining 55.44 s).
39400000 of 110000000 tuples (35%) done (elapsed 30.90 s, remaining 55.36 s).
39500000 of 110000000 tuples (35%) done (elapsed 30.97 s, remaining 55.28 s).
39600000 of 110000000 tuples (36%) done (elapsed 31.08 s, remaining 55.25 s).
39700000 of 110000000 tuples (36%) done (elapsed 31.15 s, remaining 55.16 s).
39800000 of 110000000 tuples (36%) done (elapsed 31.22 s, remaining 55.07 s).
39900000 of 110000000 tuples (36%) done (elapsed 31.31 s, remaining 55.02 s).
40000000 of 110000000 tuples (36%) done (elapsed 31.39 s, remaining 54.93 s).
40100000 of 110000000 tuples (36%) done (elapsed 31.46 s, remaining 54.84 s).
40200000 of 110000000 tuples (36%) done (elapsed 31.56 s, remaining 54.80 s).
40300000 of 110000000 tuples (36%) done (elapsed 31.64 s, remaining 54.72 s).
40400000 of 110000000 tuples (36%) done (elapsed 31.71 s, remaining 54.63 s).
40500000 of 110000000 tuples (36%) done (elapsed 31.80 s, remaining 54.57 s).
40600000 of 110000000 tuples (36%) done (elapsed 31.87 s, remaining 54.48 s).
40700000 of 110000000 tuples (37%) done (elapsed 31.95 s, remaining 54.40 s).
40800000 of 110000000 tuples (37%) done (elapsed 31.97 s, remaining 54.23 s).
40900000 of 110000000 tuples (37%) done (elapsed 32.07 s, remaining 54.18 s).
41000000 of 110000000 tuples (37%) done (elapsed 32.14 s, remaining 54.09 s).
41100000 of 110000000 tuples (37%) done (elapsed 32.21 s, remaining 54.00 s).
41200000 of 110000000 tuples (37%) done (elapsed 32.31 s, remaining 53.95 s).
41300000 of 110000000 tuples (37%) done (elapsed 32.38 s, remaining 53.87 s).
41400000 of 110000000 tuples (37%) done (elapsed 32.45 s, remaining 53.78 s).
41500000 of 110000000 tuples (37%) done (elapsed 32.54 s, remaining 53.72 s).
41600000 of 110000000 tuples (37%) done (elapsed 32.62 s, remaining 53.63 s).
41700000 of 110000000 tuples (37%) done (elapsed 32.69 s, remaining 53.54 s).
41800000 of 110000000 tuples (38%) done (elapsed 32.79 s, remaining 53.50 s).
41900000 of 110000000 tuples (38%) done (elapsed 32.86 s, remaining 53.41 s).
42000000 of 110000000 tuples (38%) done (elapsed 32.93 s, remaining 53.32 s).
42100000 of 110000000 tuples (38%) done (elapsed 33.03 s, remaining 53.27 s).
42200000 of 110000000 tuples (38%) done (elapsed 33.10 s, remaining 53.18 s).
42300000 of 110000000 tuples (38%) done (elapsed 33.17 s, remaining 53.09 s).
42400000 of 110000000 tuples (38%) done (elapsed 33.27 s, remaining 53.04 s).
42500000 of 110000000 tuples (38%) done (elapsed 33.34 s, remaining 52.95 s).
42600000 of 110000000 tuples (38%) done (elapsed 33.41 s, remaining 52.87 s).
42700000 of 110000000 tuples (38%) done (elapsed 33.50 s, remaining 52.80 s).
42800000 of 110000000 tuples (38%) done (elapsed 33.57 s, remaining 52.71 s).
42900000 of 110000000 tuples (39%) done (elapsed 33.65 s, remaining 52.63 s).
43000000 of 110000000 tuples (39%) done (elapsed 33.75 s, remaining 52.58 s).
43100000 of 110000000 tuples (39%) done (elapsed 33.82 s, remaining 52.49 s).
43200000 of 110000000 tuples (39%) done (elapsed 33.89 s, remaining 52.40 s).
43300000 of 110000000 tuples (39%) done (elapsed 33.98 s, remaining 52.34 s).
43400000 of 110000000 tuples (39%) done (elapsed 34.05 s, remaining 52.26 s).
43500000 of 110000000 tuples (39%) done (elapsed 34.17 s, remaining 52.24 s).
43600000 of 110000000 tuples (39%) done (elapsed 34.24 s, remaining 52.15 s).
43700000 of 110000000 tuples (39%) done (elapsed 34.32 s, remaining 52.06 s).
43800000 of 110000000 tuples (39%) done (elapsed 34.41 s, remaining 52.01 s).
43900000 of 110000000 tuples (39%) done (elapsed 34.48 s, remaining 51.92 s).
44000000 of 110000000 tuples (40%) done (elapsed 34.56 s, remaining 51.83 s).
44100000 of 110000000 tuples (40%) done (elapsed 34.58 s, remaining 51.68 s).
44200000 of 110000000 tuples (40%) done (elapsed 34.68 s, remaining 51.63 s).
44300000 of 110000000 tuples (40%) done (elapsed 34.76 s, remaining 51.55 s).
44400000 of 110000000 tuples (40%) done (elapsed 34.83 s, remaining 51.46 s).
44500000 of 110000000 tuples (40%) done (elapsed 34.93 s, remaining 51.41 s).
44600000 of 110000000 tuples (40%) done (elapsed 35.00 s, remaining 51.32 s).
44700000 of 110000000 tuples (40%) done (elapsed 35.07 s, remaining 51.24 s).
44800000 of 110000000 tuples (40%) done (elapsed 35.17 s, remaining 51.18 s).
44900000 of 110000000 tuples (40%) done (elapsed 35.24 s, remaining 51.09 s).
45000000 of 110000000 tuples (40%) done (elapsed 35.31 s, remaining 51.01 s).
45100000 of 110000000 tuples (41%) done (elapsed 35.41 s, remaining 50.95 s).
45200000 of 110000000 tuples (41%) done (elapsed 35.48 s, remaining 50.87 s).
45300000 of 110000000 tuples (41%) done (elapsed 35.55 s, remaining 50.78 s).
45400000 of 110000000 tuples (41%) done (elapsed 35.66 s, remaining 50.75 s).
45500000 of 110000000 tuples (41%) done (elapsed 35.74 s, remaining 50.66 s).
45600000 of 110000000 tuples (41%) done (elapsed 35.81 s, remaining 50.58 s).
45700000 of 110000000 tuples (41%) done (elapsed 35.90 s, remaining 50.51 s).
45800000 of 110000000 tuples (41%) done (elapsed 35.97 s, remaining 50.42 s).
45900000 of 110000000 tuples (41%) done (elapsed 36.05 s, remaining 50.35 s).
46000000 of 110000000 tuples (41%) done (elapsed 36.14 s, remaining 50.28 s).
46100000 of 110000000 tuples (41%) done (elapsed 36.21 s, remaining 50.19 s).
46200000 of 110000000 tuples (42%) done (elapsed 36.29 s, remaining 50.11 s).
46300000 of 110000000 tuples (42%) done (elapsed 36.38 s, remaining 50.05 s).
46400000 of 110000000 tuples (42%) done (elapsed 36.45 s, remaining 49.97 s).
46500000 of 110000000 tuples (42%) done (elapsed 36.53 s, remaining 49.88 s).
46600000 of 110000000 tuples (42%) done (elapsed 36.63 s, remaining 49.84 s).
46700000 of 110000000 tuples (42%) done (elapsed 36.71 s, remaining 49.75 s).
46800000 of 110000000 tuples (42%) done (elapsed 36.78 s, remaining 49.67 s).
46900000 of 110000000 tuples (42%) done (elapsed 36.86 s, remaining 49.59 s).
47000000 of 110000000 tuples (42%) done (elapsed 36.95 s, remaining 49.54 s).
47100000 of 110000000 tuples (42%) done (elapsed 37.03 s, remaining 49.45 s).
47200000 of 110000000 tuples (42%) done (elapsed 37.11 s, remaining 49.37 s).
47300000 of 110000000 tuples (43%) done (elapsed 37.22 s, remaining 49.34 s).
47400000 of 110000000 tuples (43%) done (elapsed 37.29 s, remaining 49.25 s).
47500000 of 110000000 tuples (43%) done (elapsed 37.37 s, remaining 49.17 s).
47600000 of 110000000 tuples (43%) done (elapsed 37.44 s, remaining 49.09 s).
47700000 of 110000000 tuples (43%) done (elapsed 37.55 s, remaining 49.04 s).
47800000 of 110000000 tuples (43%) done (elapsed 37.57 s, remaining 48.89 s).
47900000 of 110000000 tuples (43%) done (elapsed 37.65 s, remaining 48.81 s).
48000000 of 110000000 tuples (43%) done (elapsed 37.72 s, remaining 48.72 s).
48100000 of 110000000 tuples (43%) done (elapsed 37.80 s, remaining 48.64 s).
48200000 of 110000000 tuples (43%) done (elapsed 37.87 s, remaining 48.56 s).
48300000 of 110000000 tuples (43%) done (elapsed 37.95 s, remaining 48.47 s).
48400000 of 110000000 tuples (44%) done (elapsed 38.02 s, remaining 48.39 s).
48500000 of 110000000 tuples (44%) done (elapsed 38.11 s, remaining 48.33 s).
48600000 of 110000000 tuples (44%) done (elapsed 38.19 s, remaining 48.24 s).
48700000 of 110000000 tuples (44%) done (elapsed 38.27 s, remaining 48.17 s).
48800000 of 110000000 tuples (44%) done (elapsed 38.34 s, remaining 48.08 s).
48900000 of 110000000 tuples (44%) done (elapsed 38.44 s, remaining 48.03 s).
49000000 of 110000000 tuples (44%) done (elapsed 38.51 s, remaining 47.95 s).
49100000 of 110000000 tuples (44%) done (elapsed 38.59 s, remaining 47.86 s).
49200000 of 110000000 tuples (44%) done (elapsed 38.69 s, remaining 47.81 s).
49300000 of 110000000 tuples (44%) done (elapsed 38.76 s, remaining 47.72 s).
49400000 of 110000000 tuples (44%) done (elapsed 38.83 s, remaining 47.63 s).
49500000 of 110000000 tuples (45%) done (elapsed 38.90 s, remaining 47.55 s).
49600000 of 110000000 tuples (45%) done (elapsed 39.00 s, remaining 47.50 s).
49700000 of 110000000 tuples (45%) done (elapsed 39.03 s, remaining 47.36 s).
49800000 of 110000000 tuples (45%) done (elapsed 39.10 s, remaining 47.27 s).
49900000 of 110000000 tuples (45%) done (elapsed 39.18 s, remaining 47.19 s).
50000000 of 110000000 tuples (45%) done (elapsed 39.32 s, remaining 47.19 s).
50100000 of 110000000 tuples (45%) done (elapsed 39.40 s, remaining 47.10 s).
50200000 of 110000000 tuples (45%) done (elapsed 39.47 s, remaining 47.02 s).
50300000 of 110000000 tuples (45%) done (elapsed 39.49 s, remaining 46.87 s).
50400000 of 110000000 tuples (45%) done (elapsed 39.59 s, remaining 46.82 s).
50500000 of 110000000 tuples (45%) done (elapsed 39.67 s, remaining 46.74 s).
50600000 of 110000000 tuples (46%) done (elapsed 39.74 s, remaining 46.65 s).
50700000 of 110000000 tuples (46%) done (elapsed 39.81 s, remaining 46.57 s).
50800000 of 110000000 tuples (46%) done (elapsed 39.92 s, remaining 46.52 s).
50900000 of 110000000 tuples (46%) done (elapsed 40.00 s, remaining 46.44 s).
51000000 of 110000000 tuples (46%) done (elapsed 40.07 s, remaining 46.35 s).
51100000 of 110000000 tuples (46%) done (elapsed 40.14 s, remaining 46.27 s).
51200000 of 110000000 tuples (46%) done (elapsed 40.23 s, remaining 46.20 s).
51300000 of 110000000 tuples (46%) done (elapsed 40.30 s, remaining 46.11 s).
51400000 of 110000000 tuples (46%) done (elapsed 40.37 s, remaining 46.03 s).
51500000 of 110000000 tuples (46%) done (elapsed 40.47 s, remaining 45.98 s).
51600000 of 110000000 tuples (46%) done (elapsed 40.55 s, remaining 45.89 s).
51700000 of 110000000 tuples (47%) done (elapsed 40.62 s, remaining 45.80 s).
51800000 of 110000000 tuples (47%) done (elapsed 40.69 s, remaining 45.72 s).
51900000 of 110000000 tuples (47%) done (elapsed 40.81 s, remaining 45.68 s).
52000000 of 110000000 tuples (47%) done (elapsed 40.88 s, remaining 45.60 s).
52100000 of 110000000 tuples (47%) done (elapsed 40.95 s, remaining 45.51 s).
52200000 of 110000000 tuples (47%) done (elapsed 41.05 s, remaining 45.46 s).
52300000 of 110000000 tuples (47%) done (elapsed 41.13 s, remaining 45.37 s).
52400000 of 110000000 tuples (47%) done (elapsed 41.20 s, remaining 45.29 s).
52500000 of 110000000 tuples (47%) done (elapsed 41.27 s, remaining 45.20 s).
52600000 of 110000000 tuples (47%) done (elapsed 41.37 s, remaining 45.15 s).
52700000 of 110000000 tuples (47%) done (elapsed 41.40 s, remaining 45.01 s).
52800000 of 110000000 tuples (48%) done (elapsed 41.47 s, remaining 44.92 s).
52900000 of 110000000 tuples (48%) done (elapsed 41.54 s, remaining 44.84 s).
53000000 of 110000000 tuples (48%) done (elapsed 41.64 s, remaining 44.78 s).
53100000 of 110000000 tuples (48%) done (elapsed 41.71 s, remaining 44.70 s).
53200000 of 110000000 tuples (48%) done (elapsed 41.79 s, remaining 44.61 s).
53300000 of 110000000 tuples (48%) done (elapsed 41.86 s, remaining 44.53 s).
53400000 of 110000000 tuples (48%) done (elapsed 41.97 s, remaining 44.48 s).
53500000 of 110000000 tuples (48%) done (elapsed 42.04 s, remaining 44.40 s).
53600000 of 110000000 tuples (48%) done (elapsed 42.12 s, remaining 44.32 s).
53700000 of 110000000 tuples (48%) done (elapsed 42.22 s, remaining 44.26 s).
53800000 of 110000000 tuples (48%) done (elapsed 42.29 s, remaining 44.18 s).
53900000 of 110000000 tuples (49%) done (elapsed 42.36 s, remaining 44.09 s).
54000000 of 110000000 tuples (49%) done (elapsed 42.44 s, remaining 44.01 s).
54100000 of 110000000 tuples (49%) done (elapsed 42.54 s, remaining 43.96 s).
54200000 of 110000000 tuples (49%) done (elapsed 42.62 s, remaining 43.88 s).
54300000 of 110000000 tuples (49%) done (elapsed 42.69 s, remaining 43.79 s).
54400000 of 110000000 tuples (49%) done (elapsed 42.72 s, remaining 43.66 s).
54500000 of 110000000 tuples (49%) done (elapsed 42.82 s, remaining 43.60 s).
54600000 of 110000000 tuples (49%) done (elapsed 42.89 s, remaining 43.52 s).
54700000 of 110000000 tuples (49%) done (elapsed 42.96 s, remaining 43.44 s).
54800000 of 110000000 tuples (49%) done (elapsed 43.04 s, remaining 43.35 s).
54900000 of 110000000 tuples (49%) done (elapsed 43.14 s, remaining 43.30 s).
55000000 of 110000000 tuples (50%) done (elapsed 43.21 s, remaining 43.21 s).
55100000 of 110000000 tuples (50%) done (elapsed 43.29 s, remaining 43.13 s).
55200000 of 110000000 tuples (50%) done (elapsed 43.40 s, remaining 43.08 s).
55300000 of 110000000 tuples (50%) done (elapsed 43.47 s, remaining 43.00 s).
55400000 of 110000000 tuples (50%) done (elapsed 43.54 s, remaining 42.91 s).
55500000 of 110000000 tuples (50%) done (elapsed 43.61 s, remaining 42.83 s).
55600000 of 110000000 tuples (50%) done (elapsed 43.71 s, remaining 42.77 s).
55700000 of 110000000 tuples (50%) done (elapsed 43.79 s, remaining 42.69 s).
55800000 of 110000000 tuples (50%) done (elapsed 43.86 s, remaining 42.60 s).
55900000 of 110000000 tuples (50%) done (elapsed 43.96 s, remaining 42.54 s).
56000000 of 110000000 tuples (50%) done (elapsed 44.03 s, remaining 42.46 s).
56100000 of 110000000 tuples (51%) done (elapsed 44.11 s, remaining 42.38 s).
56200000 of 110000000 tuples (51%) done (elapsed 44.18 s, remaining 42.30 s).
56300000 of 110000000 tuples (51%) done (elapsed 44.29 s, remaining 42.24 s).
56400000 of 110000000 tuples (51%) done (elapsed 44.32 s, remaining 42.12 s).
56500000 of 110000000 tuples (51%) done (elapsed 44.39 s, remaining 42.03 s).
56600000 of 110000000 tuples (51%) done (elapsed 44.46 s, remaining 41.95 s).
56700000 of 110000000 tuples (51%) done (elapsed 44.56 s, remaining 41.89 s).
56800000 of 110000000 tuples (51%) done (elapsed 44.64 s, remaining 41.81 s).
56900000 of 110000000 tuples (51%) done (elapsed 44.71 s, remaining 41.72 s).
57000000 of 110000000 tuples (51%) done (elapsed 44.79 s, remaining 41.64 s).
57100000 of 110000000 tuples (51%) done (elapsed 44.88 s, remaining 41.58 s).
57200000 of 110000000 tuples (52%) done (elapsed 44.95 s, remaining 41.50 s).
57300000 of 110000000 tuples (52%) done (elapsed 45.03 s, remaining 41.41 s).
57400000 of 110000000 tuples (52%) done (elapsed 45.13 s, remaining 41.36 s).
57500000 of 110000000 tuples (52%) done (elapsed 45.21 s, remaining 41.28 s).
57600000 of 110000000 tuples (52%) done (elapsed 45.29 s, remaining 41.20 s).
57700000 of 110000000 tuples (52%) done (elapsed 45.32 s, remaining 41.07 s).
57800000 of 110000000 tuples (52%) done (elapsed 45.41 s, remaining 41.01 s).
57900000 of 110000000 tuples (52%) done (elapsed 45.49 s, remaining 40.93 s).
58000000 of 110000000 tuples (52%) done (elapsed 45.56 s, remaining 40.85 s).
58100000 of 110000000 tuples (52%) done (elapsed 45.64 s, remaining 40.77 s).
58200000 of 110000000 tuples (52%) done (elapsed 45.73 s, remaining 40.70 s).
58300000 of 110000000 tuples (53%) done (elapsed 45.80 s, remaining 40.62 s).
58400000 of 110000000 tuples (53%) done (elapsed 45.88 s, remaining 40.54 s).
58500000 of 110000000 tuples (53%) done (elapsed 45.98 s, remaining 40.48 s).
58600000 of 110000000 tuples (53%) done (elapsed 46.05 s, remaining 40.40 s).
58700000 of 110000000 tuples (53%) done (elapsed 46.13 s, remaining 40.31 s).
58800000 of 110000000 tuples (53%) done (elapsed 46.20 s, remaining 40.23 s).
58900000 of 110000000 tuples (53%) done (elapsed 46.30 s, remaining 40.17 s).
59000000 of 110000000 tuples (53%) done (elapsed 46.37 s, remaining 40.08 s).
59100000 of 110000000 tuples (53%) done (elapsed 46.44 s, remaining 40.00 s).
59200000 of 110000000 tuples (53%) done (elapsed 46.54 s, remaining 39.94 s).
59300000 of 110000000 tuples (53%) done (elapsed 46.61 s, remaining 39.85 s).
59400000 of 110000000 tuples (54%) done (elapsed 46.69 s, remaining 39.77 s).
59500000 of 110000000 tuples (54%) done (elapsed 46.76 s, remaining 39.69 s).
59600000 of 110000000 tuples (54%) done (elapsed 46.85 s, remaining 39.62 s).
59700000 of 110000000 tuples (54%) done (elapsed 46.93 s, remaining 39.54 s).
59800000 of 110000000 tuples (54%) done (elapsed 47.00 s, remaining 39.45 s).
59900000 of 110000000 tuples (54%) done (elapsed 47.10 s, remaining 39.40 s).
60000000 of 110000000 tuples (54%) done (elapsed 47.17 s, remaining 39.31 s).
60100000 of 110000000 tuples (54%) done (elapsed 47.25 s, remaining 39.23 s).
60200000 of 110000000 tuples (54%) done (elapsed 47.32 s, remaining 39.14 s).
60300000 of 110000000 tuples (54%) done (elapsed 47.42 s, remaining 39.08 s).
60400000 of 110000000 tuples (54%) done (elapsed 47.49 s, remaining 39.00 s).
60500000 of 110000000 tuples (55%) done (elapsed 47.56 s, remaining 38.91 s).
60600000 of 110000000 tuples (55%) done (elapsed 47.66 s, remaining 38.85 s).
60700000 of 110000000 tuples (55%) done (elapsed 47.68 s, remaining 38.73 s).
60800000 of 110000000 tuples (55%) done (elapsed 47.76 s, remaining 38.64 s).
60900000 of 110000000 tuples (55%) done (elapsed 47.83 s, remaining 38.56 s).
61000000 of 110000000 tuples (55%) done (elapsed 47.90 s, remaining 38.48 s).
61100000 of 110000000 tuples (55%) done (elapsed 47.99 s, remaining 38.41 s).
61200000 of 110000000 tuples (55%) done (elapsed 48.06 s, remaining 38.32 s).
61300000 of 110000000 tuples (55%) done (elapsed 48.13 s, remaining 38.24 s).
61400000 of 110000000 tuples (55%) done (elapsed 48.23 s, remaining 38.18 s).
61500000 of 110000000 tuples (55%) done (elapsed 48.30 s, remaining 38.09 s).
61600000 of 110000000 tuples (56%) done (elapsed 48.38 s, remaining 38.01 s).
61700000 of 110000000 tuples (56%) done (elapsed 48.45 s, remaining 37.93 s).
61800000 of 110000000 tuples (56%) done (elapsed 48.55 s, remaining 37.86 s).
61900000 of 110000000 tuples (56%) done (elapsed 48.62 s, remaining 37.78 s).
62000000 of 110000000 tuples (56%) done (elapsed 48.69 s, remaining 37.70 s).
62100000 of 110000000 tuples (56%) done (elapsed 48.81 s, remaining 37.65 s).
62200000 of 110000000 tuples (56%) done (elapsed 48.88 s, remaining 37.56 s).
62300000 of 110000000 tuples (56%) done (elapsed 48.95 s, remaining 37.48 s).
62400000 of 110000000 tuples (56%) done (elapsed 49.03 s, remaining 37.40 s).
62500000 of 110000000 tuples (56%) done (elapsed 49.12 s, remaining 37.33 s).
62600000 of 110000000 tuples (56%) done (elapsed 49.19 s, remaining 37.25 s).
62700000 of 110000000 tuples (57%) done (elapsed 49.26 s, remaining 37.16 s).
62800000 of 110000000 tuples (57%) done (elapsed 49.37 s, remaining 37.10 s).
62900000 of 110000000 tuples (57%) done (elapsed 49.46 s, remaining 37.03 s).
63000000 of 110000000 tuples (57%) done (elapsed 49.49 s, remaining 36.92 s).
63100000 of 110000000 tuples (57%) done (elapsed 49.57 s, remaining 36.85 s).
63200000 of 110000000 tuples (57%) done (elapsed 49.68 s, remaining 36.79 s).
63300000 of 110000000 tuples (57%) done (elapsed 49.75 s, remaining 36.70 s).
63400000 of 110000000 tuples (57%) done (elapsed 49.82 s, remaining 36.62 s).
63500000 of 110000000 tuples (57%) done (elapsed 49.92 s, remaining 36.55 s).
63600000 of 110000000 tuples (57%) done (elapsed 49.99 s, remaining 36.47 s).
63700000 of 110000000 tuples (57%) done (elapsed 50.06 s, remaining 36.39 s).
63800000 of 110000000 tuples (58%) done (elapsed 50.14 s, remaining 36.31 s).
63900000 of 110000000 tuples (58%) done (elapsed 50.24 s, remaining 36.25 s).
64000000 of 110000000 tuples (58%) done (elapsed 50.33 s, remaining 36.17 s).
64100000 of 110000000 tuples (58%) done (elapsed 50.40 s, remaining 36.09 s).
64200000 of 110000000 tuples (58%) done (elapsed 50.50 s, remaining 36.02 s).
64300000 of 110000000 tuples (58%) done (elapsed 50.57 s, remaining 35.94 s).
64400000 of 110000000 tuples (58%) done (elapsed 50.64 s, remaining 35.86 s).
64500000 of 110000000 tuples (58%) done (elapsed 50.67 s, remaining 35.74 s).
64600000 of 110000000 tuples (58%) done (elapsed 50.80 s, remaining 35.70 s).
64700000 of 110000000 tuples (58%) done (elapsed 50.87 s, remaining 35.62 s).
64800000 of 110000000 tuples (58%) done (elapsed 50.92 s, remaining 35.52 s).
64900000 of 110000000 tuples (59%) done (elapsed 51.01 s, remaining 35.45 s).
65000000 of 110000000 tuples (59%) done (elapsed 51.10 s, remaining 35.37 s).
65100000 of 110000000 tuples (59%) done (elapsed 51.17 s, remaining 35.29 s).
65200000 of 110000000 tuples (59%) done (elapsed 51.24 s, remaining 35.21 s).
65300000 of 110000000 tuples (59%) done (elapsed 51.34 s, remaining 35.14 s).
65400000 of 110000000 tuples (59%) done (elapsed 51.41 s, remaining 35.06 s).
65500000 of 110000000 tuples (59%) done (elapsed 51.48 s, remaining 34.98 s).
65600000 of 110000000 tuples (59%) done (elapsed 51.56 s, remaining 34.89 s).
65700000 of 110000000 tuples (59%) done (elapsed 51.65 s, remaining 34.82 s).
65800000 of 110000000 tuples (59%) done (elapsed 51.72 s, remaining 34.74 s).
65900000 of 110000000 tuples (59%) done (elapsed 51.79 s, remaining 34.66 s).
66000000 of 110000000 tuples (60%) done (elapsed 51.89 s, remaining 34.59 s).
66100000 of 110000000 tuples (60%) done (elapsed 51.97 s, remaining 34.51 s).
66200000 of 110000000 tuples (60%) done (elapsed 52.04 s, remaining 34.43 s).
66300000 of 110000000 tuples (60%) done (elapsed 52.14 s, remaining 34.37 s).
66400000 of 110000000 tuples (60%) done (elapsed 52.21 s, remaining 34.28 s).
66500000 of 110000000 tuples (60%) done (elapsed 52.29 s, remaining 34.20 s).
66600000 of 110000000 tuples (60%) done (elapsed 52.36 s, remaining 34.12 s).
66700000 of 110000000 tuples (60%) done (elapsed 52.46 s, remaining 34.06 s).
66800000 of 110000000 tuples (60%) done (elapsed 52.54 s, remaining 33.98 s).
66900000 of 110000000 tuples (60%) done (elapsed 52.61 s, remaining 33.89 s).
67000000 of 110000000 tuples (60%) done (elapsed 52.71 s, remaining 33.83 s).
67100000 of 110000000 tuples (61%) done (elapsed 52.74 s, remaining 33.72 s).
67200000 of 110000000 tuples (61%) done (elapsed 52.81 s, remaining 33.64 s).
67300000 of 110000000 tuples (61%) done (elapsed 52.88 s, remaining 33.55 s).
67400000 of 110000000 tuples (61%) done (elapsed 52.98 s, remaining 33.49 s).
67500000 of 110000000 tuples (61%) done (elapsed 53.06 s, remaining 33.41 s).
67600000 of 110000000 tuples (61%) done (elapsed 53.13 s, remaining 33.32 s).
67700000 of 110000000 tuples (61%) done (elapsed 53.20 s, remaining 33.24 s).
67800000 of 110000000 tuples (61%) done (elapsed 53.30 s, remaining 33.17 s).
67900000 of 110000000 tuples (61%) done (elapsed 53.37 s, remaining 33.09 s).
68000000 of 110000000 tuples (61%) done (elapsed 53.45 s, remaining 33.01 s).
68100000 of 110000000 tuples (61%) done (elapsed 53.55 s, remaining 32.95 s).
68200000 of 110000000 tuples (62%) done (elapsed 53.62 s, remaining 32.86 s).
68300000 of 110000000 tuples (62%) done (elapsed 53.69 s, remaining 32.78 s).
68400000 of 110000000 tuples (62%) done (elapsed 53.79 s, remaining 32.72 s).
68500000 of 110000000 tuples (62%) done (elapsed 53.87 s, remaining 32.63 s).
68600000 of 110000000 tuples (62%) done (elapsed 53.94 s, remaining 32.55 s).
68700000 of 110000000 tuples (62%) done (elapsed 54.04 s, remaining 32.49 s).
68800000 of 110000000 tuples (62%) done (elapsed 54.12 s, remaining 32.41 s).
68900000 of 110000000 tuples (62%) done (elapsed 54.19 s, remaining 32.32 s).
69000000 of 110000000 tuples (62%) done (elapsed 54.21 s, remaining 32.21 s).
69100000 of 110000000 tuples (62%) done (elapsed 54.29 s, remaining 32.13 s).
69200000 of 110000000 tuples (62%) done (elapsed 54.38 s, remaining 32.06 s).
69300000 of 110000000 tuples (63%) done (elapsed 54.45 s, remaining 31.98 s).
69400000 of 110000000 tuples (63%) done (elapsed 54.53 s, remaining 31.90 s).
69500000 of 110000000 tuples (63%) done (elapsed 54.64 s, remaining 31.84 s).
69600000 of 110000000 tuples (63%) done (elapsed 54.72 s, remaining 31.76 s).
69700000 of 110000000 tuples (63%) done (elapsed 54.79 s, remaining 31.68 s).
69800000 of 110000000 tuples (63%) done (elapsed 54.89 s, remaining 31.61 s).
69900000 of 110000000 tuples (63%) done (elapsed 54.96 s, remaining 31.53 s).
70000000 of 110000000 tuples (63%) done (elapsed 55.04 s, remaining 31.45 s).
70100000 of 110000000 tuples (63%) done (elapsed 55.12 s, remaining 31.37 s).
70200000 of 110000000 tuples (63%) done (elapsed 55.19 s, remaining 31.29 s).
70300000 of 110000000 tuples (63%) done (elapsed 55.27 s, remaining 31.21 s).
70400000 of 110000000 tuples (64%) done (elapsed 55.34 s, remaining 31.13 s).
70500000 of 110000000 tuples (64%) done (elapsed 55.44 s, remaining 31.06 s).
70600000 of 110000000 tuples (64%) done (elapsed 55.52 s, remaining 30.98 s).
70700000 of 110000000 tuples (64%) done (elapsed 55.59 s, remaining 30.90 s).
70800000 of 110000000 tuples (64%) done (elapsed 55.68 s, remaining 30.83 s).
70900000 of 110000000 tuples (64%) done (elapsed 55.76 s, remaining 30.75 s).
71000000 of 110000000 tuples (64%) done (elapsed 55.83 s, remaining 30.67 s).
71100000 of 110000000 tuples (64%) done (elapsed 55.91 s, remaining 30.59 s).
71200000 of 110000000 tuples (64%) done (elapsed 56.01 s, remaining 30.52 s).
71300000 of 110000000 tuples (64%) done (elapsed 56.08 s, remaining 30.44 s).
71400000 of 110000000 tuples (64%) done (elapsed 56.15 s, remaining 30.36 s).
71500000 of 110000000 tuples (65%) done (elapsed 56.20 s, remaining 30.26 s).
71600000 of 110000000 tuples (65%) done (elapsed 56.29 s, remaining 30.19 s).
71700000 of 110000000 tuples (65%) done (elapsed 56.37 s, remaining 30.11 s).
71800000 of 110000000 tuples (65%) done (elapsed 56.45 s, remaining 30.03 s).
71900000 of 110000000 tuples (65%) done (elapsed 56.54 s, remaining 29.96 s).
72000000 of 110000000 tuples (65%) done (elapsed 56.62 s, remaining 29.88 s).
72100000 of 110000000 tuples (65%) done (elapsed 56.69 s, remaining 29.80 s).
72200000 of 110000000 tuples (65%) done (elapsed 56.79 s, remaining 29.73 s).
72300000 of 110000000 tuples (65%) done (elapsed 56.86 s, remaining 29.65 s).
72400000 of 110000000 tuples (65%) done (elapsed 56.94 s, remaining 29.57 s).
72500000 of 110000000 tuples (65%) done (elapsed 57.01 s, remaining 29.49 s).
72600000 of 110000000 tuples (66%) done (elapsed 57.09 s, remaining 29.41 s).
72700000 of 110000000 tuples (66%) done (elapsed 57.16 s, remaining 29.33 s).
72800000 of 110000000 tuples (66%) done (elapsed 57.24 s, remaining 29.25 s).
72900000 of 110000000 tuples (66%) done (elapsed 57.35 s, remaining 29.19 s).
73000000 of 110000000 tuples (66%) done (elapsed 57.43 s, remaining 29.11 s).
73100000 of 110000000 tuples (66%) done (elapsed 57.46 s, remaining 29.00 s).
73200000 of 110000000 tuples (66%) done (elapsed 57.53 s, remaining 28.92 s).
73300000 of 110000000 tuples (66%) done (elapsed 57.62 s, remaining 28.85 s).
73400000 of 110000000 tuples (66%) done (elapsed 57.70 s, remaining 28.77 s).
73500000 of 110000000 tuples (66%) done (elapsed 57.77 s, remaining 28.69 s).
73600000 of 110000000 tuples (66%) done (elapsed 57.90 s, remaining 28.63 s).
73700000 of 110000000 tuples (67%) done (elapsed 57.98 s, remaining 28.56 s).
73800000 of 110000000 tuples (67%) done (elapsed 58.05 s, remaining 28.47 s).
73900000 of 110000000 tuples (67%) done (elapsed 58.14 s, remaining 28.40 s).
74000000 of 110000000 tuples (67%) done (elapsed 58.17 s, remaining 28.30 s).
74100000 of 110000000 tuples (67%) done (elapsed 58.24 s, remaining 28.22 s).
74200000 of 110000000 tuples (67%) done (elapsed 58.32 s, remaining 28.14 s).
74300000 of 110000000 tuples (67%) done (elapsed 58.41 s, remaining 28.07 s).
74400000 of 110000000 tuples (67%) done (elapsed 58.48 s, remaining 27.98 s).
74500000 of 110000000 tuples (67%) done (elapsed 58.56 s, remaining 27.90 s).
74600000 of 110000000 tuples (67%) done (elapsed 58.68 s, remaining 27.85 s).
74700000 of 110000000 tuples (67%) done (elapsed 58.75 s, remaining 27.76 s).
74800000 of 110000000 tuples (68%) done (elapsed 58.83 s, remaining 27.68 s).
74900000 of 110000000 tuples (68%) done (elapsed 58.92 s, remaining 27.61 s).
75000000 of 110000000 tuples (68%) done (elapsed 58.99 s, remaining 27.53 s).
75100000 of 110000000 tuples (68%) done (elapsed 59.02 s, remaining 27.43 s).
75200000 of 110000000 tuples (68%) done (elapsed 59.09 s, remaining 27.35 s).
75300000 of 110000000 tuples (68%) done (elapsed 59.19 s, remaining 27.27 s).
75400000 of 110000000 tuples (68%) done (elapsed 59.26 s, remaining 27.19 s).
75500000 of 110000000 tuples (68%) done (elapsed 59.33 s, remaining 27.11 s).
75600000 of 110000000 tuples (68%) done (elapsed 59.46 s, remaining 27.06 s).
75700000 of 110000000 tuples (68%) done (elapsed 59.53 s, remaining 26.97 s).
75800000 of 110000000 tuples (68%) done (elapsed 59.61 s, remaining 26.89 s).
75900000 of 110000000 tuples (69%) done (elapsed 59.70 s, remaining 26.82 s).
76000000 of 110000000 tuples (69%) done (elapsed 59.78 s, remaining 26.74 s).
76100000 of 110000000 tuples (69%) done (elapsed 59.85 s, remaining 26.66 s).
76200000 of 110000000 tuples (69%) done (elapsed 59.95 s, remaining 26.59 s).
76300000 of 110000000 tuples (69%) done (elapsed 59.98 s, remaining 26.49 s).
76400000 of 110000000 tuples (69%) done (elapsed 60.05 s, remaining 26.41 s).
76500000 of 110000000 tuples (69%) done (elapsed 60.12 s, remaining 26.33 s).
76600000 of 110000000 tuples (69%) done (elapsed 60.25 s, remaining 26.27 s).
76700000 of 110000000 tuples (69%) done (elapsed 60.32 s, remaining 26.19 s).
76800000 of 110000000 tuples (69%) done (elapsed 60.35 s, remaining 26.09 s).
76900000 of 110000000 tuples (69%) done (elapsed 60.42 s, remaining 26.01 s).
77000000 of 110000000 tuples (70%) done (elapsed 60.52 s, remaining 25.94 s).
77100000 of 110000000 tuples (70%) done (elapsed 60.59 s, remaining 25.86 s).
77200000 of 110000000 tuples (70%) done (elapsed 60.67 s, remaining 25.78 s).
77300000 of 110000000 tuples (70%) done (elapsed 60.76 s, remaining 25.70 s).
77400000 of 110000000 tuples (70%) done (elapsed 60.83 s, remaining 25.62 s).
77500000 of 110000000 tuples (70%) done (elapsed 60.90 s, remaining 25.54 s).
77600000 of 110000000 tuples (70%) done (elapsed 61.00 s, remaining 25.47 s).
77700000 of 110000000 tuples (70%) done (elapsed 61.07 s, remaining 25.39 s).
77800000 of 110000000 tuples (70%) done (elapsed 61.14 s, remaining 25.31 s).
77900000 of 110000000 tuples (70%) done (elapsed 61.22 s, remaining 25.23 s).
78000000 of 110000000 tuples (70%) done (elapsed 61.31 s, remaining 25.15 s).
78100000 of 110000000 tuples (71%) done (elapsed 61.38 s, remaining 25.07 s).
78200000 of 110000000 tuples (71%) done (elapsed 61.45 s, remaining 24.99 s).
78300000 of 110000000 tuples (71%) done (elapsed 61.55 s, remaining 24.92 s).
78400000 of 110000000 tuples (71%) done (elapsed 61.62 s, remaining 24.84 s).
78500000 of 110000000 tuples (71%) done (elapsed 61.70 s, remaining 24.76 s).
78600000 of 110000000 tuples (71%) done (elapsed 61.79 s, remaining 24.69 s).
78700000 of 110000000 tuples (71%) done (elapsed 61.86 s, remaining 24.60 s).
78800000 of 110000000 tuples (71%) done (elapsed 61.94 s, remaining 24.52 s).
78900000 of 110000000 tuples (71%) done (elapsed 62.03 s, remaining 24.45 s).
79000000 of 110000000 tuples (71%) done (elapsed 62.10 s, remaining 24.37 s).
79100000 of 110000000 tuples (71%) done (elapsed 62.17 s, remaining 24.29 s).
79200000 of 110000000 tuples (72%) done (elapsed 62.25 s, remaining 24.21 s).
79300000 of 110000000 tuples (72%) done (elapsed 62.33 s, remaining 24.13 s).
79400000 of 110000000 tuples (72%) done (elapsed 62.40 s, remaining 24.05 s).
79500000 of 110000000 tuples (72%) done (elapsed 62.48 s, remaining 23.97 s).
79600000 of 110000000 tuples (72%) done (elapsed 62.57 s, remaining 23.90 s).
79700000 of 110000000 tuples (72%) done (elapsed 62.64 s, remaining 23.82 s).
79800000 of 110000000 tuples (72%) done (elapsed 62.72 s, remaining 23.73 s).
79900000 of 110000000 tuples (72%) done (elapsed 62.81 s, remaining 23.66 s).
80000000 of 110000000 tuples (72%) done (elapsed 62.88 s, remaining 23.58 s).
80100000 of 110000000 tuples (72%) done (elapsed 62.96 s, remaining 23.50 s).
80200000 of 110000000 tuples (72%) done (elapsed 63.05 s, remaining 23.43 s).
80300000 of 110000000 tuples (73%) done (elapsed 63.12 s, remaining 23.35 s).
80400000 of 110000000 tuples (73%) done (elapsed 63.20 s, remaining 23.27 s).
80500000 of 110000000 tuples (73%) done (elapsed 63.27 s, remaining 23.19 s).
80600000 of 110000000 tuples (73%) done (elapsed 63.34 s, remaining 23.10 s).
80700000 of 110000000 tuples (73%) done (elapsed 63.41 s, remaining 23.02 s).
80800000 of 110000000 tuples (73%) done (elapsed 63.49 s, remaining 22.94 s).
80900000 of 110000000 tuples (73%) done (elapsed 63.59 s, remaining 22.87 s).
81000000 of 110000000 tuples (73%) done (elapsed 63.66 s, remaining 22.79 s).
81100000 of 110000000 tuples (73%) done (elapsed 63.73 s, remaining 22.71 s).
81200000 of 110000000 tuples (73%) done (elapsed 63.82 s, remaining 22.63 s).
81300000 of 110000000 tuples (73%) done (elapsed 63.89 s, remaining 22.55 s).
81400000 of 110000000 tuples (74%) done (elapsed 63.96 s, remaining 22.47 s).
81500000 of 110000000 tuples (74%) done (elapsed 64.06 s, remaining 22.40 s).
81600000 of 110000000 tuples (74%) done (elapsed 64.13 s, remaining 22.32 s).
81700000 of 110000000 tuples (74%) done (elapsed 64.20 s, remaining 22.24 s).
81800000 of 110000000 tuples (74%) done (elapsed 64.28 s, remaining 22.16 s).
81900000 of 110000000 tuples (74%) done (elapsed 64.35 s, remaining 22.08 s).
82000000 of 110000000 tuples (74%) done (elapsed 64.43 s, remaining 22.00 s).
82100000 of 110000000 tuples (74%) done (elapsed 64.50 s, remaining 21.92 s).
82200000 of 110000000 tuples (74%) done (elapsed 64.58 s, remaining 21.84 s).
82300000 of 110000000 tuples (74%) done (elapsed 64.66 s, remaining 21.76 s).
82400000 of 110000000 tuples (74%) done (elapsed 64.73 s, remaining 21.68 s).
82500000 of 110000000 tuples (75%) done (elapsed 64.83 s, remaining 21.61 s).
82600000 of 110000000 tuples (75%) done (elapsed 64.90 s, remaining 21.53 s).
82700000 of 110000000 tuples (75%) done (elapsed 64.98 s, remaining 21.45 s).
82800000 of 110000000 tuples (75%) done (elapsed 65.07 s, remaining 21.38 s).
82900000 of 110000000 tuples (75%) done (elapsed 65.14 s, remaining 21.30 s).
83000000 of 110000000 tuples (75%) done (elapsed 65.21 s, remaining 21.21 s).
83100000 of 110000000 tuples (75%) done (elapsed 65.29 s, remaining 21.13 s).
83200000 of 110000000 tuples (75%) done (elapsed 65.37 s, remaining 21.06 s).
83300000 of 110000000 tuples (75%) done (elapsed 65.44 s, remaining 20.98 s).
83400000 of 110000000 tuples (75%) done (elapsed 65.51 s, remaining 20.90 s).
83500000 of 110000000 tuples (75%) done (elapsed 65.62 s, remaining 20.82 s).
83600000 of 110000000 tuples (76%) done (elapsed 65.69 s, remaining 20.74 s).
83700000 of 110000000 tuples (76%) done (elapsed 65.76 s, remaining 20.66 s).
83800000 of 110000000 tuples (76%) done (elapsed 65.85 s, remaining 20.59 s).
83900000 of 110000000 tuples (76%) done (elapsed 65.93 s, remaining 20.51 s).
84000000 of 110000000 tuples (76%) done (elapsed 66.00 s, remaining 20.43 s).
84100000 of 110000000 tuples (76%) done (elapsed 66.09 s, remaining 20.35 s).
84200000 of 110000000 tuples (76%) done (elapsed 66.17 s, remaining 20.27 s).
84300000 of 110000000 tuples (76%) done (elapsed 66.24 s, remaining 20.19 s).
84400000 of 110000000 tuples (76%) done (elapsed 66.33 s, remaining 20.12 s).
84500000 of 110000000 tuples (76%) done (elapsed 66.41 s, remaining 20.04 s).
84600000 of 110000000 tuples (76%) done (elapsed 66.48 s, remaining 19.96 s).
84700000 of 110000000 tuples (77%) done (elapsed 66.58 s, remaining 19.89 s).
84800000 of 110000000 tuples (77%) done (elapsed 66.65 s, remaining 19.81 s).
84900000 of 110000000 tuples (77%) done (elapsed 66.73 s, remaining 19.73 s).
85000000 of 110000000 tuples (77%) done (elapsed 66.83 s, remaining 19.66 s).
85100000 of 110000000 tuples (77%) done (elapsed 66.90 s, remaining 19.57 s).
85200000 of 110000000 tuples (77%) done (elapsed 66.97 s, remaining 19.49 s).
85300000 of 110000000 tuples (77%) done (elapsed 67.07 s, remaining 19.42 s).
85400000 of 110000000 tuples (77%) done (elapsed 67.14 s, remaining 19.34 s).
85500000 of 110000000 tuples (77%) done (elapsed 67.16 s, remaining 19.25 s).
85600000 of 110000000 tuples (77%) done (elapsed 67.23 s, remaining 19.17 s).
85700000 of 110000000 tuples (77%) done (elapsed 67.31 s, remaining 19.08 s).
85800000 of 110000000 tuples (78%) done (elapsed 67.41 s, remaining 19.01 s).
85900000 of 110000000 tuples (78%) done (elapsed 67.48 s, remaining 18.93 s).
86000000 of 110000000 tuples (78%) done (elapsed 67.56 s, remaining 18.85 s).
86100000 of 110000000 tuples (78%) done (elapsed 67.63 s, remaining 18.77 s).
86200000 of 110000000 tuples (78%) done (elapsed 67.74 s, remaining 18.70 s).
86300000 of 110000000 tuples (78%) done (elapsed 67.81 s, remaining 18.62 s).
86400000 of 110000000 tuples (78%) done (elapsed 67.88 s, remaining 18.54 s).
86500000 of 110000000 tuples (78%) done (elapsed 68.02 s, remaining 18.48 s).
86600000 of 110000000 tuples (78%) done (elapsed 68.05 s, remaining 18.39 s).
86700000 of 110000000 tuples (78%) done (elapsed 68.12 s, remaining 18.31 s).
86800000 of 110000000 tuples (78%) done (elapsed 68.19 s, remaining 18.23 s).
86900000 of 110000000 tuples (79%) done (elapsed 68.33 s, remaining 18.16 s).
87000000 of 110000000 tuples (79%) done (elapsed 68.40 s, remaining 18.08 s).
87100000 of 110000000 tuples (79%) done (elapsed 68.47 s, remaining 18.00 s).
87200000 of 110000000 tuples (79%) done (elapsed 68.57 s, remaining 17.93 s).
87300000 of 110000000 tuples (79%) done (elapsed 68.60 s, remaining 17.84 s).
87400000 of 110000000 tuples (79%) done (elapsed 68.67 s, remaining 17.76 s).
87500000 of 110000000 tuples (79%) done (elapsed 68.74 s, remaining 17.68 s).
87600000 of 110000000 tuples (79%) done (elapsed 68.81 s, remaining 17.60 s).
87700000 of 110000000 tuples (79%) done (elapsed 68.92 s, remaining 17.52 s).
87800000 of 110000000 tuples (79%) done (elapsed 68.99 s, remaining 17.44 s).
87900000 of 110000000 tuples (79%) done (elapsed 69.06 s, remaining 17.36 s).
88000000 of 110000000 tuples (80%) done (elapsed 69.14 s, remaining 17.28 s).
88100000 of 110000000 tuples (80%) done (elapsed 69.24 s, remaining 17.21 s).
88200000 of 110000000 tuples (80%) done (elapsed 69.31 s, remaining 17.13 s).
88300000 of 110000000 tuples (80%) done (elapsed 69.38 s, remaining 17.05 s).
88400000 of 110000000 tuples (80%) done (elapsed 69.49 s, remaining 16.98 s).
88500000 of 110000000 tuples (80%) done (elapsed 69.56 s, remaining 16.90 s).
88600000 of 110000000 tuples (80%) done (elapsed 69.63 s, remaining 16.82 s).
88700000 of 110000000 tuples (80%) done (elapsed 69.71 s, remaining 16.74 s).
88800000 of 110000000 tuples (80%) done (elapsed 69.81 s, remaining 16.67 s).
88900000 of 110000000 tuples (80%) done (elapsed 69.88 s, remaining 16.59 s).
89000000 of 110000000 tuples (80%) done (elapsed 69.96 s, remaining 16.51 s).
89100000 of 110000000 tuples (81%) done (elapsed 70.07 s, remaining 16.44 s).
89200000 of 110000000 tuples (81%) done (elapsed 70.14 s, remaining 16.36 s).
89300000 of 110000000 tuples (81%) done (elapsed 70.17 s, remaining 16.27 s).
89400000 of 110000000 tuples (81%) done (elapsed 70.25 s, remaining 16.19 s).
89500000 of 110000000 tuples (81%) done (elapsed 70.32 s, remaining 16.11 s).
89600000 of 110000000 tuples (81%) done (elapsed 70.43 s, remaining 16.04 s).
89700000 of 110000000 tuples (81%) done (elapsed 70.52 s, remaining 15.96 s).
89800000 of 110000000 tuples (81%) done (elapsed 70.60 s, remaining 15.88 s).
89900000 of 110000000 tuples (81%) done (elapsed 70.69 s, remaining 15.81 s).
90000000 of 110000000 tuples (81%) done (elapsed 70.73 s, remaining 15.72 s).
90100000 of 110000000 tuples (81%) done (elapsed 70.80 s, remaining 15.64 s).
90200000 of 110000000 tuples (82%) done (elapsed 70.88 s, remaining 15.56 s).
90300000 of 110000000 tuples (82%) done (elapsed 70.99 s, remaining 15.49 s).
90400000 of 110000000 tuples (82%) done (elapsed 71.06 s, remaining 15.41 s).
90500000 of 110000000 tuples (82%) done (elapsed 71.14 s, remaining 15.33 s).
90600000 of 110000000 tuples (82%) done (elapsed 71.21 s, remaining 15.25 s).
90700000 of 110000000 tuples (82%) done (elapsed 71.32 s, remaining 15.18 s).
90800000 of 110000000 tuples (82%) done (elapsed 71.40 s, remaining 15.10 s).
90900000 of 110000000 tuples (82%) done (elapsed 71.48 s, remaining 15.02 s).
91000000 of 110000000 tuples (82%) done (elapsed 71.51 s, remaining 14.93 s).
91100000 of 110000000 tuples (82%) done (elapsed 71.61 s, remaining 14.86 s).
91200000 of 110000000 tuples (82%) done (elapsed 71.68 s, remaining 14.78 s).
91300000 of 110000000 tuples (83%) done (elapsed 71.76 s, remaining 14.70 s).
91400000 of 110000000 tuples (83%) done (elapsed 71.90 s, remaining 14.63 s).
91500000 of 110000000 tuples (83%) done (elapsed 71.93 s, remaining 14.54 s).
91600000 of 110000000 tuples (83%) done (elapsed 72.01 s, remaining 14.46 s).
91700000 of 110000000 tuples (83%) done (elapsed 72.09 s, remaining 14.39 s).
91800000 of 110000000 tuples (83%) done (elapsed 72.20 s, remaining 14.31 s).
91900000 of 110000000 tuples (83%) done (elapsed 72.27 s, remaining 14.23 s).
92000000 of 110000000 tuples (83%) done (elapsed 72.35 s, remaining 14.16 s).
92100000 of 110000000 tuples (83%) done (elapsed 72.45 s, remaining 14.08 s).
92200000 of 110000000 tuples (83%) done (elapsed 72.48 s, remaining 13.99 s).
92300000 of 110000000 tuples (83%) done (elapsed 72.56 s, remaining 13.91 s).
92400000 of 110000000 tuples (84%) done (elapsed 72.64 s, remaining 13.84 s).
92500000 of 110000000 tuples (84%) done (elapsed 72.71 s, remaining 13.76 s).
92600000 of 110000000 tuples (84%) done (elapsed 72.82 s, remaining 13.68 s).
92700000 of 110000000 tuples (84%) done (elapsed 72.89 s, remaining 13.60 s).
92800000 of 110000000 tuples (84%) done (elapsed 72.97 s, remaining 13.52 s).
92900000 of 110000000 tuples (84%) done (elapsed 73.08 s, remaining 13.45 s).
93000000 of 110000000 tuples (84%) done (elapsed 73.16 s, remaining 13.37 s).
93100000 of 110000000 tuples (84%) done (elapsed 73.24 s, remaining 13.29 s).
93200000 of 110000000 tuples (84%) done (elapsed 73.34 s, remaining 13.22 s).
93300000 of 110000000 tuples (84%) done (elapsed 73.41 s, remaining 13.14 s).
93400000 of 110000000 tuples (84%) done (elapsed 73.44 s, remaining 13.05 s).
93500000 of 110000000 tuples (85%) done (elapsed 73.52 s, remaining 12.97 s).
93600000 of 110000000 tuples (85%) done (elapsed 73.60 s, remaining 12.90 s).
93700000 of 110000000 tuples (85%) done (elapsed 73.69 s, remaining 12.82 s).
93800000 of 110000000 tuples (85%) done (elapsed 73.77 s, remaining 12.74 s).
93900000 of 110000000 tuples (85%) done (elapsed 73.85 s, remaining 12.66 s).
94000000 of 110000000 tuples (85%) done (elapsed 73.95 s, remaining 12.59 s).
94100000 of 110000000 tuples (85%) done (elapsed 74.02 s, remaining 12.51 s).
94200000 of 110000000 tuples (85%) done (elapsed 74.10 s, remaining 12.43 s).
94300000 of 110000000 tuples (85%) done (elapsed 74.17 s, remaining 12.35 s).
94400000 of 110000000 tuples (85%) done (elapsed 74.26 s, remaining 12.27 s).
94500000 of 110000000 tuples (85%) done (elapsed 74.34 s, remaining 12.19 s).
94600000 of 110000000 tuples (86%) done (elapsed 74.41 s, remaining 12.11 s).
94700000 of 110000000 tuples (86%) done (elapsed 74.52 s, remaining 12.04 s).
94800000 of 110000000 tuples (86%) done (elapsed 74.55 s, remaining 11.95 s).
94900000 of 110000000 tuples (86%) done (elapsed 74.62 s, remaining 11.87 s).
95000000 of 110000000 tuples (86%) done (elapsed 74.70 s, remaining 11.79 s).
95100000 of 110000000 tuples (86%) done (elapsed 74.80 s, remaining 11.72 s).
95200000 of 110000000 tuples (86%) done (elapsed 74.87 s, remaining 11.64 s).
95300000 of 110000000 tuples (86%) done (elapsed 74.95 s, remaining 11.56 s).
95400000 of 110000000 tuples (86%) done (elapsed 75.02 s, remaining 11.48 s).
95500000 of 110000000 tuples (86%) done (elapsed 75.12 s, remaining 11.41 s).
95600000 of 110000000 tuples (86%) done (elapsed 75.20 s, remaining 11.33 s).
95700000 of 110000000 tuples (87%) done (elapsed 75.28 s, remaining 11.25 s).
95800000 of 110000000 tuples (87%) done (elapsed 75.39 s, remaining 11.17 s).
95900000 of 110000000 tuples (87%) done (elapsed 75.46 s, remaining 11.09 s).
96000000 of 110000000 tuples (87%) done (elapsed 75.53 s, remaining 11.02 s).
96100000 of 110000000 tuples (87%) done (elapsed 75.56 s, remaining 10.93 s).
96200000 of 110000000 tuples (87%) done (elapsed 75.72 s, remaining 10.86 s).
96300000 of 110000000 tuples (87%) done (elapsed 75.79 s, remaining 10.78 s).
96400000 of 110000000 tuples (87%) done (elapsed 75.82 s, remaining 10.70 s).
96500000 of 110000000 tuples (87%) done (elapsed 75.90 s, remaining 10.62 s).
96600000 of 110000000 tuples (87%) done (elapsed 75.99 s, remaining 10.54 s).
96700000 of 110000000 tuples (87%) done (elapsed 76.07 s, remaining 10.46 s).
96800000 of 110000000 tuples (88%) done (elapsed 76.14 s, remaining 10.38 s).
96900000 of 110000000 tuples (88%) done (elapsed 76.22 s, remaining 10.30 s).
97000000 of 110000000 tuples (88%) done (elapsed 76.31 s, remaining 10.23 s).
97100000 of 110000000 tuples (88%) done (elapsed 76.39 s, remaining 10.15 s).
97200000 of 110000000 tuples (88%) done (elapsed 76.47 s, remaining 10.07 s).
97300000 of 110000000 tuples (88%) done (elapsed 76.57 s, remaining 9.99 s).
97400000 of 110000000 tuples (88%) done (elapsed 76.64 s, remaining 9.91 s).
97500000 of 110000000 tuples (88%) done (elapsed 76.72 s, remaining 9.84 s).
97600000 of 110000000 tuples (88%) done (elapsed 76.82 s, remaining 9.76 s).
97700000 of 110000000 tuples (88%) done (elapsed 76.89 s, remaining 9.68 s).
97800000 of 110000000 tuples (88%) done (elapsed 76.96 s, remaining 9.60 s).
97900000 of 110000000 tuples (89%) done (elapsed 76.99 s, remaining 9.52 s).
98000000 of 110000000 tuples (89%) done (elapsed 77.06 s, remaining 9.44 s).
98100000 of 110000000 tuples (89%) done (elapsed 77.17 s, remaining 9.36 s).
98200000 of 110000000 tuples (89%) done (elapsed 77.25 s, remaining 9.28 s).
98300000 of 110000000 tuples (89%) done (elapsed 77.32 s, remaining 9.20 s).
98400000 of 110000000 tuples (89%) done (elapsed 77.43 s, remaining 9.13 s).
98500000 of 110000000 tuples (89%) done (elapsed 77.50 s, remaining 9.05 s).
98600000 of 110000000 tuples (89%) done (elapsed 77.57 s, remaining 8.97 s).
98700000 of 110000000 tuples (89%) done (elapsed 77.65 s, remaining 8.89 s).
98800000 of 110000000 tuples (89%) done (elapsed 77.74 s, remaining 8.81 s).
98900000 of 110000000 tuples (89%) done (elapsed 77.81 s, remaining 8.73 s).
99000000 of 110000000 tuples (90%) done (elapsed 77.88 s, remaining 8.65 s).
99100000 of 110000000 tuples (90%) done (elapsed 77.99 s, remaining 8.58 s).
99200000 of 110000000 tuples (90%) done (elapsed 78.06 s, remaining 8.50 s).
99300000 of 110000000 tuples (90%) done (elapsed 78.13 s, remaining 8.42 s).
99400000 of 110000000 tuples (90%) done (elapsed 78.21 s, remaining 8.34 s).
99500000 of 110000000 tuples (90%) done (elapsed 78.31 s, remaining 8.26 s).
99600000 of 110000000 tuples (90%) done (elapsed 78.38 s, remaining 8.18 s).
99700000 of 110000000 tuples (90%) done (elapsed 78.46 s, remaining 8.11 s).
99800000 of 110000000 tuples (90%) done (elapsed 78.57 s, remaining 8.03 s).
99900000 of 110000000 tuples (90%) done (elapsed 78.64 s, remaining 7.95 s).
100000000 of 110000000 tuples (90%) done (elapsed 78.72 s, remaining 7.87 s).
100100000 of 110000000 tuples (91%) done (elapsed 78.80 s, remaining 7.79 s).
100200000 of 110000000 tuples (91%) done (elapsed 78.88 s, remaining 7.71 s).
100300000 of 110000000 tuples (91%) done (elapsed 78.95 s, remaining 7.64 s).
100400000 of 110000000 tuples (91%) done (elapsed 79.02 s, remaining 7.56 s).
100500000 of 110000000 tuples (91%) done (elapsed 79.16 s, remaining 7.48 s).
100600000 of 110000000 tuples (91%) done (elapsed 79.23 s, remaining 7.40 s).
100700000 of 110000000 tuples (91%) done (elapsed 79.30 s, remaining 7.32 s).
100800000 of 110000000 tuples (91%) done (elapsed 79.36 s, remaining 7.24 s).
100900000 of 110000000 tuples (91%) done (elapsed 79.45 s, remaining 7.17 s).
101000000 of 110000000 tuples (91%) done (elapsed 79.52 s, remaining 7.09 s).
101100000 of 110000000 tuples (91%) done (elapsed 79.59 s, remaining 7.01 s).
101200000 of 110000000 tuples (92%) done (elapsed 79.66 s, remaining 6.93 s).
101300000 of 110000000 tuples (92%) done (elapsed 79.76 s, remaining 6.85 s).
101400000 of 110000000 tuples (92%) done (elapsed 79.84 s, remaining 6.77 s).
101500000 of 110000000 tuples (92%) done (elapsed 79.91 s, remaining 6.69 s).
101600000 of 110000000 tuples (92%) done (elapsed 80.01 s, remaining 6.61 s).
101700000 of 110000000 tuples (92%) done (elapsed 80.12 s, remaining 6.54 s).
101800000 of 110000000 tuples (92%) done (elapsed 80.15 s, remaining 6.46 s).
101900000 of 110000000 tuples (92%) done (elapsed 80.29 s, remaining 6.38 s).
102000000 of 110000000 tuples (92%) done (elapsed 80.36 s, remaining 6.30 s).
102100000 of 110000000 tuples (92%) done (elapsed 80.43 s, remaining 6.22 s).
102200000 of 110000000 tuples (92%) done (elapsed 80.50 s, remaining 6.14 s).
102300000 of 110000000 tuples (93%) done (elapsed 80.59 s, remaining 6.07 s).
102400000 of 110000000 tuples (93%) done (elapsed 80.68 s, remaining 5.99 s).
102500000 of 110000000 tuples (93%) done (elapsed 80.75 s, remaining 5.91 s).
102600000 of 110000000 tuples (93%) done (elapsed 80.84 s, remaining 5.83 s).
102700000 of 110000000 tuples (93%) done (elapsed 80.91 s, remaining 5.75 s).
102800000 of 110000000 tuples (93%) done (elapsed 80.98 s, remaining 5.67 s).
102900000 of 110000000 tuples (93%) done (elapsed 81.05 s, remaining 5.59 s).
103000000 of 110000000 tuples (93%) done (elapsed 81.15 s, remaining 5.51 s).
103100000 of 110000000 tuples (93%) done (elapsed 81.22 s, remaining 5.44 s).
103200000 of 110000000 tuples (93%) done (elapsed 81.29 s, remaining 5.36 s).
103300000 of 110000000 tuples (93%) done (elapsed 81.36 s, remaining 5.28 s).
103400000 of 110000000 tuples (94%) done (elapsed 81.45 s, remaining 5.20 s).
103500000 of 110000000 tuples (94%) done (elapsed 81.52 s, remaining 5.12 s).
103600000 of 110000000 tuples (94%) done (elapsed 81.59 s, remaining 5.04 s).
103700000 of 110000000 tuples (94%) done (elapsed 81.71 s, remaining 4.96 s).
103800000 of 110000000 tuples (94%) done (elapsed 81.78 s, remaining 4.88 s).
103900000 of 110000000 tuples (94%) done (elapsed 81.85 s, remaining 4.81 s).
104000000 of 110000000 tuples (94%) done (elapsed 81.93 s, remaining 4.73 s).
104100000 of 110000000 tuples (94%) done (elapsed 82.01 s, remaining 4.65 s).
104200000 of 110000000 tuples (94%) done (elapsed 82.08 s, remaining 4.57 s).
104300000 of 110000000 tuples (94%) done (elapsed 82.14 s, remaining 4.49 s).
104400000 of 110000000 tuples (94%) done (elapsed 82.22 s, remaining 4.41 s).
104500000 of 110000000 tuples (95%) done (elapsed 82.29 s, remaining 4.33 s).
104600000 of 110000000 tuples (95%) done (elapsed 82.36 s, remaining 4.25 s).
104700000 of 110000000 tuples (95%) done (elapsed 82.48 s, remaining 4.18 s).
104800000 of 110000000 tuples (95%) done (elapsed 82.57 s, remaining 4.10 s).
104900000 of 110000000 tuples (95%) done (elapsed 82.64 s, remaining 4.02 s).
105000000 of 110000000 tuples (95%) done (elapsed 82.71 s, remaining 3.94 s).
105100000 of 110000000 tuples (95%) done (elapsed 82.78 s, remaining 3.86 s).
105200000 of 110000000 tuples (95%) done (elapsed 82.86 s, remaining 3.78 s).
105300000 of 110000000 tuples (95%) done (elapsed 82.93 s, remaining 3.70 s).
105400000 of 110000000 tuples (95%) done (elapsed 83.00 s, remaining 3.62 s).
105500000 of 110000000 tuples (95%) done (elapsed 83.13 s, remaining 3.55 s).
105600000 of 110000000 tuples (96%) done (elapsed 83.20 s, remaining 3.47 s).
105700000 of 110000000 tuples (96%) done (elapsed 83.27 s, remaining 3.39 s).
105800000 of 110000000 tuples (96%) done (elapsed 83.35 s, remaining 3.31 s).
105900000 of 110000000 tuples (96%) done (elapsed 83.43 s, remaining 3.23 s).
106000000 of 110000000 tuples (96%) done (elapsed 83.49 s, remaining 3.15 s).
106100000 of 110000000 tuples (96%) done (elapsed 83.56 s, remaining 3.07 s).
106200000 of 110000000 tuples (96%) done (elapsed 83.70 s, remaining 3.00 s).
106300000 of 110000000 tuples (96%) done (elapsed 83.77 s, remaining 2.92 s).
106400000 of 110000000 tuples (96%) done (elapsed 83.84 s, remaining 2.84 s).
106500000 of 110000000 tuples (96%) done (elapsed 83.93 s, remaining 2.76 s).
106600000 of 110000000 tuples (96%) done (elapsed 84.00 s, remaining 2.68 s).
106700000 of 110000000 tuples (97%) done (elapsed 84.07 s, remaining 2.60 s).
106800000 of 110000000 tuples (97%) done (elapsed 84.14 s, remaining 2.52 s).
106900000 of 110000000 tuples (97%) done (elapsed 84.23 s, remaining 2.44 s).
107000000 of 110000000 tuples (97%) done (elapsed 84.30 s, remaining 2.36 s).
107100000 of 110000000 tuples (97%) done (elapsed 84.37 s, remaining 2.28 s).
107200000 of 110000000 tuples (97%) done (elapsed 84.44 s, remaining 2.21 s).
107300000 of 110000000 tuples (97%) done (elapsed 84.54 s, remaining 2.13 s).
107400000 of 110000000 tuples (97%) done (elapsed 84.61 s, remaining 2.05 s).
107500000 of 110000000 tuples (97%) done (elapsed 84.68 s, remaining 1.97 s).
107600000 of 110000000 tuples (97%) done (elapsed 84.81 s, remaining 1.89 s).
107700000 of 110000000 tuples (97%) done (elapsed 84.89 s, remaining 1.81 s).
107800000 of 110000000 tuples (98%) done (elapsed 84.96 s, remaining 1.73 s).
107900000 of 110000000 tuples (98%) done (elapsed 85.06 s, remaining 1.66 s).
108000000 of 110000000 tuples (98%) done (elapsed 85.13 s, remaining 1.58 s).
108100000 of 110000000 tuples (98%) done (elapsed 85.20 s, remaining 1.50 s).
108200000 of 110000000 tuples (98%) done (elapsed 85.27 s, remaining 1.42 s).
108300000 of 110000000 tuples (98%) done (elapsed 85.37 s, remaining 1.34 s).
108400000 of 110000000 tuples (98%) done (elapsed 85.44 s, remaining 1.26 s).
108500000 of 110000000 tuples (98%) done (elapsed 85.52 s, remaining 1.18 s).
108600000 of 110000000 tuples (98%) done (elapsed 85.62 s, remaining 1.10 s).
108700000 of 110000000 tuples (98%) done (elapsed 85.69 s, remaining 1.02 s).
108800000 of 110000000 tuples (98%) done (elapsed 85.76 s, remaining 0.95 s).
108900000 of 110000000 tuples (99%) done (elapsed 85.83 s, remaining 0.87 s).
109000000 of 110000000 tuples (99%) done (elapsed 85.93 s, remaining 0.79 s).
109100000 of 110000000 tuples (99%) done (elapsed 86.00 s, remaining 0.71 s).
109200000 of 110000000 tuples (99%) done (elapsed 86.09 s, remaining 0.63 s).
109300000 of 110000000 tuples (99%) done (elapsed 86.20 s, remaining 0.55 s).
109400000 of 110000000 tuples (99%) done (elapsed 86.28 s, remaining 0.47 s).
109500000 of 110000000 tuples (99%) done (elapsed 86.32 s, remaining 0.39 s).
109600000 of 110000000 tuples (99%) done (elapsed 86.40 s, remaining 0.32 s).
109700000 of 110000000 tuples (99%) done (elapsed 86.50 s, remaining 0.24 s).
109800000 of 110000000 tuples (99%) done (elapsed 86.58 s, remaining 0.16 s).
109900000 of 110000000 tuples (99%) done (elapsed 86.66 s, remaining 0.08 s).
110000000 of 110000000 tuples (100%) done (elapsed 86.78 s, remaining 0.00 s).
vacuum...
set primary keys...
done.
