type,scale,1,2,4,8,16
ro,small,15058,29791,54001,53637,53166
ro,large,4838,10831,19750,30418,37483
ro,medium,14264,28568,51282,51225,50723
rw,small,1912,3655,5851,7119,7347
rw,large,1057,1650,2549,3723,4810
rw,medium,1783,3190,4916,5909,6340
