CHECKPOINT
transaction type: TPC-B (sort of)
scaling factor: 140
query mode: simple
number of clients: 8
number of threads: 8
duration: 1800 s
number of transactions actually processed: 7882716
latency average: 1.827 ms
tps = 4379.252893 (including connections establishing)
tps = 4379.260657 (excluding connections establishing)
