NOTICE:  table "pgbench_history" does not exist, skipping
NOTICE:  table "pgbench_tellers" does not exist, skipping
NOTICE:  table "pgbench_accounts" does not exist, skipping
NOTICE:  table "pgbench_branches" does not exist, skipping
creating tables...
100000 of 14000000 tuples (0%) done (elapsed 0.02 s, remaining 3.30 s).
200000 of 14000000 tuples (1%) done (elapsed 0.05 s, remaining 3.29 s).
300000 of 14000000 tuples (2%) done (elapsed 0.07 s, remaining 3.24 s).
400000 of 14000000 tuples (2%) done (elapsed 0.09 s, remaining 3.21 s).
500000 of 14000000 tuples (3%) done (elapsed 0.19 s, remaining 5.21 s).
600000 of 14000000 tuples (4%) done (elapsed 0.25 s, remaining 5.68 s).
700000 of 14000000 tuples (5%) done (elapsed 0.32 s, remaining 6.00 s).
800000 of 14000000 tuples (5%) done (elapsed 0.42 s, remaining 6.85 s).
900000 of 14000000 tuples (6%) done (elapsed 0.48 s, remaining 6.94 s).
1000000 of 14000000 tuples (7%) done (elapsed 0.54 s, remaining 7.01 s).
1100000 of 14000000 tuples (7%) done (elapsed 0.64 s, remaining 7.47 s).
1200000 of 14000000 tuples (8%) done (elapsed 0.70 s, remaining 7.44 s).
1300000 of 14000000 tuples (9%) done (elapsed 0.79 s, remaining 7.74 s).
1400000 of 14000000 tuples (10%) done (elapsed 0.85 s, remaining 7.67 s).
1500000 of 14000000 tuples (10%) done (elapsed 0.95 s, remaining 7.88 s).
1600000 of 14000000 tuples (11%) done (elapsed 1.00 s, remaining 7.79 s).
1700000 of 14000000 tuples (12%) done (elapsed 1.10 s, remaining 7.95 s).
1800000 of 14000000 tuples (12%) done (elapsed 1.16 s, remaining 7.85 s).
1900000 of 14000000 tuples (13%) done (elapsed 1.25 s, remaining 7.98 s).
2000000 of 14000000 tuples (14%) done (elapsed 1.31 s, remaining 7.87 s).
2100000 of 14000000 tuples (15%) done (elapsed 1.37 s, remaining 7.77 s).
2200000 of 14000000 tuples (15%) done (elapsed 1.47 s, remaining 7.86 s).
2300000 of 14000000 tuples (16%) done (elapsed 1.53 s, remaining 7.76 s).
2400000 of 14000000 tuples (17%) done (elapsed 1.62 s, remaining 7.83 s).
2500000 of 14000000 tuples (17%) done (elapsed 1.68 s, remaining 7.72 s).
2600000 of 14000000 tuples (18%) done (elapsed 1.77 s, remaining 7.77 s).
2700000 of 14000000 tuples (19%) done (elapsed 1.83 s, remaining 7.67 s).
2800000 of 14000000 tuples (20%) done (elapsed 1.93 s, remaining 7.71 s).
2900000 of 14000000 tuples (20%) done (elapsed 1.99 s, remaining 7.60 s).
3000000 of 14000000 tuples (21%) done (elapsed 2.04 s, remaining 7.50 s).
3100000 of 14000000 tuples (22%) done (elapsed 2.14 s, remaining 7.52 s).
3200000 of 14000000 tuples (22%) done (elapsed 2.20 s, remaining 7.42 s).
3300000 of 14000000 tuples (23%) done (elapsed 2.29 s, remaining 7.43 s).
3400000 of 14000000 tuples (24%) done (elapsed 2.35 s, remaining 7.33 s).
3500000 of 14000000 tuples (25%) done (elapsed 2.45 s, remaining 7.34 s).
3600000 of 14000000 tuples (25%) done (elapsed 2.50 s, remaining 7.23 s).
3700000 of 14000000 tuples (26%) done (elapsed 2.60 s, remaining 7.23 s).
3800000 of 14000000 tuples (27%) done (elapsed 2.66 s, remaining 7.13 s).
3900000 of 14000000 tuples (27%) done (elapsed 2.75 s, remaining 7.12 s).
4000000 of 14000000 tuples (28%) done (elapsed 2.81 s, remaining 7.02 s).
4100000 of 14000000 tuples (29%) done (elapsed 2.87 s, remaining 6.93 s).
4200000 of 14000000 tuples (30%) done (elapsed 2.96 s, remaining 6.91 s).
4300000 of 14000000 tuples (30%) done (elapsed 3.02 s, remaining 6.82 s).
4400000 of 14000000 tuples (31%) done (elapsed 3.12 s, remaining 6.80 s).
4500000 of 14000000 tuples (32%) done (elapsed 3.17 s, remaining 6.70 s).
4600000 of 14000000 tuples (32%) done (elapsed 3.27 s, remaining 6.68 s).
4700000 of 14000000 tuples (33%) done (elapsed 3.33 s, remaining 6.58 s).
4800000 of 14000000 tuples (34%) done (elapsed 3.42 s, remaining 6.56 s).
4900000 of 14000000 tuples (35%) done (elapsed 3.48 s, remaining 6.46 s).
5000000 of 14000000 tuples (35%) done (elapsed 3.54 s, remaining 6.37 s).
5100000 of 14000000 tuples (36%) done (elapsed 3.63 s, remaining 6.34 s).
5200000 of 14000000 tuples (37%) done (elapsed 3.69 s, remaining 6.25 s).
5300000 of 14000000 tuples (37%) done (elapsed 3.79 s, remaining 6.21 s).
5400000 of 14000000 tuples (38%) done (elapsed 3.84 s, remaining 6.12 s).
5500000 of 14000000 tuples (39%) done (elapsed 3.94 s, remaining 6.09 s).
5600000 of 14000000 tuples (40%) done (elapsed 4.00 s, remaining 6.00 s).
5700000 of 14000000 tuples (40%) done (elapsed 4.09 s, remaining 5.96 s).
5800000 of 14000000 tuples (41%) done (elapsed 4.15 s, remaining 5.87 s).
5900000 of 14000000 tuples (42%) done (elapsed 4.24 s, remaining 5.83 s).
6000000 of 14000000 tuples (42%) done (elapsed 4.30 s, remaining 5.74 s).
6100000 of 14000000 tuples (43%) done (elapsed 4.36 s, remaining 5.65 s).
6200000 of 14000000 tuples (44%) done (elapsed 4.46 s, remaining 5.60 s).
6300000 of 14000000 tuples (45%) done (elapsed 4.51 s, remaining 5.52 s).
6400000 of 14000000 tuples (45%) done (elapsed 4.61 s, remaining 5.47 s).
6500000 of 14000000 tuples (46%) done (elapsed 4.67 s, remaining 5.39 s).
6600000 of 14000000 tuples (47%) done (elapsed 4.76 s, remaining 5.34 s).
6700000 of 14000000 tuples (47%) done (elapsed 4.82 s, remaining 5.25 s).
6800000 of 14000000 tuples (48%) done (elapsed 4.91 s, remaining 5.20 s).
6900000 of 14000000 tuples (49%) done (elapsed 4.97 s, remaining 5.12 s).
7000000 of 14000000 tuples (50%) done (elapsed 5.07 s, remaining 5.07 s).
7100000 of 14000000 tuples (50%) done (elapsed 5.12 s, remaining 4.98 s).
7200000 of 14000000 tuples (51%) done (elapsed 5.18 s, remaining 4.90 s).
7300000 of 14000000 tuples (52%) done (elapsed 5.28 s, remaining 4.84 s).
7400000 of 14000000 tuples (52%) done (elapsed 5.34 s, remaining 4.76 s).
7500000 of 14000000 tuples (53%) done (elapsed 5.43 s, remaining 4.71 s).
7600000 of 14000000 tuples (54%) done (elapsed 5.49 s, remaining 4.62 s).
7700000 of 14000000 tuples (55%) done (elapsed 5.58 s, remaining 4.57 s).
7800000 of 14000000 tuples (55%) done (elapsed 5.64 s, remaining 4.49 s).
7900000 of 14000000 tuples (56%) done (elapsed 5.74 s, remaining 4.43 s).
8000000 of 14000000 tuples (57%) done (elapsed 5.80 s, remaining 4.35 s).
8100000 of 14000000 tuples (57%) done (elapsed 5.89 s, remaining 4.29 s).
8200000 of 14000000 tuples (58%) done (elapsed 5.95 s, remaining 4.21 s).
8300000 of 14000000 tuples (59%) done (elapsed 6.01 s, remaining 4.13 s).
8400000 of 14000000 tuples (60%) done (elapsed 6.10 s, remaining 4.07 s).
8500000 of 14000000 tuples (60%) done (elapsed 6.16 s, remaining 3.99 s).
8600000 of 14000000 tuples (61%) done (elapsed 6.25 s, remaining 3.93 s).
8700000 of 14000000 tuples (62%) done (elapsed 6.31 s, remaining 3.85 s).
8800000 of 14000000 tuples (62%) done (elapsed 6.41 s, remaining 3.79 s).
8900000 of 14000000 tuples (63%) done (elapsed 6.47 s, remaining 3.71 s).
9000000 of 14000000 tuples (64%) done (elapsed 6.56 s, remaining 3.64 s).
9100000 of 14000000 tuples (65%) done (elapsed 6.62 s, remaining 3.56 s).
9200000 of 14000000 tuples (65%) done (elapsed 6.71 s, remaining 3.50 s).
9300000 of 14000000 tuples (66%) done (elapsed 6.77 s, remaining 3.42 s).
9400000 of 14000000 tuples (67%) done (elapsed 7.05 s, remaining 3.45 s).
9500000 of 14000000 tuples (67%) done (elapsed 7.08 s, remaining 3.35 s).
9600000 of 14000000 tuples (68%) done (elapsed 7.10 s, remaining 3.25 s).
9700000 of 14000000 tuples (69%) done (elapsed 7.16 s, remaining 3.17 s).
9800000 of 14000000 tuples (70%) done (elapsed 7.25 s, remaining 3.11 s).
9900000 of 14000000 tuples (70%) done (elapsed 7.31 s, remaining 3.03 s).
10000000 of 14000000 tuples (71%) done (elapsed 7.40 s, remaining 2.96 s).
10100000 of 14000000 tuples (72%) done (elapsed 7.46 s, remaining 2.88 s).
10200000 of 14000000 tuples (72%) done (elapsed 7.55 s, remaining 2.81 s).
10300000 of 14000000 tuples (73%) done (elapsed 7.64 s, remaining 2.75 s).
10400000 of 14000000 tuples (74%) done (elapsed 7.70 s, remaining 2.67 s).
10500000 of 14000000 tuples (75%) done (elapsed 7.79 s, remaining 2.60 s).
10600000 of 14000000 tuples (75%) done (elapsed 7.85 s, remaining 2.52 s).
10700000 of 14000000 tuples (76%) done (elapsed 7.93 s, remaining 2.45 s).
10800000 of 14000000 tuples (77%) done (elapsed 8.02 s, remaining 2.38 s).
10900000 of 14000000 tuples (77%) done (elapsed 8.08 s, remaining 2.30 s).
11000000 of 14000000 tuples (78%) done (elapsed 8.17 s, remaining 2.23 s).
11100000 of 14000000 tuples (79%) done (elapsed 8.23 s, remaining 2.15 s).
11200000 of 14000000 tuples (80%) done (elapsed 8.31 s, remaining 2.08 s).
11300000 of 14000000 tuples (80%) done (elapsed 8.40 s, remaining 2.01 s).
11400000 of 14000000 tuples (81%) done (elapsed 8.46 s, remaining 1.93 s).
11500000 of 14000000 tuples (82%) done (elapsed 8.55 s, remaining 1.86 s).
11600000 of 14000000 tuples (82%) done (elapsed 8.61 s, remaining 1.78 s).
11700000 of 14000000 tuples (83%) done (elapsed 8.69 s, remaining 1.71 s).
11800000 of 14000000 tuples (84%) done (elapsed 8.78 s, remaining 1.64 s).
11900000 of 14000000 tuples (85%) done (elapsed 8.84 s, remaining 1.56 s).
12000000 of 14000000 tuples (85%) done (elapsed 8.93 s, remaining 1.49 s).
12100000 of 14000000 tuples (86%) done (elapsed 8.99 s, remaining 1.41 s).
12200000 of 14000000 tuples (87%) done (elapsed 9.07 s, remaining 1.34 s).
12300000 of 14000000 tuples (87%) done (elapsed 9.16 s, remaining 1.27 s).
12400000 of 14000000 tuples (88%) done (elapsed 9.22 s, remaining 1.19 s).
12500000 of 14000000 tuples (89%) done (elapsed 9.31 s, remaining 1.12 s).
12600000 of 14000000 tuples (90%) done (elapsed 9.40 s, remaining 1.04 s).
12700000 of 14000000 tuples (90%) done (elapsed 9.46 s, remaining 0.97 s).
12800000 of 14000000 tuples (91%) done (elapsed 9.70 s, remaining 0.91 s).
12900000 of 14000000 tuples (92%) done (elapsed 9.76 s, remaining 0.83 s).
13000000 of 14000000 tuples (92%) done (elapsed 9.85 s, remaining 0.76 s).
13100000 of 14000000 tuples (93%) done (elapsed 9.94 s, remaining 0.68 s).
13200000 of 14000000 tuples (94%) done (elapsed 9.99 s, remaining 0.61 s).
13300000 of 14000000 tuples (95%) done (elapsed 10.08 s, remaining 0.53 s).
13400000 of 14000000 tuples (95%) done (elapsed 10.14 s, remaining 0.45 s).
13500000 of 14000000 tuples (96%) done (elapsed 10.23 s, remaining 0.38 s).
13600000 of 14000000 tuples (97%) done (elapsed 10.32 s, remaining 0.30 s).
13700000 of 14000000 tuples (97%) done (elapsed 10.37 s, remaining 0.23 s).
13800000 of 14000000 tuples (98%) done (elapsed 10.46 s, remaining 0.15 s).
13900000 of 14000000 tuples (99%) done (elapsed 10.55 s, remaining 0.08 s).
14000000 of 14000000 tuples (100%) done (elapsed 10.61 s, remaining 0.00 s).
vacuum...
set primary keys...
done.
