CHECKPOINT
transaction type: SELECT only
scaling factor: 1100
query mode: simple
number of clients: 16
number of threads: 16
duration: 1800 s
number of transactions actually processed: 5635497
latency average: 5.110 ms
tps = 3130.745705 (including connections establishing)
tps = 3130.755237 (excluding connections establishing)
