CHECKPOINT
transaction type: TPC-B (sort of)
scaling factor: 1100
query mode: simple
number of clients: 8
number of threads: 8
duration: 1800 s
number of transactions actually processed: 8561343
latency average: 1.682 ms
tps = 4756.259886 (including connections establishing)
tps = 4756.269863 (excluding connections establishing)
