CHECKPOINT
transaction type: TPC-B (sort of)
scaling factor: 1100
query mode: simple
number of clients: 16
number of threads: 16
duration: 1800 s
number of transactions actually processed: 9037208
latency average: 3.187 ms
tps = 5020.616216 (including connections establishing)
tps = 5020.635195 (excluding connections establishing)
