NOTICE:  table "pgbench_history" does not exist, skipping
NOTICE:  table "pgbench_tellers" does not exist, skipping
NOTICE:  table "pgbench_accounts" does not exist, skipping
NOTICE:  table "pgbench_branches" does not exist, skipping
creating tables...
100000 of 110000000 tuples (0%) done (elapsed 0.02 s, remaining 26.19 s).
200000 of 110000000 tuples (0%) done (elapsed 0.05 s, remaining 26.26 s).
300000 of 110000000 tuples (0%) done (elapsed 0.07 s, remaining 26.06 s).
400000 of 110000000 tuples (0%) done (elapsed 0.09 s, remaining 25.95 s).
500000 of 110000000 tuples (0%) done (elapsed 0.15 s, remaining 33.28 s).
600000 of 110000000 tuples (0%) done (elapsed 0.25 s, remaining 44.83 s).
700000 of 110000000 tuples (0%) done (elapsed 0.30 s, remaining 47.55 s).
800000 of 110000000 tuples (0%) done (elapsed 0.66 s, remaining 89.52 s).
900000 of 110000000 tuples (0%) done (elapsed 0.75 s, remaining 90.84 s).
1000000 of 110000000 tuples (0%) done (elapsed 0.81 s, remaining 88.01 s).
1100000 of 110000000 tuples (1%) done (elapsed 1.12 s, remaining 110.98 s).
1200000 of 110000000 tuples (1%) done (elapsed 1.18 s, remaining 107.11 s).
1300000 of 110000000 tuples (1%) done (elapsed 1.42 s, remaining 118.76 s).
1400000 of 110000000 tuples (1%) done (elapsed 1.48 s, remaining 114.71 s).
1500000 of 110000000 tuples (1%) done (elapsed 1.64 s, remaining 118.66 s).
1600000 of 110000000 tuples (1%) done (elapsed 1.70 s, remaining 115.10 s).
1700000 of 110000000 tuples (1%) done (elapsed 2.04 s, remaining 129.65 s).
1800000 of 110000000 tuples (1%) done (elapsed 2.09 s, remaining 125.87 s).
1900000 of 110000000 tuples (1%) done (elapsed 2.19 s, remaining 124.46 s).
2000000 of 110000000 tuples (1%) done (elapsed 2.46 s, remaining 133.01 s).
2100000 of 110000000 tuples (1%) done (elapsed 2.56 s, remaining 131.32 s).
2200000 of 110000000 tuples (2%) done (elapsed 2.77 s, remaining 135.59 s).
2300000 of 110000000 tuples (2%) done (elapsed 2.93 s, remaining 137.20 s).
2400000 of 110000000 tuples (2%) done (elapsed 2.99 s, remaining 133.98 s).
2500000 of 110000000 tuples (2%) done (elapsed 3.08 s, remaining 132.51 s).
2600000 of 110000000 tuples (2%) done (elapsed 3.39 s, remaining 139.94 s).
2700000 of 110000000 tuples (2%) done (elapsed 3.48 s, remaining 138.34 s).
2800000 of 110000000 tuples (2%) done (elapsed 3.58 s, remaining 136.94 s).
2900000 of 110000000 tuples (2%) done (elapsed 3.85 s, remaining 142.13 s).
3000000 of 110000000 tuples (2%) done (elapsed 3.91 s, remaining 139.36 s).
3100000 of 110000000 tuples (2%) done (elapsed 4.15 s, remaining 143.05 s).
3200000 of 110000000 tuples (2%) done (elapsed 4.28 s, remaining 142.79 s).
3300000 of 110000000 tuples (3%) done (elapsed 4.37 s, remaining 141.40 s).
3400000 of 110000000 tuples (3%) done (elapsed 4.47 s, remaining 140.14 s).
3500000 of 110000000 tuples (3%) done (elapsed 4.76 s, remaining 144.91 s).
3600000 of 110000000 tuples (3%) done (elapsed 4.82 s, remaining 142.49 s).
3700000 of 110000000 tuples (3%) done (elapsed 5.13 s, remaining 147.51 s).
3800000 of 110000000 tuples (3%) done (elapsed 5.19 s, remaining 145.12 s).
3900000 of 110000000 tuples (3%) done (elapsed 5.44 s, remaining 147.97 s).
4000000 of 110000000 tuples (3%) done (elapsed 5.50 s, remaining 145.70 s).
4100000 of 110000000 tuples (3%) done (elapsed 5.65 s, remaining 146.04 s).
4200000 of 110000000 tuples (3%) done (elapsed 5.71 s, remaining 143.88 s).
4300000 of 110000000 tuples (3%) done (elapsed 6.07 s, remaining 149.13 s).
4400000 of 110000000 tuples (4%) done (elapsed 6.13 s, remaining 147.01 s).
4500000 of 110000000 tuples (4%) done (elapsed 6.46 s, remaining 151.37 s).
4600000 of 110000000 tuples (4%) done (elapsed 6.51 s, remaining 149.27 s).
4700000 of 110000000 tuples (4%) done (elapsed 6.75 s, remaining 151.26 s).
4800000 of 110000000 tuples (4%) done (elapsed 6.81 s, remaining 149.24 s).
4900000 of 110000000 tuples (4%) done (elapsed 6.95 s, remaining 148.98 s).
5000000 of 110000000 tuples (4%) done (elapsed 7.04 s, remaining 147.85 s).
5100000 of 110000000 tuples (4%) done (elapsed 7.36 s, remaining 151.31 s).
5200000 of 110000000 tuples (4%) done (elapsed 7.45 s, remaining 150.14 s).
5300000 of 110000000 tuples (4%) done (elapsed 7.51 s, remaining 148.33 s).
5400000 of 110000000 tuples (4%) done (elapsed 7.82 s, remaining 151.46 s).
5500000 of 110000000 tuples (5%) done (elapsed 7.88 s, remaining 149.68 s).
5600000 of 110000000 tuples (5%) done (elapsed 8.11 s, remaining 151.24 s).
5700000 of 110000000 tuples (5%) done (elapsed 8.24 s, remaining 150.69 s).
5800000 of 110000000 tuples (5%) done (elapsed 8.29 s, remaining 149.01 s).
5900000 of 110000000 tuples (5%) done (elapsed 8.42 s, remaining 148.62 s).
6000000 of 110000000 tuples (5%) done (elapsed 8.74 s, remaining 151.50 s).
6100000 of 110000000 tuples (5%) done (elapsed 8.80 s, remaining 149.87 s).
6200000 of 110000000 tuples (5%) done (elapsed 9.11 s, remaining 152.54 s).
6300000 of 110000000 tuples (5%) done (elapsed 9.17 s, remaining 150.94 s).
6400000 of 110000000 tuples (5%) done (elapsed 9.40 s, remaining 152.20 s).
6500000 of 110000000 tuples (5%) done (elapsed 9.46 s, remaining 150.64 s).
6600000 of 110000000 tuples (6%) done (elapsed 9.61 s, remaining 150.62 s).
6700000 of 110000000 tuples (6%) done (elapsed 9.67 s, remaining 149.14 s).
6800000 of 110000000 tuples (6%) done (elapsed 10.02 s, remaining 152.09 s).
6900000 of 110000000 tuples (6%) done (elapsed 10.08 s, remaining 150.62 s).
7000000 of 110000000 tuples (6%) done (elapsed 10.39 s, remaining 152.94 s).
7100000 of 110000000 tuples (6%) done (elapsed 10.45 s, remaining 151.48 s).
7200000 of 110000000 tuples (6%) done (elapsed 10.51 s, remaining 150.07 s).
7300000 of 110000000 tuples (6%) done (elapsed 10.75 s, remaining 151.21 s).
7400000 of 110000000 tuples (6%) done (elapsed 10.87 s, remaining 150.75 s).
7500000 of 110000000 tuples (6%) done (elapsed 10.97 s, remaining 149.94 s).
7600000 of 110000000 tuples (6%) done (elapsed 11.30 s, remaining 152.24 s).
7700000 of 110000000 tuples (7%) done (elapsed 11.39 s, remaining 151.37 s).
7800000 of 110000000 tuples (7%) done (elapsed 11.45 s, remaining 150.05 s).
7900000 of 110000000 tuples (7%) done (elapsed 11.78 s, remaining 152.22 s).
8000000 of 110000000 tuples (7%) done (elapsed 11.84 s, remaining 150.94 s).
8100000 of 110000000 tuples (7%) done (elapsed 12.09 s, remaining 152.06 s).
8200000 of 110000000 tuples (7%) done (elapsed 12.15 s, remaining 150.78 s).
8300000 of 110000000 tuples (7%) done (elapsed 12.31 s, remaining 150.88 s).
8400000 of 110000000 tuples (7%) done (elapsed 12.37 s, remaining 149.64 s).
8500000 of 110000000 tuples (7%) done (elapsed 12.74 s, remaining 152.09 s).
8600000 of 110000000 tuples (7%) done (elapsed 12.80 s, remaining 150.86 s).
8700000 of 110000000 tuples (7%) done (elapsed 13.15 s, remaining 153.17 s).
8800000 of 110000000 tuples (8%) done (elapsed 13.21 s, remaining 151.97 s).
8900000 of 110000000 tuples (8%) done (elapsed 13.31 s, remaining 151.16 s).
9000000 of 110000000 tuples (8%) done (elapsed 13.57 s, remaining 152.30 s).
9100000 of 110000000 tuples (8%) done (elapsed 13.63 s, remaining 151.14 s).
9200000 of 110000000 tuples (8%) done (elapsed 13.84 s, remaining 151.59 s).
9300000 of 110000000 tuples (8%) done (elapsed 13.92 s, remaining 150.67 s).
9400000 of 110000000 tuples (8%) done (elapsed 13.97 s, remaining 149.56 s).
9500000 of 110000000 tuples (8%) done (elapsed 14.23 s, remaining 150.50 s).
9600000 of 110000000 tuples (8%) done (elapsed 14.29 s, remaining 149.41 s).
9700000 of 110000000 tuples (8%) done (elapsed 14.62 s, remaining 151.17 s).
9800000 of 110000000 tuples (8%) done (elapsed 14.68 s, remaining 150.08 s).
9900000 of 110000000 tuples (9%) done (elapsed 14.77 s, remaining 149.36 s).
10000000 of 110000000 tuples (9%) done (elapsed 14.98 s, remaining 149.82 s).
10100000 of 110000000 tuples (9%) done (elapsed 15.16 s, remaining 149.92 s).
10200000 of 110000000 tuples (9%) done (elapsed 15.24 s, remaining 149.13 s).
10300000 of 110000000 tuples (9%) done (elapsed 15.33 s, remaining 148.42 s).
10400000 of 110000000 tuples (9%) done (elapsed 15.65 s, remaining 149.86 s).
10500000 of 110000000 tuples (9%) done (elapsed 15.73 s, remaining 149.08 s).
10600000 of 110000000 tuples (9%) done (elapsed 16.01 s, remaining 150.16 s).
10700000 of 110000000 tuples (9%) done (elapsed 16.10 s, remaining 149.37 s).
10800000 of 110000000 tuples (9%) done (elapsed 16.15 s, remaining 148.34 s).
10900000 of 110000000 tuples (9%) done (elapsed 16.37 s, remaining 148.85 s).
11000000 of 110000000 tuples (10%) done (elapsed 16.52 s, remaining 148.72 s).
11100000 of 110000000 tuples (10%) done (elapsed 16.58 s, remaining 147.75 s).
11200000 of 110000000 tuples (10%) done (elapsed 16.94 s, remaining 149.43 s).
11300000 of 110000000 tuples (10%) done (elapsed 16.99 s, remaining 148.43 s).
11400000 of 110000000 tuples (10%) done (elapsed 17.30 s, remaining 149.63 s).
11500000 of 110000000 tuples (10%) done (elapsed 17.35 s, remaining 148.64 s).
11600000 of 110000000 tuples (10%) done (elapsed 17.44 s, remaining 147.91 s).
11700000 of 110000000 tuples (10%) done (elapsed 17.65 s, remaining 148.31 s).
11800000 of 110000000 tuples (10%) done (elapsed 17.81 s, remaining 148.20 s).
11900000 of 110000000 tuples (10%) done (elapsed 17.86 s, remaining 147.27 s).
12000000 of 110000000 tuples (10%) done (elapsed 17.99 s, remaining 146.88 s).
12100000 of 110000000 tuples (11%) done (elapsed 18.30 s, remaining 148.10 s).
12200000 of 110000000 tuples (11%) done (elapsed 18.36 s, remaining 147.17 s).
12300000 of 110000000 tuples (11%) done (elapsed 18.67 s, remaining 148.31 s).
12400000 of 110000000 tuples (11%) done (elapsed 18.73 s, remaining 147.39 s).
12500000 of 110000000 tuples (11%) done (elapsed 18.97 s, remaining 147.94 s).
12600000 of 110000000 tuples (11%) done (elapsed 19.02 s, remaining 147.03 s).
12700000 of 110000000 tuples (11%) done (elapsed 19.17 s, remaining 146.89 s).
12800000 of 110000000 tuples (11%) done (elapsed 19.26 s, remaining 146.23 s).
12900000 of 110000000 tuples (11%) done (elapsed 19.58 s, remaining 147.41 s).
13000000 of 110000000 tuples (11%) done (elapsed 19.67 s, remaining 146.75 s).
13100000 of 110000000 tuples (11%) done (elapsed 19.72 s, remaining 145.88 s).
13200000 of 110000000 tuples (12%) done (elapsed 20.04 s, remaining 146.95 s).
13300000 of 110000000 tuples (12%) done (elapsed 20.09 s, remaining 146.09 s).
13400000 of 110000000 tuples (12%) done (elapsed 20.32 s, remaining 146.49 s).
13500000 of 110000000 tuples (12%) done (elapsed 20.44 s, remaining 146.11 s).
13600000 of 110000000 tuples (12%) done (elapsed 20.53 s, remaining 145.50 s).
13700000 of 110000000 tuples (12%) done (elapsed 20.58 s, remaining 144.67 s).
13800000 of 110000000 tuples (12%) done (elapsed 20.93 s, remaining 145.90 s).
13900000 of 110000000 tuples (12%) done (elapsed 20.98 s, remaining 145.07 s).
14000000 of 110000000 tuples (12%) done (elapsed 21.28 s, remaining 145.95 s).
14100000 of 110000000 tuples (12%) done (elapsed 21.37 s, remaining 145.33 s).
14200000 of 110000000 tuples (12%) done (elapsed 21.57 s, remaining 145.49 s).
14300000 of 110000000 tuples (13%) done (elapsed 21.72 s, remaining 145.32 s).
14400000 of 110000000 tuples (13%) done (elapsed 21.77 s, remaining 144.52 s).
14500000 of 110000000 tuples (13%) done (elapsed 21.85 s, remaining 143.93 s).
14600000 of 110000000 tuples (13%) done (elapsed 22.18 s, remaining 144.90 s).
14700000 of 110000000 tuples (13%) done (elapsed 22.26 s, remaining 144.31 s).
14800000 of 110000000 tuples (13%) done (elapsed 22.55 s, remaining 145.08 s).
14900000 of 110000000 tuples (13%) done (elapsed 22.61 s, remaining 144.30 s).
15000000 of 110000000 tuples (13%) done (elapsed 22.85 s, remaining 144.71 s).
15100000 of 110000000 tuples (13%) done (elapsed 22.90 s, remaining 143.93 s).
15200000 of 110000000 tuples (13%) done (elapsed 23.05 s, remaining 143.78 s).
15300000 of 110000000 tuples (13%) done (elapsed 23.11 s, remaining 143.02 s).
15400000 of 110000000 tuples (14%) done (elapsed 23.46 s, remaining 144.08 s).
15500000 of 110000000 tuples (14%) done (elapsed 23.51 s, remaining 143.33 s).
15600000 of 110000000 tuples (14%) done (elapsed 23.59 s, remaining 142.77 s).
15700000 of 110000000 tuples (14%) done (elapsed 23.90 s, remaining 143.54 s).
15800000 of 110000000 tuples (14%) done (elapsed 23.95 s, remaining 142.80 s).
15900000 of 110000000 tuples (14%) done (elapsed 24.18 s, remaining 143.10 s).
16000000 of 110000000 tuples (14%) done (elapsed 24.30 s, remaining 142.75 s).
16100000 of 110000000 tuples (14%) done (elapsed 24.38 s, remaining 142.21 s).
16200000 of 110000000 tuples (14%) done (elapsed 24.44 s, remaining 141.49 s).
16300000 of 110000000 tuples (14%) done (elapsed 24.78 s, remaining 142.45 s).
16400000 of 110000000 tuples (14%) done (elapsed 24.83 s, remaining 141.73 s).
16500000 of 110000000 tuples (15%) done (elapsed 25.13 s, remaining 142.41 s).
16600000 of 110000000 tuples (15%) done (elapsed 25.21 s, remaining 141.87 s).
16700000 of 110000000 tuples (15%) done (elapsed 25.49 s, remaining 142.39 s).
16800000 of 110000000 tuples (15%) done (elapsed 25.57 s, remaining 141.84 s).
16900000 of 110000000 tuples (15%) done (elapsed 25.62 s, remaining 141.15 s).
17000000 of 110000000 tuples (15%) done (elapsed 25.86 s, remaining 141.47 s).
17100000 of 110000000 tuples (15%) done (elapsed 25.98 s, remaining 141.15 s).
17200000 of 110000000 tuples (15%) done (elapsed 26.06 s, remaining 140.63 s).
17300000 of 110000000 tuples (15%) done (elapsed 26.38 s, remaining 141.38 s).
17400000 of 110000000 tuples (15%) done (elapsed 26.47 s, remaining 140.86 s).
17500000 of 110000000 tuples (15%) done (elapsed 26.52 s, remaining 140.19 s).
17600000 of 110000000 tuples (16%) done (elapsed 26.84 s, remaining 140.90 s).
17700000 of 110000000 tuples (16%) done (elapsed 26.89 s, remaining 140.23 s).
17800000 of 110000000 tuples (16%) done (elapsed 27.10 s, remaining 140.39 s).
17900000 of 110000000 tuples (16%) done (elapsed 27.24 s, remaining 140.17 s).
18000000 of 110000000 tuples (16%) done (elapsed 27.30 s, remaining 139.53 s).
18100000 of 110000000 tuples (16%) done (elapsed 27.64 s, remaining 140.35 s).
18200000 of 110000000 tuples (16%) done (elapsed 27.70 s, remaining 139.70 s).
18300000 of 110000000 tuples (16%) done (elapsed 27.78 s, remaining 139.21 s).
18400000 of 110000000 tuples (16%) done (elapsed 28.08 s, remaining 139.79 s).
18500000 of 110000000 tuples (16%) done (elapsed 28.13 s, remaining 139.15 s).
18600000 of 110000000 tuples (16%) done (elapsed 28.36 s, remaining 139.35 s).
18700000 of 110000000 tuples (17%) done (elapsed 28.47 s, remaining 139.01 s).
18800000 of 110000000 tuples (17%) done (elapsed 28.56 s, remaining 138.53 s).
18900000 of 110000000 tuples (17%) done (elapsed 28.61 s, remaining 137.90 s).
19000000 of 110000000 tuples (17%) done (elapsed 28.94 s, remaining 138.63 s).
19100000 of 110000000 tuples (17%) done (elapsed 29.00 s, remaining 138.01 s).
19200000 of 110000000 tuples (17%) done (elapsed 29.30 s, remaining 138.56 s).
19300000 of 110000000 tuples (17%) done (elapsed 29.38 s, remaining 138.08 s).
19400000 of 110000000 tuples (17%) done (elapsed 29.57 s, remaining 138.11 s).
19500000 of 110000000 tuples (17%) done (elapsed 29.73 s, remaining 137.97 s).
19600000 of 110000000 tuples (17%) done (elapsed 29.78 s, remaining 137.37 s).
19700000 of 110000000 tuples (17%) done (elapsed 29.87 s, remaining 136.91 s).
19800000 of 110000000 tuples (18%) done (elapsed 30.21 s, remaining 137.60 s).
19900000 of 110000000 tuples (18%) done (elapsed 30.26 s, remaining 137.01 s).
20000000 of 110000000 tuples (18%) done (elapsed 30.55 s, remaining 137.47 s).
20100000 of 110000000 tuples (18%) done (elapsed 30.63 s, remaining 137.00 s).
20200000 of 110000000 tuples (18%) done (elapsed 30.82 s, remaining 137.02 s).
20300000 of 110000000 tuples (18%) done (elapsed 30.96 s, remaining 136.81 s).
20400000 of 110000000 tuples (18%) done (elapsed 31.02 s, remaining 136.23 s).
20500000 of 110000000 tuples (18%) done (elapsed 31.10 s, remaining 135.78 s).
20600000 of 110000000 tuples (18%) done (elapsed 31.43 s, remaining 136.41 s).
20700000 of 110000000 tuples (18%) done (elapsed 31.49 s, remaining 135.83 s).
20800000 of 110000000 tuples (18%) done (elapsed 31.81 s, remaining 136.40 s).
20900000 of 110000000 tuples (19%) done (elapsed 31.86 s, remaining 135.82 s).
21000000 of 110000000 tuples (19%) done (elapsed 31.94 s, remaining 135.38 s).
21100000 of 110000000 tuples (19%) done (elapsed 32.16 s, remaining 135.50 s).
21200000 of 110000000 tuples (19%) done (elapsed 32.31 s, remaining 135.35 s).
21300000 of 110000000 tuples (19%) done (elapsed 32.37 s, remaining 134.79 s).
21400000 of 110000000 tuples (19%) done (elapsed 32.45 s, remaining 134.35 s).
21500000 of 110000000 tuples (19%) done (elapsed 32.82 s, remaining 135.11 s).
21600000 of 110000000 tuples (19%) done (elapsed 32.88 s, remaining 134.55 s).
21700000 of 110000000 tuples (19%) done (elapsed 33.19 s, remaining 135.06 s).
21800000 of 110000000 tuples (19%) done (elapsed 33.24 s, remaining 134.50 s).
21900000 of 110000000 tuples (19%) done (elapsed 33.33 s, remaining 134.07 s).
22000000 of 110000000 tuples (20%) done (elapsed 33.53 s, remaining 134.14 s).
22100000 of 110000000 tuples (20%) done (elapsed 33.69 s, remaining 133.99 s).
22200000 of 110000000 tuples (20%) done (elapsed 33.77 s, remaining 133.57 s).
22300000 of 110000000 tuples (20%) done (elapsed 33.83 s, remaining 133.03 s).
22400000 of 110000000 tuples (20%) done (elapsed 34.19 s, remaining 133.69 s).
22500000 of 110000000 tuples (20%) done (elapsed 34.24 s, remaining 133.15 s).
22600000 of 110000000 tuples (20%) done (elapsed 34.57 s, remaining 133.69 s).
22700000 of 110000000 tuples (20%) done (elapsed 34.62 s, remaining 133.15 s).
22800000 of 110000000 tuples (20%) done (elapsed 34.71 s, remaining 132.74 s).
22900000 of 110000000 tuples (20%) done (elapsed 34.94 s, remaining 132.91 s).
23000000 of 110000000 tuples (20%) done (elapsed 35.07 s, remaining 132.65 s).
23100000 of 110000000 tuples (21%) done (elapsed 35.15 s, remaining 132.24 s).
23200000 of 110000000 tuples (21%) done (elapsed 35.51 s, remaining 132.86 s).
23300000 of 110000000 tuples (21%) done (elapsed 35.56 s, remaining 132.34 s).
23400000 of 110000000 tuples (21%) done (elapsed 35.65 s, remaining 131.93 s).
23500000 of 110000000 tuples (21%) done (elapsed 35.94 s, remaining 132.30 s).
23600000 of 110000000 tuples (21%) done (elapsed 36.03 s, remaining 131.89 s).
23700000 of 110000000 tuples (21%) done (elapsed 36.08 s, remaining 131.38 s).
23800000 of 110000000 tuples (21%) done (elapsed 36.31 s, remaining 131.52 s).
23900000 of 110000000 tuples (21%) done (elapsed 36.47 s, remaining 131.38 s).
24000000 of 110000000 tuples (21%) done (elapsed 36.52 s, remaining 130.88 s).
24100000 of 110000000 tuples (21%) done (elapsed 36.89 s, remaining 131.48 s).
24200000 of 110000000 tuples (22%) done (elapsed 36.94 s, remaining 130.97 s).
24300000 of 110000000 tuples (22%) done (elapsed 37.02 s, remaining 130.57 s).
24400000 of 110000000 tuples (22%) done (elapsed 37.31 s, remaining 130.90 s).
24500000 of 110000000 tuples (22%) done (elapsed 37.40 s, remaining 130.51 s).
24600000 of 110000000 tuples (22%) done (elapsed 37.70 s, remaining 130.87 s).
24700000 of 110000000 tuples (22%) done (elapsed 37.75 s, remaining 130.38 s).
24800000 of 110000000 tuples (22%) done (elapsed 37.84 s, remaining 129.98 s).
24900000 of 110000000 tuples (22%) done (elapsed 38.04 s, remaining 130.02 s).
25000000 of 110000000 tuples (22%) done (elapsed 38.19 s, remaining 129.86 s).
25100000 of 110000000 tuples (22%) done (elapsed 38.28 s, remaining 129.47 s).
25200000 of 110000000 tuples (22%) done (elapsed 38.33 s, remaining 128.99 s).
25300000 of 110000000 tuples (23%) done (elapsed 38.68 s, remaining 129.51 s).
25400000 of 110000000 tuples (23%) done (elapsed 38.77 s, remaining 129.13 s).
25500000 of 110000000 tuples (23%) done (elapsed 39.06 s, remaining 129.44 s).
25600000 of 110000000 tuples (23%) done (elapsed 39.14 s, remaining 129.05 s).
25700000 of 110000000 tuples (23%) done (elapsed 39.20 s, remaining 128.58 s).
25800000 of 110000000 tuples (23%) done (elapsed 39.43 s, remaining 128.69 s).
25900000 of 110000000 tuples (23%) done (elapsed 39.58 s, remaining 128.53 s).
26000000 of 110000000 tuples (23%) done (elapsed 39.64 s, remaining 128.06 s).
26100000 of 110000000 tuples (23%) done (elapsed 39.98 s, remaining 128.53 s).
26200000 of 110000000 tuples (23%) done (elapsed 40.04 s, remaining 128.06 s).
26300000 of 110000000 tuples (23%) done (elapsed 40.12 s, remaining 127.68 s).
26400000 of 110000000 tuples (24%) done (elapsed 40.44 s, remaining 128.06 s).
26500000 of 110000000 tuples (24%) done (elapsed 40.49 s, remaining 127.59 s).
26600000 of 110000000 tuples (24%) done (elapsed 40.71 s, remaining 127.65 s).
26700000 of 110000000 tuples (24%) done (elapsed 40.87 s, remaining 127.49 s).
26800000 of 110000000 tuples (24%) done (elapsed 40.92 s, remaining 127.03 s).
26900000 of 110000000 tuples (24%) done (elapsed 41.04 s, remaining 126.79 s).
27000000 of 110000000 tuples (24%) done (elapsed 41.36 s, remaining 127.15 s).
27100000 of 110000000 tuples (24%) done (elapsed 41.41 s, remaining 126.69 s).
27200000 of 110000000 tuples (24%) done (elapsed 41.73 s, remaining 127.02 s).
27300000 of 110000000 tuples (24%) done (elapsed 41.78 s, remaining 126.57 s).
27400000 of 110000000 tuples (24%) done (elapsed 41.86 s, remaining 126.20 s).
27500000 of 110000000 tuples (25%) done (elapsed 42.09 s, remaining 126.26 s).
27600000 of 110000000 tuples (25%) done (elapsed 42.21 s, remaining 126.02 s).
27700000 of 110000000 tuples (25%) done (elapsed 42.30 s, remaining 125.66 s).
27800000 of 110000000 tuples (25%) done (elapsed 42.64 s, remaining 126.08 s).
27900000 of 110000000 tuples (25%) done (elapsed 42.70 s, remaining 125.64 s).
28000000 of 110000000 tuples (25%) done (elapsed 42.78 s, remaining 125.28 s).
28100000 of 110000000 tuples (25%) done (elapsed 43.05 s, remaining 125.49 s).
28200000 of 110000000 tuples (25%) done (elapsed 43.14 s, remaining 125.13 s).
28300000 of 110000000 tuples (25%) done (elapsed 43.37 s, remaining 125.19 s).
28400000 of 110000000 tuples (25%) done (elapsed 43.50 s, remaining 124.98 s).
28500000 of 110000000 tuples (25%) done (elapsed 43.58 s, remaining 124.63 s).
28600000 of 110000000 tuples (26%) done (elapsed 43.64 s, remaining 124.20 s).
28700000 of 110000000 tuples (26%) done (elapsed 43.99 s, remaining 124.62 s).
28800000 of 110000000 tuples (26%) done (elapsed 44.05 s, remaining 124.18 s).
28900000 of 110000000 tuples (26%) done (elapsed 44.35 s, remaining 124.47 s).
29000000 of 110000000 tuples (26%) done (elapsed 44.41 s, remaining 124.04 s).
29100000 of 110000000 tuples (26%) done (elapsed 44.63 s, remaining 124.09 s).
29200000 of 110000000 tuples (26%) done (elapsed 44.69 s, remaining 123.66 s).
29300000 of 110000000 tuples (26%) done (elapsed 44.85 s, remaining 123.52 s).
29400000 of 110000000 tuples (26%) done (elapsed 44.90 s, remaining 123.10 s).
29500000 of 110000000 tuples (26%) done (elapsed 45.25 s, remaining 123.49 s).
29600000 of 110000000 tuples (26%) done (elapsed 45.34 s, remaining 123.14 s).
29700000 of 110000000 tuples (27%) done (elapsed 45.39 s, remaining 122.72 s).
29800000 of 110000000 tuples (27%) done (elapsed 45.69 s, remaining 122.96 s).
29900000 of 110000000 tuples (27%) done (elapsed 45.74 s, remaining 122.54 s).
30000000 of 110000000 tuples (27%) done (elapsed 45.97 s, remaining 122.58 s).
30100000 of 110000000 tuples (27%) done (elapsed 46.09 s, remaining 122.34 s).
30200000 of 110000000 tuples (27%) done (elapsed 46.17 s, remaining 122.01 s).
30300000 of 110000000 tuples (27%) done (elapsed 46.23 s, remaining 121.60 s).
30400000 of 110000000 tuples (27%) done (elapsed 46.57 s, remaining 121.95 s).
30500000 of 110000000 tuples (27%) done (elapsed 46.63 s, remaining 121.54 s).
30600000 of 110000000 tuples (27%) done (elapsed 46.93 s, remaining 121.76 s).
30700000 of 110000000 tuples (27%) done (elapsed 47.01 s, remaining 121.43 s).
30800000 of 110000000 tuples (28%) done (elapsed 47.22 s, remaining 121.42 s).
30900000 of 110000000 tuples (28%) done (elapsed 47.37 s, remaining 121.26 s).
31000000 of 110000000 tuples (28%) done (elapsed 47.42 s, remaining 120.85 s).
31100000 of 110000000 tuples (28%) done (elapsed 47.51 s, remaining 120.52 s).
31200000 of 110000000 tuples (28%) done (elapsed 47.83 s, remaining 120.80 s).
31300000 of 110000000 tuples (28%) done (elapsed 47.91 s, remaining 120.47 s).
31400000 of 110000000 tuples (28%) done (elapsed 48.22 s, remaining 120.71 s).
31500000 of 110000000 tuples (28%) done (elapsed 48.27 s, remaining 120.30 s).
31600000 of 110000000 tuples (28%) done (elapsed 48.50 s, remaining 120.34 s).
31700000 of 110000000 tuples (28%) done (elapsed 48.56 s, remaining 119.94 s).
31800000 of 110000000 tuples (28%) done (elapsed 48.72 s, remaining 119.80 s).
31900000 of 110000000 tuples (29%) done (elapsed 48.77 s, remaining 119.41 s).
32000000 of 110000000 tuples (29%) done (elapsed 49.12 s, remaining 119.74 s).
32100000 of 110000000 tuples (29%) done (elapsed 49.18 s, remaining 119.35 s).
32200000 of 110000000 tuples (29%) done (elapsed 49.26 s, remaining 119.03 s).
32300000 of 110000000 tuples (29%) done (elapsed 49.56 s, remaining 119.22 s).
32400000 of 110000000 tuples (29%) done (elapsed 49.61 s, remaining 118.82 s).
32500000 of 110000000 tuples (29%) done (elapsed 49.97 s, remaining 119.16 s).
32600000 of 110000000 tuples (29%) done (elapsed 50.05 s, remaining 118.83 s).
32700000 of 110000000 tuples (29%) done (elapsed 50.11 s, remaining 118.45 s).
32800000 of 110000000 tuples (29%) done (elapsed 50.39 s, remaining 118.60 s).
32900000 of 110000000 tuples (29%) done (elapsed 50.44 s, remaining 118.21 s).
33000000 of 110000000 tuples (30%) done (elapsed 50.67 s, remaining 118.23 s).
33100000 of 110000000 tuples (30%) done (elapsed 50.72 s, remaining 117.84 s).
33200000 of 110000000 tuples (30%) done (elapsed 50.86 s, remaining 117.65 s).
33300000 of 110000000 tuples (30%) done (elapsed 50.91 s, remaining 117.27 s).
33400000 of 110000000 tuples (30%) done (elapsed 51.26 s, remaining 117.55 s).
33500000 of 110000000 tuples (30%) done (elapsed 51.31 s, remaining 117.17 s).
33600000 of 110000000 tuples (30%) done (elapsed 51.64 s, remaining 117.43 s).
33700000 of 110000000 tuples (30%) done (elapsed 51.70 s, remaining 117.05 s).
33800000 of 110000000 tuples (30%) done (elapsed 51.78 s, remaining 116.74 s).
33900000 of 110000000 tuples (30%) done (elapsed 51.99 s, remaining 116.70 s).
34000000 of 110000000 tuples (30%) done (elapsed 52.15 s, remaining 116.56 s).
34100000 of 110000000 tuples (31%) done (elapsed 52.23 s, remaining 116.25 s).
34200000 of 110000000 tuples (31%) done (elapsed 52.28 s, remaining 115.88 s).
34300000 of 110000000 tuples (31%) done (elapsed 52.64 s, remaining 116.17 s).
34400000 of 110000000 tuples (31%) done (elapsed 52.69 s, remaining 115.80 s).
34500000 of 110000000 tuples (31%) done (elapsed 53.01 s, remaining 116.02 s).
34600000 of 110000000 tuples (31%) done (elapsed 53.07 s, remaining 115.65 s).
34700000 of 110000000 tuples (31%) done (elapsed 53.15 s, remaining 115.34 s).
34800000 of 110000000 tuples (31%) done (elapsed 53.38 s, remaining 115.35 s).
34900000 of 110000000 tuples (31%) done (elapsed 53.51 s, remaining 115.14 s).
35000000 of 110000000 tuples (31%) done (elapsed 53.59 s, remaining 114.84 s).
35100000 of 110000000 tuples (31%) done (elapsed 53.65 s, remaining 114.47 s).
35200000 of 110000000 tuples (32%) done (elapsed 54.01 s, remaining 114.76 s).
35300000 of 110000000 tuples (32%) done (elapsed 54.09 s, remaining 114.46 s).
35400000 of 110000000 tuples (32%) done (elapsed 54.37 s, remaining 114.58 s).
35500000 of 110000000 tuples (32%) done (elapsed 54.45 s, remaining 114.28 s).
35600000 of 110000000 tuples (32%) done (elapsed 54.51 s, remaining 113.91 s).
35700000 of 110000000 tuples (32%) done (elapsed 54.74 s, remaining 113.92 s).
35800000 of 110000000 tuples (32%) done (elapsed 54.86 s, remaining 113.70 s).
35900000 of 110000000 tuples (32%) done (elapsed 54.94 s, remaining 113.41 s).
36000000 of 110000000 tuples (32%) done (elapsed 55.31 s, remaining 113.69 s).
36100000 of 110000000 tuples (32%) done (elapsed 55.36 s, remaining 113.33 s).
36200000 of 110000000 tuples (32%) done (elapsed 55.45 s, remaining 113.04 s).
36300000 of 110000000 tuples (33%) done (elapsed 55.73 s, remaining 113.15 s).
36400000 of 110000000 tuples (33%) done (elapsed 55.81 s, remaining 112.85 s).
36500000 of 110000000 tuples (33%) done (elapsed 56.05 s, remaining 112.86 s).
36600000 of 110000000 tuples (33%) done (elapsed 56.10 s, remaining 112.50 s).
36700000 of 110000000 tuples (33%) done (elapsed 56.26 s, remaining 112.36 s).
36800000 of 110000000 tuples (33%) done (elapsed 56.31 s, remaining 112.01 s).
36900000 of 110000000 tuples (33%) done (elapsed 56.67 s, remaining 112.26 s).
37000000 of 110000000 tuples (33%) done (elapsed 56.75 s, remaining 111.97 s).
37100000 of 110000000 tuples (33%) done (elapsed 56.80 s, remaining 111.62 s).
37200000 of 110000000 tuples (33%) done (elapsed 57.12 s, remaining 111.79 s).
37300000 of 110000000 tuples (33%) done (elapsed 57.18 s, remaining 111.44 s).
37400000 of 110000000 tuples (34%) done (elapsed 57.40 s, remaining 111.43 s).
37500000 of 110000000 tuples (34%) done (elapsed 57.55 s, remaining 111.27 s).
37600000 of 110000000 tuples (34%) done (elapsed 57.61 s, remaining 110.92 s).
37700000 of 110000000 tuples (34%) done (elapsed 57.73 s, remaining 110.71 s).
37800000 of 110000000 tuples (34%) done (elapsed 58.04 s, remaining 110.86 s).
37900000 of 110000000 tuples (34%) done (elapsed 58.09 s, remaining 110.52 s).
38000000 of 110000000 tuples (34%) done (elapsed 58.40 s, remaining 110.66 s).
38100000 of 110000000 tuples (34%) done (elapsed 58.46 s, remaining 110.32 s).
38200000 of 110000000 tuples (34%) done (elapsed 58.54 s, remaining 110.03 s).
38300000 of 110000000 tuples (34%) done (elapsed 58.76 s, remaining 110.01 s).
38400000 of 110000000 tuples (34%) done (elapsed 58.89 s, remaining 109.80 s).
38500000 of 110000000 tuples (35%) done (elapsed 58.97 s, remaining 109.52 s).
38600000 of 110000000 tuples (35%) done (elapsed 59.32 s, remaining 109.74 s).
38700000 of 110000000 tuples (35%) done (elapsed 59.38 s, remaining 109.40 s).
38800000 of 110000000 tuples (35%) done (elapsed 59.46 s, remaining 109.12 s).
38900000 of 110000000 tuples (35%) done (elapsed 59.74 s, remaining 109.20 s).
39000000 of 110000000 tuples (35%) done (elapsed 59.83 s, remaining 108.92 s).
39100000 of 110000000 tuples (35%) done (elapsed 60.05 s, remaining 108.89 s).
39200000 of 110000000 tuples (35%) done (elapsed 60.10 s, remaining 108.55 s).
39300000 of 110000000 tuples (35%) done (elapsed 60.25 s, remaining 108.39 s).
39400000 of 110000000 tuples (35%) done (elapsed 60.31 s, remaining 108.06 s).
39500000 of 110000000 tuples (35%) done (elapsed 60.65 s, remaining 108.26 s).
39600000 of 110000000 tuples (36%) done (elapsed 60.74 s, remaining 107.98 s).
39700000 of 110000000 tuples (36%) done (elapsed 60.79 s, remaining 107.65 s).
39800000 of 110000000 tuples (36%) done (elapsed 61.09 s, remaining 107.75 s).
39900000 of 110000000 tuples (36%) done (elapsed 61.15 s, remaining 107.43 s).
40000000 of 110000000 tuples (36%) done (elapsed 61.38 s, remaining 107.42 s).
40100000 of 110000000 tuples (36%) done (elapsed 61.53 s, remaining 107.26 s).
40200000 of 110000000 tuples (36%) done (elapsed 61.59 s, remaining 106.95 s).
40300000 of 110000000 tuples (36%) done (elapsed 61.95 s, remaining 107.15 s).
40400000 of 110000000 tuples (36%) done (elapsed 62.00 s, remaining 106.82 s).
40500000 of 110000000 tuples (36%) done (elapsed 62.09 s, remaining 106.55 s).
40600000 of 110000000 tuples (36%) done (elapsed 62.41 s, remaining 106.69 s).
40700000 of 110000000 tuples (37%) done (elapsed 62.50 s, remaining 106.42 s).
40800000 of 110000000 tuples (37%) done (elapsed 62.55 s, remaining 106.09 s).
40900000 of 110000000 tuples (37%) done (elapsed 62.64 s, remaining 105.82 s).
41000000 of 110000000 tuples (37%) done (elapsed 62.96 s, remaining 105.96 s).
41100000 of 110000000 tuples (37%) done (elapsed 63.01 s, remaining 105.64 s).
41200000 of 110000000 tuples (37%) done (elapsed 63.24 s, remaining 105.60 s).
41300000 of 110000000 tuples (37%) done (elapsed 63.38 s, remaining 105.43 s).
41400000 of 110000000 tuples (37%) done (elapsed 63.44 s, remaining 105.12 s).
41500000 of 110000000 tuples (37%) done (elapsed 63.80 s, remaining 105.30 s).
41600000 of 110000000 tuples (37%) done (elapsed 63.85 s, remaining 104.98 s).
41700000 of 110000000 tuples (37%) done (elapsed 63.93 s, remaining 104.71 s).
41800000 of 110000000 tuples (38%) done (elapsed 64.21 s, remaining 104.76 s).
41900000 of 110000000 tuples (38%) done (elapsed 64.29 s, remaining 104.49 s).
42000000 of 110000000 tuples (38%) done (elapsed 64.34 s, remaining 104.17 s).
42100000 of 110000000 tuples (38%) done (elapsed 64.57 s, remaining 104.14 s).
42200000 of 110000000 tuples (38%) done (elapsed 64.69 s, remaining 103.93 s).
42300000 of 110000000 tuples (38%) done (elapsed 64.77 s, remaining 103.67 s).
42400000 of 110000000 tuples (38%) done (elapsed 65.11 s, remaining 103.81 s).
42500000 of 110000000 tuples (38%) done (elapsed 65.17 s, remaining 103.50 s).
42600000 of 110000000 tuples (38%) done (elapsed 65.25 s, remaining 103.24 s).
42700000 of 110000000 tuples (38%) done (elapsed 65.52 s, remaining 103.27 s).
42800000 of 110000000 tuples (38%) done (elapsed 65.61 s, remaining 103.01 s).
42900000 of 110000000 tuples (39%) done (elapsed 65.82 s, remaining 102.96 s).
43000000 of 110000000 tuples (39%) done (elapsed 65.97 s, remaining 102.79 s).
43100000 of 110000000 tuples (39%) done (elapsed 66.03 s, remaining 102.49 s).
43200000 of 110000000 tuples (39%) done (elapsed 66.39 s, remaining 102.65 s).
43300000 of 110000000 tuples (39%) done (elapsed 66.44 s, remaining 102.35 s).
43400000 of 110000000 tuples (39%) done (elapsed 66.52 s, remaining 102.08 s).
43500000 of 110000000 tuples (39%) done (elapsed 66.81 s, remaining 102.14 s).
43600000 of 110000000 tuples (39%) done (elapsed 66.90 s, remaining 101.88 s).
43700000 of 110000000 tuples (39%) done (elapsed 66.95 s, remaining 101.57 s).
43800000 of 110000000 tuples (39%) done (elapsed 67.17 s, remaining 101.52 s).
43900000 of 110000000 tuples (39%) done (elapsed 67.29 s, remaining 101.32 s).
44000000 of 110000000 tuples (40%) done (elapsed 67.37 s, remaining 101.06 s).
44100000 of 110000000 tuples (40%) done (elapsed 67.53 s, remaining 100.92 s).
44200000 of 110000000 tuples (40%) done (elapsed 67.62 s, remaining 100.66 s).
44300000 of 110000000 tuples (40%) done (elapsed 67.93 s, remaining 100.74 s).
44400000 of 110000000 tuples (40%) done (elapsed 67.98 s, remaining 100.44 s).
44500000 of 110000000 tuples (40%) done (elapsed 68.06 s, remaining 100.18 s).
44600000 of 110000000 tuples (40%) done (elapsed 68.26 s, remaining 100.09 s).
44700000 of 110000000 tuples (40%) done (elapsed 68.41 s, remaining 99.93 s).
44800000 of 110000000 tuples (40%) done (elapsed 68.46 s, remaining 99.63 s).
44900000 of 110000000 tuples (40%) done (elapsed 68.81 s, remaining 99.76 s).
45000000 of 110000000 tuples (40%) done (elapsed 68.86 s, remaining 99.46 s).
45100000 of 110000000 tuples (41%) done (elapsed 68.94 s, remaining 99.21 s).
45200000 of 110000000 tuples (41%) done (elapsed 69.22 s, remaining 99.23 s).
45300000 of 110000000 tuples (41%) done (elapsed 69.30 s, remaining 98.98 s).
45400000 of 110000000 tuples (41%) done (elapsed 69.52 s, remaining 98.92 s).
45500000 of 110000000 tuples (41%) done (elapsed 69.58 s, remaining 98.63 s).
45600000 of 110000000 tuples (41%) done (elapsed 69.72 s, remaining 98.47 s).
45700000 of 110000000 tuples (41%) done (elapsed 69.78 s, remaining 98.18 s).
45800000 of 110000000 tuples (41%) done (elapsed 70.13 s, remaining 98.30 s).
45900000 of 110000000 tuples (41%) done (elapsed 70.18 s, remaining 98.01 s).
46000000 of 110000000 tuples (41%) done (elapsed 70.50 s, remaining 98.08 s).
46100000 of 110000000 tuples (41%) done (elapsed 70.55 s, remaining 97.79 s).
46200000 of 110000000 tuples (42%) done (elapsed 70.63 s, remaining 97.54 s).
46300000 of 110000000 tuples (42%) done (elapsed 70.85 s, remaining 97.48 s).
46400000 of 110000000 tuples (42%) done (elapsed 70.96 s, remaining 97.27 s).
46500000 of 110000000 tuples (42%) done (elapsed 71.05 s, remaining 97.02 s).
46600000 of 110000000 tuples (42%) done (elapsed 71.37 s, remaining 97.11 s).
46700000 of 110000000 tuples (42%) done (elapsed 71.43 s, remaining 96.82 s).
46800000 of 110000000 tuples (42%) done (elapsed 71.73 s, remaining 96.87 s).
46900000 of 110000000 tuples (42%) done (elapsed 71.82 s, remaining 96.62 s).
47000000 of 110000000 tuples (42%) done (elapsed 71.87 s, remaining 96.34 s).
47100000 of 110000000 tuples (42%) done (elapsed 72.09 s, remaining 96.27 s).
47200000 of 110000000 tuples (42%) done (elapsed 72.20 s, remaining 96.07 s).
47300000 of 110000000 tuples (43%) done (elapsed 72.29 s, remaining 95.82 s).
47400000 of 110000000 tuples (43%) done (elapsed 72.61 s, remaining 95.90 s).
47500000 of 110000000 tuples (43%) done (elapsed 72.70 s, remaining 95.65 s).
47600000 of 110000000 tuples (43%) done (elapsed 72.75 s, remaining 95.37 s).
47700000 of 110000000 tuples (43%) done (elapsed 73.05 s, remaining 95.41 s).
47800000 of 110000000 tuples (43%) done (elapsed 73.27 s, remaining 95.34 s).
47900000 of 110000000 tuples (43%) done (elapsed 73.32 s, remaining 95.06 s).
48000000 of 110000000 tuples (43%) done (elapsed 73.48 s, remaining 94.92 s).
48100000 of 110000000 tuples (43%) done (elapsed 73.54 s, remaining 94.64 s).
48200000 of 110000000 tuples (43%) done (elapsed 73.88 s, remaining 94.73 s).
48300000 of 110000000 tuples (43%) done (elapsed 73.93 s, remaining 94.45 s).
48400000 of 110000000 tuples (44%) done (elapsed 74.05 s, remaining 94.25 s).
48500000 of 110000000 tuples (44%) done (elapsed 74.32 s, remaining 94.24 s).
48600000 of 110000000 tuples (44%) done (elapsed 74.37 s, remaining 93.96 s).
48700000 of 110000000 tuples (44%) done (elapsed 74.67 s, remaining 93.99 s).
48800000 of 110000000 tuples (44%) done (elapsed 74.73 s, remaining 93.71 s).
48900000 of 110000000 tuples (44%) done (elapsed 74.94 s, remaining 93.64 s).
49000000 of 110000000 tuples (44%) done (elapsed 75.08 s, remaining 93.47 s).
49100000 of 110000000 tuples (44%) done (elapsed 75.14 s, remaining 93.20 s).
49200000 of 110000000 tuples (44%) done (elapsed 75.35 s, remaining 93.11 s).
49300000 of 110000000 tuples (44%) done (elapsed 75.40 s, remaining 92.84 s).
49400000 of 110000000 tuples (44%) done (elapsed 75.49 s, remaining 92.60 s).
49500000 of 110000000 tuples (45%) done (elapsed 75.76 s, remaining 92.60 s).
49600000 of 110000000 tuples (45%) done (elapsed 75.85 s, remaining 92.36 s).
49700000 of 110000000 tuples (45%) done (elapsed 76.03 s, remaining 92.25 s).
49800000 of 110000000 tuples (45%) done (elapsed 76.18 s, remaining 92.08 s).
49900000 of 110000000 tuples (45%) done (elapsed 76.23 s, remaining 91.81 s).
50000000 of 110000000 tuples (45%) done (elapsed 76.32 s, remaining 91.58 s).
50100000 of 110000000 tuples (45%) done (elapsed 76.65 s, remaining 91.64 s).
50200000 of 110000000 tuples (45%) done (elapsed 76.70 s, remaining 91.37 s).
50300000 of 110000000 tuples (45%) done (elapsed 77.00 s, remaining 91.39 s).
50400000 of 110000000 tuples (45%) done (elapsed 77.05 s, remaining 91.12 s).
50500000 of 110000000 tuples (45%) done (elapsed 77.28 s, remaining 91.05 s).
50600000 of 110000000 tuples (46%) done (elapsed 77.33 s, remaining 90.78 s).
50700000 of 110000000 tuples (46%) done (elapsed 77.47 s, remaining 90.61 s).
50800000 of 110000000 tuples (46%) done (elapsed 77.53 s, remaining 90.35 s).
50900000 of 110000000 tuples (46%) done (elapsed 77.87 s, remaining 90.41 s).
51000000 of 110000000 tuples (46%) done (elapsed 77.92 s, remaining 90.15 s).
51100000 of 110000000 tuples (46%) done (elapsed 78.22 s, remaining 90.16 s).
51200000 of 110000000 tuples (46%) done (elapsed 78.30 s, remaining 89.92 s).
51300000 of 110000000 tuples (46%) done (elapsed 78.50 s, remaining 89.82 s).
51400000 of 110000000 tuples (46%) done (elapsed 78.64 s, remaining 89.65 s).
51500000 of 110000000 tuples (46%) done (elapsed 78.69 s, remaining 89.39 s).
51600000 of 110000000 tuples (46%) done (elapsed 79.04 s, remaining 89.45 s).
51700000 of 110000000 tuples (47%) done (elapsed 79.09 s, remaining 89.19 s).
51800000 of 110000000 tuples (47%) done (elapsed 79.18 s, remaining 88.96 s).
51900000 of 110000000 tuples (47%) done (elapsed 79.46 s, remaining 88.95 s).
52000000 of 110000000 tuples (47%) done (elapsed 79.54 s, remaining 88.72 s).
52100000 of 110000000 tuples (47%) done (elapsed 79.75 s, remaining 88.63 s).
52200000 of 110000000 tuples (47%) done (elapsed 79.80 s, remaining 88.37 s).
52300000 of 110000000 tuples (47%) done (elapsed 79.94 s, remaining 88.20 s).
52400000 of 110000000 tuples (47%) done (elapsed 80.00 s, remaining 87.94 s).
52500000 of 110000000 tuples (47%) done (elapsed 80.34 s, remaining 87.99 s).
52600000 of 110000000 tuples (47%) done (elapsed 80.39 s, remaining 87.73 s).
52700000 of 110000000 tuples (47%) done (elapsed 80.69 s, remaining 87.73 s).
52800000 of 110000000 tuples (48%) done (elapsed 80.77 s, remaining 87.50 s).
52900000 of 110000000 tuples (48%) done (elapsed 80.96 s, remaining 87.39 s).
53000000 of 110000000 tuples (48%) done (elapsed 81.10 s, remaining 87.22 s).
53100000 of 110000000 tuples (48%) done (elapsed 81.16 s, remaining 86.97 s).
53200000 of 110000000 tuples (48%) done (elapsed 81.49 s, remaining 87.01 s).
53300000 of 110000000 tuples (48%) done (elapsed 81.55 s, remaining 86.75 s).
53400000 of 110000000 tuples (48%) done (elapsed 81.63 s, remaining 86.52 s).
53500000 of 110000000 tuples (48%) done (elapsed 81.90 s, remaining 86.49 s).
53600000 of 110000000 tuples (48%) done (elapsed 81.98 s, remaining 86.26 s).
53700000 of 110000000 tuples (48%) done (elapsed 82.17 s, remaining 86.15 s).
53800000 of 110000000 tuples (48%) done (elapsed 82.32 s, remaining 85.99 s).
53900000 of 110000000 tuples (49%) done (elapsed 82.37 s, remaining 85.73 s).
54000000 of 110000000 tuples (49%) done (elapsed 82.71 s, remaining 85.77 s).
54100000 of 110000000 tuples (49%) done (elapsed 82.76 s, remaining 85.52 s).
54200000 of 110000000 tuples (49%) done (elapsed 82.85 s, remaining 85.29 s).
54300000 of 110000000 tuples (49%) done (elapsed 83.15 s, remaining 85.29 s).
54400000 of 110000000 tuples (49%) done (elapsed 83.20 s, remaining 85.04 s).
54500000 of 110000000 tuples (49%) done (elapsed 83.42 s, remaining 84.95 s).
54600000 of 110000000 tuples (49%) done (elapsed 83.53 s, remaining 84.75 s).
54700000 of 110000000 tuples (49%) done (elapsed 83.61 s, remaining 84.53 s).
54800000 of 110000000 tuples (49%) done (elapsed 83.92 s, remaining 84.53 s).
54900000 of 110000000 tuples (49%) done (elapsed 84.00 s, remaining 84.31 s).
55000000 of 110000000 tuples (50%) done (elapsed 84.06 s, remaining 84.06 s).
55100000 of 110000000 tuples (50%) done (elapsed 84.35 s, remaining 84.05 s).
55200000 of 110000000 tuples (50%) done (elapsed 84.41 s, remaining 83.80 s).
55300000 of 110000000 tuples (50%) done (elapsed 84.62 s, remaining 83.70 s).
55400000 of 110000000 tuples (50%) done (elapsed 84.78 s, remaining 83.55 s).
55500000 of 110000000 tuples (50%) done (elapsed 84.83 s, remaining 83.31 s).
55600000 of 110000000 tuples (50%) done (elapsed 85.20 s, remaining 83.36 s).
55700000 of 110000000 tuples (50%) done (elapsed 85.25 s, remaining 83.11 s).
55800000 of 110000000 tuples (50%) done (elapsed 85.34 s, remaining 82.89 s).
55900000 of 110000000 tuples (50%) done (elapsed 85.64 s, remaining 82.88 s).
56000000 of 110000000 tuples (50%) done (elapsed 85.72 s, remaining 82.66 s).
56100000 of 110000000 tuples (51%) done (elapsed 85.77 s, remaining 82.41 s).
56200000 of 110000000 tuples (51%) done (elapsed 86.01 s, remaining 82.34 s).
56300000 of 110000000 tuples (51%) done (elapsed 86.14 s, remaining 82.17 s).
56400000 of 110000000 tuples (51%) done (elapsed 86.49 s, remaining 82.20 s).
56500000 of 110000000 tuples (51%) done (elapsed 86.58 s, remaining 81.98 s).
56600000 of 110000000 tuples (51%) done (elapsed 86.63 s, remaining 81.73 s).
56700000 of 110000000 tuples (51%) done (elapsed 86.95 s, remaining 81.74 s).
56800000 of 110000000 tuples (51%) done (elapsed 87.00 s, remaining 81.49 s).
56900000 of 110000000 tuples (51%) done (elapsed 87.09 s, remaining 81.27 s).
57000000 of 110000000 tuples (51%) done (elapsed 87.30 s, remaining 81.17 s).
57100000 of 110000000 tuples (51%) done (elapsed 87.46 s, remaining 81.03 s).
57200000 of 110000000 tuples (52%) done (elapsed 87.55 s, remaining 80.81 s).
57300000 of 110000000 tuples (52%) done (elapsed 87.60 s, remaining 80.57 s).
57400000 of 110000000 tuples (52%) done (elapsed 87.98 s, remaining 80.62 s).
57500000 of 110000000 tuples (52%) done (elapsed 88.03 s, remaining 80.38 s).
57600000 of 110000000 tuples (52%) done (elapsed 88.34 s, remaining 80.37 s).
57700000 of 110000000 tuples (52%) done (elapsed 88.40 s, remaining 80.12 s).
57800000 of 110000000 tuples (52%) done (elapsed 88.48 s, remaining 79.91 s).
57900000 of 110000000 tuples (52%) done (elapsed 88.72 s, remaining 79.84 s).
58000000 of 110000000 tuples (52%) done (elapsed 88.85 s, remaining 79.66 s).
58100000 of 110000000 tuples (52%) done (elapsed 88.94 s, remaining 79.45 s).
58200000 of 110000000 tuples (52%) done (elapsed 89.29 s, remaining 79.47 s).
58300000 of 110000000 tuples (53%) done (elapsed 89.34 s, remaining 79.23 s).
58400000 of 110000000 tuples (53%) done (elapsed 89.43 s, remaining 79.01 s).
58500000 of 110000000 tuples (53%) done (elapsed 89.72 s, remaining 78.98 s).
58600000 of 110000000 tuples (53%) done (elapsed 89.80 s, remaining 78.77 s).
58700000 of 110000000 tuples (53%) done (elapsed 89.86 s, remaining 78.53 s).
58800000 of 110000000 tuples (53%) done (elapsed 90.10 s, remaining 78.45 s).
58900000 of 110000000 tuples (53%) done (elapsed 90.25 s, remaining 78.30 s).
59000000 of 110000000 tuples (53%) done (elapsed 90.31 s, remaining 78.06 s).
59100000 of 110000000 tuples (53%) done (elapsed 90.67 s, remaining 78.09 s).
59200000 of 110000000 tuples (53%) done (elapsed 90.72 s, remaining 77.85 s).
59300000 of 110000000 tuples (53%) done (elapsed 90.80 s, remaining 77.64 s).
59400000 of 110000000 tuples (54%) done (elapsed 91.10 s, remaining 77.61 s).
59500000 of 110000000 tuples (54%) done (elapsed 91.19 s, remaining 77.39 s).
59600000 of 110000000 tuples (54%) done (elapsed 91.41 s, remaining 77.30 s).
59700000 of 110000000 tuples (54%) done (elapsed 91.47 s, remaining 77.06 s).
59800000 of 110000000 tuples (54%) done (elapsed 91.63 s, remaining 76.92 s).
59900000 of 110000000 tuples (54%) done (elapsed 91.68 s, remaining 76.68 s).
60000000 of 110000000 tuples (54%) done (elapsed 92.03 s, remaining 76.69 s).
60100000 of 110000000 tuples (54%) done (elapsed 92.11 s, remaining 76.48 s).
60200000 of 110000000 tuples (54%) done (elapsed 92.42 s, remaining 76.45 s).
60300000 of 110000000 tuples (54%) done (elapsed 92.47 s, remaining 76.22 s).
60400000 of 110000000 tuples (54%) done (elapsed 92.56 s, remaining 76.01 s).
60500000 of 110000000 tuples (55%) done (elapsed 92.75 s, remaining 75.88 s).
60600000 of 110000000 tuples (55%) done (elapsed 92.90 s, remaining 75.73 s).
60700000 of 110000000 tuples (55%) done (elapsed 92.98 s, remaining 75.52 s).
60800000 of 110000000 tuples (55%) done (elapsed 93.04 s, remaining 75.29 s).
60900000 of 110000000 tuples (55%) done (elapsed 93.40 s, remaining 75.30 s).
61000000 of 110000000 tuples (55%) done (elapsed 93.48 s, remaining 75.09 s).
61100000 of 110000000 tuples (55%) done (elapsed 93.76 s, remaining 75.04 s).
61200000 of 110000000 tuples (55%) done (elapsed 93.85 s, remaining 74.83 s).
61300000 of 110000000 tuples (55%) done (elapsed 94.07 s, remaining 74.73 s).
61400000 of 110000000 tuples (55%) done (elapsed 94.12 s, remaining 74.50 s).
61500000 of 110000000 tuples (55%) done (elapsed 94.28 s, remaining 74.35 s).
61600000 of 110000000 tuples (56%) done (elapsed 94.33 s, remaining 74.12 s).
61700000 of 110000000 tuples (56%) done (elapsed 94.69 s, remaining 74.12 s).
61800000 of 110000000 tuples (56%) done (elapsed 94.74 s, remaining 73.89 s).
61900000 of 110000000 tuples (56%) done (elapsed 95.07 s, remaining 73.87 s).
62000000 of 110000000 tuples (56%) done (elapsed 95.12 s, remaining 73.64 s).
62100000 of 110000000 tuples (56%) done (elapsed 95.20 s, remaining 73.43 s).
62200000 of 110000000 tuples (56%) done (elapsed 95.40 s, remaining 73.31 s).
62300000 of 110000000 tuples (56%) done (elapsed 95.55 s, remaining 73.16 s).
62400000 of 110000000 tuples (56%) done (elapsed 95.64 s, remaining 72.95 s).
62500000 of 110000000 tuples (56%) done (elapsed 95.69 s, remaining 72.72 s).
62600000 of 110000000 tuples (56%) done (elapsed 96.04 s, remaining 72.72 s).
62700000 of 110000000 tuples (57%) done (elapsed 96.12 s, remaining 72.51 s).
62800000 of 110000000 tuples (57%) done (elapsed 96.40 s, remaining 72.45 s).
62900000 of 110000000 tuples (57%) done (elapsed 96.48 s, remaining 72.24 s).
63000000 of 110000000 tuples (57%) done (elapsed 96.68 s, remaining 72.12 s).
63100000 of 110000000 tuples (57%) done (elapsed 96.83 s, remaining 71.97 s).
63200000 of 110000000 tuples (57%) done (elapsed 96.88 s, remaining 71.74 s).
63300000 of 110000000 tuples (57%) done (elapsed 96.96 s, remaining 71.54 s).
63400000 of 110000000 tuples (57%) done (elapsed 97.30 s, remaining 71.52 s).
63500000 of 110000000 tuples (57%) done (elapsed 97.39 s, remaining 71.31 s).
63600000 of 110000000 tuples (57%) done (elapsed 97.44 s, remaining 71.09 s).
63700000 of 110000000 tuples (57%) done (elapsed 97.74 s, remaining 71.04 s).
63800000 of 110000000 tuples (58%) done (elapsed 97.83 s, remaining 70.84 s).
63900000 of 110000000 tuples (58%) done (elapsed 98.02 s, remaining 70.72 s).
64000000 of 110000000 tuples (58%) done (elapsed 98.17 s, remaining 70.56 s).
64100000 of 110000000 tuples (58%) done (elapsed 98.22 s, remaining 70.34 s).
64200000 of 110000000 tuples (58%) done (elapsed 98.43 s, remaining 70.22 s).
64300000 of 110000000 tuples (58%) done (elapsed 98.64 s, remaining 70.10 s).
64400000 of 110000000 tuples (58%) done (elapsed 98.69 s, remaining 69.88 s).
64500000 of 110000000 tuples (58%) done (elapsed 99.00 s, remaining 69.83 s).
64600000 of 110000000 tuples (58%) done (elapsed 99.08 s, remaining 69.63 s).
64700000 of 110000000 tuples (58%) done (elapsed 99.37 s, remaining 69.57 s).
64800000 of 110000000 tuples (58%) done (elapsed 99.45 s, remaining 69.37 s).
64900000 of 110000000 tuples (59%) done (elapsed 99.50 s, remaining 69.15 s).
65000000 of 110000000 tuples (59%) done (elapsed 99.73 s, remaining 69.05 s).
65100000 of 110000000 tuples (59%) done (elapsed 99.86 s, remaining 68.87 s).
65200000 of 110000000 tuples (59%) done (elapsed 99.95 s, remaining 68.67 s).
65300000 of 110000000 tuples (59%) done (elapsed 100.12 s, remaining 68.53 s).
65400000 of 110000000 tuples (59%) done (elapsed 100.20 s, remaining 68.33 s).
65500000 of 110000000 tuples (59%) done (elapsed 100.26 s, remaining 68.11 s).
65600000 of 110000000 tuples (59%) done (elapsed 100.58 s, remaining 68.07 s).
65700000 of 110000000 tuples (59%) done (elapsed 100.70 s, remaining 67.90 s).
65800000 of 110000000 tuples (59%) done (elapsed 100.85 s, remaining 67.75 s).
65900000 of 110000000 tuples (59%) done (elapsed 100.99 s, remaining 67.59 s).
66000000 of 110000000 tuples (60%) done (elapsed 101.08 s, remaining 67.39 s).
66100000 of 110000000 tuples (60%) done (elapsed 101.39 s, remaining 67.34 s).
66200000 of 110000000 tuples (60%) done (elapsed 101.48 s, remaining 67.14 s).
66300000 of 110000000 tuples (60%) done (elapsed 101.53 s, remaining 66.92 s).
66400000 of 110000000 tuples (60%) done (elapsed 101.84 s, remaining 66.87 s).
66500000 of 110000000 tuples (60%) done (elapsed 101.90 s, remaining 66.65 s).
66600000 of 110000000 tuples (60%) done (elapsed 102.13 s, remaining 66.55 s).
66700000 of 110000000 tuples (60%) done (elapsed 102.25 s, remaining 66.37 s).
66800000 of 110000000 tuples (60%) done (elapsed 102.33 s, remaining 66.18 s).
66900000 of 110000000 tuples (60%) done (elapsed 102.67 s, remaining 66.14 s).
67000000 of 110000000 tuples (60%) done (elapsed 102.72 s, remaining 65.93 s).
67100000 of 110000000 tuples (61%) done (elapsed 102.84 s, remaining 65.75 s).
67200000 of 110000000 tuples (61%) done (elapsed 103.07 s, remaining 65.65 s).
67300000 of 110000000 tuples (61%) done (elapsed 103.16 s, remaining 65.45 s).
67400000 of 110000000 tuples (61%) done (elapsed 103.38 s, remaining 65.34 s).
67500000 of 110000000 tuples (61%) done (elapsed 103.49 s, remaining 65.16 s).
67600000 of 110000000 tuples (61%) done (elapsed 103.58 s, remaining 64.97 s).
67700000 of 110000000 tuples (61%) done (elapsed 103.63 s, remaining 64.75 s).
67800000 of 110000000 tuples (61%) done (elapsed 103.97 s, remaining 64.71 s).
67900000 of 110000000 tuples (61%) done (elapsed 104.02 s, remaining 64.50 s).
68000000 of 110000000 tuples (61%) done (elapsed 104.31 s, remaining 64.43 s).
68100000 of 110000000 tuples (61%) done (elapsed 104.39 s, remaining 64.23 s).
68200000 of 110000000 tuples (62%) done (elapsed 104.60 s, remaining 64.11 s).
68300000 of 110000000 tuples (62%) done (elapsed 104.74 s, remaining 63.95 s).
68400000 of 110000000 tuples (62%) done (elapsed 104.80 s, remaining 63.74 s).
68500000 of 110000000 tuples (62%) done (elapsed 104.88 s, remaining 63.54 s).
68600000 of 110000000 tuples (62%) done (elapsed 105.23 s, remaining 63.51 s).
68700000 of 110000000 tuples (62%) done (elapsed 105.28 s, remaining 63.29 s).
68800000 of 110000000 tuples (62%) done (elapsed 105.59 s, remaining 63.23 s).
68900000 of 110000000 tuples (62%) done (elapsed 105.68 s, remaining 63.04 s).
69000000 of 110000000 tuples (62%) done (elapsed 105.89 s, remaining 62.92 s).
69100000 of 110000000 tuples (62%) done (elapsed 106.03 s, remaining 62.76 s).
69200000 of 110000000 tuples (62%) done (elapsed 106.08 s, remaining 62.55 s).
69300000 of 110000000 tuples (63%) done (elapsed 106.20 s, remaining 62.37 s).
69400000 of 110000000 tuples (63%) done (elapsed 106.51 s, remaining 62.31 s).
69500000 of 110000000 tuples (63%) done (elapsed 106.57 s, remaining 62.10 s).
69600000 of 110000000 tuples (63%) done (elapsed 106.87 s, remaining 62.04 s).
69700000 of 110000000 tuples (63%) done (elapsed 106.93 s, remaining 61.82 s).
69800000 of 110000000 tuples (63%) done (elapsed 107.15 s, remaining 61.71 s).
69900000 of 110000000 tuples (63%) done (elapsed 107.21 s, remaining 61.50 s).
70000000 of 110000000 tuples (63%) done (elapsed 107.35 s, remaining 61.34 s).
70100000 of 110000000 tuples (63%) done (elapsed 107.70 s, remaining 61.30 s).
70200000 of 110000000 tuples (63%) done (elapsed 107.76 s, remaining 61.09 s).
70300000 of 110000000 tuples (63%) done (elapsed 107.84 s, remaining 60.90 s).
70400000 of 110000000 tuples (64%) done (elapsed 108.13 s, remaining 60.82 s).
70500000 of 110000000 tuples (64%) done (elapsed 108.21 s, remaining 60.63 s).
70600000 of 110000000 tuples (64%) done (elapsed 108.40 s, remaining 60.49 s).
70700000 of 110000000 tuples (64%) done (elapsed 108.53 s, remaining 60.33 s).
70800000 of 110000000 tuples (64%) done (elapsed 108.59 s, remaining 60.12 s).
70900000 of 110000000 tuples (64%) done (elapsed 108.92 s, remaining 60.07 s).
71000000 of 110000000 tuples (64%) done (elapsed 108.97 s, remaining 59.86 s).
71100000 of 110000000 tuples (64%) done (elapsed 109.06 s, remaining 59.67 s).
71200000 of 110000000 tuples (64%) done (elapsed 109.32 s, remaining 59.57 s).
71300000 of 110000000 tuples (64%) done (elapsed 109.40 s, remaining 59.38 s).
71400000 of 110000000 tuples (64%) done (elapsed 109.59 s, remaining 59.25 s).
71500000 of 110000000 tuples (65%) done (elapsed 109.73 s, remaining 59.08 s).
71600000 of 110000000 tuples (65%) done (elapsed 109.78 s, remaining 58.88 s).
71700000 of 110000000 tuples (65%) done (elapsed 109.90 s, remaining 58.71 s).
71800000 of 110000000 tuples (65%) done (elapsed 110.18 s, remaining 58.62 s).
71900000 of 110000000 tuples (65%) done (elapsed 110.23 s, remaining 58.41 s).
72000000 of 110000000 tuples (65%) done (elapsed 110.52 s, remaining 58.33 s).
72100000 of 110000000 tuples (65%) done (elapsed 110.58 s, remaining 58.13 s).
72200000 of 110000000 tuples (65%) done (elapsed 110.79 s, remaining 58.00 s).
72300000 of 110000000 tuples (65%) done (elapsed 110.91 s, remaining 57.83 s).
72400000 of 110000000 tuples (65%) done (elapsed 111.22 s, remaining 57.76 s).
72500000 of 110000000 tuples (65%) done (elapsed 111.28 s, remaining 57.56 s).
72600000 of 110000000 tuples (66%) done (elapsed 111.36 s, remaining 57.37 s).
72700000 of 110000000 tuples (66%) done (elapsed 111.60 s, remaining 57.26 s).
72800000 of 110000000 tuples (66%) done (elapsed 111.68 s, remaining 57.07 s).
72900000 of 110000000 tuples (66%) done (elapsed 111.87 s, remaining 56.93 s).
73000000 of 110000000 tuples (66%) done (elapsed 111.96 s, remaining 56.75 s).
73100000 of 110000000 tuples (66%) done (elapsed 112.04 s, remaining 56.56 s).
73200000 of 110000000 tuples (66%) done (elapsed 112.33 s, remaining 56.47 s).
73300000 of 110000000 tuples (66%) done (elapsed 112.41 s, remaining 56.28 s).
73400000 of 110000000 tuples (66%) done (elapsed 112.68 s, remaining 56.18 s).
73500000 of 110000000 tuples (66%) done (elapsed 112.76 s, remaining 56.00 s).
73600000 of 110000000 tuples (66%) done (elapsed 112.97 s, remaining 55.87 s).
73700000 of 110000000 tuples (67%) done (elapsed 113.03 s, remaining 55.67 s).
73800000 of 110000000 tuples (67%) done (elapsed 113.16 s, remaining 55.51 s).
73900000 of 110000000 tuples (67%) done (elapsed 113.22 s, remaining 55.31 s).
74000000 of 110000000 tuples (67%) done (elapsed 113.55 s, remaining 55.24 s).
74100000 of 110000000 tuples (67%) done (elapsed 113.61 s, remaining 55.04 s).
74200000 of 110000000 tuples (67%) done (elapsed 113.89 s, remaining 54.95 s).
74300000 of 110000000 tuples (67%) done (elapsed 113.98 s, remaining 54.76 s).
74400000 of 110000000 tuples (67%) done (elapsed 114.17 s, remaining 54.63 s).
74500000 of 110000000 tuples (67%) done (elapsed 114.31 s, remaining 54.47 s).
74600000 of 110000000 tuples (67%) done (elapsed 114.36 s, remaining 54.27 s).
74700000 of 110000000 tuples (67%) done (elapsed 114.69 s, remaining 54.20 s).
74800000 of 110000000 tuples (68%) done (elapsed 114.75 s, remaining 54.00 s).
74900000 of 110000000 tuples (68%) done (elapsed 114.83 s, remaining 53.81 s).
75000000 of 110000000 tuples (68%) done (elapsed 115.12 s, remaining 53.72 s).
75100000 of 110000000 tuples (68%) done (elapsed 115.17 s, remaining 53.52 s).
75200000 of 110000000 tuples (68%) done (elapsed 115.39 s, remaining 53.40 s).
75300000 of 110000000 tuples (68%) done (elapsed 115.54 s, remaining 53.25 s).
75400000 of 110000000 tuples (68%) done (elapsed 115.99 s, remaining 53.23 s).
75500000 of 110000000 tuples (68%) done (elapsed 116.05 s, remaining 53.03 s).
75600000 of 110000000 tuples (68%) done (elapsed 116.13 s, remaining 52.84 s).
75700000 of 110000000 tuples (68%) done (elapsed 116.18 s, remaining 52.64 s).
75800000 of 110000000 tuples (68%) done (elapsed 116.59 s, remaining 52.60 s).
75900000 of 110000000 tuples (69%) done (elapsed 116.64 s, remaining 52.40 s).
76000000 of 110000000 tuples (69%) done (elapsed 116.72 s, remaining 52.22 s).
76100000 of 110000000 tuples (69%) done (elapsed 116.78 s, remaining 52.02 s).
76200000 of 110000000 tuples (69%) done (elapsed 117.10 s, remaining 51.94 s).
76300000 of 110000000 tuples (69%) done (elapsed 117.18 s, remaining 51.76 s).
76400000 of 110000000 tuples (69%) done (elapsed 117.23 s, remaining 51.56 s).
76500000 of 110000000 tuples (69%) done (elapsed 117.46 s, remaining 51.44 s).
76600000 of 110000000 tuples (69%) done (elapsed 117.62 s, remaining 51.29 s).
76700000 of 110000000 tuples (69%) done (elapsed 117.68 s, remaining 51.09 s).
76800000 of 110000000 tuples (69%) done (elapsed 118.02 s, remaining 51.02 s).
76900000 of 110000000 tuples (69%) done (elapsed 118.08 s, remaining 50.82 s).
77000000 of 110000000 tuples (70%) done (elapsed 118.16 s, remaining 50.64 s).
77100000 of 110000000 tuples (70%) done (elapsed 118.47 s, remaining 50.55 s).
77200000 of 110000000 tuples (70%) done (elapsed 118.52 s, remaining 50.36 s).
77300000 of 110000000 tuples (70%) done (elapsed 118.76 s, remaining 50.24 s).
77400000 of 110000000 tuples (70%) done (elapsed 118.91 s, remaining 50.08 s).
77500000 of 110000000 tuples (70%) done (elapsed 118.97 s, remaining 49.89 s).
77600000 of 110000000 tuples (70%) done (elapsed 119.05 s, remaining 49.71 s).
77700000 of 110000000 tuples (70%) done (elapsed 119.37 s, remaining 49.62 s).
77800000 of 110000000 tuples (70%) done (elapsed 119.46 s, remaining 49.44 s).
77900000 of 110000000 tuples (70%) done (elapsed 119.78 s, remaining 49.36 s).
78000000 of 110000000 tuples (70%) done (elapsed 119.83 s, remaining 49.16 s).
78100000 of 110000000 tuples (71%) done (elapsed 119.92 s, remaining 48.98 s).
78200000 of 110000000 tuples (71%) done (elapsed 120.11 s, remaining 48.84 s).
78300000 of 110000000 tuples (71%) done (elapsed 120.26 s, remaining 48.69 s).
78400000 of 110000000 tuples (71%) done (elapsed 120.34 s, remaining 48.51 s).
78500000 of 110000000 tuples (71%) done (elapsed 120.40 s, remaining 48.31 s).
78600000 of 110000000 tuples (71%) done (elapsed 120.75 s, remaining 48.24 s).
78700000 of 110000000 tuples (71%) done (elapsed 120.80 s, remaining 48.04 s).
78800000 of 110000000 tuples (71%) done (elapsed 121.11 s, remaining 47.95 s).
78900000 of 110000000 tuples (71%) done (elapsed 121.20 s, remaining 47.77 s).
79000000 of 110000000 tuples (71%) done (elapsed 121.25 s, remaining 47.58 s).
79100000 of 110000000 tuples (71%) done (elapsed 121.47 s, remaining 47.45 s).
79200000 of 110000000 tuples (72%) done (elapsed 121.62 s, remaining 47.30 s).
79300000 of 110000000 tuples (72%) done (elapsed 121.68 s, remaining 47.11 s).
79400000 of 110000000 tuples (72%) done (elapsed 122.04 s, remaining 47.03 s).
79500000 of 110000000 tuples (72%) done (elapsed 122.09 s, remaining 46.84 s).
79600000 of 110000000 tuples (72%) done (elapsed 122.18 s, remaining 46.66 s).
79700000 of 110000000 tuples (72%) done (elapsed 122.48 s, remaining 46.56 s).
79800000 of 110000000 tuples (72%) done (elapsed 122.53 s, remaining 46.37 s).
79900000 of 110000000 tuples (72%) done (elapsed 122.76 s, remaining 46.24 s).
80000000 of 110000000 tuples (72%) done (elapsed 122.91 s, remaining 46.09 s).
80100000 of 110000000 tuples (72%) done (elapsed 122.96 s, remaining 45.90 s).
80200000 of 110000000 tuples (72%) done (elapsed 123.08 s, remaining 45.73 s).
80300000 of 110000000 tuples (73%) done (elapsed 123.39 s, remaining 45.64 s).
80400000 of 110000000 tuples (73%) done (elapsed 123.44 s, remaining 45.45 s).
80500000 of 110000000 tuples (73%) done (elapsed 123.74 s, remaining 45.35 s).
80600000 of 110000000 tuples (73%) done (elapsed 123.80 s, remaining 45.16 s).
80700000 of 110000000 tuples (73%) done (elapsed 123.88 s, remaining 44.98 s).
80800000 of 110000000 tuples (73%) done (elapsed 124.19 s, remaining 44.88 s).
80900000 of 110000000 tuples (73%) done (elapsed 124.25 s, remaining 44.69 s).
81000000 of 110000000 tuples (73%) done (elapsed 124.48 s, remaining 44.57 s).
81100000 of 110000000 tuples (73%) done (elapsed 124.63 s, remaining 44.41 s).
81200000 of 110000000 tuples (73%) done (elapsed 124.68 s, remaining 44.22 s).
81300000 of 110000000 tuples (73%) done (elapsed 124.77 s, remaining 44.04 s).
81400000 of 110000000 tuples (74%) done (elapsed 125.10 s, remaining 43.96 s).
81500000 of 110000000 tuples (74%) done (elapsed 125.16 s, remaining 43.77 s).
81600000 of 110000000 tuples (74%) done (elapsed 125.47 s, remaining 43.67 s).
81700000 of 110000000 tuples (74%) done (elapsed 125.55 s, remaining 43.49 s).
81800000 of 110000000 tuples (74%) done (elapsed 125.75 s, remaining 43.35 s).
81900000 of 110000000 tuples (74%) done (elapsed 125.89 s, remaining 43.19 s).
82000000 of 110000000 tuples (74%) done (elapsed 125.95 s, remaining 43.01 s).
82100000 of 110000000 tuples (74%) done (elapsed 126.03 s, remaining 42.83 s).
82200000 of 110000000 tuples (74%) done (elapsed 126.35 s, remaining 42.73 s).
82300000 of 110000000 tuples (74%) done (elapsed 126.44 s, remaining 42.56 s).
82400000 of 110000000 tuples (74%) done (elapsed 126.73 s, remaining 42.45 s).
82500000 of 110000000 tuples (75%) done (elapsed 126.79 s, remaining 42.26 s).
82600000 of 110000000 tuples (75%) done (elapsed 127.02 s, remaining 42.13 s).
82700000 of 110000000 tuples (75%) done (elapsed 127.07 s, remaining 41.95 s).
82800000 of 110000000 tuples (75%) done (elapsed 127.22 s, remaining 41.79 s).
82900000 of 110000000 tuples (75%) done (elapsed 127.28 s, remaining 41.61 s).
83000000 of 110000000 tuples (75%) done (elapsed 127.62 s, remaining 41.51 s).
83100000 of 110000000 tuples (75%) done (elapsed 127.70 s, remaining 41.34 s).
83200000 of 110000000 tuples (75%) done (elapsed 127.76 s, remaining 41.15 s).
83300000 of 110000000 tuples (75%) done (elapsed 128.07 s, remaining 41.05 s).
83400000 of 110000000 tuples (75%) done (elapsed 128.12 s, remaining 40.86 s).
83500000 of 110000000 tuples (75%) done (elapsed 128.35 s, remaining 40.73 s).
83600000 of 110000000 tuples (76%) done (elapsed 128.48 s, remaining 40.57 s).
83700000 of 110000000 tuples (76%) done (elapsed 128.57 s, remaining 40.40 s).
83800000 of 110000000 tuples (76%) done (elapsed 128.62 s, remaining 40.21 s).
83900000 of 110000000 tuples (76%) done (elapsed 128.96 s, remaining 40.12 s).
84000000 of 110000000 tuples (76%) done (elapsed 129.05 s, remaining 39.94 s).
84100000 of 110000000 tuples (76%) done (elapsed 129.32 s, remaining 39.83 s).
84200000 of 110000000 tuples (76%) done (elapsed 129.41 s, remaining 39.65 s).
84300000 of 110000000 tuples (76%) done (elapsed 129.60 s, remaining 39.51 s).
84400000 of 110000000 tuples (76%) done (elapsed 129.75 s, remaining 39.35 s).
84500000 of 110000000 tuples (76%) done (elapsed 129.80 s, remaining 39.17 s).
84600000 of 110000000 tuples (76%) done (elapsed 129.89 s, remaining 39.00 s).
84700000 of 110000000 tuples (77%) done (elapsed 130.23 s, remaining 38.90 s).
84800000 of 110000000 tuples (77%) done (elapsed 130.28 s, remaining 38.72 s).
84900000 of 110000000 tuples (77%) done (elapsed 130.58 s, remaining 38.60 s).
85000000 of 110000000 tuples (77%) done (elapsed 130.63 s, remaining 38.42 s).
85100000 of 110000000 tuples (77%) done (elapsed 130.87 s, remaining 38.29 s).
85200000 of 110000000 tuples (77%) done (elapsed 130.92 s, remaining 38.11 s).
85300000 of 110000000 tuples (77%) done (elapsed 131.06 s, remaining 37.95 s).
85400000 of 110000000 tuples (77%) done (elapsed 131.12 s, remaining 37.77 s).
85500000 of 110000000 tuples (77%) done (elapsed 131.46 s, remaining 37.67 s).
85600000 of 110000000 tuples (77%) done (elapsed 131.54 s, remaining 37.50 s).
85700000 of 110000000 tuples (77%) done (elapsed 131.85 s, remaining 37.38 s).
85800000 of 110000000 tuples (78%) done (elapsed 131.90 s, remaining 37.20 s).
85900000 of 110000000 tuples (78%) done (elapsed 132.12 s, remaining 37.07 s).
86000000 of 110000000 tuples (78%) done (elapsed 132.18 s, remaining 36.89 s).
86100000 of 110000000 tuples (78%) done (elapsed 132.32 s, remaining 36.73 s).
86200000 of 110000000 tuples (78%) done (elapsed 132.38 s, remaining 36.55 s).
86300000 of 110000000 tuples (78%) done (elapsed 132.71 s, remaining 36.45 s).
86400000 of 110000000 tuples (78%) done (elapsed 132.79 s, remaining 36.27 s).
86500000 of 110000000 tuples (78%) done (elapsed 132.85 s, remaining 36.09 s).
86600000 of 110000000 tuples (78%) done (elapsed 133.14 s, remaining 35.98 s).
86700000 of 110000000 tuples (78%) done (elapsed 133.20 s, remaining 35.80 s).
86800000 of 110000000 tuples (78%) done (elapsed 133.42 s, remaining 35.66 s).
86900000 of 110000000 tuples (79%) done (elapsed 133.54 s, remaining 35.50 s).
87000000 of 110000000 tuples (79%) done (elapsed 133.62 s, remaining 35.33 s).
87100000 of 110000000 tuples (79%) done (elapsed 133.96 s, remaining 35.22 s).
87200000 of 110000000 tuples (79%) done (elapsed 134.01 s, remaining 35.04 s).
87300000 of 110000000 tuples (79%) done (elapsed 134.13 s, remaining 34.88 s).
87400000 of 110000000 tuples (79%) done (elapsed 134.38 s, remaining 34.75 s).
87500000 of 110000000 tuples (79%) done (elapsed 134.44 s, remaining 34.57 s).
87600000 of 110000000 tuples (79%) done (elapsed 134.66 s, remaining 34.43 s).
87700000 of 110000000 tuples (79%) done (elapsed 134.78 s, remaining 34.27 s).
87800000 of 110000000 tuples (79%) done (elapsed 134.86 s, remaining 34.10 s).
87900000 of 110000000 tuples (79%) done (elapsed 135.19 s, remaining 33.99 s).
88000000 of 110000000 tuples (80%) done (elapsed 135.25 s, remaining 33.81 s).
88100000 of 110000000 tuples (80%) done (elapsed 135.37 s, remaining 33.65 s).
88200000 of 110000000 tuples (80%) done (elapsed 135.62 s, remaining 33.52 s).
88300000 of 110000000 tuples (80%) done (elapsed 135.68 s, remaining 33.34 s).
88400000 of 110000000 tuples (80%) done (elapsed 135.89 s, remaining 33.21 s).
88500000 of 110000000 tuples (80%) done (elapsed 136.18 s, remaining 33.08 s).
88600000 of 110000000 tuples (80%) done (elapsed 136.27 s, remaining 32.91 s).
88700000 of 110000000 tuples (80%) done (elapsed 136.47 s, remaining 32.77 s).
88800000 of 110000000 tuples (80%) done (elapsed 136.53 s, remaining 32.59 s).
88900000 of 110000000 tuples (80%) done (elapsed 136.68 s, remaining 32.44 s).
89000000 of 110000000 tuples (80%) done (elapsed 136.74 s, remaining 32.26 s).
89100000 of 110000000 tuples (81%) done (elapsed 137.07 s, remaining 32.15 s).
89200000 of 110000000 tuples (81%) done (elapsed 137.16 s, remaining 31.98 s).
89300000 of 110000000 tuples (81%) done (elapsed 137.42 s, remaining 31.85 s).
89400000 of 110000000 tuples (81%) done (elapsed 137.51 s, remaining 31.68 s).
89500000 of 110000000 tuples (81%) done (elapsed 137.56 s, remaining 31.51 s).
89600000 of 110000000 tuples (81%) done (elapsed 137.78 s, remaining 31.37 s).
89700000 of 110000000 tuples (81%) done (elapsed 137.92 s, remaining 31.21 s).
89800000 of 110000000 tuples (81%) done (elapsed 137.97 s, remaining 31.04 s).
89900000 of 110000000 tuples (81%) done (elapsed 138.31 s, remaining 30.92 s).
90000000 of 110000000 tuples (81%) done (elapsed 138.37 s, remaining 30.75 s).
90100000 of 110000000 tuples (81%) done (elapsed 138.67 s, remaining 30.63 s).
90200000 of 110000000 tuples (82%) done (elapsed 138.72 s, remaining 30.45 s).
90300000 of 110000000 tuples (82%) done (elapsed 138.94 s, remaining 30.31 s).
90400000 of 110000000 tuples (82%) done (elapsed 139.08 s, remaining 30.16 s).
90500000 of 110000000 tuples (82%) done (elapsed 139.14 s, remaining 29.98 s).
90600000 of 110000000 tuples (82%) done (elapsed 139.20 s, remaining 29.81 s).
90700000 of 110000000 tuples (82%) done (elapsed 139.52 s, remaining 29.69 s).
90800000 of 110000000 tuples (82%) done (elapsed 139.58 s, remaining 29.51 s).
90900000 of 110000000 tuples (82%) done (elapsed 139.87 s, remaining 29.39 s).
91000000 of 110000000 tuples (82%) done (elapsed 139.96 s, remaining 29.22 s).
91100000 of 110000000 tuples (82%) done (elapsed 140.15 s, remaining 29.08 s).
91200000 of 110000000 tuples (82%) done (elapsed 140.28 s, remaining 28.92 s).
91300000 of 110000000 tuples (83%) done (elapsed 140.34 s, remaining 28.74 s).
91400000 of 110000000 tuples (83%) done (elapsed 140.42 s, remaining 28.58 s).
91500000 of 110000000 tuples (83%) done (elapsed 140.77 s, remaining 28.46 s).
91600000 of 110000000 tuples (83%) done (elapsed 140.82 s, remaining 28.29 s).
91700000 of 110000000 tuples (83%) done (elapsed 141.12 s, remaining 28.16 s).
91800000 of 110000000 tuples (83%) done (elapsed 141.17 s, remaining 27.99 s).
91900000 of 110000000 tuples (83%) done (elapsed 141.39 s, remaining 27.85 s).
92000000 of 110000000 tuples (83%) done (elapsed 141.44 s, remaining 27.67 s).
92100000 of 110000000 tuples (83%) done (elapsed 141.59 s, remaining 27.52 s).
92200000 of 110000000 tuples (83%) done (elapsed 141.65 s, remaining 27.35 s).
92300000 of 110000000 tuples (83%) done (elapsed 141.98 s, remaining 27.23 s).
92400000 of 110000000 tuples (84%) done (elapsed 142.03 s, remaining 27.05 s).
92500000 of 110000000 tuples (84%) done (elapsed 142.33 s, remaining 26.93 s).
92600000 of 110000000 tuples (84%) done (elapsed 142.42 s, remaining 26.76 s).
92700000 of 110000000 tuples (84%) done (elapsed 142.60 s, remaining 26.61 s).
92800000 of 110000000 tuples (84%) done (elapsed 142.73 s, remaining 26.45 s).
92900000 of 110000000 tuples (84%) done (elapsed 142.79 s, remaining 26.28 s).
93000000 of 110000000 tuples (84%) done (elapsed 143.12 s, remaining 26.16 s).
93100000 of 110000000 tuples (84%) done (elapsed 143.18 s, remaining 25.99 s).
93200000 of 110000000 tuples (84%) done (elapsed 143.27 s, remaining 25.82 s).
93300000 of 110000000 tuples (84%) done (elapsed 143.54 s, remaining 25.69 s).
93400000 of 110000000 tuples (84%) done (elapsed 143.60 s, remaining 25.52 s).
93500000 of 110000000 tuples (85%) done (elapsed 143.81 s, remaining 25.38 s).
93600000 of 110000000 tuples (85%) done (elapsed 143.92 s, remaining 25.22 s).
93700000 of 110000000 tuples (85%) done (elapsed 144.00 s, remaining 25.05 s).
93800000 of 110000000 tuples (85%) done (elapsed 144.31 s, remaining 24.92 s).
93900000 of 110000000 tuples (85%) done (elapsed 144.39 s, remaining 24.76 s).
94000000 of 110000000 tuples (85%) done (elapsed 144.45 s, remaining 24.59 s).
94100000 of 110000000 tuples (85%) done (elapsed 144.74 s, remaining 24.46 s).
94200000 of 110000000 tuples (85%) done (elapsed 144.95 s, remaining 24.31 s).
94300000 of 110000000 tuples (85%) done (elapsed 145.00 s, remaining 24.14 s).
94400000 of 110000000 tuples (85%) done (elapsed 145.14 s, remaining 23.98 s).
94500000 of 110000000 tuples (85%) done (elapsed 145.19 s, remaining 23.81 s).
94600000 of 110000000 tuples (86%) done (elapsed 145.53 s, remaining 23.69 s).
94700000 of 110000000 tuples (86%) done (elapsed 145.58 s, remaining 23.52 s).
94800000 of 110000000 tuples (86%) done (elapsed 145.87 s, remaining 23.39 s).
94900000 of 110000000 tuples (86%) done (elapsed 145.95 s, remaining 23.22 s).
95000000 of 110000000 tuples (86%) done (elapsed 146.16 s, remaining 23.08 s).
95100000 of 110000000 tuples (86%) done (elapsed 146.32 s, remaining 22.93 s).
95200000 of 110000000 tuples (86%) done (elapsed 146.37 s, remaining 22.76 s).
95300000 of 110000000 tuples (86%) done (elapsed 146.46 s, remaining 22.59 s).
95400000 of 110000000 tuples (86%) done (elapsed 146.80 s, remaining 22.47 s).
95500000 of 110000000 tuples (86%) done (elapsed 146.88 s, remaining 22.30 s).
95600000 of 110000000 tuples (86%) done (elapsed 146.94 s, remaining 22.13 s).
95700000 of 110000000 tuples (87%) done (elapsed 147.27 s, remaining 22.01 s).
95800000 of 110000000 tuples (87%) done (elapsed 147.33 s, remaining 21.84 s).
95900000 of 110000000 tuples (87%) done (elapsed 147.57 s, remaining 21.70 s).
96000000 of 110000000 tuples (87%) done (elapsed 147.73 s, remaining 21.54 s).
96100000 of 110000000 tuples (87%) done (elapsed 147.78 s, remaining 21.38 s).
96200000 of 110000000 tuples (87%) done (elapsed 147.87 s, remaining 21.21 s).
96300000 of 110000000 tuples (87%) done (elapsed 148.20 s, remaining 21.08 s).
96400000 of 110000000 tuples (87%) done (elapsed 148.28 s, remaining 20.92 s).
96500000 of 110000000 tuples (87%) done (elapsed 148.61 s, remaining 20.79 s).
96600000 of 110000000 tuples (87%) done (elapsed 148.66 s, remaining 20.62 s).
96700000 of 110000000 tuples (87%) done (elapsed 148.75 s, remaining 20.46 s).
96800000 of 110000000 tuples (88%) done (elapsed 149.02 s, remaining 20.32 s).
96900000 of 110000000 tuples (88%) done (elapsed 149.11 s, remaining 20.16 s).
97000000 of 110000000 tuples (88%) done (elapsed 149.16 s, remaining 19.99 s).
97100000 of 110000000 tuples (88%) done (elapsed 149.40 s, remaining 19.85 s).
97200000 of 110000000 tuples (88%) done (elapsed 149.55 s, remaining 19.69 s).
97300000 of 110000000 tuples (88%) done (elapsed 149.61 s, remaining 19.53 s).
97400000 of 110000000 tuples (88%) done (elapsed 149.97 s, remaining 19.40 s).
97500000 of 110000000 tuples (88%) done (elapsed 150.02 s, remaining 19.23 s).
97600000 of 110000000 tuples (88%) done (elapsed 150.10 s, remaining 19.07 s).
97700000 of 110000000 tuples (88%) done (elapsed 150.39 s, remaining 18.93 s).
97800000 of 110000000 tuples (88%) done (elapsed 150.47 s, remaining 18.77 s).
97900000 of 110000000 tuples (89%) done (elapsed 150.70 s, remaining 18.63 s).
98000000 of 110000000 tuples (89%) done (elapsed 150.75 s, remaining 18.46 s).
98100000 of 110000000 tuples (89%) done (elapsed 150.91 s, remaining 18.31 s).
98200000 of 110000000 tuples (89%) done (elapsed 150.96 s, remaining 18.14 s).
98300000 of 110000000 tuples (89%) done (elapsed 151.32 s, remaining 18.01 s).
98400000 of 110000000 tuples (89%) done (elapsed 151.40 s, remaining 17.85 s).
98500000 of 110000000 tuples (89%) done (elapsed 151.46 s, remaining 17.68 s).
98600000 of 110000000 tuples (89%) done (elapsed 151.77 s, remaining 17.55 s).
98700000 of 110000000 tuples (89%) done (elapsed 151.82 s, remaining 17.38 s).
98800000 of 110000000 tuples (89%) done (elapsed 152.07 s, remaining 17.24 s).
98900000 of 110000000 tuples (89%) done (elapsed 152.22 s, remaining 17.08 s).
99000000 of 110000000 tuples (90%) done (elapsed 152.28 s, remaining 16.92 s).
99100000 of 110000000 tuples (90%) done (elapsed 152.36 s, remaining 16.76 s).
99200000 of 110000000 tuples (90%) done (elapsed 152.71 s, remaining 16.63 s).
99300000 of 110000000 tuples (90%) done (elapsed 152.77 s, remaining 16.46 s).
99400000 of 110000000 tuples (90%) done (elapsed 153.09 s, remaining 16.33 s).
99500000 of 110000000 tuples (90%) done (elapsed 153.15 s, remaining 16.16 s).
99600000 of 110000000 tuples (90%) done (elapsed 153.23 s, remaining 16.00 s).
99700000 of 110000000 tuples (90%) done (elapsed 153.43 s, remaining 15.85 s).
99800000 of 110000000 tuples (90%) done (elapsed 153.60 s, remaining 15.70 s).
99900000 of 110000000 tuples (90%) done (elapsed 153.65 s, remaining 15.53 s).
100000000 of 110000000 tuples (90%) done (elapsed 153.74 s, remaining 15.37 s).
100100000 of 110000000 tuples (91%) done (elapsed 154.09 s, remaining 15.24 s).
100200000 of 110000000 tuples (91%) done (elapsed 154.17 s, remaining 15.08 s).
100300000 of 110000000 tuples (91%) done (elapsed 154.48 s, remaining 14.94 s).
100400000 of 110000000 tuples (91%) done (elapsed 154.53 s, remaining 14.78 s).
100500000 of 110000000 tuples (91%) done (elapsed 154.76 s, remaining 14.63 s).
100600000 of 110000000 tuples (91%) done (elapsed 154.91 s, remaining 14.47 s).
100700000 of 110000000 tuples (91%) done (elapsed 154.96 s, remaining 14.31 s).
100800000 of 110000000 tuples (91%) done (elapsed 155.05 s, remaining 14.15 s).
100900000 of 110000000 tuples (91%) done (elapsed 155.40 s, remaining 14.02 s).
101000000 of 110000000 tuples (91%) done (elapsed 155.46 s, remaining 13.85 s).
101100000 of 110000000 tuples (91%) done (elapsed 155.54 s, remaining 13.69 s).
101200000 of 110000000 tuples (92%) done (elapsed 155.84 s, remaining 13.55 s).
101300000 of 110000000 tuples (92%) done (elapsed 155.92 s, remaining 13.39 s).
101400000 of 110000000 tuples (92%) done (elapsed 156.12 s, remaining 13.24 s).
101500000 of 110000000 tuples (92%) done (elapsed 156.27 s, remaining 13.09 s).
101600000 of 110000000 tuples (92%) done (elapsed 156.35 s, remaining 12.93 s).
101700000 of 110000000 tuples (92%) done (elapsed 156.40 s, remaining 12.76 s).
101800000 of 110000000 tuples (92%) done (elapsed 156.76 s, remaining 12.63 s).
101900000 of 110000000 tuples (92%) done (elapsed 156.84 s, remaining 12.47 s).
102000000 of 110000000 tuples (92%) done (elapsed 157.11 s, remaining 12.32 s).
102100000 of 110000000 tuples (92%) done (elapsed 157.19 s, remaining 12.16 s).
102200000 of 110000000 tuples (92%) done (elapsed 157.44 s, remaining 12.02 s).
102300000 of 110000000 tuples (93%) done (elapsed 157.49 s, remaining 11.85 s).
102400000 of 110000000 tuples (93%) done (elapsed 157.63 s, remaining 11.70 s).
102500000 of 110000000 tuples (93%) done (elapsed 157.71 s, remaining 11.54 s).
102600000 of 110000000 tuples (93%) done (elapsed 158.06 s, remaining 11.40 s).
102700000 of 110000000 tuples (93%) done (elapsed 158.11 s, remaining 11.24 s).
102800000 of 110000000 tuples (93%) done (elapsed 158.19 s, remaining 11.08 s).
102900000 of 110000000 tuples (93%) done (elapsed 158.50 s, remaining 10.94 s).
103000000 of 110000000 tuples (93%) done (elapsed 158.56 s, remaining 10.78 s).
103100000 of 110000000 tuples (93%) done (elapsed 158.79 s, remaining 10.63 s).
103200000 of 110000000 tuples (93%) done (elapsed 158.93 s, remaining 10.47 s).
103300000 of 110000000 tuples (93%) done (elapsed 158.99 s, remaining 10.31 s).
103400000 of 110000000 tuples (94%) done (elapsed 159.07 s, remaining 10.15 s).
103500000 of 110000000 tuples (94%) done (elapsed 159.42 s, remaining 10.01 s).
103600000 of 110000000 tuples (94%) done (elapsed 159.47 s, remaining 9.85 s).
103700000 of 110000000 tuples (94%) done (elapsed 159.79 s, remaining 9.71 s).
103800000 of 110000000 tuples (94%) done (elapsed 159.87 s, remaining 9.55 s).
103900000 of 110000000 tuples (94%) done (elapsed 160.09 s, remaining 9.40 s).
104000000 of 110000000 tuples (94%) done (elapsed 160.14 s, remaining 9.24 s).
104100000 of 110000000 tuples (94%) done (elapsed 160.29 s, remaining 9.08 s).
104200000 of 110000000 tuples (94%) done (elapsed 160.37 s, remaining 8.93 s).
104300000 of 110000000 tuples (94%) done (elapsed 160.42 s, remaining 8.77 s).
104400000 of 110000000 tuples (94%) done (elapsed 160.50 s, remaining 8.61 s).
104500000 of 110000000 tuples (95%) done (elapsed 160.91 s, remaining 8.47 s).
104600000 of 110000000 tuples (95%) done (elapsed 160.96 s, remaining 8.31 s).
104700000 of 110000000 tuples (95%) done (elapsed 161.04 s, remaining 8.15 s).
104800000 of 110000000 tuples (95%) done (elapsed 161.13 s, remaining 7.99 s).
104900000 of 110000000 tuples (95%) done (elapsed 161.39 s, remaining 7.85 s).
105000000 of 110000000 tuples (95%) done (elapsed 161.47 s, remaining 7.69 s).
105100000 of 110000000 tuples (95%) done (elapsed 161.71 s, remaining 7.54 s).
105200000 of 110000000 tuples (95%) done (elapsed 161.76 s, remaining 7.38 s).
105300000 of 110000000 tuples (95%) done (elapsed 161.90 s, remaining 7.23 s).
105400000 of 110000000 tuples (95%) done (elapsed 161.99 s, remaining 7.07 s).
105500000 of 110000000 tuples (95%) done (elapsed 162.31 s, remaining 6.92 s).
105600000 of 110000000 tuples (96%) done (elapsed 162.39 s, remaining 6.77 s).
105700000 of 110000000 tuples (96%) done (elapsed 162.70 s, remaining 6.62 s).
105800000 of 110000000 tuples (96%) done (elapsed 162.76 s, remaining 6.46 s).
105900000 of 110000000 tuples (96%) done (elapsed 162.84 s, remaining 6.30 s).
106000000 of 110000000 tuples (96%) done (elapsed 163.06 s, remaining 6.15 s).
106100000 of 110000000 tuples (96%) done (elapsed 163.18 s, remaining 6.00 s).
106200000 of 110000000 tuples (96%) done (elapsed 163.26 s, remaining 5.84 s).
106300000 of 110000000 tuples (96%) done (elapsed 163.61 s, remaining 5.69 s).
106400000 of 110000000 tuples (96%) done (elapsed 163.67 s, remaining 5.54 s).
106500000 of 110000000 tuples (96%) done (elapsed 163.75 s, remaining 5.38 s).
106600000 of 110000000 tuples (96%) done (elapsed 164.05 s, remaining 5.23 s).
106700000 of 110000000 tuples (97%) done (elapsed 164.10 s, remaining 5.08 s).
106800000 of 110000000 tuples (97%) done (elapsed 164.33 s, remaining 4.92 s).
106900000 of 110000000 tuples (97%) done (elapsed 164.48 s, remaining 4.77 s).
107000000 of 110000000 tuples (97%) done (elapsed 164.54 s, remaining 4.61 s).
107100000 of 110000000 tuples (97%) done (elapsed 164.62 s, remaining 4.46 s).
107200000 of 110000000 tuples (97%) done (elapsed 164.82 s, remaining 4.30 s).
107300000 of 110000000 tuples (97%) done (elapsed 164.87 s, remaining 4.15 s).
107400000 of 110000000 tuples (97%) done (elapsed 165.17 s, remaining 4.00 s).
107500000 of 110000000 tuples (97%) done (elapsed 165.25 s, remaining 3.84 s).
107600000 of 110000000 tuples (97%) done (elapsed 165.30 s, remaining 3.69 s).
107700000 of 110000000 tuples (97%) done (elapsed 165.52 s, remaining 3.53 s).
107800000 of 110000000 tuples (98%) done (elapsed 165.66 s, remaining 3.38 s).
107900000 of 110000000 tuples (98%) done (elapsed 165.72 s, remaining 3.23 s).
108000000 of 110000000 tuples (98%) done (elapsed 166.04 s, remaining 3.07 s).
108100000 of 110000000 tuples (98%) done (elapsed 166.13 s, remaining 2.92 s).
108200000 of 110000000 tuples (98%) done (elapsed 166.41 s, remaining 2.77 s).
108300000 of 110000000 tuples (98%) done (elapsed 166.48 s, remaining 2.61 s).
108400000 of 110000000 tuples (98%) done (elapsed 166.54 s, remaining 2.46 s).
108500000 of 110000000 tuples (98%) done (elapsed 166.75 s, remaining 2.31 s).
108600000 of 110000000 tuples (98%) done (elapsed 166.91 s, remaining 2.15 s).
108700000 of 110000000 tuples (98%) done (elapsed 166.99 s, remaining 2.00 s).
108800000 of 110000000 tuples (98%) done (elapsed 167.30 s, remaining 1.85 s).
108900000 of 110000000 tuples (99%) done (elapsed 167.39 s, remaining 1.69 s).
109000000 of 110000000 tuples (99%) done (elapsed 167.44 s, remaining 1.54 s).
109100000 of 110000000 tuples (99%) done (elapsed 167.73 s, remaining 1.38 s).
109200000 of 110000000 tuples (99%) done (elapsed 167.81 s, remaining 1.23 s).
109300000 of 110000000 tuples (99%) done (elapsed 168.01 s, remaining 1.08 s).
109400000 of 110000000 tuples (99%) done (elapsed 168.13 s, remaining 0.92 s).
109500000 of 110000000 tuples (99%) done (elapsed 168.21 s, remaining 0.77 s).
109600000 of 110000000 tuples (99%) done (elapsed 168.55 s, remaining 0.62 s).
109700000 of 110000000 tuples (99%) done (elapsed 168.60 s, remaining 0.46 s).
109800000 of 110000000 tuples (99%) done (elapsed 168.91 s, remaining 0.31 s).
109900000 of 110000000 tuples (99%) done (elapsed 168.99 s, remaining 0.15 s).
110000000 of 110000000 tuples (100%) done (elapsed 169.05 s, remaining 0.00 s).
vacuum...
set primary keys...
done.
