NOTICE:  table "pgbench_history" does not exist, skipping
NOTICE:  table "pgbench_tellers" does not exist, skipping
NOTICE:  table "pgbench_accounts" does not exist, skipping
NOTICE:  table "pgbench_branches" does not exist, skipping
creating tables...
100000 of 14000000 tuples (0%) done (elapsed 0.02 s, remaining 3.30 s).
200000 of 14000000 tuples (1%) done (elapsed 0.05 s, remaining 3.29 s).
300000 of 14000000 tuples (2%) done (elapsed 0.07 s, remaining 3.24 s).
400000 of 14000000 tuples (2%) done (elapsed 0.09 s, remaining 3.21 s).
500000 of 14000000 tuples (3%) done (elapsed 0.19 s, remaining 5.11 s).
600000 of 14000000 tuples (4%) done (elapsed 0.25 s, remaining 5.55 s).
700000 of 14000000 tuples (5%) done (elapsed 0.59 s, remaining 11.28 s).
800000 of 14000000 tuples (5%) done (elapsed 0.65 s, remaining 10.76 s).
900000 of 14000000 tuples (6%) done (elapsed 0.75 s, remaining 10.87 s).
1000000 of 14000000 tuples (7%) done (elapsed 1.00 s, remaining 13.00 s).
1100000 of 14000000 tuples (7%) done (elapsed 1.09 s, remaining 12.84 s).
1200000 of 14000000 tuples (8%) done (elapsed 1.27 s, remaining 13.53 s).
1300000 of 14000000 tuples (9%) done (elapsed 1.40 s, remaining 13.65 s).
1400000 of 14000000 tuples (10%) done (elapsed 1.45 s, remaining 13.09 s).
1500000 of 14000000 tuples (10%) done (elapsed 1.77 s, remaining 14.73 s).
1600000 of 14000000 tuples (11%) done (elapsed 1.82 s, remaining 14.14 s).
1700000 of 14000000 tuples (12%) done (elapsed 2.11 s, remaining 15.29 s).
1800000 of 14000000 tuples (12%) done (elapsed 2.17 s, remaining 14.71 s).
1900000 of 14000000 tuples (13%) done (elapsed 2.37 s, remaining 15.06 s).
2000000 of 14000000 tuples (14%) done (elapsed 2.48 s, remaining 14.90 s).
2100000 of 14000000 tuples (15%) done (elapsed 2.54 s, remaining 14.39 s).
2200000 of 14000000 tuples (15%) done (elapsed 2.85 s, remaining 15.29 s).
2300000 of 14000000 tuples (16%) done (elapsed 2.91 s, remaining 14.79 s).
2400000 of 14000000 tuples (17%) done (elapsed 3.18 s, remaining 15.38 s).
2500000 of 14000000 tuples (17%) done (elapsed 3.24 s, remaining 14.90 s).
2600000 of 14000000 tuples (18%) done (elapsed 3.43 s, remaining 15.05 s).
2700000 of 14000000 tuples (19%) done (elapsed 3.55 s, remaining 14.86 s).
2800000 of 14000000 tuples (20%) done (elapsed 3.61 s, remaining 14.43 s).
2900000 of 14000000 tuples (20%) done (elapsed 3.91 s, remaining 14.98 s).
3000000 of 14000000 tuples (21%) done (elapsed 3.97 s, remaining 14.55 s).
3100000 of 14000000 tuples (22%) done (elapsed 4.25 s, remaining 14.93 s).
3200000 of 14000000 tuples (22%) done (elapsed 4.30 s, remaining 14.52 s).
3300000 of 14000000 tuples (23%) done (elapsed 4.51 s, remaining 14.62 s).
3400000 of 14000000 tuples (24%) done (elapsed 4.63 s, remaining 14.43 s).
3500000 of 14000000 tuples (25%) done (elapsed 4.69 s, remaining 14.06 s).
3600000 of 14000000 tuples (25%) done (elapsed 4.99 s, remaining 14.42 s).
3700000 of 14000000 tuples (26%) done (elapsed 5.05 s, remaining 14.06 s).
3800000 of 14000000 tuples (27%) done (elapsed 5.32 s, remaining 14.29 s).
3900000 of 14000000 tuples (27%) done (elapsed 5.38 s, remaining 13.93 s).
4000000 of 14000000 tuples (28%) done (elapsed 5.57 s, remaining 13.94 s).
4100000 of 14000000 tuples (29%) done (elapsed 5.69 s, remaining 13.75 s).
4200000 of 14000000 tuples (30%) done (elapsed 5.75 s, remaining 13.42 s).
4300000 of 14000000 tuples (30%) done (elapsed 5.94 s, remaining 13.40 s).
4400000 of 14000000 tuples (31%) done (elapsed 6.03 s, remaining 13.15 s).
4500000 of 14000000 tuples (32%) done (elapsed 6.28 s, remaining 13.26 s).
4600000 of 14000000 tuples (32%) done (elapsed 6.49 s, remaining 13.27 s).
4700000 of 14000000 tuples (33%) done (elapsed 6.55 s, remaining 12.96 s).
4800000 of 14000000 tuples (34%) done (elapsed 6.67 s, remaining 12.78 s).
4900000 of 14000000 tuples (35%) done (elapsed 6.72 s, remaining 12.48 s).
5000000 of 14000000 tuples (35%) done (elapsed 6.88 s, remaining 12.38 s).
5100000 of 14000000 tuples (36%) done (elapsed 6.97 s, remaining 12.16 s).
5200000 of 14000000 tuples (37%) done (elapsed 7.24 s, remaining 12.25 s).
5300000 of 14000000 tuples (37%) done (elapsed 7.41 s, remaining 12.16 s).
5400000 of 14000000 tuples (38%) done (elapsed 7.53 s, remaining 11.99 s).
5500000 of 14000000 tuples (39%) done (elapsed 7.59 s, remaining 11.72 s).
5600000 of 14000000 tuples (40%) done (elapsed 7.90 s, remaining 11.85 s).
5700000 of 14000000 tuples (40%) done (elapsed 7.96 s, remaining 11.59 s).
5800000 of 14000000 tuples (41%) done (elapsed 8.24 s, remaining 11.64 s).
5900000 of 14000000 tuples (42%) done (elapsed 8.29 s, remaining 11.38 s).
6000000 of 14000000 tuples (42%) done (elapsed 8.48 s, remaining 11.31 s).
6100000 of 14000000 tuples (43%) done (elapsed 8.59 s, remaining 11.13 s).
6200000 of 14000000 tuples (44%) done (elapsed 8.65 s, remaining 10.88 s).
6300000 of 14000000 tuples (45%) done (elapsed 8.96 s, remaining 10.95 s).
6400000 of 14000000 tuples (45%) done (elapsed 9.02 s, remaining 10.71 s).
6500000 of 14000000 tuples (46%) done (elapsed 9.26 s, remaining 10.69 s).
6600000 of 14000000 tuples (47%) done (elapsed 9.35 s, remaining 10.48 s).
6700000 of 14000000 tuples (47%) done (elapsed 9.54 s, remaining 10.39 s).
6800000 of 14000000 tuples (48%) done (elapsed 9.63 s, remaining 10.19 s).
6900000 of 14000000 tuples (49%) done (elapsed 9.68 s, remaining 9.96 s).
7000000 of 14000000 tuples (50%) done (elapsed 9.77 s, remaining 9.77 s).
7100000 of 14000000 tuples (50%) done (elapsed 9.83 s, remaining 9.55 s).
7200000 of 14000000 tuples (51%) done (elapsed 10.19 s, remaining 9.62 s).
7300000 of 14000000 tuples (52%) done (elapsed 10.36 s, remaining 9.51 s).
7400000 of 14000000 tuples (52%) done (elapsed 10.48 s, remaining 9.34 s).
7500000 of 14000000 tuples (53%) done (elapsed 10.53 s, remaining 9.13 s).
7600000 of 14000000 tuples (54%) done (elapsed 10.84 s, remaining 9.13 s).
7700000 of 14000000 tuples (55%) done (elapsed 10.90 s, remaining 8.92 s).
7800000 of 14000000 tuples (55%) done (elapsed 11.17 s, remaining 8.88 s).
7900000 of 14000000 tuples (56%) done (elapsed 11.23 s, remaining 8.67 s).
8000000 of 14000000 tuples (57%) done (elapsed 11.42 s, remaining 8.57 s).
8100000 of 14000000 tuples (57%) done (elapsed 11.50 s, remaining 8.38 s).
8200000 of 14000000 tuples (58%) done (elapsed 11.59 s, remaining 8.20 s).
8300000 of 14000000 tuples (59%) done (elapsed 11.86 s, remaining 8.15 s).
8400000 of 14000000 tuples (60%) done (elapsed 11.95 s, remaining 7.97 s).
8500000 of 14000000 tuples (60%) done (elapsed 12.23 s, remaining 7.91 s).
8600000 of 14000000 tuples (61%) done (elapsed 12.48 s, remaining 7.84 s).
8700000 of 14000000 tuples (62%) done (elapsed 12.57 s, remaining 7.66 s).
8800000 of 14000000 tuples (62%) done (elapsed 12.73 s, remaining 7.52 s).
8900000 of 14000000 tuples (63%) done (elapsed 12.79 s, remaining 7.33 s).
9000000 of 14000000 tuples (64%) done (elapsed 12.90 s, remaining 7.17 s).
9100000 of 14000000 tuples (65%) done (elapsed 13.07 s, remaining 7.04 s).
9200000 of 14000000 tuples (65%) done (elapsed 13.16 s, remaining 6.87 s).
9300000 of 14000000 tuples (66%) done (elapsed 13.41 s, remaining 6.78 s).
9400000 of 14000000 tuples (67%) done (elapsed 13.60 s, remaining 6.66 s).
9500000 of 14000000 tuples (67%) done (elapsed 13.66 s, remaining 6.47 s).
9600000 of 14000000 tuples (68%) done (elapsed 13.77 s, remaining 6.31 s).
9700000 of 14000000 tuples (69%) done (elapsed 13.83 s, remaining 6.13 s).
9800000 of 14000000 tuples (70%) done (elapsed 13.88 s, remaining 5.95 s).
9900000 of 14000000 tuples (70%) done (elapsed 14.25 s, remaining 5.90 s).
10000000 of 14000000 tuples (71%) done (elapsed 14.31 s, remaining 5.72 s).
10100000 of 14000000 tuples (72%) done (elapsed 14.50 s, remaining 5.60 s).
10200000 of 14000000 tuples (72%) done (elapsed 14.61 s, remaining 5.44 s).
10300000 of 14000000 tuples (73%) done (elapsed 14.67 s, remaining 5.27 s).
10400000 of 14000000 tuples (74%) done (elapsed 14.75 s, remaining 5.11 s).
10500000 of 14000000 tuples (75%) done (elapsed 15.10 s, remaining 5.03 s).
10600000 of 14000000 tuples (75%) done (elapsed 15.16 s, remaining 4.86 s).
10700000 of 14000000 tuples (76%) done (elapsed 15.35 s, remaining 4.73 s).
10800000 of 14000000 tuples (77%) done (elapsed 15.40 s, remaining 4.56 s).
10900000 of 14000000 tuples (77%) done (elapsed 15.51 s, remaining 4.41 s).
11000000 of 14000000 tuples (78%) done (elapsed 15.60 s, remaining 4.25 s).
11100000 of 14000000 tuples (79%) done (elapsed 15.65 s, remaining 4.09 s).
11200000 of 14000000 tuples (80%) done (elapsed 16.01 s, remaining 4.00 s).
11300000 of 14000000 tuples (80%) done (elapsed 16.06 s, remaining 3.84 s).
11400000 of 14000000 tuples (81%) done (elapsed 16.25 s, remaining 3.71 s).
11500000 of 14000000 tuples (82%) done (elapsed 16.35 s, remaining 3.55 s).
11600000 of 14000000 tuples (82%) done (elapsed 16.40 s, remaining 3.39 s).
11700000 of 14000000 tuples (83%) done (elapsed 16.49 s, remaining 3.24 s).
11800000 of 14000000 tuples (84%) done (elapsed 16.54 s, remaining 3.08 s).
11900000 of 14000000 tuples (85%) done (elapsed 16.90 s, remaining 2.98 s).
12000000 of 14000000 tuples (85%) done (elapsed 17.08 s, remaining 2.85 s).
12100000 of 14000000 tuples (86%) done (elapsed 17.18 s, remaining 2.70 s).
12200000 of 14000000 tuples (87%) done (elapsed 17.24 s, remaining 2.54 s).
12300000 of 14000000 tuples (87%) done (elapsed 17.34 s, remaining 2.40 s).
12400000 of 14000000 tuples (88%) done (elapsed 17.40 s, remaining 2.24 s).
12500000 of 14000000 tuples (89%) done (elapsed 17.74 s, remaining 2.13 s).
12600000 of 14000000 tuples (90%) done (elapsed 17.93 s, remaining 1.99 s).
12700000 of 14000000 tuples (90%) done (elapsed 17.98 s, remaining 1.84 s).
12800000 of 14000000 tuples (91%) done (elapsed 18.08 s, remaining 1.70 s).
12900000 of 14000000 tuples (92%) done (elapsed 18.40 s, remaining 1.57 s).
13000000 of 14000000 tuples (92%) done (elapsed 18.46 s, remaining 1.42 s).
13100000 of 14000000 tuples (93%) done (elapsed 18.75 s, remaining 1.29 s).
13200000 of 14000000 tuples (94%) done (elapsed 18.80 s, remaining 1.14 s).
13300000 of 14000000 tuples (95%) done (elapsed 19.00 s, remaining 1.00 s).
13400000 of 14000000 tuples (95%) done (elapsed 19.09 s, remaining 0.85 s).
13500000 of 14000000 tuples (96%) done (elapsed 19.41 s, remaining 0.72 s).
13600000 of 14000000 tuples (97%) done (elapsed 19.50 s, remaining 0.57 s).
13700000 of 14000000 tuples (97%) done (elapsed 19.75 s, remaining 0.43 s).
13800000 of 14000000 tuples (98%) done (elapsed 19.83 s, remaining 0.29 s).
13900000 of 14000000 tuples (99%) done (elapsed 19.99 s, remaining 0.14 s).
14000000 of 14000000 tuples (100%) done (elapsed 20.11 s, remaining 0.00 s).
vacuum...
set primary keys...
done.
