NOTICE:  table "pgbench_history" does not exist, skipping
NOTICE:  table "pgbench_tellers" does not exist, skipping
NOTICE:  table "pgbench_accounts" does not exist, skipping
NOTICE:  table "pgbench_branches" does not exist, skipping
creating tables...
100000 of 14000000 tuples (0%) done (elapsed 0.02 s, remaining 3.30 s).
200000 of 14000000 tuples (1%) done (elapsed 0.05 s, remaining 3.28 s).
300000 of 14000000 tuples (2%) done (elapsed 0.07 s, remaining 3.24 s).
400000 of 14000000 tuples (2%) done (elapsed 0.14 s, remaining 4.66 s).
500000 of 14000000 tuples (3%) done (elapsed 0.20 s, remaining 5.50 s).
600000 of 14000000 tuples (4%) done (elapsed 0.31 s, remaining 7.01 s).
700000 of 14000000 tuples (5%) done (elapsed 0.38 s, remaining 7.24 s).
800000 of 14000000 tuples (5%) done (elapsed 0.45 s, remaining 7.39 s).
900000 of 14000000 tuples (6%) done (elapsed 0.56 s, remaining 8.12 s).
1000000 of 14000000 tuples (7%) done (elapsed 0.63 s, remaining 8.13 s).
1100000 of 14000000 tuples (7%) done (elapsed 0.74 s, remaining 8.66 s).
1200000 of 14000000 tuples (8%) done (elapsed 0.85 s, remaining 9.05 s).
1300000 of 14000000 tuples (9%) done (elapsed 0.91 s, remaining 8.91 s).
1400000 of 14000000 tuples (10%) done (elapsed 1.02 s, remaining 9.15 s).
1500000 of 14000000 tuples (10%) done (elapsed 1.08 s, remaining 9.00 s).
1600000 of 14000000 tuples (11%) done (elapsed 1.19 s, remaining 9.19 s).
1700000 of 14000000 tuples (12%) done (elapsed 1.29 s, remaining 9.33 s).
1800000 of 14000000 tuples (12%) done (elapsed 1.35 s, remaining 9.17 s).
1900000 of 14000000 tuples (13%) done (elapsed 1.46 s, remaining 9.28 s).
2000000 of 14000000 tuples (14%) done (elapsed 1.52 s, remaining 9.13 s).
2100000 of 14000000 tuples (15%) done (elapsed 1.62 s, remaining 9.21 s).
2200000 of 14000000 tuples (15%) done (elapsed 1.73 s, remaining 9.27 s).
2300000 of 14000000 tuples (16%) done (elapsed 1.79 s, remaining 9.12 s).
2400000 of 14000000 tuples (17%) done (elapsed 1.90 s, remaining 9.17 s).
2500000 of 14000000 tuples (17%) done (elapsed 2.00 s, remaining 9.20 s).
2600000 of 14000000 tuples (18%) done (elapsed 2.06 s, remaining 9.05 s).
2700000 of 14000000 tuples (19%) done (elapsed 2.17 s, remaining 9.07 s).
2800000 of 14000000 tuples (20%) done (elapsed 2.23 s, remaining 8.93 s).
2900000 of 14000000 tuples (20%) done (elapsed 2.34 s, remaining 8.94 s).
3000000 of 14000000 tuples (21%) done (elapsed 2.44 s, remaining 8.95 s).
3100000 of 14000000 tuples (22%) done (elapsed 2.51 s, remaining 8.81 s).
3200000 of 14000000 tuples (22%) done (elapsed 2.61 s, remaining 8.81 s).
3300000 of 14000000 tuples (23%) done (elapsed 2.67 s, remaining 8.67 s).
3400000 of 14000000 tuples (24%) done (elapsed 2.90 s, remaining 9.03 s).
3500000 of 14000000 tuples (25%) done (elapsed 3.37 s, remaining 10.12 s).
3600000 of 14000000 tuples (25%) done (elapsed 3.92 s, remaining 11.32 s).
3700000 of 14000000 tuples (26%) done (elapsed 4.54 s, remaining 12.65 s).
3800000 of 14000000 tuples (27%) done (elapsed 5.26 s, remaining 14.12 s).
3900000 of 14000000 tuples (27%) done (elapsed 6.51 s, remaining 16.86 s).
4000000 of 14000000 tuples (28%) done (elapsed 7.49 s, remaining 18.72 s).
4100000 of 14000000 tuples (29%) done (elapsed 8.59 s, remaining 20.75 s).
4200000 of 14000000 tuples (30%) done (elapsed 9.83 s, remaining 22.93 s).
4300000 of 14000000 tuples (30%) done (elapsed 11.23 s, remaining 25.32 s).
4400000 of 14000000 tuples (31%) done (elapsed 12.82 s, remaining 27.98 s).
4500000 of 14000000 tuples (32%) done (elapsed 14.61 s, remaining 30.84 s).
4600000 of 14000000 tuples (32%) done (elapsed 16.39 s, remaining 33.49 s).
4700000 of 14000000 tuples (33%) done (elapsed 17.20 s, remaining 34.04 s).
4800000 of 14000000 tuples (34%) done (elapsed 17.37 s, remaining 33.30 s).
4900000 of 14000000 tuples (35%) done (elapsed 17.44 s, remaining 32.39 s).
5000000 of 14000000 tuples (35%) done (elapsed 17.55 s, remaining 31.60 s).
5100000 of 14000000 tuples (36%) done (elapsed 17.67 s, remaining 30.83 s).
5200000 of 14000000 tuples (37%) done (elapsed 17.74 s, remaining 30.01 s).
5300000 of 14000000 tuples (37%) done (elapsed 17.84 s, remaining 29.29 s).
5400000 of 14000000 tuples (38%) done (elapsed 17.91 s, remaining 28.52 s).
5500000 of 14000000 tuples (39%) done (elapsed 18.01 s, remaining 27.84 s).
5600000 of 14000000 tuples (40%) done (elapsed 18.12 s, remaining 27.18 s).
5700000 of 14000000 tuples (40%) done (elapsed 18.19 s, remaining 26.48 s).
5800000 of 14000000 tuples (41%) done (elapsed 18.30 s, remaining 25.87 s).
5900000 of 14000000 tuples (42%) done (elapsed 18.41 s, remaining 25.27 s).
6000000 of 14000000 tuples (42%) done (elapsed 18.47 s, remaining 24.63 s).
6100000 of 14000000 tuples (43%) done (elapsed 18.57 s, remaining 24.05 s).
6200000 of 14000000 tuples (44%) done (elapsed 18.64 s, remaining 23.44 s).
6300000 of 14000000 tuples (45%) done (elapsed 18.74 s, remaining 22.90 s).
6400000 of 14000000 tuples (45%) done (elapsed 18.84 s, remaining 22.37 s).
6500000 of 14000000 tuples (46%) done (elapsed 18.91 s, remaining 21.82 s).
6600000 of 14000000 tuples (47%) done (elapsed 19.02 s, remaining 21.32 s).
6700000 of 14000000 tuples (47%) done (elapsed 19.08 s, remaining 20.79 s).
6800000 of 14000000 tuples (48%) done (elapsed 19.19 s, remaining 20.32 s).
6900000 of 14000000 tuples (49%) done (elapsed 19.30 s, remaining 19.86 s).
7000000 of 14000000 tuples (50%) done (elapsed 19.36 s, remaining 19.36 s).
7100000 of 14000000 tuples (50%) done (elapsed 19.47 s, remaining 18.92 s).
7200000 of 14000000 tuples (51%) done (elapsed 19.58 s, remaining 18.49 s).
7300000 of 14000000 tuples (52%) done (elapsed 19.64 s, remaining 18.03 s).
7400000 of 14000000 tuples (52%) done (elapsed 19.76 s, remaining 17.62 s).
7500000 of 14000000 tuples (53%) done (elapsed 19.83 s, remaining 17.18 s).
7600000 of 14000000 tuples (54%) done (elapsed 19.94 s, remaining 16.79 s).
7700000 of 14000000 tuples (55%) done (elapsed 20.05 s, remaining 16.41 s).
7800000 of 14000000 tuples (55%) done (elapsed 20.12 s, remaining 15.99 s).
7900000 of 14000000 tuples (56%) done (elapsed 20.23 s, remaining 15.62 s).
8000000 of 14000000 tuples (57%) done (elapsed 20.30 s, remaining 15.23 s).
8100000 of 14000000 tuples (57%) done (elapsed 20.42 s, remaining 14.88 s).
8200000 of 14000000 tuples (58%) done (elapsed 20.54 s, remaining 14.53 s).
8300000 of 14000000 tuples (59%) done (elapsed 20.61 s, remaining 14.16 s).
8400000 of 14000000 tuples (60%) done (elapsed 20.73 s, remaining 13.82 s).
8500000 of 14000000 tuples (60%) done (elapsed 20.80 s, remaining 13.46 s).
8600000 of 14000000 tuples (61%) done (elapsed 20.91 s, remaining 13.13 s).
8700000 of 14000000 tuples (62%) done (elapsed 21.03 s, remaining 12.81 s).
8800000 of 14000000 tuples (62%) done (elapsed 21.09 s, remaining 12.46 s).
8900000 of 14000000 tuples (63%) done (elapsed 21.20 s, remaining 12.15 s).
9000000 of 14000000 tuples (64%) done (elapsed 21.31 s, remaining 11.84 s).
9100000 of 14000000 tuples (65%) done (elapsed 21.37 s, remaining 11.51 s).
9200000 of 14000000 tuples (65%) done (elapsed 21.48 s, remaining 11.21 s).
9300000 of 14000000 tuples (66%) done (elapsed 21.55 s, remaining 10.89 s).
9400000 of 14000000 tuples (67%) done (elapsed 21.66 s, remaining 10.60 s).
9500000 of 14000000 tuples (67%) done (elapsed 21.77 s, remaining 10.31 s).
9600000 of 14000000 tuples (68%) done (elapsed 21.84 s, remaining 10.01 s).
9700000 of 14000000 tuples (69%) done (elapsed 21.95 s, remaining 9.73 s).
9800000 of 14000000 tuples (70%) done (elapsed 22.02 s, remaining 9.44 s).
9900000 of 14000000 tuples (70%) done (elapsed 22.13 s, remaining 9.16 s).
10000000 of 14000000 tuples (71%) done (elapsed 22.24 s, remaining 8.90 s).
10100000 of 14000000 tuples (72%) done (elapsed 22.35 s, remaining 8.63 s).
10200000 of 14000000 tuples (72%) done (elapsed 22.41 s, remaining 8.35 s).
10300000 of 14000000 tuples (73%) done (elapsed 22.53 s, remaining 8.09 s).
10400000 of 14000000 tuples (74%) done (elapsed 22.63 s, remaining 7.83 s).
10500000 of 14000000 tuples (75%) done (elapsed 22.74 s, remaining 7.58 s).
10600000 of 14000000 tuples (75%) done (elapsed 22.84 s, remaining 7.33 s).
10700000 of 14000000 tuples (76%) done (elapsed 22.91 s, remaining 7.07 s).
10800000 of 14000000 tuples (77%) done (elapsed 23.02 s, remaining 6.82 s).
10900000 of 14000000 tuples (77%) done (elapsed 23.13 s, remaining 6.58 s).
11000000 of 14000000 tuples (78%) done (elapsed 23.23 s, remaining 6.34 s).
11100000 of 14000000 tuples (79%) done (elapsed 23.30 s, remaining 6.09 s).
11200000 of 14000000 tuples (80%) done (elapsed 23.42 s, remaining 5.85 s).
11300000 of 14000000 tuples (80%) done (elapsed 23.52 s, remaining 5.62 s).
11400000 of 14000000 tuples (81%) done (elapsed 23.76 s, remaining 5.42 s).
11500000 of 14000000 tuples (82%) done (elapsed 23.98 s, remaining 5.21 s).
11600000 of 14000000 tuples (82%) done (elapsed 24.13 s, remaining 4.99 s).
11700000 of 14000000 tuples (83%) done (elapsed 24.23 s, remaining 4.76 s).
11800000 of 14000000 tuples (84%) done (elapsed 24.33 s, remaining 4.54 s).
11900000 of 14000000 tuples (85%) done (elapsed 24.40 s, remaining 4.31 s).
12000000 of 14000000 tuples (85%) done (elapsed 24.50 s, remaining 4.08 s).
12100000 of 14000000 tuples (86%) done (elapsed 24.61 s, remaining 3.86 s).
12200000 of 14000000 tuples (87%) done (elapsed 24.71 s, remaining 3.65 s).
12300000 of 14000000 tuples (87%) done (elapsed 24.78 s, remaining 3.43 s).
12400000 of 14000000 tuples (88%) done (elapsed 24.89 s, remaining 3.21 s).
12500000 of 14000000 tuples (89%) done (elapsed 25.00 s, remaining 3.00 s).
12600000 of 14000000 tuples (90%) done (elapsed 25.11 s, remaining 2.79 s).
12700000 of 14000000 tuples (90%) done (elapsed 25.22 s, remaining 2.58 s).
12800000 of 14000000 tuples (91%) done (elapsed 25.28 s, remaining 2.37 s).
12900000 of 14000000 tuples (92%) done (elapsed 25.40 s, remaining 2.17 s).
13000000 of 14000000 tuples (92%) done (elapsed 25.51 s, remaining 1.96 s).
13100000 of 14000000 tuples (93%) done (elapsed 25.61 s, remaining 1.76 s).
13200000 of 14000000 tuples (94%) done (elapsed 25.73 s, remaining 1.56 s).
13300000 of 14000000 tuples (95%) done (elapsed 25.79 s, remaining 1.36 s).
13400000 of 14000000 tuples (95%) done (elapsed 25.90 s, remaining 1.16 s).
13500000 of 14000000 tuples (96%) done (elapsed 26.01 s, remaining 0.96 s).
13600000 of 14000000 tuples (97%) done (elapsed 26.13 s, remaining 0.77 s).
13700000 of 14000000 tuples (97%) done (elapsed 26.24 s, remaining 0.57 s).
13800000 of 14000000 tuples (98%) done (elapsed 26.31 s, remaining 0.38 s).
13900000 of 14000000 tuples (99%) done (elapsed 26.42 s, remaining 0.19 s).
14000000 of 14000000 tuples (100%) done (elapsed 26.53 s, remaining 0.00 s).
vacuum...
set primary keys...
done.
