NOTICE:  table "pgbench_history" does not exist, skipping
NOTICE:  table "pgbench_tellers" does not exist, skipping
NOTICE:  table "pgbench_accounts" does not exist, skipping
NOTICE:  table "pgbench_branches" does not exist, skipping
creating tables...
100000 of 1000000 tuples (10%) done (elapsed 0.02 s, remaining 0.21 s).
200000 of 1000000 tuples (20%) done (elapsed 0.05 s, remaining 0.19 s).
300000 of 1000000 tuples (30%) done (elapsed 0.07 s, remaining 0.16 s).
400000 of 1000000 tuples (40%) done (elapsed 0.16 s, remaining 0.25 s).
500000 of 1000000 tuples (50%) done (elapsed 0.22 s, remaining 0.22 s).
600000 of 1000000 tuples (60%) done (elapsed 0.28 s, remaining 0.19 s).
700000 of 1000000 tuples (70%) done (elapsed 0.34 s, remaining 0.15 s).
800000 of 1000000 tuples (80%) done (elapsed 0.43 s, remaining 0.11 s).
900000 of 1000000 tuples (90%) done (elapsed 0.49 s, remaining 0.05 s).
1000000 of 1000000 tuples (100%) done (elapsed 0.55 s, remaining 0.00 s).
vacuum...
set primary keys...
done.
