CHECKPOINT
transaction type: SELECT only
scaling factor: 10
query mode: simple
number of clients: 1
number of threads: 1
duration: 1800 s
number of transactions actually processed: 26928729
latency average: 0.067 ms
tps = 14960.404227 (including connections establishing)
tps = 14960.414674 (excluding connections establishing)
