CHECKPOINT
transaction type: TPC-B (sort of)
scaling factor: 1100
query mode: simple
number of clients: 16
number of threads: 16
duration: 1800 s
number of transactions actually processed: 8546218
latency average: 3.370 ms
tps = 4747.846536 (including connections establishing)
tps = 4747.873635 (excluding connections establishing)
