NOTICE:  table "pgbench_history" does not exist, skipping
NOTICE:  table "pgbench_tellers" does not exist, skipping
NOTICE:  table "pgbench_accounts" does not exist, skipping
NOTICE:  table "pgbench_branches" does not exist, skipping
creating tables...
100000 of 110000000 tuples (0%) done (elapsed 0.02 s, remaining 26.05 s).
200000 of 110000000 tuples (0%) done (elapsed 0.05 s, remaining 26.09 s).
300000 of 110000000 tuples (0%) done (elapsed 0.07 s, remaining 25.90 s).
400000 of 110000000 tuples (0%) done (elapsed 0.09 s, remaining 25.80 s).
500000 of 110000000 tuples (0%) done (elapsed 0.19 s, remaining 41.67 s).
600000 of 110000000 tuples (0%) done (elapsed 0.25 s, remaining 45.62 s).
700000 of 110000000 tuples (0%) done (elapsed 0.31 s, remaining 48.40 s).
800000 of 110000000 tuples (0%) done (elapsed 0.37 s, remaining 50.77 s).
900000 of 110000000 tuples (0%) done (elapsed 0.47 s, remaining 57.10 s).
1000000 of 110000000 tuples (0%) done (elapsed 0.53 s, remaining 57.85 s).
1100000 of 110000000 tuples (1%) done (elapsed 0.63 s, remaining 62.20 s).
1200000 of 110000000 tuples (1%) done (elapsed 0.69 s, remaining 62.41 s).
1300000 of 110000000 tuples (1%) done (elapsed 0.78 s, remaining 65.37 s).
1400000 of 110000000 tuples (1%) done (elapsed 0.84 s, remaining 65.20 s).
1500000 of 110000000 tuples (1%) done (elapsed 0.93 s, remaining 67.61 s).
1600000 of 110000000 tuples (1%) done (elapsed 0.99 s, remaining 67.28 s).
1700000 of 110000000 tuples (1%) done (elapsed 1.09 s, remaining 69.25 s).
1800000 of 110000000 tuples (1%) done (elapsed 1.15 s, remaining 68.89 s).
1900000 of 110000000 tuples (1%) done (elapsed 1.24 s, remaining 70.51 s).
2000000 of 110000000 tuples (1%) done (elapsed 1.30 s, remaining 70.11 s).
2100000 of 110000000 tuples (1%) done (elapsed 1.36 s, remaining 69.73 s).
2200000 of 110000000 tuples (2%) done (elapsed 1.45 s, remaining 71.09 s).
2300000 of 110000000 tuples (2%) done (elapsed 1.51 s, remaining 70.72 s).
2400000 of 110000000 tuples (2%) done (elapsed 1.60 s, remaining 71.92 s).
2500000 of 110000000 tuples (2%) done (elapsed 1.70 s, remaining 73.17 s).
2600000 of 110000000 tuples (2%) done (elapsed 1.80 s, remaining 74.17 s).
2700000 of 110000000 tuples (2%) done (elapsed 1.85 s, remaining 73.67 s).
2800000 of 110000000 tuples (2%) done (elapsed 2.00 s, remaining 76.69 s).
2900000 of 110000000 tuples (2%) done (elapsed 2.06 s, remaining 76.15 s).
3000000 of 110000000 tuples (2%) done (elapsed 2.19 s, remaining 78.27 s).
3100000 of 110000000 tuples (2%) done (elapsed 2.25 s, remaining 77.66 s).
3200000 of 110000000 tuples (2%) done (elapsed 2.34 s, remaining 78.18 s).
3300000 of 110000000 tuples (3%) done (elapsed 2.40 s, remaining 77.59 s).
3400000 of 110000000 tuples (3%) done (elapsed 2.49 s, remaining 78.08 s).
3500000 of 110000000 tuples (3%) done (elapsed 2.55 s, remaining 77.52 s).
3600000 of 110000000 tuples (3%) done (elapsed 2.64 s, remaining 77.98 s).
3700000 of 110000000 tuples (3%) done (elapsed 2.70 s, remaining 77.44 s).
3800000 of 110000000 tuples (3%) done (elapsed 2.79 s, remaining 77.85 s).
3900000 of 110000000 tuples (3%) done (elapsed 2.94 s, remaining 80.02 s).
4000000 of 110000000 tuples (3%) done (elapsed 3.03 s, remaining 80.35 s).
4100000 of 110000000 tuples (3%) done (elapsed 3.09 s, remaining 79.80 s).
4200000 of 110000000 tuples (3%) done (elapsed 3.18 s, remaining 80.11 s).
4300000 of 110000000 tuples (3%) done (elapsed 3.24 s, remaining 79.58 s).
4400000 of 110000000 tuples (4%) done (elapsed 3.33 s, remaining 79.87 s).
4500000 of 110000000 tuples (4%) done (elapsed 3.39 s, remaining 79.37 s).
4600000 of 110000000 tuples (4%) done (elapsed 3.44 s, remaining 78.89 s).
4700000 of 110000000 tuples (4%) done (elapsed 3.53 s, remaining 79.17 s).
4800000 of 110000000 tuples (4%) done (elapsed 3.59 s, remaining 78.70 s).
4900000 of 110000000 tuples (4%) done (elapsed 3.68 s, remaining 78.96 s).
5000000 of 110000000 tuples (4%) done (elapsed 3.74 s, remaining 78.51 s).
5100000 of 110000000 tuples (4%) done (elapsed 3.83 s, remaining 78.76 s).
5200000 of 110000000 tuples (4%) done (elapsed 3.89 s, remaining 78.33 s).
5300000 of 110000000 tuples (4%) done (elapsed 3.98 s, remaining 78.57 s).
5400000 of 110000000 tuples (4%) done (elapsed 4.03 s, remaining 78.15 s).
5500000 of 110000000 tuples (5%) done (elapsed 4.09 s, remaining 77.75 s).
5600000 of 110000000 tuples (5%) done (elapsed 4.61 s, remaining 85.97 s).
5700000 of 110000000 tuples (5%) done (elapsed 4.67 s, remaining 85.45 s).
5800000 of 110000000 tuples (5%) done (elapsed 4.76 s, remaining 85.53 s).
5900000 of 110000000 tuples (5%) done (elapsed 4.82 s, remaining 85.01 s).
6000000 of 110000000 tuples (5%) done (elapsed 4.91 s, remaining 85.10 s).
6100000 of 110000000 tuples (5%) done (elapsed 4.97 s, remaining 84.61 s).
6200000 of 110000000 tuples (5%) done (elapsed 5.06 s, remaining 84.69 s).
6300000 of 110000000 tuples (5%) done (elapsed 5.12 s, remaining 84.21 s).
6400000 of 110000000 tuples (5%) done (elapsed 5.21 s, remaining 84.30 s).
6500000 of 110000000 tuples (5%) done (elapsed 5.27 s, remaining 83.84 s).
6600000 of 110000000 tuples (6%) done (elapsed 5.32 s, remaining 83.39 s).
6700000 of 110000000 tuples (6%) done (elapsed 5.41 s, remaining 83.48 s).
6800000 of 110000000 tuples (6%) done (elapsed 5.47 s, remaining 83.05 s).
6900000 of 110000000 tuples (6%) done (elapsed 5.56 s, remaining 83.13 s).
7000000 of 110000000 tuples (6%) done (elapsed 5.62 s, remaining 82.71 s).
7100000 of 110000000 tuples (6%) done (elapsed 5.71 s, remaining 82.79 s).
7200000 of 110000000 tuples (6%) done (elapsed 6.30 s, remaining 89.88 s).
7300000 of 110000000 tuples (6%) done (elapsed 6.39 s, remaining 89.85 s).
7400000 of 110000000 tuples (6%) done (elapsed 6.44 s, remaining 89.35 s).
7500000 of 110000000 tuples (6%) done (elapsed 6.54 s, remaining 89.32 s).
7600000 of 110000000 tuples (6%) done (elapsed 6.59 s, remaining 88.84 s).
7700000 of 110000000 tuples (7%) done (elapsed 6.68 s, remaining 88.81 s).
7800000 of 110000000 tuples (7%) done (elapsed 6.74 s, remaining 88.35 s).
7900000 of 110000000 tuples (7%) done (elapsed 6.80 s, remaining 87.89 s).
8000000 of 110000000 tuples (7%) done (elapsed 6.89 s, remaining 87.87 s).
8100000 of 110000000 tuples (7%) done (elapsed 6.95 s, remaining 87.42 s).
8200000 of 110000000 tuples (7%) done (elapsed 7.04 s, remaining 87.40 s).
8300000 of 110000000 tuples (7%) done (elapsed 7.10 s, remaining 86.97 s).
8400000 of 110000000 tuples (7%) done (elapsed 7.19 s, remaining 86.96 s).
8500000 of 110000000 tuples (7%) done (elapsed 7.25 s, remaining 86.54 s).
8600000 of 110000000 tuples (7%) done (elapsed 7.34 s, remaining 86.52 s).
8700000 of 110000000 tuples (7%) done (elapsed 7.40 s, remaining 86.12 s).
8800000 of 110000000 tuples (8%) done (elapsed 7.49 s, remaining 86.10 s).
8900000 of 110000000 tuples (8%) done (elapsed 7.55 s, remaining 85.71 s).
9000000 of 110000000 tuples (8%) done (elapsed 7.60 s, remaining 85.33 s).
9100000 of 110000000 tuples (8%) done (elapsed 7.69 s, remaining 85.32 s).
9200000 of 110000000 tuples (8%) done (elapsed 7.75 s, remaining 84.94 s).
9300000 of 110000000 tuples (8%) done (elapsed 7.84 s, remaining 84.93 s).
9400000 of 110000000 tuples (8%) done (elapsed 7.90 s, remaining 84.57 s).
9500000 of 110000000 tuples (8%) done (elapsed 7.99 s, remaining 84.57 s).
9600000 of 110000000 tuples (8%) done (elapsed 8.05 s, remaining 84.21 s).
9700000 of 110000000 tuples (8%) done (elapsed 8.14 s, remaining 84.20 s).
9800000 of 110000000 tuples (8%) done (elapsed 8.20 s, remaining 83.85 s).
9900000 of 110000000 tuples (9%) done (elapsed 8.26 s, remaining 83.51 s).
10000000 of 110000000 tuples (9%) done (elapsed 8.35 s, remaining 83.52 s).
10100000 of 110000000 tuples (9%) done (elapsed 8.44 s, remaining 83.50 s).
10200000 of 110000000 tuples (9%) done (elapsed 8.50 s, remaining 83.16 s).
10300000 of 110000000 tuples (9%) done (elapsed 8.59 s, remaining 83.11 s).
10400000 of 110000000 tuples (9%) done (elapsed 8.67 s, remaining 83.06 s).
10500000 of 110000000 tuples (9%) done (elapsed 8.73 s, remaining 82.71 s).
10600000 of 110000000 tuples (9%) done (elapsed 8.81 s, remaining 82.65 s).
10700000 of 110000000 tuples (9%) done (elapsed 8.87 s, remaining 82.31 s).
10800000 of 110000000 tuples (9%) done (elapsed 8.96 s, remaining 82.26 s).
10900000 of 110000000 tuples (9%) done (elapsed 9.04 s, remaining 82.21 s).
11000000 of 110000000 tuples (10%) done (elapsed 10.49 s, remaining 94.37 s).
11100000 of 110000000 tuples (10%) done (elapsed 10.57 s, remaining 94.19 s).
11200000 of 110000000 tuples (10%) done (elapsed 10.63 s, remaining 93.74 s).
11300000 of 110000000 tuples (10%) done (elapsed 10.71 s, remaining 93.57 s).
11400000 of 110000000 tuples (10%) done (elapsed 10.80 s, remaining 93.39 s).
11500000 of 110000000 tuples (10%) done (elapsed 10.85 s, remaining 92.96 s).
11600000 of 110000000 tuples (10%) done (elapsed 10.94 s, remaining 92.79 s).
11700000 of 110000000 tuples (10%) done (elapsed 10.99 s, remaining 92.36 s).
11800000 of 110000000 tuples (10%) done (elapsed 11.08 s, remaining 92.20 s).
11900000 of 110000000 tuples (10%) done (elapsed 11.17 s, remaining 92.05 s).
12000000 of 110000000 tuples (10%) done (elapsed 11.22 s, remaining 91.64 s).
12100000 of 110000000 tuples (11%) done (elapsed 11.31 s, remaining 91.48 s).
12200000 of 110000000 tuples (11%) done (elapsed 11.36 s, remaining 91.08 s).
12300000 of 110000000 tuples (11%) done (elapsed 11.95 s, remaining 94.91 s).
12400000 of 110000000 tuples (11%) done (elapsed 12.03 s, remaining 94.72 s).
12500000 of 110000000 tuples (11%) done (elapsed 12.09 s, remaining 94.30 s).
12600000 of 110000000 tuples (11%) done (elapsed 12.18 s, remaining 94.12 s).
12700000 of 110000000 tuples (11%) done (elapsed 12.23 s, remaining 93.70 s).
12800000 of 110000000 tuples (11%) done (elapsed 12.32 s, remaining 93.53 s).
12900000 of 110000000 tuples (11%) done (elapsed 12.40 s, remaining 93.36 s).
13000000 of 110000000 tuples (11%) done (elapsed 12.46 s, remaining 92.96 s).
13100000 of 110000000 tuples (11%) done (elapsed 12.54 s, remaining 92.79 s).
13200000 of 110000000 tuples (12%) done (elapsed 12.60 s, remaining 92.40 s).
13300000 of 110000000 tuples (12%) done (elapsed 12.69 s, remaining 92.24 s).
13400000 of 110000000 tuples (12%) done (elapsed 12.77 s, remaining 92.07 s).
13500000 of 110000000 tuples (12%) done (elapsed 12.83 s, remaining 91.69 s).
13600000 of 110000000 tuples (12%) done (elapsed 12.91 s, remaining 91.53 s).
13700000 of 110000000 tuples (12%) done (elapsed 12.97 s, remaining 91.16 s).
13800000 of 110000000 tuples (12%) done (elapsed 13.05 s, remaining 91.01 s).
13900000 of 110000000 tuples (12%) done (elapsed 13.14 s, remaining 90.85 s).
14000000 of 110000000 tuples (12%) done (elapsed 13.20 s, remaining 90.49 s).
14100000 of 110000000 tuples (12%) done (elapsed 13.28 s, remaining 90.34 s).
14200000 of 110000000 tuples (12%) done (elapsed 13.34 s, remaining 89.98 s).
14300000 of 110000000 tuples (13%) done (elapsed 13.42 s, remaining 89.84 s).
14400000 of 110000000 tuples (13%) done (elapsed 13.51 s, remaining 89.69 s).
14500000 of 110000000 tuples (13%) done (elapsed 13.57 s, remaining 89.35 s).
14600000 of 110000000 tuples (13%) done (elapsed 13.65 s, remaining 89.21 s).
14700000 of 110000000 tuples (13%) done (elapsed 13.71 s, remaining 88.87 s).
14800000 of 110000000 tuples (13%) done (elapsed 13.79 s, remaining 88.73 s).
14900000 of 110000000 tuples (13%) done (elapsed 13.88 s, remaining 88.59 s).
15000000 of 110000000 tuples (13%) done (elapsed 13.94 s, remaining 88.26 s).
15100000 of 110000000 tuples (13%) done (elapsed 14.02 s, remaining 88.12 s).
15200000 of 110000000 tuples (13%) done (elapsed 14.08 s, remaining 87.80 s).
15300000 of 110000000 tuples (13%) done (elapsed 14.16 s, remaining 87.66 s).
15400000 of 110000000 tuples (14%) done (elapsed 14.25 s, remaining 87.54 s).
15500000 of 110000000 tuples (14%) done (elapsed 14.31 s, remaining 87.22 s).
15600000 of 110000000 tuples (14%) done (elapsed 14.39 s, remaining 87.09 s).
15700000 of 110000000 tuples (14%) done (elapsed 14.48 s, remaining 86.96 s).
15800000 of 110000000 tuples (14%) done (elapsed 14.53 s, remaining 86.65 s).
15900000 of 110000000 tuples (14%) done (elapsed 14.62 s, remaining 86.53 s).
16000000 of 110000000 tuples (14%) done (elapsed 14.68 s, remaining 86.22 s).
16100000 of 110000000 tuples (14%) done (elapsed 14.76 s, remaining 86.10 s).
16200000 of 110000000 tuples (14%) done (elapsed 14.88 s, remaining 86.16 s).
16300000 of 110000000 tuples (14%) done (elapsed 15.00 s, remaining 86.25 s).
16400000 of 110000000 tuples (14%) done (elapsed 15.08 s, remaining 86.05 s).
16500000 of 110000000 tuples (15%) done (elapsed 15.20 s, remaining 86.14 s).
16600000 of 110000000 tuples (15%) done (elapsed 15.32 s, remaining 86.21 s).
16700000 of 110000000 tuples (15%) done (elapsed 15.45 s, remaining 86.30 s).
16800000 of 110000000 tuples (15%) done (elapsed 15.57 s, remaining 86.39 s).
16900000 of 110000000 tuples (15%) done (elapsed 15.70 s, remaining 86.50 s).
17000000 of 110000000 tuples (15%) done (elapsed 15.83 s, remaining 86.59 s).
17100000 of 110000000 tuples (15%) done (elapsed 15.96 s, remaining 86.68 s).
17200000 of 110000000 tuples (15%) done (elapsed 16.08 s, remaining 86.78 s).
17300000 of 110000000 tuples (15%) done (elapsed 16.21 s, remaining 86.86 s).
17400000 of 110000000 tuples (15%) done (elapsed 16.34 s, remaining 86.95 s).
17500000 of 110000000 tuples (15%) done (elapsed 16.47 s, remaining 87.04 s).
17600000 of 110000000 tuples (16%) done (elapsed 16.60 s, remaining 87.12 s).
17700000 of 110000000 tuples (16%) done (elapsed 16.72 s, remaining 87.20 s).
17800000 of 110000000 tuples (16%) done (elapsed 16.85 s, remaining 87.28 s).
17900000 of 110000000 tuples (16%) done (elapsed 16.98 s, remaining 87.35 s).
18000000 of 110000000 tuples (16%) done (elapsed 17.05 s, remaining 87.16 s).
18100000 of 110000000 tuples (16%) done (elapsed 17.18 s, remaining 87.24 s).
18200000 of 110000000 tuples (16%) done (elapsed 17.31 s, remaining 87.31 s).
18300000 of 110000000 tuples (16%) done (elapsed 17.44 s, remaining 87.39 s).
18400000 of 110000000 tuples (16%) done (elapsed 17.57 s, remaining 87.47 s).
18500000 of 110000000 tuples (16%) done (elapsed 17.71 s, remaining 87.59 s).
18600000 of 110000000 tuples (16%) done (elapsed 17.85 s, remaining 87.71 s).
18700000 of 110000000 tuples (17%) done (elapsed 17.99 s, remaining 87.83 s).
18800000 of 110000000 tuples (17%) done (elapsed 18.13 s, remaining 87.95 s).
18900000 of 110000000 tuples (17%) done (elapsed 18.27 s, remaining 88.08 s).
19000000 of 110000000 tuples (17%) done (elapsed 18.42 s, remaining 88.21 s).
19100000 of 110000000 tuples (17%) done (elapsed 18.56 s, remaining 88.34 s).
19200000 of 110000000 tuples (17%) done (elapsed 18.71 s, remaining 88.46 s).
19300000 of 110000000 tuples (17%) done (elapsed 18.85 s, remaining 88.59 s).
19400000 of 110000000 tuples (17%) done (elapsed 18.99 s, remaining 88.70 s).
19500000 of 110000000 tuples (17%) done (elapsed 19.14 s, remaining 88.81 s).
19600000 of 110000000 tuples (17%) done (elapsed 19.28 s, remaining 88.92 s).
19700000 of 110000000 tuples (17%) done (elapsed 19.42 s, remaining 89.03 s).
19800000 of 110000000 tuples (18%) done (elapsed 19.57 s, remaining 89.14 s).
19900000 of 110000000 tuples (18%) done (elapsed 19.71 s, remaining 89.24 s).
20000000 of 110000000 tuples (18%) done (elapsed 19.85 s, remaining 89.34 s).
20100000 of 110000000 tuples (18%) done (elapsed 19.99 s, remaining 89.43 s).
20200000 of 110000000 tuples (18%) done (elapsed 20.14 s, remaining 89.53 s).
20300000 of 110000000 tuples (18%) done (elapsed 20.28 s, remaining 89.62 s).
20400000 of 110000000 tuples (18%) done (elapsed 20.43 s, remaining 89.72 s).
20500000 of 110000000 tuples (18%) done (elapsed 20.57 s, remaining 89.81 s).
20600000 of 110000000 tuples (18%) done (elapsed 20.71 s, remaining 89.90 s).
20700000 of 110000000 tuples (18%) done (elapsed 20.86 s, remaining 89.98 s).
20800000 of 110000000 tuples (18%) done (elapsed 21.00 s, remaining 90.07 s).
20900000 of 110000000 tuples (19%) done (elapsed 21.14 s, remaining 90.14 s).
21000000 of 110000000 tuples (19%) done (elapsed 21.29 s, remaining 90.23 s).
21100000 of 110000000 tuples (19%) done (elapsed 21.43 s, remaining 90.30 s).
21200000 of 110000000 tuples (19%) done (elapsed 21.58 s, remaining 90.38 s).
21300000 of 110000000 tuples (19%) done (elapsed 24.61 s, remaining 102.50 s).
21400000 of 110000000 tuples (19%) done (elapsed 24.70 s, remaining 102.27 s).
21500000 of 110000000 tuples (19%) done (elapsed 24.79 s, remaining 102.03 s).
21600000 of 110000000 tuples (19%) done (elapsed 24.84 s, remaining 101.67 s).
21700000 of 110000000 tuples (19%) done (elapsed 24.93 s, remaining 101.44 s).
21800000 of 110000000 tuples (19%) done (elapsed 24.98 s, remaining 101.08 s).
21900000 of 110000000 tuples (19%) done (elapsed 25.07 s, remaining 100.86 s).
22000000 of 110000000 tuples (20%) done (elapsed 25.19 s, remaining 100.78 s).
22100000 of 110000000 tuples (20%) done (elapsed 25.89 s, remaining 102.96 s).
22200000 of 110000000 tuples (20%) done (elapsed 25.94 s, remaining 102.59 s).
22300000 of 110000000 tuples (20%) done (elapsed 26.03 s, remaining 102.36 s).
22400000 of 110000000 tuples (20%) done (elapsed 26.08 s, remaining 102.00 s).
22500000 of 110000000 tuples (20%) done (elapsed 26.17 s, remaining 101.77 s).
22600000 of 110000000 tuples (20%) done (elapsed 26.25 s, remaining 101.53 s).
22700000 of 110000000 tuples (20%) done (elapsed 26.31 s, remaining 101.18 s).
22800000 of 110000000 tuples (20%) done (elapsed 26.40 s, remaining 100.95 s).
22900000 of 110000000 tuples (20%) done (elapsed 26.45 s, remaining 100.61 s).
23000000 of 110000000 tuples (20%) done (elapsed 26.54 s, remaining 100.38 s).
23100000 of 110000000 tuples (21%) done (elapsed 26.62 s, remaining 100.15 s).
23200000 of 110000000 tuples (21%) done (elapsed 27.71 s, remaining 103.68 s).
23300000 of 110000000 tuples (21%) done (elapsed 27.80 s, remaining 103.44 s).
23400000 of 110000000 tuples (21%) done (elapsed 27.88 s, remaining 103.19 s).
23500000 of 110000000 tuples (21%) done (elapsed 27.94 s, remaining 102.84 s).
23600000 of 110000000 tuples (21%) done (elapsed 28.02 s, remaining 102.59 s).
23700000 of 110000000 tuples (21%) done (elapsed 28.08 s, remaining 102.24 s).
23800000 of 110000000 tuples (21%) done (elapsed 28.16 s, remaining 102.01 s).
23900000 of 110000000 tuples (21%) done (elapsed 28.25 s, remaining 101.77 s).
24000000 of 110000000 tuples (21%) done (elapsed 28.30 s, remaining 101.42 s).
24100000 of 110000000 tuples (21%) done (elapsed 28.39 s, remaining 101.19 s).
24200000 of 110000000 tuples (22%) done (elapsed 28.45 s, remaining 100.85 s).
24300000 of 110000000 tuples (22%) done (elapsed 28.53 s, remaining 100.62 s).
24400000 of 110000000 tuples (22%) done (elapsed 28.62 s, remaining 100.39 s).
24500000 of 110000000 tuples (22%) done (elapsed 28.67 s, remaining 100.06 s).
24600000 of 110000000 tuples (22%) done (elapsed 28.76 s, remaining 99.83 s).
24700000 of 110000000 tuples (22%) done (elapsed 28.81 s, remaining 99.51 s).
24800000 of 110000000 tuples (22%) done (elapsed 28.90 s, remaining 99.28 s).
24900000 of 110000000 tuples (22%) done (elapsed 28.98 s, remaining 99.06 s).
25000000 of 110000000 tuples (22%) done (elapsed 29.04 s, remaining 98.74 s).
25100000 of 110000000 tuples (22%) done (elapsed 29.13 s, remaining 98.52 s).
25200000 of 110000000 tuples (22%) done (elapsed 29.18 s, remaining 98.20 s).
25300000 of 110000000 tuples (23%) done (elapsed 29.27 s, remaining 97.98 s).
25400000 of 110000000 tuples (23%) done (elapsed 29.35 s, remaining 97.77 s).
25500000 of 110000000 tuples (23%) done (elapsed 29.41 s, remaining 97.45 s).
25600000 of 110000000 tuples (23%) done (elapsed 29.49 s, remaining 97.24 s).
25700000 of 110000000 tuples (23%) done (elapsed 29.58 s, remaining 97.03 s).
25800000 of 110000000 tuples (23%) done (elapsed 29.64 s, remaining 96.72 s).
25900000 of 110000000 tuples (23%) done (elapsed 29.72 s, remaining 96.51 s).
26000000 of 110000000 tuples (23%) done (elapsed 29.78 s, remaining 96.20 s).
26100000 of 110000000 tuples (23%) done (elapsed 29.86 s, remaining 95.99 s).
26200000 of 110000000 tuples (23%) done (elapsed 29.95 s, remaining 95.79 s).
26300000 of 110000000 tuples (23%) done (elapsed 30.00 s, remaining 95.49 s).
26400000 of 110000000 tuples (24%) done (elapsed 30.09 s, remaining 95.29 s).
26500000 of 110000000 tuples (24%) done (elapsed 30.15 s, remaining 94.99 s).
26600000 of 110000000 tuples (24%) done (elapsed 30.23 s, remaining 94.79 s).
26700000 of 110000000 tuples (24%) done (elapsed 30.32 s, remaining 94.59 s).
26800000 of 110000000 tuples (24%) done (elapsed 30.37 s, remaining 94.29 s).
26900000 of 110000000 tuples (24%) done (elapsed 30.46 s, remaining 94.10 s).
27000000 of 110000000 tuples (24%) done (elapsed 30.52 s, remaining 93.81 s).
27100000 of 110000000 tuples (24%) done (elapsed 30.60 s, remaining 93.61 s).
27200000 of 110000000 tuples (24%) done (elapsed 30.69 s, remaining 93.42 s).
27300000 of 110000000 tuples (24%) done (elapsed 30.74 s, remaining 93.13 s).
27400000 of 110000000 tuples (24%) done (elapsed 30.83 s, remaining 92.94 s).
27500000 of 110000000 tuples (25%) done (elapsed 30.93 s, remaining 92.80 s).
27600000 of 110000000 tuples (25%) done (elapsed 31.05 s, remaining 92.71 s).
27700000 of 110000000 tuples (25%) done (elapsed 31.12 s, remaining 92.48 s).
27800000 of 110000000 tuples (25%) done (elapsed 31.25 s, remaining 92.39 s).
27900000 of 110000000 tuples (25%) done (elapsed 31.37 s, remaining 92.31 s).
28000000 of 110000000 tuples (25%) done (elapsed 31.49 s, remaining 92.21 s).
28100000 of 110000000 tuples (25%) done (elapsed 31.61 s, remaining 92.14 s).
28200000 of 110000000 tuples (25%) done (elapsed 31.74 s, remaining 92.07 s).
28300000 of 110000000 tuples (25%) done (elapsed 31.87 s, remaining 91.99 s).
28400000 of 110000000 tuples (25%) done (elapsed 31.99 s, remaining 91.92 s).
28500000 of 110000000 tuples (25%) done (elapsed 32.12 s, remaining 91.85 s).
28600000 of 110000000 tuples (26%) done (elapsed 32.25 s, remaining 91.78 s).
28700000 of 110000000 tuples (26%) done (elapsed 32.37 s, remaining 91.71 s).
28800000 of 110000000 tuples (26%) done (elapsed 32.50 s, remaining 91.64 s).
28900000 of 110000000 tuples (26%) done (elapsed 32.63 s, remaining 91.57 s).
29000000 of 110000000 tuples (26%) done (elapsed 32.76 s, remaining 91.49 s).
29100000 of 110000000 tuples (26%) done (elapsed 32.88 s, remaining 91.42 s).
29200000 of 110000000 tuples (26%) done (elapsed 33.01 s, remaining 91.35 s).
29300000 of 110000000 tuples (26%) done (elapsed 33.14 s, remaining 91.28 s).
29400000 of 110000000 tuples (26%) done (elapsed 33.22 s, remaining 91.06 s).
29500000 of 110000000 tuples (26%) done (elapsed 33.35 s, remaining 91.00 s).
29600000 of 110000000 tuples (26%) done (elapsed 33.48 s, remaining 90.93 s).
29700000 of 110000000 tuples (27%) done (elapsed 33.61 s, remaining 90.88 s).
29800000 of 110000000 tuples (27%) done (elapsed 33.75 s, remaining 90.84 s).
29900000 of 110000000 tuples (27%) done (elapsed 33.90 s, remaining 90.81 s).
30000000 of 110000000 tuples (27%) done (elapsed 36.70 s, remaining 97.87 s).
30100000 of 110000000 tuples (27%) done (elapsed 36.79 s, remaining 97.65 s).
30200000 of 110000000 tuples (27%) done (elapsed 36.84 s, remaining 97.35 s).
30300000 of 110000000 tuples (27%) done (elapsed 36.93 s, remaining 97.13 s).
30400000 of 110000000 tuples (27%) done (elapsed 36.98 s, remaining 96.83 s).
30500000 of 110000000 tuples (27%) done (elapsed 37.07 s, remaining 96.61 s).
30600000 of 110000000 tuples (27%) done (elapsed 37.15 s, remaining 96.40 s).
30700000 of 110000000 tuples (27%) done (elapsed 37.21 s, remaining 96.11 s).
30800000 of 110000000 tuples (28%) done (elapsed 37.29 s, remaining 95.89 s).
30900000 of 110000000 tuples (28%) done (elapsed 37.35 s, remaining 95.60 s).
31000000 of 110000000 tuples (28%) done (elapsed 37.43 s, remaining 95.39 s).
31100000 of 110000000 tuples (28%) done (elapsed 37.52 s, remaining 95.18 s).
31200000 of 110000000 tuples (28%) done (elapsed 37.57 s, remaining 94.90 s).
31300000 of 110000000 tuples (28%) done (elapsed 37.66 s, remaining 94.69 s).
31400000 of 110000000 tuples (28%) done (elapsed 37.71 s, remaining 94.41 s).
31500000 of 110000000 tuples (28%) done (elapsed 37.80 s, remaining 94.20 s).
31600000 of 110000000 tuples (28%) done (elapsed 37.89 s, remaining 94.00 s).
31700000 of 110000000 tuples (28%) done (elapsed 37.94 s, remaining 93.72 s).
31800000 of 110000000 tuples (28%) done (elapsed 38.03 s, remaining 93.51 s).
31900000 of 110000000 tuples (29%) done (elapsed 38.08 s, remaining 93.24 s).
32000000 of 110000000 tuples (29%) done (elapsed 38.17 s, remaining 93.04 s).
32100000 of 110000000 tuples (29%) done (elapsed 38.25 s, remaining 92.84 s).
32200000 of 110000000 tuples (29%) done (elapsed 38.31 s, remaining 92.56 s).
32300000 of 110000000 tuples (29%) done (elapsed 38.40 s, remaining 92.36 s).
32400000 of 110000000 tuples (29%) done (elapsed 38.45 s, remaining 92.09 s).
32500000 of 110000000 tuples (29%) done (elapsed 38.54 s, remaining 91.90 s).
32600000 of 110000000 tuples (29%) done (elapsed 38.62 s, remaining 91.70 s).
32700000 of 110000000 tuples (29%) done (elapsed 38.68 s, remaining 91.43 s).
32800000 of 110000000 tuples (29%) done (elapsed 38.76 s, remaining 91.24 s).
32900000 of 110000000 tuples (29%) done (elapsed 38.85 s, remaining 91.04 s).
33000000 of 110000000 tuples (30%) done (elapsed 38.90 s, remaining 90.78 s).
33100000 of 110000000 tuples (30%) done (elapsed 38.99 s, remaining 90.59 s).
33200000 of 110000000 tuples (30%) done (elapsed 39.05 s, remaining 90.32 s).
33300000 of 110000000 tuples (30%) done (elapsed 39.13 s, remaining 90.13 s).
33400000 of 110000000 tuples (30%) done (elapsed 39.22 s, remaining 89.94 s).
33500000 of 110000000 tuples (30%) done (elapsed 39.27 s, remaining 89.68 s).
33600000 of 110000000 tuples (30%) done (elapsed 39.36 s, remaining 89.50 s).
33700000 of 110000000 tuples (30%) done (elapsed 39.46 s, remaining 89.34 s).
33800000 of 110000000 tuples (30%) done (elapsed 39.58 s, remaining 89.23 s).
33900000 of 110000000 tuples (30%) done (elapsed 39.65 s, remaining 89.01 s).
34000000 of 110000000 tuples (30%) done (elapsed 39.78 s, remaining 88.91 s).
34100000 of 110000000 tuples (31%) done (elapsed 39.90 s, remaining 88.80 s).
34200000 of 110000000 tuples (31%) done (elapsed 40.02 s, remaining 88.70 s).
34300000 of 110000000 tuples (31%) done (elapsed 40.15 s, remaining 88.61 s).
34400000 of 110000000 tuples (31%) done (elapsed 40.28 s, remaining 88.51 s).
34500000 of 110000000 tuples (31%) done (elapsed 40.40 s, remaining 88.42 s).
34600000 of 110000000 tuples (31%) done (elapsed 40.53 s, remaining 88.33 s).
34700000 of 110000000 tuples (31%) done (elapsed 40.66 s, remaining 88.23 s).
34800000 of 110000000 tuples (31%) done (elapsed 40.79 s, remaining 88.14 s).
34900000 of 110000000 tuples (31%) done (elapsed 40.91 s, remaining 88.04 s).
35000000 of 110000000 tuples (31%) done (elapsed 41.04 s, remaining 87.94 s).
35100000 of 110000000 tuples (31%) done (elapsed 41.17 s, remaining 87.85 s).
35200000 of 110000000 tuples (32%) done (elapsed 41.24 s, remaining 87.64 s).
35300000 of 110000000 tuples (32%) done (elapsed 41.37 s, remaining 87.55 s).
35400000 of 110000000 tuples (32%) done (elapsed 41.50 s, remaining 87.45 s).
35500000 of 110000000 tuples (32%) done (elapsed 41.63 s, remaining 87.36 s).
35600000 of 110000000 tuples (32%) done (elapsed 41.76 s, remaining 87.26 s).
35700000 of 110000000 tuples (32%) done (elapsed 41.88 s, remaining 87.17 s).
35800000 of 110000000 tuples (32%) done (elapsed 42.01 s, remaining 87.08 s).
35900000 of 110000000 tuples (32%) done (elapsed 42.15 s, remaining 87.00 s).
36000000 of 110000000 tuples (32%) done (elapsed 44.87 s, remaining 92.23 s).
36100000 of 110000000 tuples (32%) done (elapsed 44.96 s, remaining 92.03 s).
36200000 of 110000000 tuples (32%) done (elapsed 45.01 s, remaining 91.76 s).
36300000 of 110000000 tuples (33%) done (elapsed 45.10 s, remaining 91.56 s).
36400000 of 110000000 tuples (33%) done (elapsed 45.15 s, remaining 91.29 s).
36500000 of 110000000 tuples (33%) done (elapsed 45.24 s, remaining 91.09 s).
36600000 of 110000000 tuples (33%) done (elapsed 45.32 s, remaining 90.89 s).
36700000 of 110000000 tuples (33%) done (elapsed 45.38 s, remaining 90.63 s).
36800000 of 110000000 tuples (33%) done (elapsed 45.46 s, remaining 90.43 s).
36900000 of 110000000 tuples (33%) done (elapsed 45.52 s, remaining 90.17 s).
37000000 of 110000000 tuples (33%) done (elapsed 46.93 s, remaining 92.59 s).
37100000 of 110000000 tuples (33%) done (elapsed 47.02 s, remaining 92.39 s).
37200000 of 110000000 tuples (33%) done (elapsed 47.07 s, remaining 92.12 s).
37300000 of 110000000 tuples (33%) done (elapsed 47.16 s, remaining 91.91 s).
37400000 of 110000000 tuples (34%) done (elapsed 47.30 s, remaining 91.81 s).
37500000 of 110000000 tuples (34%) done (elapsed 47.38 s, remaining 91.60 s).
37600000 of 110000000 tuples (34%) done (elapsed 47.47 s, remaining 91.40 s).
37700000 of 110000000 tuples (34%) done (elapsed 47.52 s, remaining 91.13 s).
37800000 of 110000000 tuples (34%) done (elapsed 47.61 s, remaining 90.93 s).
37900000 of 110000000 tuples (34%) done (elapsed 47.66 s, remaining 90.67 s).
38000000 of 110000000 tuples (34%) done (elapsed 47.75 s, remaining 90.47 s).
38100000 of 110000000 tuples (34%) done (elapsed 47.83 s, remaining 90.27 s).
38200000 of 110000000 tuples (34%) done (elapsed 47.89 s, remaining 90.01 s).
38300000 of 110000000 tuples (34%) done (elapsed 47.97 s, remaining 89.81 s).
38400000 of 110000000 tuples (34%) done (elapsed 48.03 s, remaining 89.55 s).
38500000 of 110000000 tuples (35%) done (elapsed 48.11 s, remaining 89.35 s).
38600000 of 110000000 tuples (35%) done (elapsed 48.20 s, remaining 89.16 s).
38700000 of 110000000 tuples (35%) done (elapsed 48.25 s, remaining 88.90 s).
38800000 of 110000000 tuples (35%) done (elapsed 48.34 s, remaining 88.71 s).
38900000 of 110000000 tuples (35%) done (elapsed 48.43 s, remaining 88.51 s).
39000000 of 110000000 tuples (35%) done (elapsed 48.48 s, remaining 88.26 s).
39100000 of 110000000 tuples (35%) done (elapsed 48.57 s, remaining 88.07 s).
39200000 of 110000000 tuples (35%) done (elapsed 48.62 s, remaining 87.82 s).
39300000 of 110000000 tuples (35%) done (elapsed 48.71 s, remaining 87.63 s).
39400000 of 110000000 tuples (35%) done (elapsed 48.80 s, remaining 87.44 s).
39500000 of 110000000 tuples (35%) done (elapsed 48.85 s, remaining 87.19 s).
39600000 of 110000000 tuples (36%) done (elapsed 48.94 s, remaining 87.00 s).
39700000 of 110000000 tuples (36%) done (elapsed 48.99 s, remaining 86.76 s).
39800000 of 110000000 tuples (36%) done (elapsed 49.08 s, remaining 86.57 s).
39900000 of 110000000 tuples (36%) done (elapsed 49.17 s, remaining 86.38 s).
40000000 of 110000000 tuples (36%) done (elapsed 49.22 s, remaining 86.14 s).
40100000 of 110000000 tuples (36%) done (elapsed 49.31 s, remaining 85.96 s).
40200000 of 110000000 tuples (36%) done (elapsed 49.37 s, remaining 85.72 s).
40300000 of 110000000 tuples (36%) done (elapsed 49.45 s, remaining 85.53 s).
40400000 of 110000000 tuples (36%) done (elapsed 49.54 s, remaining 85.34 s).
40500000 of 110000000 tuples (36%) done (elapsed 49.59 s, remaining 85.11 s).
40600000 of 110000000 tuples (36%) done (elapsed 49.68 s, remaining 84.92 s).
40700000 of 110000000 tuples (37%) done (elapsed 49.73 s, remaining 84.68 s).
40800000 of 110000000 tuples (37%) done (elapsed 49.82 s, remaining 84.50 s).
40900000 of 110000000 tuples (37%) done (elapsed 49.91 s, remaining 84.32 s).
41000000 of 110000000 tuples (37%) done (elapsed 49.96 s, remaining 84.08 s).
41100000 of 110000000 tuples (37%) done (elapsed 50.05 s, remaining 83.90 s).
41200000 of 110000000 tuples (37%) done (elapsed 50.10 s, remaining 83.67 s).
41300000 of 110000000 tuples (37%) done (elapsed 50.19 s, remaining 83.49 s).
41400000 of 110000000 tuples (37%) done (elapsed 50.28 s, remaining 83.31 s).
41500000 of 110000000 tuples (37%) done (elapsed 50.33 s, remaining 83.08 s).
41600000 of 110000000 tuples (37%) done (elapsed 50.42 s, remaining 82.90 s).
41700000 of 110000000 tuples (37%) done (elapsed 50.47 s, remaining 82.67 s).
41800000 of 110000000 tuples (38%) done (elapsed 50.56 s, remaining 82.49 s).
41900000 of 110000000 tuples (38%) done (elapsed 50.64 s, remaining 82.31 s).
42000000 of 110000000 tuples (38%) done (elapsed 50.70 s, remaining 82.08 s).
42100000 of 110000000 tuples (38%) done (elapsed 50.79 s, remaining 81.91 s).
42200000 of 110000000 tuples (38%) done (elapsed 50.84 s, remaining 81.68 s).
42300000 of 110000000 tuples (38%) done (elapsed 50.93 s, remaining 81.51 s).
42400000 of 110000000 tuples (38%) done (elapsed 51.01 s, remaining 81.33 s).
42500000 of 110000000 tuples (38%) done (elapsed 51.07 s, remaining 81.11 s).
42600000 of 110000000 tuples (38%) done (elapsed 51.15 s, remaining 80.93 s).
42700000 of 110000000 tuples (38%) done (elapsed 51.27 s, remaining 80.80 s).
42800000 of 110000000 tuples (38%) done (elapsed 51.39 s, remaining 80.68 s).
42900000 of 110000000 tuples (39%) done (elapsed 51.46 s, remaining 80.49 s).
43000000 of 110000000 tuples (39%) done (elapsed 51.58 s, remaining 80.37 s).
43100000 of 110000000 tuples (39%) done (elapsed 51.70 s, remaining 80.26 s).
43200000 of 110000000 tuples (39%) done (elapsed 51.82 s, remaining 80.13 s).
43300000 of 110000000 tuples (39%) done (elapsed 51.95 s, remaining 80.02 s).
43400000 of 110000000 tuples (39%) done (elapsed 52.08 s, remaining 79.92 s).
43500000 of 110000000 tuples (39%) done (elapsed 52.21 s, remaining 79.81 s).
43600000 of 110000000 tuples (39%) done (elapsed 52.33 s, remaining 79.70 s).
43700000 of 110000000 tuples (39%) done (elapsed 52.46 s, remaining 79.59 s).
43800000 of 110000000 tuples (39%) done (elapsed 52.59 s, remaining 79.48 s).
43900000 of 110000000 tuples (39%) done (elapsed 52.66 s, remaining 79.30 s).
44000000 of 110000000 tuples (40%) done (elapsed 52.79 s, remaining 79.19 s).
44100000 of 110000000 tuples (40%) done (elapsed 52.92 s, remaining 79.08 s).
44200000 of 110000000 tuples (40%) done (elapsed 53.05 s, remaining 78.97 s).
44300000 of 110000000 tuples (40%) done (elapsed 53.18 s, remaining 78.86 s).
44400000 of 110000000 tuples (40%) done (elapsed 53.30 s, remaining 78.75 s).
44500000 of 110000000 tuples (40%) done (elapsed 53.43 s, remaining 78.65 s).
44600000 of 110000000 tuples (40%) done (elapsed 53.56 s, remaining 78.54 s).
44700000 of 110000000 tuples (40%) done (elapsed 53.69 s, remaining 78.43 s).
44800000 of 110000000 tuples (40%) done (elapsed 53.83 s, remaining 78.34 s).
44900000 of 110000000 tuples (40%) done (elapsed 53.97 s, remaining 78.25 s).
45000000 of 110000000 tuples (40%) done (elapsed 55.55 s, remaining 80.24 s).
45100000 of 110000000 tuples (41%) done (elapsed 55.64 s, remaining 80.07 s).
45200000 of 110000000 tuples (41%) done (elapsed 55.70 s, remaining 79.85 s).
45300000 of 110000000 tuples (41%) done (elapsed 57.78 s, remaining 82.52 s).
45400000 of 110000000 tuples (41%) done (elapsed 57.86 s, remaining 82.33 s).
45500000 of 110000000 tuples (41%) done (elapsed 57.92 s, remaining 82.10 s).
45600000 of 110000000 tuples (41%) done (elapsed 58.00 s, remaining 81.92 s).
45700000 of 110000000 tuples (41%) done (elapsed 58.09 s, remaining 81.73 s).
45800000 of 110000000 tuples (41%) done (elapsed 58.14 s, remaining 81.50 s).
45900000 of 110000000 tuples (41%) done (elapsed 58.23 s, remaining 81.32 s).
46000000 of 110000000 tuples (41%) done (elapsed 58.28 s, remaining 81.09 s).
46100000 of 110000000 tuples (41%) done (elapsed 58.92 s, remaining 81.67 s).
46200000 of 110000000 tuples (42%) done (elapsed 59.00 s, remaining 81.48 s).
46300000 of 110000000 tuples (42%) done (elapsed 59.06 s, remaining 81.26 s).
46400000 of 110000000 tuples (42%) done (elapsed 59.15 s, remaining 81.07 s).
46500000 of 110000000 tuples (42%) done (elapsed 59.23 s, remaining 80.89 s).
46600000 of 110000000 tuples (42%) done (elapsed 59.29 s, remaining 80.66 s).
46700000 of 110000000 tuples (42%) done (elapsed 59.37 s, remaining 80.47 s).
46800000 of 110000000 tuples (42%) done (elapsed 59.43 s, remaining 80.25 s).
46900000 of 110000000 tuples (42%) done (elapsed 59.70 s, remaining 80.32 s).
47000000 of 110000000 tuples (42%) done (elapsed 59.79 s, remaining 80.14 s).
47100000 of 110000000 tuples (42%) done (elapsed 59.98 s, remaining 80.10 s).
47200000 of 110000000 tuples (42%) done (elapsed 60.06 s, remaining 79.91 s).
47300000 of 110000000 tuples (43%) done (elapsed 60.12 s, remaining 79.69 s).
47400000 of 110000000 tuples (43%) done (elapsed 60.20 s, remaining 79.51 s).
47500000 of 110000000 tuples (43%) done (elapsed 60.33 s, remaining 79.38 s).
47600000 of 110000000 tuples (43%) done (elapsed 60.38 s, remaining 79.16 s).
47700000 of 110000000 tuples (43%) done (elapsed 60.47 s, remaining 78.98 s).
47800000 of 110000000 tuples (43%) done (elapsed 60.52 s, remaining 78.76 s).
47900000 of 110000000 tuples (43%) done (elapsed 60.93 s, remaining 78.99 s).
48000000 of 110000000 tuples (43%) done (elapsed 61.02 s, remaining 78.81 s).
48100000 of 110000000 tuples (43%) done (elapsed 61.07 s, remaining 78.59 s).
48200000 of 110000000 tuples (43%) done (elapsed 61.24 s, remaining 78.52 s).
48300000 of 110000000 tuples (43%) done (elapsed 61.33 s, remaining 78.34 s).
48400000 of 110000000 tuples (44%) done (elapsed 61.38 s, remaining 78.12 s).
48500000 of 110000000 tuples (44%) done (elapsed 61.47 s, remaining 77.94 s).
48600000 of 110000000 tuples (44%) done (elapsed 61.58 s, remaining 77.79 s).
48700000 of 110000000 tuples (44%) done (elapsed 61.66 s, remaining 77.61 s).
48800000 of 110000000 tuples (44%) done (elapsed 61.75 s, remaining 77.44 s).
48900000 of 110000000 tuples (44%) done (elapsed 61.80 s, remaining 77.22 s).
49000000 of 110000000 tuples (44%) done (elapsed 62.08 s, remaining 77.28 s).
49100000 of 110000000 tuples (44%) done (elapsed 62.13 s, remaining 77.07 s).
49200000 of 110000000 tuples (44%) done (elapsed 62.22 s, remaining 76.89 s).
49300000 of 110000000 tuples (44%) done (elapsed 62.40 s, remaining 76.83 s).
49400000 of 110000000 tuples (44%) done (elapsed 62.45 s, remaining 76.61 s).
49500000 of 110000000 tuples (45%) done (elapsed 62.54 s, remaining 76.44 s).
49600000 of 110000000 tuples (45%) done (elapsed 62.60 s, remaining 76.22 s).
49700000 of 110000000 tuples (45%) done (elapsed 62.74 s, remaining 76.12 s).
49800000 of 110000000 tuples (45%) done (elapsed 62.83 s, remaining 75.95 s).
49900000 of 110000000 tuples (45%) done (elapsed 62.88 s, remaining 75.74 s).
50000000 of 110000000 tuples (45%) done (elapsed 62.97 s, remaining 75.56 s).
50100000 of 110000000 tuples (45%) done (elapsed 63.06 s, remaining 75.39 s).
50200000 of 110000000 tuples (45%) done (elapsed 63.11 s, remaining 75.18 s).
50300000 of 110000000 tuples (45%) done (elapsed 63.20 s, remaining 75.01 s).
50400000 of 110000000 tuples (45%) done (elapsed 63.25 s, remaining 74.80 s).
50500000 of 110000000 tuples (45%) done (elapsed 63.62 s, remaining 74.96 s).
50600000 of 110000000 tuples (46%) done (elapsed 63.71 s, remaining 74.79 s).
50700000 of 110000000 tuples (46%) done (elapsed 63.76 s, remaining 74.58 s).
50800000 of 110000000 tuples (46%) done (elapsed 63.85 s, remaining 74.40 s).
50900000 of 110000000 tuples (46%) done (elapsed 63.93 s, remaining 74.23 s).
51000000 of 110000000 tuples (46%) done (elapsed 63.99 s, remaining 74.03 s).
51100000 of 110000000 tuples (46%) done (elapsed 64.08 s, remaining 73.86 s).
51200000 of 110000000 tuples (46%) done (elapsed 64.13 s, remaining 73.65 s).
51300000 of 110000000 tuples (46%) done (elapsed 64.22 s, remaining 73.48 s).
51400000 of 110000000 tuples (46%) done (elapsed 64.30 s, remaining 73.31 s).
51500000 of 110000000 tuples (46%) done (elapsed 64.36 s, remaining 73.11 s).
51600000 of 110000000 tuples (46%) done (elapsed 64.60 s, remaining 73.11 s).
51700000 of 110000000 tuples (47%) done (elapsed 64.68 s, remaining 72.94 s).
51800000 of 110000000 tuples (47%) done (elapsed 64.74 s, remaining 72.74 s).
51900000 of 110000000 tuples (47%) done (elapsed 64.83 s, remaining 72.57 s).
52000000 of 110000000 tuples (47%) done (elapsed 64.88 s, remaining 72.37 s).
52100000 of 110000000 tuples (47%) done (elapsed 65.12 s, remaining 72.37 s).
52200000 of 110000000 tuples (47%) done (elapsed 65.21 s, remaining 72.20 s).
52300000 of 110000000 tuples (47%) done (elapsed 65.26 s, remaining 72.00 s).
52400000 of 110000000 tuples (47%) done (elapsed 65.35 s, remaining 71.83 s).
52500000 of 110000000 tuples (47%) done (elapsed 65.41 s, remaining 71.63 s).
52600000 of 110000000 tuples (47%) done (elapsed 65.49 s, remaining 71.47 s).
52700000 of 110000000 tuples (47%) done (elapsed 65.58 s, remaining 71.30 s).
52800000 of 110000000 tuples (48%) done (elapsed 65.63 s, remaining 71.10 s).
52900000 of 110000000 tuples (48%) done (elapsed 65.72 s, remaining 70.94 s).
53000000 of 110000000 tuples (48%) done (elapsed 65.80 s, remaining 70.77 s).
53100000 of 110000000 tuples (48%) done (elapsed 66.10 s, remaining 70.83 s).
53200000 of 110000000 tuples (48%) done (elapsed 66.19 s, remaining 70.67 s).
53300000 of 110000000 tuples (48%) done (elapsed 66.24 s, remaining 70.47 s).
53400000 of 110000000 tuples (48%) done (elapsed 66.33 s, remaining 70.30 s).
53500000 of 110000000 tuples (48%) done (elapsed 66.41 s, remaining 70.14 s).
53600000 of 110000000 tuples (48%) done (elapsed 66.47 s, remaining 69.94 s).
53700000 of 110000000 tuples (48%) done (elapsed 66.55 s, remaining 69.78 s).
53800000 of 110000000 tuples (48%) done (elapsed 66.61 s, remaining 69.58 s).
53900000 of 110000000 tuples (49%) done (elapsed 66.70 s, remaining 69.42 s).
54000000 of 110000000 tuples (49%) done (elapsed 66.78 s, remaining 69.26 s).
54100000 of 110000000 tuples (49%) done (elapsed 66.84 s, remaining 69.06 s).
54200000 of 110000000 tuples (49%) done (elapsed 67.29 s, remaining 69.28 s).
54300000 of 110000000 tuples (49%) done (elapsed 67.38 s, remaining 69.12 s).
54400000 of 110000000 tuples (49%) done (elapsed 67.44 s, remaining 68.93 s).
54500000 of 110000000 tuples (49%) done (elapsed 67.53 s, remaining 68.76 s).
54600000 of 110000000 tuples (49%) done (elapsed 67.58 s, remaining 68.57 s).
54700000 of 110000000 tuples (49%) done (elapsed 67.67 s, remaining 68.41 s).
54800000 of 110000000 tuples (49%) done (elapsed 67.76 s, remaining 68.25 s).
54900000 of 110000000 tuples (49%) done (elapsed 67.81 s, remaining 68.06 s).
55000000 of 110000000 tuples (50%) done (elapsed 67.90 s, remaining 67.90 s).
55100000 of 110000000 tuples (50%) done (elapsed 67.96 s, remaining 67.71 s).
55200000 of 110000000 tuples (50%) done (elapsed 68.14 s, remaining 67.65 s).
55300000 of 110000000 tuples (50%) done (elapsed 68.23 s, remaining 67.49 s).
55400000 of 110000000 tuples (50%) done (elapsed 68.28 s, remaining 67.30 s).
55500000 of 110000000 tuples (50%) done (elapsed 68.37 s, remaining 67.14 s).
55600000 of 110000000 tuples (50%) done (elapsed 68.42 s, remaining 66.95 s).
55700000 of 110000000 tuples (50%) done (elapsed 68.51 s, remaining 66.79 s).
55800000 of 110000000 tuples (50%) done (elapsed 68.59 s, remaining 66.63 s).
55900000 of 110000000 tuples (50%) done (elapsed 68.65 s, remaining 66.44 s).
56000000 of 110000000 tuples (50%) done (elapsed 68.74 s, remaining 66.28 s).
56100000 of 110000000 tuples (51%) done (elapsed 69.06 s, remaining 66.35 s).
56200000 of 110000000 tuples (51%) done (elapsed 69.11 s, remaining 66.16 s).
56300000 of 110000000 tuples (51%) done (elapsed 69.20 s, remaining 66.00 s).
56400000 of 110000000 tuples (51%) done (elapsed 69.25 s, remaining 65.81 s).
56500000 of 110000000 tuples (51%) done (elapsed 69.34 s, remaining 65.66 s).
56600000 of 110000000 tuples (51%) done (elapsed 69.42 s, remaining 65.50 s).
56700000 of 110000000 tuples (51%) done (elapsed 69.48 s, remaining 65.31 s).
56800000 of 110000000 tuples (51%) done (elapsed 69.57 s, remaining 65.16 s).
56900000 of 110000000 tuples (51%) done (elapsed 69.62 s, remaining 64.97 s).
57000000 of 110000000 tuples (51%) done (elapsed 69.71 s, remaining 64.81 s).
57100000 of 110000000 tuples (51%) done (elapsed 70.27 s, remaining 65.11 s).
57200000 of 110000000 tuples (52%) done (elapsed 70.33 s, remaining 64.92 s).
57300000 of 110000000 tuples (52%) done (elapsed 70.42 s, remaining 64.76 s).
57400000 of 110000000 tuples (52%) done (elapsed 70.47 s, remaining 64.58 s).
57500000 of 110000000 tuples (52%) done (elapsed 70.56 s, remaining 64.42 s).
57600000 of 110000000 tuples (52%) done (elapsed 70.64 s, remaining 64.26 s).
57700000 of 110000000 tuples (52%) done (elapsed 70.70 s, remaining 64.08 s).
57800000 of 110000000 tuples (52%) done (elapsed 70.78 s, remaining 63.93 s).
57900000 of 110000000 tuples (52%) done (elapsed 70.84 s, remaining 63.74 s).
58000000 of 110000000 tuples (52%) done (elapsed 70.92 s, remaining 63.59 s).
58100000 of 110000000 tuples (52%) done (elapsed 71.01 s, remaining 63.43 s).
58200000 of 110000000 tuples (52%) done (elapsed 71.07 s, remaining 63.25 s).
58300000 of 110000000 tuples (53%) done (elapsed 71.39 s, remaining 63.31 s).
58400000 of 110000000 tuples (53%) done (elapsed 71.44 s, remaining 63.13 s).
58500000 of 110000000 tuples (53%) done (elapsed 71.53 s, remaining 62.97 s).
58600000 of 110000000 tuples (53%) done (elapsed 71.62 s, remaining 62.82 s).
58700000 of 110000000 tuples (53%) done (elapsed 71.67 s, remaining 62.64 s).
58800000 of 110000000 tuples (53%) done (elapsed 71.76 s, remaining 62.48 s).
58900000 of 110000000 tuples (53%) done (elapsed 71.84 s, remaining 62.33 s).
59000000 of 110000000 tuples (53%) done (elapsed 71.90 s, remaining 62.15 s).
59100000 of 110000000 tuples (53%) done (elapsed 72.41 s, remaining 62.36 s).
59200000 of 110000000 tuples (53%) done (elapsed 72.46 s, remaining 62.18 s).
59300000 of 110000000 tuples (53%) done (elapsed 72.55 s, remaining 62.03 s).
59400000 of 110000000 tuples (54%) done (elapsed 72.64 s, remaining 61.88 s).
59500000 of 110000000 tuples (54%) done (elapsed 72.69 s, remaining 61.70 s).
59600000 of 110000000 tuples (54%) done (elapsed 72.78 s, remaining 61.55 s).
59700000 of 110000000 tuples (54%) done (elapsed 72.84 s, remaining 61.37 s).
59800000 of 110000000 tuples (54%) done (elapsed 72.92 s, remaining 61.22 s).
59900000 of 110000000 tuples (54%) done (elapsed 73.01 s, remaining 61.06 s).
60000000 of 110000000 tuples (54%) done (elapsed 73.06 s, remaining 60.89 s).
60100000 of 110000000 tuples (54%) done (elapsed 73.43 s, remaining 60.97 s).
60200000 of 110000000 tuples (54%) done (elapsed 73.49 s, remaining 60.79 s).
60300000 of 110000000 tuples (54%) done (elapsed 73.58 s, remaining 60.64 s).
60400000 of 110000000 tuples (54%) done (elapsed 73.66 s, remaining 60.49 s).
60500000 of 110000000 tuples (55%) done (elapsed 73.72 s, remaining 60.31 s).
60600000 of 110000000 tuples (55%) done (elapsed 73.80 s, remaining 60.16 s).
60700000 of 110000000 tuples (55%) done (elapsed 73.86 s, remaining 59.99 s).
60800000 of 110000000 tuples (55%) done (elapsed 73.94 s, remaining 59.84 s).
60900000 of 110000000 tuples (55%) done (elapsed 74.03 s, remaining 59.69 s).
61000000 of 110000000 tuples (55%) done (elapsed 74.08 s, remaining 59.51 s).
61100000 of 110000000 tuples (55%) done (elapsed 74.31 s, remaining 59.47 s).
61200000 of 110000000 tuples (55%) done (elapsed 74.39 s, remaining 59.32 s).
61300000 of 110000000 tuples (55%) done (elapsed 74.45 s, remaining 59.15 s).
61400000 of 110000000 tuples (55%) done (elapsed 74.54 s, remaining 59.00 s).
61500000 of 110000000 tuples (55%) done (elapsed 74.62 s, remaining 58.85 s).
61600000 of 110000000 tuples (56%) done (elapsed 74.68 s, remaining 58.67 s).
61700000 of 110000000 tuples (56%) done (elapsed 74.76 s, remaining 58.52 s).
61800000 of 110000000 tuples (56%) done (elapsed 74.82 s, remaining 58.35 s).
61900000 of 110000000 tuples (56%) done (elapsed 74.90 s, remaining 58.20 s).
62000000 of 110000000 tuples (56%) done (elapsed 74.99 s, remaining 58.06 s).
62100000 of 110000000 tuples (56%) done (elapsed 75.37 s, remaining 58.14 s).
62200000 of 110000000 tuples (56%) done (elapsed 75.46 s, remaining 57.99 s).
62300000 of 110000000 tuples (56%) done (elapsed 75.51 s, remaining 57.82 s).
62400000 of 110000000 tuples (56%) done (elapsed 75.60 s, remaining 57.67 s).
62500000 of 110000000 tuples (56%) done (elapsed 75.69 s, remaining 57.52 s).
62600000 of 110000000 tuples (56%) done (elapsed 75.74 s, remaining 57.35 s).
62700000 of 110000000 tuples (57%) done (elapsed 75.83 s, remaining 57.20 s).
62800000 of 110000000 tuples (57%) done (elapsed 75.88 s, remaining 57.03 s).
62900000 of 110000000 tuples (57%) done (elapsed 75.97 s, remaining 56.89 s).
63000000 of 110000000 tuples (57%) done (elapsed 76.05 s, remaining 56.74 s).
63100000 of 110000000 tuples (57%) done (elapsed 76.11 s, remaining 56.57 s).
63200000 of 110000000 tuples (57%) done (elapsed 76.50 s, remaining 56.65 s).
63300000 of 110000000 tuples (57%) done (elapsed 76.59 s, remaining 56.51 s).
63400000 of 110000000 tuples (57%) done (elapsed 76.65 s, remaining 56.34 s).
63500000 of 110000000 tuples (57%) done (elapsed 76.73 s, remaining 56.19 s).
63600000 of 110000000 tuples (57%) done (elapsed 76.79 s, remaining 56.02 s).
63700000 of 110000000 tuples (57%) done (elapsed 76.87 s, remaining 55.87 s).
63800000 of 110000000 tuples (58%) done (elapsed 76.96 s, remaining 55.73 s).
63900000 of 110000000 tuples (58%) done (elapsed 77.01 s, remaining 55.56 s).
64000000 of 110000000 tuples (58%) done (elapsed 77.10 s, remaining 55.42 s).
64100000 of 110000000 tuples (58%) done (elapsed 77.15 s, remaining 55.25 s).
64200000 of 110000000 tuples (58%) done (elapsed 77.61 s, remaining 55.36 s).
64300000 of 110000000 tuples (58%) done (elapsed 77.69 s, remaining 55.22 s).
64400000 of 110000000 tuples (58%) done (elapsed 77.75 s, remaining 55.05 s).
64500000 of 110000000 tuples (58%) done (elapsed 77.83 s, remaining 54.91 s).
64600000 of 110000000 tuples (58%) done (elapsed 77.92 s, remaining 54.76 s).
64700000 of 110000000 tuples (58%) done (elapsed 77.98 s, remaining 54.60 s).
64800000 of 110000000 tuples (58%) done (elapsed 78.06 s, remaining 54.45 s).
64900000 of 110000000 tuples (59%) done (elapsed 78.12 s, remaining 54.29 s).
65000000 of 110000000 tuples (59%) done (elapsed 78.21 s, remaining 54.14 s).
65100000 of 110000000 tuples (59%) done (elapsed 78.29 s, remaining 54.00 s).
65200000 of 110000000 tuples (59%) done (elapsed 78.62 s, remaining 54.02 s).
65300000 of 110000000 tuples (59%) done (elapsed 78.70 s, remaining 53.87 s).
65400000 of 110000000 tuples (59%) done (elapsed 78.76 s, remaining 53.71 s).
65500000 of 110000000 tuples (59%) done (elapsed 78.84 s, remaining 53.57 s).
65600000 of 110000000 tuples (59%) done (elapsed 78.93 s, remaining 53.42 s).
65700000 of 110000000 tuples (59%) done (elapsed 78.98 s, remaining 53.26 s).
65800000 of 110000000 tuples (59%) done (elapsed 79.07 s, remaining 53.11 s).
65900000 of 110000000 tuples (59%) done (elapsed 79.13 s, remaining 52.95 s).
66000000 of 110000000 tuples (60%) done (elapsed 79.21 s, remaining 52.81 s).
66100000 of 110000000 tuples (60%) done (elapsed 79.48 s, remaining 52.79 s).
66200000 of 110000000 tuples (60%) done (elapsed 79.54 s, remaining 52.62 s).
66300000 of 110000000 tuples (60%) done (elapsed 79.62 s, remaining 52.48 s).
66400000 of 110000000 tuples (60%) done (elapsed 79.68 s, remaining 52.32 s).
66500000 of 110000000 tuples (60%) done (elapsed 79.76 s, remaining 52.18 s).
66600000 of 110000000 tuples (60%) done (elapsed 79.85 s, remaining 52.03 s).
66700000 of 110000000 tuples (60%) done (elapsed 79.90 s, remaining 51.87 s).
66800000 of 110000000 tuples (60%) done (elapsed 79.99 s, remaining 51.73 s).
66900000 of 110000000 tuples (60%) done (elapsed 80.05 s, remaining 51.57 s).
67000000 of 110000000 tuples (60%) done (elapsed 80.13 s, remaining 51.43 s).
67100000 of 110000000 tuples (61%) done (elapsed 80.56 s, remaining 51.50 s).
67200000 of 110000000 tuples (61%) done (elapsed 80.61 s, remaining 51.34 s).
67300000 of 110000000 tuples (61%) done (elapsed 80.70 s, remaining 51.20 s).
67400000 of 110000000 tuples (61%) done (elapsed 80.75 s, remaining 51.04 s).
67500000 of 110000000 tuples (61%) done (elapsed 80.84 s, remaining 50.90 s).
67600000 of 110000000 tuples (61%) done (elapsed 80.92 s, remaining 50.76 s).
67700000 of 110000000 tuples (61%) done (elapsed 80.98 s, remaining 50.60 s).
67800000 of 110000000 tuples (61%) done (elapsed 81.06 s, remaining 50.46 s).
67900000 of 110000000 tuples (61%) done (elapsed 81.12 s, remaining 50.30 s).
68000000 of 110000000 tuples (61%) done (elapsed 81.42 s, remaining 50.29 s).
68100000 of 110000000 tuples (61%) done (elapsed 81.51 s, remaining 50.15 s).
68200000 of 110000000 tuples (62%) done (elapsed 81.57 s, remaining 49.99 s).
68300000 of 110000000 tuples (62%) done (elapsed 81.65 s, remaining 49.85 s).
68400000 of 110000000 tuples (62%) done (elapsed 81.71 s, remaining 49.69 s).
68500000 of 110000000 tuples (62%) done (elapsed 81.79 s, remaining 49.55 s).
68600000 of 110000000 tuples (62%) done (elapsed 81.88 s, remaining 49.41 s).
68700000 of 110000000 tuples (62%) done (elapsed 81.93 s, remaining 49.26 s).
68800000 of 110000000 tuples (62%) done (elapsed 82.02 s, remaining 49.12 s).
68900000 of 110000000 tuples (62%) done (elapsed 82.11 s, remaining 48.98 s).
69000000 of 110000000 tuples (62%) done (elapsed 82.68 s, remaining 49.13 s).
69100000 of 110000000 tuples (62%) done (elapsed 82.77 s, remaining 48.99 s).
69200000 of 110000000 tuples (62%) done (elapsed 82.82 s, remaining 48.83 s).
69300000 of 110000000 tuples (63%) done (elapsed 82.91 s, remaining 48.69 s).
69400000 of 110000000 tuples (63%) done (elapsed 83.00 s, remaining 48.55 s).
69500000 of 110000000 tuples (63%) done (elapsed 83.05 s, remaining 48.40 s).
69600000 of 110000000 tuples (63%) done (elapsed 83.14 s, remaining 48.26 s).
69700000 of 110000000 tuples (63%) done (elapsed 83.19 s, remaining 48.10 s).
69800000 of 110000000 tuples (63%) done (elapsed 83.28 s, remaining 47.96 s).
69900000 of 110000000 tuples (63%) done (elapsed 83.37 s, remaining 47.83 s).
70000000 of 110000000 tuples (63%) done (elapsed 83.42 s, remaining 47.67 s).
70100000 of 110000000 tuples (63%) done (elapsed 83.67 s, remaining 47.62 s).
70200000 of 110000000 tuples (63%) done (elapsed 83.75 s, remaining 47.48 s).
70300000 of 110000000 tuples (63%) done (elapsed 83.81 s, remaining 47.33 s).
70400000 of 110000000 tuples (64%) done (elapsed 83.89 s, remaining 47.19 s).
70500000 of 110000000 tuples (64%) done (elapsed 83.95 s, remaining 47.03 s).
70600000 of 110000000 tuples (64%) done (elapsed 84.03 s, remaining 46.90 s).
70700000 of 110000000 tuples (64%) done (elapsed 84.12 s, remaining 46.76 s).
70800000 of 110000000 tuples (64%) done (elapsed 84.17 s, remaining 46.60 s).
70900000 of 110000000 tuples (64%) done (elapsed 84.26 s, remaining 46.47 s).
71000000 of 110000000 tuples (64%) done (elapsed 84.31 s, remaining 46.31 s).
71100000 of 110000000 tuples (64%) done (elapsed 84.65 s, remaining 46.31 s).
71200000 of 110000000 tuples (64%) done (elapsed 84.73 s, remaining 46.18 s).
71300000 of 110000000 tuples (64%) done (elapsed 84.79 s, remaining 46.02 s).
71400000 of 110000000 tuples (64%) done (elapsed 84.88 s, remaining 45.89 s).
71500000 of 110000000 tuples (65%) done (elapsed 84.93 s, remaining 45.73 s).
71600000 of 110000000 tuples (65%) done (elapsed 85.02 s, remaining 45.60 s).
71700000 of 110000000 tuples (65%) done (elapsed 85.10 s, remaining 45.46 s).
71800000 of 110000000 tuples (65%) done (elapsed 85.16 s, remaining 45.31 s).
71900000 of 110000000 tuples (65%) done (elapsed 85.24 s, remaining 45.17 s).
72000000 of 110000000 tuples (65%) done (elapsed 85.30 s, remaining 45.02 s).
72100000 of 110000000 tuples (65%) done (elapsed 85.65 s, remaining 45.02 s).
72200000 of 110000000 tuples (65%) done (elapsed 85.73 s, remaining 44.88 s).
72300000 of 110000000 tuples (65%) done (elapsed 85.79 s, remaining 44.73 s).
72400000 of 110000000 tuples (65%) done (elapsed 85.87 s, remaining 44.60 s).
72500000 of 110000000 tuples (65%) done (elapsed 85.96 s, remaining 44.46 s).
72600000 of 110000000 tuples (66%) done (elapsed 86.01 s, remaining 44.31 s).
72700000 of 110000000 tuples (66%) done (elapsed 86.10 s, remaining 44.17 s).
72800000 of 110000000 tuples (66%) done (elapsed 86.15 s, remaining 44.02 s).
72900000 of 110000000 tuples (66%) done (elapsed 86.24 s, remaining 43.89 s).
73000000 of 110000000 tuples (66%) done (elapsed 86.32 s, remaining 43.75 s).
73100000 of 110000000 tuples (66%) done (elapsed 86.63 s, remaining 43.73 s).
73200000 of 110000000 tuples (66%) done (elapsed 86.71 s, remaining 43.59 s).
73300000 of 110000000 tuples (66%) done (elapsed 86.77 s, remaining 43.44 s).
73400000 of 110000000 tuples (66%) done (elapsed 86.85 s, remaining 43.31 s).
73500000 of 110000000 tuples (66%) done (elapsed 86.94 s, remaining 43.17 s).
73600000 of 110000000 tuples (66%) done (elapsed 86.99 s, remaining 43.02 s).
73700000 of 110000000 tuples (67%) done (elapsed 87.08 s, remaining 42.89 s).
73800000 of 110000000 tuples (67%) done (elapsed 87.13 s, remaining 42.74 s).
73900000 of 110000000 tuples (67%) done (elapsed 87.22 s, remaining 42.61 s).
74000000 of 110000000 tuples (67%) done (elapsed 87.52 s, remaining 42.58 s).
74100000 of 110000000 tuples (67%) done (elapsed 87.57 s, remaining 42.43 s).
74200000 of 110000000 tuples (67%) done (elapsed 87.74 s, remaining 42.33 s).
74300000 of 110000000 tuples (67%) done (elapsed 87.79 s, remaining 42.18 s).
74400000 of 110000000 tuples (67%) done (elapsed 87.88 s, remaining 42.05 s).
74500000 of 110000000 tuples (67%) done (elapsed 87.96 s, remaining 41.91 s).
74600000 of 110000000 tuples (67%) done (elapsed 88.02 s, remaining 41.77 s).
74700000 of 110000000 tuples (67%) done (elapsed 88.10 s, remaining 41.63 s).
74800000 of 110000000 tuples (68%) done (elapsed 88.16 s, remaining 41.49 s).
74900000 of 110000000 tuples (68%) done (elapsed 88.24 s, remaining 41.35 s).
75000000 of 110000000 tuples (68%) done (elapsed 88.54 s, remaining 41.32 s).
75100000 of 110000000 tuples (68%) done (elapsed 88.60 s, remaining 41.17 s).
75200000 of 110000000 tuples (68%) done (elapsed 88.68 s, remaining 41.04 s).
75300000 of 110000000 tuples (68%) done (elapsed 88.74 s, remaining 40.89 s).
75400000 of 110000000 tuples (68%) done (elapsed 88.82 s, remaining 40.76 s).
75500000 of 110000000 tuples (68%) done (elapsed 88.91 s, remaining 40.63 s).
75600000 of 110000000 tuples (68%) done (elapsed 88.96 s, remaining 40.48 s).
75700000 of 110000000 tuples (68%) done (elapsed 89.05 s, remaining 40.35 s).
75800000 of 110000000 tuples (68%) done (elapsed 89.10 s, remaining 40.20 s).
75900000 of 110000000 tuples (69%) done (elapsed 89.19 s, remaining 40.07 s).
76000000 of 110000000 tuples (69%) done (elapsed 89.27 s, remaining 39.94 s).
76100000 of 110000000 tuples (69%) done (elapsed 89.70 s, remaining 39.96 s).
76200000 of 110000000 tuples (69%) done (elapsed 89.79 s, remaining 39.83 s).
76300000 of 110000000 tuples (69%) done (elapsed 89.88 s, remaining 39.70 s).
76400000 of 110000000 tuples (69%) done (elapsed 89.93 s, remaining 39.55 s).
76500000 of 110000000 tuples (69%) done (elapsed 90.02 s, remaining 39.42 s).
76600000 of 110000000 tuples (69%) done (elapsed 90.07 s, remaining 39.27 s).
76700000 of 110000000 tuples (69%) done (elapsed 90.16 s, remaining 39.14 s).
76800000 of 110000000 tuples (69%) done (elapsed 90.24 s, remaining 39.01 s).
76900000 of 110000000 tuples (69%) done (elapsed 90.30 s, remaining 38.87 s).
77000000 of 110000000 tuples (70%) done (elapsed 90.38 s, remaining 38.74 s).
77100000 of 110000000 tuples (70%) done (elapsed 90.69 s, remaining 38.70 s).
77200000 of 110000000 tuples (70%) done (elapsed 90.74 s, remaining 38.55 s).
77300000 of 110000000 tuples (70%) done (elapsed 90.83 s, remaining 38.42 s).
77400000 of 110000000 tuples (70%) done (elapsed 90.88 s, remaining 38.28 s).
77500000 of 110000000 tuples (70%) done (elapsed 90.97 s, remaining 38.15 s).
77600000 of 110000000 tuples (70%) done (elapsed 91.05 s, remaining 38.02 s).
77700000 of 110000000 tuples (70%) done (elapsed 91.11 s, remaining 37.87 s).
77800000 of 110000000 tuples (70%) done (elapsed 91.19 s, remaining 37.74 s).
77900000 of 110000000 tuples (70%) done (elapsed 91.25 s, remaining 37.60 s).
78000000 of 110000000 tuples (70%) done (elapsed 91.33 s, remaining 37.47 s).
78100000 of 110000000 tuples (71%) done (elapsed 91.66 s, remaining 37.44 s).
78200000 of 110000000 tuples (71%) done (elapsed 91.72 s, remaining 37.30 s).
78300000 of 110000000 tuples (71%) done (elapsed 91.80 s, remaining 37.17 s).
78400000 of 110000000 tuples (71%) done (elapsed 91.89 s, remaining 37.04 s).
78500000 of 110000000 tuples (71%) done (elapsed 91.94 s, remaining 36.89 s).
78600000 of 110000000 tuples (71%) done (elapsed 92.03 s, remaining 36.76 s).
78700000 of 110000000 tuples (71%) done (elapsed 92.08 s, remaining 36.62 s).
78800000 of 110000000 tuples (71%) done (elapsed 92.17 s, remaining 36.49 s).
78900000 of 110000000 tuples (71%) done (elapsed 92.25 s, remaining 36.36 s).
79000000 of 110000000 tuples (71%) done (elapsed 92.31 s, remaining 36.22 s).
79100000 of 110000000 tuples (71%) done (elapsed 92.43 s, remaining 36.11 s).
79200000 of 110000000 tuples (72%) done (elapsed 92.81 s, remaining 36.09 s).
79300000 of 110000000 tuples (72%) done (elapsed 92.86 s, remaining 35.95 s).
79400000 of 110000000 tuples (72%) done (elapsed 92.95 s, remaining 35.82 s).
79500000 of 110000000 tuples (72%) done (elapsed 93.00 s, remaining 35.68 s).
79600000 of 110000000 tuples (72%) done (elapsed 93.09 s, remaining 35.55 s).
79700000 of 110000000 tuples (72%) done (elapsed 93.18 s, remaining 35.42 s).
79800000 of 110000000 tuples (72%) done (elapsed 93.23 s, remaining 35.28 s).
79900000 of 110000000 tuples (72%) done (elapsed 93.32 s, remaining 35.15 s).
80000000 of 110000000 tuples (72%) done (elapsed 93.37 s, remaining 35.02 s).
80100000 of 110000000 tuples (72%) done (elapsed 93.46 s, remaining 34.89 s).
80200000 of 110000000 tuples (72%) done (elapsed 93.74 s, remaining 34.83 s).
80300000 of 110000000 tuples (73%) done (elapsed 93.79 s, remaining 34.69 s).
80400000 of 110000000 tuples (73%) done (elapsed 93.88 s, remaining 34.56 s).
80500000 of 110000000 tuples (73%) done (elapsed 93.96 s, remaining 34.43 s).
80600000 of 110000000 tuples (73%) done (elapsed 94.02 s, remaining 34.29 s).
80700000 of 110000000 tuples (73%) done (elapsed 94.10 s, remaining 34.17 s).
80800000 of 110000000 tuples (73%) done (elapsed 94.16 s, remaining 34.03 s).
80900000 of 110000000 tuples (73%) done (elapsed 94.24 s, remaining 33.90 s).
81000000 of 110000000 tuples (73%) done (elapsed 94.33 s, remaining 33.77 s).
81100000 of 110000000 tuples (73%) done (elapsed 94.38 s, remaining 33.63 s).
81200000 of 110000000 tuples (73%) done (elapsed 94.70 s, remaining 33.59 s).
81300000 of 110000000 tuples (73%) done (elapsed 94.76 s, remaining 33.45 s).
81400000 of 110000000 tuples (74%) done (elapsed 94.84 s, remaining 33.32 s).
81500000 of 110000000 tuples (74%) done (elapsed 94.93 s, remaining 33.20 s).
81600000 of 110000000 tuples (74%) done (elapsed 94.98 s, remaining 33.06 s).
81700000 of 110000000 tuples (74%) done (elapsed 95.07 s, remaining 32.93 s).
81800000 of 110000000 tuples (74%) done (elapsed 95.12 s, remaining 32.79 s).
81900000 of 110000000 tuples (74%) done (elapsed 95.21 s, remaining 32.67 s).
82000000 of 110000000 tuples (74%) done (elapsed 95.30 s, remaining 32.54 s).
82100000 of 110000000 tuples (74%) done (elapsed 95.62 s, remaining 32.49 s).
82200000 of 110000000 tuples (74%) done (elapsed 95.70 s, remaining 32.37 s).
82300000 of 110000000 tuples (74%) done (elapsed 95.76 s, remaining 32.23 s).
82400000 of 110000000 tuples (74%) done (elapsed 95.84 s, remaining 32.10 s).
82500000 of 110000000 tuples (75%) done (elapsed 95.93 s, remaining 31.98 s).
82600000 of 110000000 tuples (75%) done (elapsed 95.98 s, remaining 31.84 s).
82700000 of 110000000 tuples (75%) done (elapsed 96.07 s, remaining 31.71 s).
82800000 of 110000000 tuples (75%) done (elapsed 96.13 s, remaining 31.58 s).
82900000 of 110000000 tuples (75%) done (elapsed 96.21 s, remaining 31.45 s).
83000000 of 110000000 tuples (75%) done (elapsed 96.30 s, remaining 31.33 s).
83100000 of 110000000 tuples (75%) done (elapsed 96.35 s, remaining 31.19 s).
83200000 of 110000000 tuples (75%) done (elapsed 96.80 s, remaining 31.18 s).
83300000 of 110000000 tuples (75%) done (elapsed 96.88 s, remaining 31.05 s).
83400000 of 110000000 tuples (75%) done (elapsed 96.94 s, remaining 30.92 s).
83500000 of 110000000 tuples (75%) done (elapsed 97.02 s, remaining 30.79 s).
83600000 of 110000000 tuples (76%) done (elapsed 97.08 s, remaining 30.66 s).
83700000 of 110000000 tuples (76%) done (elapsed 97.16 s, remaining 30.53 s).
83800000 of 110000000 tuples (76%) done (elapsed 97.25 s, remaining 30.40 s).
83900000 of 110000000 tuples (76%) done (elapsed 97.30 s, remaining 30.27 s).
84000000 of 110000000 tuples (76%) done (elapsed 97.39 s, remaining 30.14 s).
84100000 of 110000000 tuples (76%) done (elapsed 97.44 s, remaining 30.01 s).
84200000 of 110000000 tuples (76%) done (elapsed 97.81 s, remaining 29.97 s).
84300000 of 110000000 tuples (76%) done (elapsed 97.90 s, remaining 29.85 s).
84400000 of 110000000 tuples (76%) done (elapsed 97.95 s, remaining 29.71 s).
84500000 of 110000000 tuples (76%) done (elapsed 98.04 s, remaining 29.59 s).
84600000 of 110000000 tuples (76%) done (elapsed 98.16 s, remaining 29.47 s).
84700000 of 110000000 tuples (77%) done (elapsed 98.21 s, remaining 29.34 s).
84800000 of 110000000 tuples (77%) done (elapsed 98.30 s, remaining 29.21 s).
84900000 of 110000000 tuples (77%) done (elapsed 98.35 s, remaining 29.08 s).
85000000 of 110000000 tuples (77%) done (elapsed 98.51 s, remaining 28.97 s).
85100000 of 110000000 tuples (77%) done (elapsed 98.60 s, remaining 28.85 s).
85200000 of 110000000 tuples (77%) done (elapsed 98.65 s, remaining 28.72 s).
85300000 of 110000000 tuples (77%) done (elapsed 98.74 s, remaining 28.59 s).
85400000 of 110000000 tuples (77%) done (elapsed 98.79 s, remaining 28.46 s).
85500000 of 110000000 tuples (77%) done (elapsed 98.88 s, remaining 28.33 s).
85600000 of 110000000 tuples (77%) done (elapsed 98.97 s, remaining 28.21 s).
85700000 of 110000000 tuples (77%) done (elapsed 99.02 s, remaining 28.08 s).
85800000 of 110000000 tuples (78%) done (elapsed 99.11 s, remaining 27.95 s).
85900000 of 110000000 tuples (78%) done (elapsed 99.16 s, remaining 27.82 s).
86000000 of 110000000 tuples (78%) done (elapsed 99.66 s, remaining 27.81 s).
86100000 of 110000000 tuples (78%) done (elapsed 99.74 s, remaining 27.69 s).
86200000 of 110000000 tuples (78%) done (elapsed 99.80 s, remaining 27.55 s).
86300000 of 110000000 tuples (78%) done (elapsed 99.88 s, remaining 27.43 s).
86400000 of 110000000 tuples (78%) done (elapsed 99.97 s, remaining 27.31 s).
86500000 of 110000000 tuples (78%) done (elapsed 100.02 s, remaining 27.17 s).
86600000 of 110000000 tuples (78%) done (elapsed 100.11 s, remaining 27.05 s).
86700000 of 110000000 tuples (78%) done (elapsed 100.16 s, remaining 26.92 s).
86800000 of 110000000 tuples (78%) done (elapsed 100.25 s, remaining 26.79 s).
86900000 of 110000000 tuples (79%) done (elapsed 100.33 s, remaining 26.67 s).
87000000 of 110000000 tuples (79%) done (elapsed 100.58 s, remaining 26.59 s).
87100000 of 110000000 tuples (79%) done (elapsed 100.66 s, remaining 26.47 s).
87200000 of 110000000 tuples (79%) done (elapsed 100.72 s, remaining 26.33 s).
87300000 of 110000000 tuples (79%) done (elapsed 100.80 s, remaining 26.21 s).
87400000 of 110000000 tuples (79%) done (elapsed 100.89 s, remaining 26.09 s).
87500000 of 110000000 tuples (79%) done (elapsed 100.94 s, remaining 25.96 s).
87600000 of 110000000 tuples (79%) done (elapsed 101.03 s, remaining 25.83 s).
87700000 of 110000000 tuples (79%) done (elapsed 101.12 s, remaining 25.71 s).
87800000 of 110000000 tuples (79%) done (elapsed 101.17 s, remaining 25.58 s).
87900000 of 110000000 tuples (79%) done (elapsed 101.26 s, remaining 25.46 s).
88000000 of 110000000 tuples (80%) done (elapsed 101.57 s, remaining 25.39 s).
88100000 of 110000000 tuples (80%) done (elapsed 101.62 s, remaining 25.26 s).
88200000 of 110000000 tuples (80%) done (elapsed 101.71 s, remaining 25.14 s).
88300000 of 110000000 tuples (80%) done (elapsed 101.76 s, remaining 25.01 s).
88400000 of 110000000 tuples (80%) done (elapsed 101.85 s, remaining 24.89 s).
88500000 of 110000000 tuples (80%) done (elapsed 101.93 s, remaining 24.76 s).
88600000 of 110000000 tuples (80%) done (elapsed 101.99 s, remaining 24.63 s).
88700000 of 110000000 tuples (80%) done (elapsed 102.07 s, remaining 24.51 s).
88800000 of 110000000 tuples (80%) done (elapsed 102.13 s, remaining 24.38 s).
88900000 of 110000000 tuples (80%) done (elapsed 102.21 s, remaining 24.26 s).
89000000 of 110000000 tuples (80%) done (elapsed 102.71 s, remaining 24.24 s).
89100000 of 110000000 tuples (81%) done (elapsed 102.85 s, remaining 24.13 s).
89200000 of 110000000 tuples (81%) done (elapsed 102.94 s, remaining 24.00 s).
89300000 of 110000000 tuples (81%) done (elapsed 102.99 s, remaining 23.87 s).
89400000 of 110000000 tuples (81%) done (elapsed 103.08 s, remaining 23.75 s).
89500000 of 110000000 tuples (81%) done (elapsed 103.17 s, remaining 23.63 s).
89600000 of 110000000 tuples (81%) done (elapsed 103.22 s, remaining 23.50 s).
89700000 of 110000000 tuples (81%) done (elapsed 103.31 s, remaining 23.38 s).
89800000 of 110000000 tuples (81%) done (elapsed 103.36 s, remaining 23.25 s).
89900000 of 110000000 tuples (81%) done (elapsed 103.45 s, remaining 23.13 s).
90000000 of 110000000 tuples (81%) done (elapsed 103.57 s, remaining 23.02 s).
90100000 of 110000000 tuples (81%) done (elapsed 103.75 s, remaining 22.91 s).
90200000 of 110000000 tuples (82%) done (elapsed 103.80 s, remaining 22.79 s).
90300000 of 110000000 tuples (82%) done (elapsed 103.89 s, remaining 22.66 s).
90400000 of 110000000 tuples (82%) done (elapsed 103.95 s, remaining 22.54 s).
90500000 of 110000000 tuples (82%) done (elapsed 104.03 s, remaining 22.42 s).
90600000 of 110000000 tuples (82%) done (elapsed 104.12 s, remaining 22.29 s).
90700000 of 110000000 tuples (82%) done (elapsed 104.17 s, remaining 22.17 s).
90800000 of 110000000 tuples (82%) done (elapsed 104.26 s, remaining 22.05 s).
90900000 of 110000000 tuples (82%) done (elapsed 104.31 s, remaining 21.92 s).
91000000 of 110000000 tuples (82%) done (elapsed 104.40 s, remaining 21.80 s).
91100000 of 110000000 tuples (82%) done (elapsed 104.84 s, remaining 21.75 s).
91200000 of 110000000 tuples (82%) done (elapsed 104.89 s, remaining 21.62 s).
91300000 of 110000000 tuples (83%) done (elapsed 104.98 s, remaining 21.50 s).
91400000 of 110000000 tuples (83%) done (elapsed 105.03 s, remaining 21.37 s).
91500000 of 110000000 tuples (83%) done (elapsed 105.12 s, remaining 21.25 s).
91600000 of 110000000 tuples (83%) done (elapsed 105.20 s, remaining 21.13 s).
91700000 of 110000000 tuples (83%) done (elapsed 105.26 s, remaining 21.01 s).
91800000 of 110000000 tuples (83%) done (elapsed 105.34 s, remaining 20.88 s).
91900000 of 110000000 tuples (83%) done (elapsed 105.40 s, remaining 20.76 s).
92000000 of 110000000 tuples (83%) done (elapsed 105.48 s, remaining 20.64 s).
92100000 of 110000000 tuples (83%) done (elapsed 105.84 s, remaining 20.57 s).
92200000 of 110000000 tuples (83%) done (elapsed 105.89 s, remaining 20.44 s).
92300000 of 110000000 tuples (83%) done (elapsed 105.98 s, remaining 20.32 s).
92400000 of 110000000 tuples (84%) done (elapsed 106.07 s, remaining 20.20 s).
92500000 of 110000000 tuples (84%) done (elapsed 106.12 s, remaining 20.08 s).
92600000 of 110000000 tuples (84%) done (elapsed 106.21 s, remaining 19.96 s).
92700000 of 110000000 tuples (84%) done (elapsed 106.26 s, remaining 19.83 s).
92800000 of 110000000 tuples (84%) done (elapsed 106.35 s, remaining 19.71 s).
92900000 of 110000000 tuples (84%) done (elapsed 106.44 s, remaining 19.59 s).
93000000 of 110000000 tuples (84%) done (elapsed 106.49 s, remaining 19.47 s).
93100000 of 110000000 tuples (84%) done (elapsed 106.83 s, remaining 19.39 s).
93200000 of 110000000 tuples (84%) done (elapsed 106.88 s, remaining 19.27 s).
93300000 of 110000000 tuples (84%) done (elapsed 106.97 s, remaining 19.15 s).
93400000 of 110000000 tuples (84%) done (elapsed 107.05 s, remaining 19.03 s).
93500000 of 110000000 tuples (85%) done (elapsed 107.11 s, remaining 18.90 s).
93600000 of 110000000 tuples (85%) done (elapsed 107.19 s, remaining 18.78 s).
93700000 of 110000000 tuples (85%) done (elapsed 107.25 s, remaining 18.66 s).
93800000 of 110000000 tuples (85%) done (elapsed 107.33 s, remaining 18.54 s).
93900000 of 110000000 tuples (85%) done (elapsed 107.42 s, remaining 18.42 s).
94000000 of 110000000 tuples (85%) done (elapsed 107.47 s, remaining 18.29 s).
94100000 of 110000000 tuples (85%) done (elapsed 107.56 s, remaining 18.17 s).
94200000 of 110000000 tuples (85%) done (elapsed 107.94 s, remaining 18.11 s).
94300000 of 110000000 tuples (85%) done (elapsed 108.00 s, remaining 17.98 s).
94400000 of 110000000 tuples (85%) done (elapsed 108.09 s, remaining 17.86 s).
94500000 of 110000000 tuples (85%) done (elapsed 108.14 s, remaining 17.74 s).
94600000 of 110000000 tuples (86%) done (elapsed 108.23 s, remaining 17.62 s).
94700000 of 110000000 tuples (86%) done (elapsed 108.31 s, remaining 17.50 s).
94800000 of 110000000 tuples (86%) done (elapsed 108.37 s, remaining 17.38 s).
94900000 of 110000000 tuples (86%) done (elapsed 108.46 s, remaining 17.26 s).
95000000 of 110000000 tuples (86%) done (elapsed 108.54 s, remaining 17.14 s).
95100000 of 110000000 tuples (86%) done (elapsed 108.60 s, remaining 17.01 s).
95200000 of 110000000 tuples (86%) done (elapsed 108.89 s, remaining 16.93 s).
95300000 of 110000000 tuples (86%) done (elapsed 108.94 s, remaining 16.80 s).
95400000 of 110000000 tuples (86%) done (elapsed 109.03 s, remaining 16.69 s).
95500000 of 110000000 tuples (86%) done (elapsed 109.12 s, remaining 16.57 s).
95600000 of 110000000 tuples (86%) done (elapsed 109.17 s, remaining 16.44 s).
95700000 of 110000000 tuples (87%) done (elapsed 109.26 s, remaining 16.33 s).
95800000 of 110000000 tuples (87%) done (elapsed 109.31 s, remaining 16.20 s).
95900000 of 110000000 tuples (87%) done (elapsed 109.40 s, remaining 16.08 s).
96000000 of 110000000 tuples (87%) done (elapsed 109.65 s, remaining 15.99 s).
96100000 of 110000000 tuples (87%) done (elapsed 109.70 s, remaining 15.87 s).
96200000 of 110000000 tuples (87%) done (elapsed 109.79 s, remaining 15.75 s).
96300000 of 110000000 tuples (87%) done (elapsed 109.87 s, remaining 15.63 s).
96400000 of 110000000 tuples (87%) done (elapsed 109.93 s, remaining 15.51 s).
96500000 of 110000000 tuples (87%) done (elapsed 110.01 s, remaining 15.39 s).
96600000 of 110000000 tuples (87%) done (elapsed 110.07 s, remaining 15.27 s).
96700000 of 110000000 tuples (87%) done (elapsed 110.15 s, remaining 15.15 s).
96800000 of 110000000 tuples (88%) done (elapsed 110.24 s, remaining 15.03 s).
96900000 of 110000000 tuples (88%) done (elapsed 110.30 s, remaining 14.91 s).
97000000 of 110000000 tuples (88%) done (elapsed 110.69 s, remaining 14.83 s).
97100000 of 110000000 tuples (88%) done (elapsed 110.74 s, remaining 14.71 s).
97200000 of 110000000 tuples (88%) done (elapsed 110.83 s, remaining 14.59 s).
97300000 of 110000000 tuples (88%) done (elapsed 110.91 s, remaining 14.48 s).
97400000 of 110000000 tuples (88%) done (elapsed 110.97 s, remaining 14.36 s).
97500000 of 110000000 tuples (88%) done (elapsed 111.05 s, remaining 14.24 s).
97600000 of 110000000 tuples (88%) done (elapsed 111.11 s, remaining 14.12 s).
97700000 of 110000000 tuples (88%) done (elapsed 111.19 s, remaining 14.00 s).
97800000 of 110000000 tuples (88%) done (elapsed 111.28 s, remaining 13.88 s).
97900000 of 110000000 tuples (89%) done (elapsed 111.33 s, remaining 13.76 s).
98000000 of 110000000 tuples (89%) done (elapsed 111.42 s, remaining 13.64 s).
98100000 of 110000000 tuples (89%) done (elapsed 111.75 s, remaining 13.56 s).
98200000 of 110000000 tuples (89%) done (elapsed 111.80 s, remaining 13.43 s).
98300000 of 110000000 tuples (89%) done (elapsed 111.89 s, remaining 13.32 s).
98400000 of 110000000 tuples (89%) done (elapsed 111.94 s, remaining 13.20 s).
98500000 of 110000000 tuples (89%) done (elapsed 112.03 s, remaining 13.08 s).
98600000 of 110000000 tuples (89%) done (elapsed 112.11 s, remaining 12.96 s).
98700000 of 110000000 tuples (89%) done (elapsed 112.17 s, remaining 12.84 s).
98800000 of 110000000 tuples (89%) done (elapsed 112.26 s, remaining 12.73 s).
98900000 of 110000000 tuples (89%) done (elapsed 112.31 s, remaining 12.61 s).
99000000 of 110000000 tuples (90%) done (elapsed 112.40 s, remaining 12.49 s).
99100000 of 110000000 tuples (90%) done (elapsed 112.73 s, remaining 12.40 s).
99200000 of 110000000 tuples (90%) done (elapsed 112.78 s, remaining 12.28 s).
99300000 of 110000000 tuples (90%) done (elapsed 112.87 s, remaining 12.16 s).
99400000 of 110000000 tuples (90%) done (elapsed 113.05 s, remaining 12.06 s).
99500000 of 110000000 tuples (90%) done (elapsed 113.11 s, remaining 11.94 s).
99600000 of 110000000 tuples (90%) done (elapsed 113.19 s, remaining 11.82 s).
99700000 of 110000000 tuples (90%) done (elapsed 113.25 s, remaining 11.70 s).
99800000 of 110000000 tuples (90%) done (elapsed 113.33 s, remaining 11.58 s).
99900000 of 110000000 tuples (90%) done (elapsed 113.42 s, remaining 11.47 s).
100000000 of 110000000 tuples (90%) done (elapsed 113.48 s, remaining 11.35 s).
100100000 of 110000000 tuples (91%) done (elapsed 113.67 s, remaining 11.24 s).
100200000 of 110000000 tuples (91%) done (elapsed 113.76 s, remaining 11.13 s).
100300000 of 110000000 tuples (91%) done (elapsed 113.84 s, remaining 11.01 s).
100400000 of 110000000 tuples (91%) done (elapsed 113.92 s, remaining 10.89 s).
100500000 of 110000000 tuples (91%) done (elapsed 113.98 s, remaining 10.77 s).
100600000 of 110000000 tuples (91%) done (elapsed 114.06 s, remaining 10.66 s).
100700000 of 110000000 tuples (91%) done (elapsed 114.14 s, remaining 10.54 s).
100800000 of 110000000 tuples (91%) done (elapsed 114.22 s, remaining 10.43 s).
100900000 of 110000000 tuples (91%) done (elapsed 114.28 s, remaining 10.31 s).
101000000 of 110000000 tuples (91%) done (elapsed 114.65 s, remaining 10.22 s).
101100000 of 110000000 tuples (91%) done (elapsed 114.73 s, remaining 10.10 s).
101200000 of 110000000 tuples (92%) done (elapsed 114.81 s, remaining 9.98 s).
101300000 of 110000000 tuples (92%) done (elapsed 114.90 s, remaining 9.87 s).
101400000 of 110000000 tuples (92%) done (elapsed 114.95 s, remaining 9.75 s).
101500000 of 110000000 tuples (92%) done (elapsed 115.03 s, remaining 9.63 s).
101600000 of 110000000 tuples (92%) done (elapsed 115.11 s, remaining 9.52 s).
101700000 of 110000000 tuples (92%) done (elapsed 115.20 s, remaining 9.40 s).
101800000 of 110000000 tuples (92%) done (elapsed 115.25 s, remaining 9.28 s).
101900000 of 110000000 tuples (92%) done (elapsed 115.33 s, remaining 9.17 s).
102000000 of 110000000 tuples (92%) done (elapsed 115.76 s, remaining 9.08 s).
102100000 of 110000000 tuples (92%) done (elapsed 115.84 s, remaining 8.96 s).
102200000 of 110000000 tuples (92%) done (elapsed 115.89 s, remaining 8.84 s).
102300000 of 110000000 tuples (93%) done (elapsed 115.97 s, remaining 8.73 s).
102400000 of 110000000 tuples (93%) done (elapsed 116.05 s, remaining 8.61 s).
102500000 of 110000000 tuples (93%) done (elapsed 116.14 s, remaining 8.50 s).
102600000 of 110000000 tuples (93%) done (elapsed 116.22 s, remaining 8.38 s).
102700000 of 110000000 tuples (93%) done (elapsed 116.27 s, remaining 8.26 s).
102800000 of 110000000 tuples (93%) done (elapsed 116.35 s, remaining 8.15 s).
102900000 of 110000000 tuples (93%) done (elapsed 116.44 s, remaining 8.03 s).
103000000 of 110000000 tuples (93%) done (elapsed 116.89 s, remaining 7.94 s).
103100000 of 110000000 tuples (93%) done (elapsed 116.94 s, remaining 7.83 s).
103200000 of 110000000 tuples (93%) done (elapsed 117.03 s, remaining 7.71 s).
103300000 of 110000000 tuples (93%) done (elapsed 117.11 s, remaining 7.60 s).
103400000 of 110000000 tuples (94%) done (elapsed 117.19 s, remaining 7.48 s).
103500000 of 110000000 tuples (94%) done (elapsed 117.24 s, remaining 7.36 s).
103600000 of 110000000 tuples (94%) done (elapsed 117.33 s, remaining 7.25 s).
103700000 of 110000000 tuples (94%) done (elapsed 117.41 s, remaining 7.13 s).
103800000 of 110000000 tuples (94%) done (elapsed 117.49 s, remaining 7.02 s).
103900000 of 110000000 tuples (94%) done (elapsed 117.54 s, remaining 6.90 s).
104000000 of 110000000 tuples (94%) done (elapsed 118.08 s, remaining 6.81 s).
104100000 of 110000000 tuples (94%) done (elapsed 118.16 s, remaining 6.70 s).
104200000 of 110000000 tuples (94%) done (elapsed 118.25 s, remaining 6.58 s).
104300000 of 110000000 tuples (94%) done (elapsed 118.30 s, remaining 6.47 s).
104400000 of 110000000 tuples (94%) done (elapsed 118.38 s, remaining 6.35 s).
104500000 of 110000000 tuples (95%) done (elapsed 118.47 s, remaining 6.24 s).
104600000 of 110000000 tuples (95%) done (elapsed 118.55 s, remaining 6.12 s).
104700000 of 110000000 tuples (95%) done (elapsed 118.60 s, remaining 6.00 s).
104800000 of 110000000 tuples (95%) done (elapsed 118.69 s, remaining 5.89 s).
104900000 of 110000000 tuples (95%) done (elapsed 118.77 s, remaining 5.77 s).
105000000 of 110000000 tuples (95%) done (elapsed 119.17 s, remaining 5.67 s).
105100000 of 110000000 tuples (95%) done (elapsed 119.23 s, remaining 5.56 s).
105200000 of 110000000 tuples (95%) done (elapsed 119.31 s, remaining 5.44 s).
105300000 of 110000000 tuples (95%) done (elapsed 119.39 s, remaining 5.33 s).
105400000 of 110000000 tuples (95%) done (elapsed 119.47 s, remaining 5.21 s).
105500000 of 110000000 tuples (95%) done (elapsed 119.52 s, remaining 5.10 s).
105600000 of 110000000 tuples (96%) done (elapsed 119.61 s, remaining 4.98 s).
105700000 of 110000000 tuples (96%) done (elapsed 119.69 s, remaining 4.87 s).
105800000 of 110000000 tuples (96%) done (elapsed 119.77 s, remaining 4.75 s).
105900000 of 110000000 tuples (96%) done (elapsed 120.13 s, remaining 4.65 s).
106000000 of 110000000 tuples (96%) done (elapsed 120.18 s, remaining 4.54 s).
106100000 of 110000000 tuples (96%) done (elapsed 120.26 s, remaining 4.42 s).
106200000 of 110000000 tuples (96%) done (elapsed 120.35 s, remaining 4.31 s).
106300000 of 110000000 tuples (96%) done (elapsed 120.43 s, remaining 4.19 s).
106400000 of 110000000 tuples (96%) done (elapsed 120.51 s, remaining 4.08 s).
106500000 of 110000000 tuples (96%) done (elapsed 120.56 s, remaining 3.96 s).
106600000 of 110000000 tuples (96%) done (elapsed 120.64 s, remaining 3.85 s).
106700000 of 110000000 tuples (97%) done (elapsed 120.73 s, remaining 3.73 s).
106800000 of 110000000 tuples (97%) done (elapsed 120.81 s, remaining 3.62 s).
106900000 of 110000000 tuples (97%) done (elapsed 120.86 s, remaining 3.50 s).
107000000 of 110000000 tuples (97%) done (elapsed 121.28 s, remaining 3.40 s).
107100000 of 110000000 tuples (97%) done (elapsed 121.36 s, remaining 3.29 s).
107200000 of 110000000 tuples (97%) done (elapsed 121.45 s, remaining 3.17 s).
107300000 of 110000000 tuples (97%) done (elapsed 121.50 s, remaining 3.06 s).
107400000 of 110000000 tuples (97%) done (elapsed 121.58 s, remaining 2.94 s).
107500000 of 110000000 tuples (97%) done (elapsed 121.66 s, remaining 2.83 s).
107600000 of 110000000 tuples (97%) done (elapsed 121.74 s, remaining 2.72 s).
107700000 of 110000000 tuples (97%) done (elapsed 121.80 s, remaining 2.60 s).
107800000 of 110000000 tuples (98%) done (elapsed 121.88 s, remaining 2.49 s).
107900000 of 110000000 tuples (98%) done (elapsed 121.96 s, remaining 2.37 s).
108000000 of 110000000 tuples (98%) done (elapsed 122.37 s, remaining 2.27 s).
108100000 of 110000000 tuples (98%) done (elapsed 122.45 s, remaining 2.15 s).
108200000 of 110000000 tuples (98%) done (elapsed 122.51 s, remaining 2.04 s).
108300000 of 110000000 tuples (98%) done (elapsed 122.59 s, remaining 1.92 s).
108400000 of 110000000 tuples (98%) done (elapsed 122.67 s, remaining 1.81 s).
108500000 of 110000000 tuples (98%) done (elapsed 122.75 s, remaining 1.70 s).
108600000 of 110000000 tuples (98%) done (elapsed 122.81 s, remaining 1.58 s).
108700000 of 110000000 tuples (98%) done (elapsed 122.89 s, remaining 1.47 s).
108800000 of 110000000 tuples (98%) done (elapsed 122.97 s, remaining 1.36 s).
108900000 of 110000000 tuples (99%) done (elapsed 123.05 s, remaining 1.24 s).
109000000 of 110000000 tuples (99%) done (elapsed 123.33 s, remaining 1.13 s).
109100000 of 110000000 tuples (99%) done (elapsed 123.38 s, remaining 1.02 s).
109200000 of 110000000 tuples (99%) done (elapsed 123.46 s, remaining 0.90 s).
109300000 of 110000000 tuples (99%) done (elapsed 123.54 s, remaining 0.79 s).
109400000 of 110000000 tuples (99%) done (elapsed 123.62 s, remaining 0.68 s).
109500000 of 110000000 tuples (99%) done (elapsed 123.68 s, remaining 0.56 s).
109600000 of 110000000 tuples (99%) done (elapsed 123.76 s, remaining 0.45 s).
109700000 of 110000000 tuples (99%) done (elapsed 123.84 s, remaining 0.34 s).
109800000 of 110000000 tuples (99%) done (elapsed 123.92 s, remaining 0.23 s).
109900000 of 110000000 tuples (99%) done (elapsed 123.98 s, remaining 0.11 s).
110000000 of 110000000 tuples (100%) done (elapsed 124.49 s, remaining 0.00 s).
vacuum...
set primary keys...
done.
