CHECKPOINT
transaction type: SELECT only
scaling factor: 140
query mode: simple
number of clients: 8
number of threads: 8
duration: 1800 s
number of transactions actually processed: 91981705
latency average: 0.157 ms
tps = 51100.940238 (including connections establishing)
tps = 51101.072594 (excluding connections establishing)
