CHECKPOINT
transaction type: TPC-B (sort of)
scaling factor: 140
query mode: simple
number of clients: 16
number of threads: 16
duration: 1800 s
number of transactions actually processed: 8392673
latency average: 3.432 ms
tps = 4662.504508 (including connections establishing)
tps = 4662.517063 (excluding connections establishing)
