transaction type: TPC-B (sort of)
scaling factor: 10
query mode: simple
number of clients: 16
number of threads: 16
duration: 1800 s
number of transactions actually processed: 13181169
latency average: 2.185 ms
tps = 7322.795758 (including connections establishing)
tps = 7322.867127 (excluding connections establishing)
