CHECKPOINT
transaction type: SELECT only
scaling factor: 140
query mode: simple
number of clients: 16
number of threads: 16
duration: 1800 s
number of transactions actually processed: 91579488
latency average: 0.314 ms
tps = 50877.333013 (including connections establishing)
tps = 50877.585736 (excluding connections establishing)
