CHECKPOINT
transaction type: TPC-B (sort of)
scaling factor: 10
query mode: simple
number of clients: 4
number of threads: 4
duration: 1800 s
number of transactions actually processed: 4672244
latency average: 1.541 ms
tps = 2595.689790 (including connections establishing)
tps = 2595.691954 (excluding connections establishing)
