type,scale,1,2,4,8,16
ro,small,15029,29803,54034,53674,53445
ro,large,4741,10935,19847,30698,37962
ro,medium,14314,28590,51832,51098,50793
rw,small,1611,3079,4900,6561,7154
rw,large,977,1355,1832,2645,3697
rw,medium,1499,2764,4290,5540,5992
