NOTICE:  table "pgbench_history" does not exist, skipping
NOTICE:  table "pgbench_tellers" does not exist, skipping
NOTICE:  table "pgbench_accounts" does not exist, skipping
NOTICE:  table "pgbench_branches" does not exist, skipping
creating tables...
100000 of 14000000 tuples (0%) done (elapsed 0.02 s, remaining 3.29 s).
200000 of 14000000 tuples (1%) done (elapsed 0.05 s, remaining 3.28 s).
300000 of 14000000 tuples (2%) done (elapsed 0.07 s, remaining 3.24 s).
400000 of 14000000 tuples (2%) done (elapsed 0.09 s, remaining 3.20 s).
500000 of 14000000 tuples (3%) done (elapsed 0.15 s, remaining 4.11 s).
600000 of 14000000 tuples (4%) done (elapsed 0.25 s, remaining 5.49 s).
700000 of 14000000 tuples (5%) done (elapsed 0.30 s, remaining 5.79 s).
800000 of 14000000 tuples (5%) done (elapsed 0.36 s, remaining 6.00 s).
900000 of 14000000 tuples (6%) done (elapsed 0.46 s, remaining 6.67 s).
1000000 of 14000000 tuples (7%) done (elapsed 0.52 s, remaining 6.73 s).
1100000 of 14000000 tuples (7%) done (elapsed 0.61 s, remaining 7.18 s).
1200000 of 14000000 tuples (8%) done (elapsed 0.67 s, remaining 7.16 s).
1300000 of 14000000 tuples (9%) done (elapsed 0.73 s, remaining 7.13 s).
1400000 of 14000000 tuples (10%) done (elapsed 0.82 s, remaining 7.38 s).
1500000 of 14000000 tuples (10%) done (elapsed 0.88 s, remaining 7.31 s).
1600000 of 14000000 tuples (11%) done (elapsed 0.97 s, remaining 7.48 s).
1700000 of 14000000 tuples (12%) done (elapsed 1.02 s, remaining 7.40 s).
1800000 of 14000000 tuples (12%) done (elapsed 1.11 s, remaining 7.53 s).
1900000 of 14000000 tuples (13%) done (elapsed 1.17 s, remaining 7.44 s).
2000000 of 14000000 tuples (14%) done (elapsed 1.26 s, remaining 7.55 s).
2100000 of 14000000 tuples (15%) done (elapsed 1.31 s, remaining 7.45 s).
2200000 of 14000000 tuples (15%) done (elapsed 1.41 s, remaining 7.54 s).
2300000 of 14000000 tuples (16%) done (elapsed 1.46 s, remaining 7.44 s).
2400000 of 14000000 tuples (17%) done (elapsed 1.52 s, remaining 7.34 s).
2500000 of 14000000 tuples (17%) done (elapsed 1.61 s, remaining 7.40 s).
2600000 of 14000000 tuples (18%) done (elapsed 1.66 s, remaining 7.30 s).
2700000 of 14000000 tuples (19%) done (elapsed 1.75 s, remaining 7.34 s).
2800000 of 14000000 tuples (20%) done (elapsed 1.81 s, remaining 7.24 s).
2900000 of 14000000 tuples (20%) done (elapsed 1.90 s, remaining 7.27 s).
3000000 of 14000000 tuples (21%) done (elapsed 1.96 s, remaining 7.18 s).
3100000 of 14000000 tuples (22%) done (elapsed 2.05 s, remaining 7.20 s).
3200000 of 14000000 tuples (22%) done (elapsed 2.10 s, remaining 7.10 s).
3300000 of 14000000 tuples (23%) done (elapsed 2.19 s, remaining 7.11 s).
3400000 of 14000000 tuples (24%) done (elapsed 2.25 s, remaining 7.01 s).
3500000 of 14000000 tuples (25%) done (elapsed 2.31 s, remaining 6.92 s).
3600000 of 14000000 tuples (25%) done (elapsed 2.39 s, remaining 6.92 s).
3700000 of 14000000 tuples (26%) done (elapsed 2.45 s, remaining 6.83 s).
3800000 of 14000000 tuples (27%) done (elapsed 2.54 s, remaining 6.82 s).
3900000 of 14000000 tuples (27%) done (elapsed 2.60 s, remaining 6.73 s).
4000000 of 14000000 tuples (28%) done (elapsed 2.69 s, remaining 6.72 s).
4100000 of 14000000 tuples (29%) done (elapsed 2.74 s, remaining 6.62 s).
4200000 of 14000000 tuples (30%) done (elapsed 2.83 s, remaining 6.61 s).
4300000 of 14000000 tuples (30%) done (elapsed 2.89 s, remaining 6.52 s).
4400000 of 14000000 tuples (31%) done (elapsed 2.98 s, remaining 6.50 s).
4500000 of 14000000 tuples (32%) done (elapsed 3.03 s, remaining 6.41 s).
4600000 of 14000000 tuples (32%) done (elapsed 3.09 s, remaining 6.32 s).
4700000 of 14000000 tuples (33%) done (elapsed 3.18 s, remaining 6.29 s).
4800000 of 14000000 tuples (34%) done (elapsed 3.24 s, remaining 6.20 s).
4900000 of 14000000 tuples (35%) done (elapsed 3.33 s, remaining 6.18 s).
5000000 of 14000000 tuples (35%) done (elapsed 3.38 s, remaining 6.09 s).
5100000 of 14000000 tuples (36%) done (elapsed 3.48 s, remaining 6.07 s).
5200000 of 14000000 tuples (37%) done (elapsed 3.53 s, remaining 5.98 s).
5300000 of 14000000 tuples (37%) done (elapsed 3.63 s, remaining 5.96 s).
5400000 of 14000000 tuples (38%) done (elapsed 3.69 s, remaining 5.88 s).
5500000 of 14000000 tuples (39%) done (elapsed 3.78 s, remaining 5.84 s).
5600000 of 14000000 tuples (40%) done (elapsed 3.84 s, remaining 5.76 s).
5700000 of 14000000 tuples (40%) done (elapsed 3.90 s, remaining 5.67 s).
5800000 of 14000000 tuples (41%) done (elapsed 3.99 s, remaining 5.64 s).
5900000 of 14000000 tuples (42%) done (elapsed 4.04 s, remaining 5.55 s).
6000000 of 14000000 tuples (42%) done (elapsed 4.13 s, remaining 5.51 s).
6100000 of 14000000 tuples (43%) done (elapsed 4.19 s, remaining 5.43 s).
6200000 of 14000000 tuples (44%) done (elapsed 4.28 s, remaining 5.39 s).
6300000 of 14000000 tuples (45%) done (elapsed 4.34 s, remaining 5.30 s).
6400000 of 14000000 tuples (45%) done (elapsed 4.43 s, remaining 5.26 s).
6500000 of 14000000 tuples (46%) done (elapsed 4.49 s, remaining 5.18 s).
6600000 of 14000000 tuples (47%) done (elapsed 4.58 s, remaining 5.13 s).
6700000 of 14000000 tuples (47%) done (elapsed 4.63 s, remaining 5.05 s).
6800000 of 14000000 tuples (48%) done (elapsed 4.72 s, remaining 5.00 s).
6900000 of 14000000 tuples (49%) done (elapsed 4.78 s, remaining 4.92 s).
7000000 of 14000000 tuples (50%) done (elapsed 4.84 s, remaining 4.84 s).
7100000 of 14000000 tuples (50%) done (elapsed 4.93 s, remaining 4.79 s).
7200000 of 14000000 tuples (51%) done (elapsed 4.98 s, remaining 4.71 s).
7300000 of 14000000 tuples (52%) done (elapsed 5.07 s, remaining 4.66 s).
7400000 of 14000000 tuples (52%) done (elapsed 5.13 s, remaining 4.58 s).
7500000 of 14000000 tuples (53%) done (elapsed 5.22 s, remaining 4.52 s).
7600000 of 14000000 tuples (54%) done (elapsed 5.28 s, remaining 4.44 s).
7700000 of 14000000 tuples (55%) done (elapsed 5.37 s, remaining 4.39 s).
7800000 of 14000000 tuples (55%) done (elapsed 5.42 s, remaining 4.31 s).
7900000 of 14000000 tuples (56%) done (elapsed 5.51 s, remaining 4.26 s).
8000000 of 14000000 tuples (57%) done (elapsed 5.57 s, remaining 4.18 s).
8100000 of 14000000 tuples (57%) done (elapsed 5.63 s, remaining 4.10 s).
8200000 of 14000000 tuples (58%) done (elapsed 5.72 s, remaining 4.04 s).
8300000 of 14000000 tuples (59%) done (elapsed 5.77 s, remaining 3.97 s).
8400000 of 14000000 tuples (60%) done (elapsed 5.86 s, remaining 3.91 s).
8500000 of 14000000 tuples (60%) done (elapsed 5.92 s, remaining 3.83 s).
8600000 of 14000000 tuples (61%) done (elapsed 6.01 s, remaining 3.77 s).
8700000 of 14000000 tuples (62%) done (elapsed 6.07 s, remaining 3.70 s).
8800000 of 14000000 tuples (62%) done (elapsed 6.16 s, remaining 3.64 s).
8900000 of 14000000 tuples (63%) done (elapsed 6.22 s, remaining 3.56 s).
9000000 of 14000000 tuples (64%) done (elapsed 6.31 s, remaining 3.51 s).
9100000 of 14000000 tuples (65%) done (elapsed 6.37 s, remaining 3.43 s).
9200000 of 14000000 tuples (65%) done (elapsed 6.43 s, remaining 3.35 s).
9300000 of 14000000 tuples (66%) done (elapsed 6.52 s, remaining 3.29 s).
9400000 of 14000000 tuples (67%) done (elapsed 6.57 s, remaining 3.22 s).
9500000 of 14000000 tuples (67%) done (elapsed 6.67 s, remaining 3.16 s).
9600000 of 14000000 tuples (68%) done (elapsed 6.72 s, remaining 3.08 s).
9700000 of 14000000 tuples (69%) done (elapsed 6.81 s, remaining 3.02 s).
9800000 of 14000000 tuples (70%) done (elapsed 6.87 s, remaining 2.95 s).
9900000 of 14000000 tuples (70%) done (elapsed 6.96 s, remaining 2.88 s).
10000000 of 14000000 tuples (71%) done (elapsed 7.02 s, remaining 2.81 s).
10100000 of 14000000 tuples (72%) done (elapsed 7.11 s, remaining 2.75 s).
10200000 of 14000000 tuples (72%) done (elapsed 7.20 s, remaining 2.68 s).
10300000 of 14000000 tuples (73%) done (elapsed 7.26 s, remaining 2.61 s).
10400000 of 14000000 tuples (74%) done (elapsed 7.34 s, remaining 2.54 s).
10500000 of 14000000 tuples (75%) done (elapsed 7.40 s, remaining 2.47 s).
10600000 of 14000000 tuples (75%) done (elapsed 7.48 s, remaining 2.40 s).
10700000 of 14000000 tuples (76%) done (elapsed 7.57 s, remaining 2.34 s).
10800000 of 14000000 tuples (77%) done (elapsed 7.63 s, remaining 2.26 s).
10900000 of 14000000 tuples (77%) done (elapsed 7.71 s, remaining 2.19 s).
11000000 of 14000000 tuples (78%) done (elapsed 7.77 s, remaining 2.12 s).
11100000 of 14000000 tuples (79%) done (elapsed 7.85 s, remaining 2.05 s).
11200000 of 14000000 tuples (80%) done (elapsed 7.94 s, remaining 1.99 s).
11300000 of 14000000 tuples (80%) done (elapsed 8.00 s, remaining 1.91 s).
11400000 of 14000000 tuples (81%) done (elapsed 8.08 s, remaining 1.84 s).
11500000 of 14000000 tuples (82%) done (elapsed 8.14 s, remaining 1.77 s).
11600000 of 14000000 tuples (82%) done (elapsed 8.22 s, remaining 1.70 s).
11700000 of 14000000 tuples (83%) done (elapsed 8.31 s, remaining 1.63 s).
11800000 of 14000000 tuples (84%) done (elapsed 8.37 s, remaining 1.56 s).
11900000 of 14000000 tuples (85%) done (elapsed 8.45 s, remaining 1.49 s).
12000000 of 14000000 tuples (85%) done (elapsed 8.50 s, remaining 1.42 s).
12100000 of 14000000 tuples (86%) done (elapsed 8.59 s, remaining 1.35 s).
12200000 of 14000000 tuples (87%) done (elapsed 8.68 s, remaining 1.28 s).
12300000 of 14000000 tuples (87%) done (elapsed 8.73 s, remaining 1.21 s).
12400000 of 14000000 tuples (88%) done (elapsed 8.82 s, remaining 1.14 s).
12500000 of 14000000 tuples (89%) done (elapsed 8.87 s, remaining 1.06 s).
12600000 of 14000000 tuples (90%) done (elapsed 8.96 s, remaining 1.00 s).
12700000 of 14000000 tuples (90%) done (elapsed 9.05 s, remaining 0.93 s).
12800000 of 14000000 tuples (91%) done (elapsed 9.10 s, remaining 0.85 s).
12900000 of 14000000 tuples (92%) done (elapsed 9.19 s, remaining 0.78 s).
13000000 of 14000000 tuples (92%) done (elapsed 9.28 s, remaining 0.71 s).
13100000 of 14000000 tuples (93%) done (elapsed 9.33 s, remaining 0.64 s).
13200000 of 14000000 tuples (94%) done (elapsed 9.42 s, remaining 0.57 s).
13300000 of 14000000 tuples (95%) done (elapsed 9.47 s, remaining 0.50 s).
13400000 of 14000000 tuples (95%) done (elapsed 9.56 s, remaining 0.43 s).
13500000 of 14000000 tuples (96%) done (elapsed 9.64 s, remaining 0.36 s).
13600000 of 14000000 tuples (97%) done (elapsed 9.71 s, remaining 0.29 s).
13700000 of 14000000 tuples (97%) done (elapsed 9.83 s, remaining 0.22 s).
13800000 of 14000000 tuples (98%) done (elapsed 9.96 s, remaining 0.14 s).
13900000 of 14000000 tuples (99%) done (elapsed 10.08 s, remaining 0.07 s).
14000000 of 14000000 tuples (100%) done (elapsed 10.15 s, remaining 0.00 s).
vacuum...
set primary keys...
done.
