CHECKPOINT
transaction type: SELECT only
scaling factor: 1100
query mode: simple
number of clients: 16
number of threads: 16
duration: 1800 s
number of transactions actually processed: 52561101
latency average: 0.548 ms
tps = 29200.544879 (including connections establishing)
tps = 29200.683059 (excluding connections establishing)
