transaction type: TPC-B (sort of)
scaling factor: 10
query mode: simple
number of clients: 16
number of threads: 16
duration: 1800 s
number of transactions actually processed: 13101401
latency average: 2.198 ms
tps = 7278.489036 (including connections establishing)
tps = 7278.515955 (excluding connections establishing)
