NOTICE:  table "pgbench_history" does not exist, skipping
NOTICE:  table "pgbench_tellers" does not exist, skipping
NOTICE:  table "pgbench_accounts" does not exist, skipping
NOTICE:  table "pgbench_branches" does not exist, skipping
creating tables...
100000 of 14000000 tuples (0%) done (elapsed 0.02 s, remaining 3.30 s).
200000 of 14000000 tuples (1%) done (elapsed 0.05 s, remaining 3.29 s).
300000 of 14000000 tuples (2%) done (elapsed 0.07 s, remaining 3.24 s).
400000 of 14000000 tuples (2%) done (elapsed 0.09 s, remaining 3.21 s).
500000 of 14000000 tuples (3%) done (elapsed 0.19 s, remaining 5.10 s).
600000 of 14000000 tuples (4%) done (elapsed 0.25 s, remaining 5.56 s).
700000 of 14000000 tuples (5%) done (elapsed 0.31 s, remaining 5.87 s).
800000 of 14000000 tuples (5%) done (elapsed 0.41 s, remaining 6.74 s).
900000 of 14000000 tuples (6%) done (elapsed 0.47 s, remaining 6.84 s).
1000000 of 14000000 tuples (7%) done (elapsed 0.53 s, remaining 6.90 s).
1100000 of 14000000 tuples (7%) done (elapsed 0.63 s, remaining 7.37 s).
1200000 of 14000000 tuples (8%) done (elapsed 0.69 s, remaining 7.34 s).
1300000 of 14000000 tuples (9%) done (elapsed 0.78 s, remaining 7.63 s).
1400000 of 14000000 tuples (10%) done (elapsed 0.84 s, remaining 7.56 s).
1500000 of 14000000 tuples (10%) done (elapsed 0.93 s, remaining 7.78 s).
1600000 of 14000000 tuples (11%) done (elapsed 0.99 s, remaining 7.68 s).
1700000 of 14000000 tuples (12%) done (elapsed 1.08 s, remaining 7.85 s).
1800000 of 14000000 tuples (12%) done (elapsed 1.14 s, remaining 7.75 s).
1900000 of 14000000 tuples (13%) done (elapsed 1.20 s, remaining 7.65 s).
2000000 of 14000000 tuples (14%) done (elapsed 1.30 s, remaining 7.77 s).
2100000 of 14000000 tuples (15%) done (elapsed 1.35 s, remaining 7.67 s).
2200000 of 14000000 tuples (15%) done (elapsed 1.45 s, remaining 7.77 s).
2300000 of 14000000 tuples (16%) done (elapsed 1.51 s, remaining 7.66 s).
2400000 of 14000000 tuples (17%) done (elapsed 1.60 s, remaining 7.73 s).
2500000 of 14000000 tuples (17%) done (elapsed 1.66 s, remaining 7.63 s).
2600000 of 14000000 tuples (18%) done (elapsed 1.75 s, remaining 7.68 s).
2700000 of 14000000 tuples (19%) done (elapsed 1.81 s, remaining 7.57 s).
2800000 of 14000000 tuples (20%) done (elapsed 1.90 s, remaining 7.60 s).
2900000 of 14000000 tuples (20%) done (elapsed 1.96 s, remaining 7.50 s).
3000000 of 14000000 tuples (21%) done (elapsed 2.02 s, remaining 7.39 s).
3100000 of 14000000 tuples (22%) done (elapsed 2.11 s, remaining 7.41 s).
3200000 of 14000000 tuples (22%) done (elapsed 2.17 s, remaining 7.31 s).
3300000 of 14000000 tuples (23%) done (elapsed 2.26 s, remaining 7.32 s).
3400000 of 14000000 tuples (24%) done (elapsed 2.32 s, remaining 7.22 s).
3500000 of 14000000 tuples (25%) done (elapsed 2.41 s, remaining 7.22 s).
3600000 of 14000000 tuples (25%) done (elapsed 2.46 s, remaining 7.12 s).
3700000 of 14000000 tuples (26%) done (elapsed 2.56 s, remaining 7.12 s).
3800000 of 14000000 tuples (27%) done (elapsed 2.61 s, remaining 7.02 s).
3900000 of 14000000 tuples (27%) done (elapsed 2.71 s, remaining 7.01 s).
4000000 of 14000000 tuples (28%) done (elapsed 2.76 s, remaining 6.91 s).
4100000 of 14000000 tuples (29%) done (elapsed 2.82 s, remaining 6.81 s).
4200000 of 14000000 tuples (30%) done (elapsed 2.91 s, remaining 6.79 s).
4300000 of 14000000 tuples (30%) done (elapsed 2.97 s, remaining 6.70 s).
4400000 of 14000000 tuples (31%) done (elapsed 3.06 s, remaining 6.68 s).
4500000 of 14000000 tuples (32%) done (elapsed 3.12 s, remaining 6.58 s).
4600000 of 14000000 tuples (32%) done (elapsed 3.21 s, remaining 6.56 s).
4700000 of 14000000 tuples (33%) done (elapsed 3.27 s, remaining 6.47 s).
4800000 of 14000000 tuples (34%) done (elapsed 3.36 s, remaining 6.44 s).
4900000 of 14000000 tuples (35%) done (elapsed 3.42 s, remaining 6.34 s).
5000000 of 14000000 tuples (35%) done (elapsed 3.51 s, remaining 6.31 s).
5100000 of 14000000 tuples (36%) done (elapsed 3.56 s, remaining 6.22 s).
5200000 of 14000000 tuples (37%) done (elapsed 3.62 s, remaining 6.13 s).
5300000 of 14000000 tuples (37%) done (elapsed 3.71 s, remaining 6.10 s).
5400000 of 14000000 tuples (38%) done (elapsed 3.77 s, remaining 6.01 s).
5500000 of 14000000 tuples (39%) done (elapsed 3.86 s, remaining 5.97 s).
5600000 of 14000000 tuples (40%) done (elapsed 3.92 s, remaining 5.88 s).
5700000 of 14000000 tuples (40%) done (elapsed 4.02 s, remaining 5.85 s).
5800000 of 14000000 tuples (41%) done (elapsed 4.07 s, remaining 5.76 s).
5900000 of 14000000 tuples (42%) done (elapsed 4.17 s, remaining 5.72 s).
6000000 of 14000000 tuples (42%) done (elapsed 4.23 s, remaining 5.63 s).
6100000 of 14000000 tuples (43%) done (elapsed 4.32 s, remaining 5.59 s).
6200000 of 14000000 tuples (44%) done (elapsed 4.38 s, remaining 5.51 s).
6300000 of 14000000 tuples (45%) done (elapsed 4.43 s, remaining 5.42 s).
6400000 of 14000000 tuples (45%) done (elapsed 4.53 s, remaining 5.38 s).
6500000 of 14000000 tuples (46%) done (elapsed 4.59 s, remaining 5.29 s).
6600000 of 14000000 tuples (47%) done (elapsed 4.68 s, remaining 5.25 s).
6700000 of 14000000 tuples (47%) done (elapsed 4.89 s, remaining 5.33 s).
6800000 of 14000000 tuples (48%) done (elapsed 4.91 s, remaining 5.20 s).
6900000 of 14000000 tuples (49%) done (elapsed 4.94 s, remaining 5.08 s).
7000000 of 14000000 tuples (50%) done (elapsed 5.00 s, remaining 5.00 s).
7100000 of 14000000 tuples (50%) done (elapsed 5.09 s, remaining 4.94 s).
7200000 of 14000000 tuples (51%) done (elapsed 5.14 s, remaining 4.86 s).
7300000 of 14000000 tuples (52%) done (elapsed 5.20 s, remaining 4.77 s).
7400000 of 14000000 tuples (52%) done (elapsed 5.29 s, remaining 4.72 s).
7500000 of 14000000 tuples (53%) done (elapsed 5.35 s, remaining 4.64 s).
7600000 of 14000000 tuples (54%) done (elapsed 5.44 s, remaining 4.58 s).
7700000 of 14000000 tuples (55%) done (elapsed 5.50 s, remaining 4.50 s).
7800000 of 14000000 tuples (55%) done (elapsed 5.59 s, remaining 4.45 s).
7900000 of 14000000 tuples (56%) done (elapsed 5.65 s, remaining 4.36 s).
8000000 of 14000000 tuples (57%) done (elapsed 5.74 s, remaining 4.31 s).
8100000 of 14000000 tuples (57%) done (elapsed 5.80 s, remaining 4.22 s).
8200000 of 14000000 tuples (58%) done (elapsed 5.89 s, remaining 4.17 s).
8300000 of 14000000 tuples (59%) done (elapsed 5.95 s, remaining 4.09 s).
8400000 of 14000000 tuples (60%) done (elapsed 6.01 s, remaining 4.01 s).
8500000 of 14000000 tuples (60%) done (elapsed 6.10 s, remaining 3.95 s).
8600000 of 14000000 tuples (61%) done (elapsed 6.16 s, remaining 3.87 s).
8700000 of 14000000 tuples (62%) done (elapsed 6.25 s, remaining 3.81 s).
8800000 of 14000000 tuples (62%) done (elapsed 6.31 s, remaining 3.73 s).
8900000 of 14000000 tuples (63%) done (elapsed 6.40 s, remaining 3.67 s).
9000000 of 14000000 tuples (64%) done (elapsed 6.46 s, remaining 3.59 s).
9100000 of 14000000 tuples (65%) done (elapsed 6.92 s, remaining 3.73 s).
9200000 of 14000000 tuples (65%) done (elapsed 6.98 s, remaining 3.64 s).
9300000 of 14000000 tuples (66%) done (elapsed 7.03 s, remaining 3.56 s).
9400000 of 14000000 tuples (67%) done (elapsed 7.13 s, remaining 3.49 s).
9500000 of 14000000 tuples (67%) done (elapsed 7.18 s, remaining 3.40 s).
9600000 of 14000000 tuples (68%) done (elapsed 7.28 s, remaining 3.34 s).
9700000 of 14000000 tuples (69%) done (elapsed 7.33 s, remaining 3.25 s).
9800000 of 14000000 tuples (70%) done (elapsed 7.43 s, remaining 3.18 s).
9900000 of 14000000 tuples (70%) done (elapsed 7.48 s, remaining 3.10 s).
10000000 of 14000000 tuples (71%) done (elapsed 7.58 s, remaining 3.03 s).
10100000 of 14000000 tuples (72%) done (elapsed 7.63 s, remaining 2.95 s).
10200000 of 14000000 tuples (72%) done (elapsed 7.72 s, remaining 2.88 s).
10300000 of 14000000 tuples (73%) done (elapsed 7.81 s, remaining 2.81 s).
10400000 of 14000000 tuples (74%) done (elapsed 7.87 s, remaining 2.72 s).
10500000 of 14000000 tuples (75%) done (elapsed 7.95 s, remaining 2.65 s).
10600000 of 14000000 tuples (75%) done (elapsed 8.04 s, remaining 2.58 s).
10700000 of 14000000 tuples (76%) done (elapsed 8.09 s, remaining 2.50 s).
10800000 of 14000000 tuples (77%) done (elapsed 8.18 s, remaining 2.42 s).
10900000 of 14000000 tuples (77%) done (elapsed 8.24 s, remaining 2.34 s).
11000000 of 14000000 tuples (78%) done (elapsed 8.32 s, remaining 2.27 s).
11100000 of 14000000 tuples (79%) done (elapsed 8.41 s, remaining 2.20 s).
11200000 of 14000000 tuples (80%) done (elapsed 8.46 s, remaining 2.12 s).
11300000 of 14000000 tuples (80%) done (elapsed 8.55 s, remaining 2.04 s).
11400000 of 14000000 tuples (81%) done (elapsed 8.61 s, remaining 1.96 s).
11500000 of 14000000 tuples (82%) done (elapsed 8.69 s, remaining 1.89 s).
11600000 of 14000000 tuples (82%) done (elapsed 8.78 s, remaining 1.82 s).
11700000 of 14000000 tuples (83%) done (elapsed 8.83 s, remaining 1.74 s).
11800000 of 14000000 tuples (84%) done (elapsed 8.92 s, remaining 1.66 s).
11900000 of 14000000 tuples (85%) done (elapsed 8.98 s, remaining 1.58 s).
12000000 of 14000000 tuples (85%) done (elapsed 9.06 s, remaining 1.51 s).
12100000 of 14000000 tuples (86%) done (elapsed 9.15 s, remaining 1.44 s).
12200000 of 14000000 tuples (87%) done (elapsed 9.20 s, remaining 1.36 s).
12300000 of 14000000 tuples (87%) done (elapsed 9.29 s, remaining 1.28 s).
12400000 of 14000000 tuples (88%) done (elapsed 9.35 s, remaining 1.21 s).
12500000 of 14000000 tuples (89%) done (elapsed 9.43 s, remaining 1.13 s).
12600000 of 14000000 tuples (90%) done (elapsed 9.52 s, remaining 1.06 s).
12700000 of 14000000 tuples (90%) done (elapsed 10.60 s, remaining 1.09 s).
12800000 of 14000000 tuples (91%) done (elapsed 11.00 s, remaining 1.03 s).
12900000 of 14000000 tuples (92%) done (elapsed 11.06 s, remaining 0.94 s).
13000000 of 14000000 tuples (92%) done (elapsed 11.14 s, remaining 0.86 s).
13100000 of 14000000 tuples (93%) done (elapsed 11.20 s, remaining 0.77 s).
13200000 of 14000000 tuples (94%) done (elapsed 11.28 s, remaining 0.68 s).
13300000 of 14000000 tuples (95%) done (elapsed 11.34 s, remaining 0.60 s).
13400000 of 14000000 tuples (95%) done (elapsed 11.42 s, remaining 0.51 s).
13500000 of 14000000 tuples (96%) done (elapsed 11.51 s, remaining 0.43 s).
13600000 of 14000000 tuples (97%) done (elapsed 11.57 s, remaining 0.34 s).
13700000 of 14000000 tuples (97%) done (elapsed 11.65 s, remaining 0.26 s).
13800000 of 14000000 tuples (98%) done (elapsed 11.71 s, remaining 0.17 s).
13900000 of 14000000 tuples (99%) done (elapsed 11.79 s, remaining 0.08 s).
14000000 of 14000000 tuples (100%) done (elapsed 11.88 s, remaining 0.00 s).
vacuum...
set primary keys...
done.
