transaction type: TPC-B (sort of)
scaling factor: 10
query mode: simple
number of clients: 16
number of threads: 16
duration: 1800 s
number of transactions actually processed: 11791790
latency average: 2.442 ms
tps = 6550.863587 (including connections establishing)
tps = 6550.884511 (excluding connections establishing)
