CHECKPOINT
transaction type: SELECT only
scaling factor: 140
query mode: simple
number of clients: 1
number of threads: 1
duration: 1800 s
number of transactions actually processed: 21117919
latency average: 0.085 ms
tps = 11732.176225 (including connections establishing)
tps = 11732.186425 (excluding connections establishing)
