NOTICE:  table "pgbench_history" does not exist, skipping
NOTICE:  table "pgbench_tellers" does not exist, skipping
NOTICE:  table "pgbench_accounts" does not exist, skipping
NOTICE:  table "pgbench_branches" does not exist, skipping
creating tables...
100000 of 110000000 tuples (0%) done (elapsed 0.02 s, remaining 26.08 s).
200000 of 110000000 tuples (0%) done (elapsed 0.05 s, remaining 26.08 s).
300000 of 110000000 tuples (0%) done (elapsed 0.07 s, remaining 25.90 s).
400000 of 110000000 tuples (0%) done (elapsed 0.14 s, remaining 37.32 s).
500000 of 110000000 tuples (0%) done (elapsed 0.21 s, remaining 45.89 s).
600000 of 110000000 tuples (0%) done (elapsed 0.33 s, remaining 59.39 s).
700000 of 110000000 tuples (0%) done (elapsed 0.39 s, remaining 61.46 s).
800000 of 110000000 tuples (0%) done (elapsed 0.46 s, remaining 62.97 s).
900000 of 110000000 tuples (0%) done (elapsed 0.58 s, remaining 70.43 s).
1000000 of 110000000 tuples (0%) done (elapsed 0.65 s, remaining 70.93 s).
1100000 of 110000000 tuples (1%) done (elapsed 0.77 s, remaining 75.77 s).
1200000 of 110000000 tuples (1%) done (elapsed 0.88 s, remaining 80.07 s).
1300000 of 110000000 tuples (1%) done (elapsed 0.95 s, remaining 79.49 s).
1400000 of 110000000 tuples (1%) done (elapsed 1.06 s, remaining 81.96 s).
1500000 of 110000000 tuples (1%) done (elapsed 1.12 s, remaining 81.18 s).
1600000 of 110000000 tuples (1%) done (elapsed 1.24 s, remaining 83.76 s).
1700000 of 110000000 tuples (1%) done (elapsed 1.35 s, remaining 85.83 s).
1800000 of 110000000 tuples (1%) done (elapsed 1.41 s, remaining 84.97 s).
1900000 of 110000000 tuples (1%) done (elapsed 1.52 s, remaining 86.76 s).
2000000 of 110000000 tuples (1%) done (elapsed 1.64 s, remaining 88.53 s).
2100000 of 110000000 tuples (1%) done (elapsed 1.71 s, remaining 87.62 s).
2200000 of 110000000 tuples (2%) done (elapsed 1.81 s, remaining 88.89 s).
2300000 of 110000000 tuples (2%) done (elapsed 1.88 s, remaining 88.19 s).
2400000 of 110000000 tuples (2%) done (elapsed 2.00 s, remaining 89.52 s).
2500000 of 110000000 tuples (2%) done (elapsed 2.11 s, remaining 90.52 s).
2600000 of 110000000 tuples (2%) done (elapsed 2.17 s, remaining 89.68 s).
2700000 of 110000000 tuples (2%) done (elapsed 2.29 s, remaining 90.85 s).
2800000 of 110000000 tuples (2%) done (elapsed 2.35 s, remaining 90.11 s).
2900000 of 110000000 tuples (2%) done (elapsed 2.46 s, remaining 90.93 s).
3000000 of 110000000 tuples (2%) done (elapsed 2.57 s, remaining 91.84 s).
3100000 of 110000000 tuples (2%) done (elapsed 2.65 s, remaining 91.31 s).
3200000 of 110000000 tuples (2%) done (elapsed 2.77 s, remaining 92.30 s).
3300000 of 110000000 tuples (3%) done (elapsed 2.88 s, remaining 93.07 s).
3400000 of 110000000 tuples (3%) done (elapsed 2.95 s, remaining 92.43 s).
3500000 of 110000000 tuples (3%) done (elapsed 3.06 s, remaining 93.16 s).
3600000 of 110000000 tuples (3%) done (elapsed 3.17 s, remaining 93.69 s).
3700000 of 110000000 tuples (3%) done (elapsed 3.24 s, remaining 92.97 s).
3800000 of 110000000 tuples (3%) done (elapsed 3.36 s, remaining 93.80 s).
3900000 of 110000000 tuples (3%) done (elapsed 3.42 s, remaining 93.15 s).
4000000 of 110000000 tuples (3%) done (elapsed 3.53 s, remaining 93.61 s).
4100000 of 110000000 tuples (3%) done (elapsed 3.65 s, remaining 94.15 s).
4200000 of 110000000 tuples (3%) done (elapsed 3.72 s, remaining 93.59 s).
4300000 of 110000000 tuples (3%) done (elapsed 3.82 s, remaining 94.00 s).
4400000 of 110000000 tuples (4%) done (elapsed 3.89 s, remaining 93.36 s).
4500000 of 110000000 tuples (4%) done (elapsed 4.00 s, remaining 93.87 s).
4600000 of 110000000 tuples (4%) done (elapsed 4.12 s, remaining 94.32 s).
4700000 of 110000000 tuples (4%) done (elapsed 4.18 s, remaining 93.71 s).
4800000 of 110000000 tuples (4%) done (elapsed 4.29 s, remaining 94.04 s).
4900000 of 110000000 tuples (4%) done (elapsed 4.41 s, remaining 94.49 s).
5000000 of 110000000 tuples (4%) done (elapsed 4.47 s, remaining 93.91 s).
5100000 of 110000000 tuples (4%) done (elapsed 4.58 s, remaining 94.21 s).
5200000 of 110000000 tuples (4%) done (elapsed 4.65 s, remaining 93.68 s).
5300000 of 110000000 tuples (4%) done (elapsed 4.77 s, remaining 94.15 s).
5400000 of 110000000 tuples (4%) done (elapsed 4.88 s, remaining 94.45 s).
5500000 of 110000000 tuples (5%) done (elapsed 4.94 s, remaining 93.91 s).
5600000 of 110000000 tuples (5%) done (elapsed 5.05 s, remaining 94.18 s).
5700000 of 110000000 tuples (5%) done (elapsed 5.17 s, remaining 94.56 s).
5800000 of 110000000 tuples (5%) done (elapsed 5.24 s, remaining 94.08 s).
5900000 of 110000000 tuples (5%) done (elapsed 5.35 s, remaining 94.33 s).
6000000 of 110000000 tuples (5%) done (elapsed 5.41 s, remaining 93.81 s).
6100000 of 110000000 tuples (5%) done (elapsed 5.52 s, remaining 94.10 s).
6200000 of 110000000 tuples (5%) done (elapsed 5.63 s, remaining 94.33 s).
6300000 of 110000000 tuples (5%) done (elapsed 5.70 s, remaining 93.82 s).
6400000 of 110000000 tuples (5%) done (elapsed 5.81 s, remaining 94.00 s).
6500000 of 110000000 tuples (5%) done (elapsed 5.87 s, remaining 93.54 s).
6600000 of 110000000 tuples (6%) done (elapsed 5.99 s, remaining 93.86 s).
6700000 of 110000000 tuples (6%) done (elapsed 6.10 s, remaining 94.02 s).
6800000 of 110000000 tuples (6%) done (elapsed 6.16 s, remaining 93.54 s).
6900000 of 110000000 tuples (6%) done (elapsed 6.27 s, remaining 93.69 s).
7000000 of 110000000 tuples (6%) done (elapsed 6.34 s, remaining 93.23 s).
7100000 of 110000000 tuples (6%) done (elapsed 6.45 s, remaining 93.49 s).
7200000 of 110000000 tuples (6%) done (elapsed 6.56 s, remaining 93.62 s).
7300000 of 110000000 tuples (6%) done (elapsed 6.62 s, remaining 93.17 s).
7400000 of 110000000 tuples (6%) done (elapsed 6.73 s, remaining 93.30 s).
7500000 of 110000000 tuples (6%) done (elapsed 6.79 s, remaining 92.86 s).
7600000 of 110000000 tuples (6%) done (elapsed 6.91 s, remaining 93.07 s).
7700000 of 110000000 tuples (7%) done (elapsed 7.02 s, remaining 93.22 s).
7800000 of 110000000 tuples (7%) done (elapsed 7.08 s, remaining 92.79 s).
7900000 of 110000000 tuples (7%) done (elapsed 7.19 s, remaining 92.90 s).
8000000 of 110000000 tuples (7%) done (elapsed 7.29 s, remaining 93.01 s).
8100000 of 110000000 tuples (7%) done (elapsed 7.36 s, remaining 92.59 s).
8200000 of 110000000 tuples (7%) done (elapsed 7.47 s, remaining 92.77 s).
8300000 of 110000000 tuples (7%) done (elapsed 7.54 s, remaining 92.41 s).
8400000 of 110000000 tuples (7%) done (elapsed 7.65 s, remaining 92.51 s).
8500000 of 110000000 tuples (7%) done (elapsed 7.76 s, remaining 92.61 s).
8600000 of 110000000 tuples (7%) done (elapsed 7.82 s, remaining 92.21 s).
8700000 of 110000000 tuples (7%) done (elapsed 7.93 s, remaining 92.30 s).
8800000 of 110000000 tuples (8%) done (elapsed 7.99 s, remaining 91.91 s).
8900000 of 110000000 tuples (8%) done (elapsed 8.10 s, remaining 92.07 s).
9000000 of 110000000 tuples (8%) done (elapsed 8.21 s, remaining 92.18 s).
9100000 of 110000000 tuples (8%) done (elapsed 8.28 s, remaining 91.81 s).
9200000 of 110000000 tuples (8%) done (elapsed 8.39 s, remaining 91.89 s).
9300000 of 110000000 tuples (8%) done (elapsed 8.45 s, remaining 91.51 s).
9400000 of 110000000 tuples (8%) done (elapsed 8.56 s, remaining 91.59 s).
9500000 of 110000000 tuples (8%) done (elapsed 8.67 s, remaining 91.72 s).
9600000 of 110000000 tuples (8%) done (elapsed 8.74 s, remaining 91.39 s).
9700000 of 110000000 tuples (8%) done (elapsed 8.85 s, remaining 91.47 s).
9800000 of 110000000 tuples (8%) done (elapsed 8.95 s, remaining 91.54 s).
9900000 of 110000000 tuples (9%) done (elapsed 9.02 s, remaining 91.18 s).
10000000 of 110000000 tuples (9%) done (elapsed 9.13 s, remaining 91.26 s).
10100000 of 110000000 tuples (9%) done (elapsed 9.24 s, remaining 91.38 s).
10200000 of 110000000 tuples (9%) done (elapsed 9.31 s, remaining 91.05 s).
10300000 of 110000000 tuples (9%) done (elapsed 9.41 s, remaining 91.05 s).
10400000 of 110000000 tuples (9%) done (elapsed 9.51 s, remaining 91.04 s).
10500000 of 110000000 tuples (9%) done (elapsed 9.61 s, remaining 91.02 s).
10600000 of 110000000 tuples (9%) done (elapsed 9.71 s, remaining 91.10 s).
10700000 of 110000000 tuples (9%) done (elapsed 9.78 s, remaining 90.76 s).
10800000 of 110000000 tuples (9%) done (elapsed 9.88 s, remaining 90.75 s).
10900000 of 110000000 tuples (9%) done (elapsed 9.98 s, remaining 90.72 s).
11000000 of 110000000 tuples (10%) done (elapsed 10.08 s, remaining 90.70 s).
11100000 of 110000000 tuples (10%) done (elapsed 10.18 s, remaining 90.73 s).
11200000 of 110000000 tuples (10%) done (elapsed 10.25 s, remaining 90.40 s).
11300000 of 110000000 tuples (10%) done (elapsed 10.35 s, remaining 90.39 s).
11400000 of 110000000 tuples (10%) done (elapsed 10.45 s, remaining 90.37 s).
11500000 of 110000000 tuples (10%) done (elapsed 10.55 s, remaining 90.34 s).
11600000 of 110000000 tuples (10%) done (elapsed 10.61 s, remaining 90.03 s).
11700000 of 110000000 tuples (10%) done (elapsed 10.72 s, remaining 90.05 s).
11800000 of 110000000 tuples (10%) done (elapsed 10.82 s, remaining 90.02 s).
11900000 of 110000000 tuples (10%) done (elapsed 10.92 s, remaining 89.99 s).
12000000 of 110000000 tuples (10%) done (elapsed 11.02 s, remaining 89.99 s).
12100000 of 110000000 tuples (11%) done (elapsed 11.08 s, remaining 89.68 s).
12200000 of 110000000 tuples (11%) done (elapsed 11.19 s, remaining 89.67 s).
12300000 of 110000000 tuples (11%) done (elapsed 11.29 s, remaining 89.64 s).
12400000 of 110000000 tuples (11%) done (elapsed 11.38 s, remaining 89.61 s).
12500000 of 110000000 tuples (11%) done (elapsed 11.49 s, remaining 89.64 s).
12600000 of 110000000 tuples (11%) done (elapsed 11.55 s, remaining 89.32 s).
12700000 of 110000000 tuples (11%) done (elapsed 11.65 s, remaining 89.29 s).
12800000 of 110000000 tuples (11%) done (elapsed 11.75 s, remaining 89.25 s).
12900000 of 110000000 tuples (11%) done (elapsed 11.86 s, remaining 89.27 s).
13000000 of 110000000 tuples (11%) done (elapsed 11.92 s, remaining 88.97 s).
13100000 of 110000000 tuples (11%) done (elapsed 12.02 s, remaining 88.93 s).
13200000 of 110000000 tuples (12%) done (elapsed 12.12 s, remaining 88.90 s).
13300000 of 110000000 tuples (12%) done (elapsed 12.23 s, remaining 88.92 s).
13400000 of 110000000 tuples (12%) done (elapsed 12.33 s, remaining 88.89 s).
13500000 of 110000000 tuples (12%) done (elapsed 12.39 s, remaining 88.58 s).
13600000 of 110000000 tuples (12%) done (elapsed 12.49 s, remaining 88.55 s).
13700000 of 110000000 tuples (12%) done (elapsed 12.60 s, remaining 88.56 s).
13800000 of 110000000 tuples (12%) done (elapsed 12.70 s, remaining 88.52 s).
13900000 of 110000000 tuples (12%) done (elapsed 12.76 s, remaining 88.23 s).
14000000 of 110000000 tuples (12%) done (elapsed 12.86 s, remaining 88.21 s).
14100000 of 110000000 tuples (12%) done (elapsed 12.97 s, remaining 88.21 s).
14200000 of 110000000 tuples (12%) done (elapsed 13.07 s, remaining 88.16 s).
14300000 of 110000000 tuples (13%) done (elapsed 13.17 s, remaining 88.13 s).
14400000 of 110000000 tuples (13%) done (elapsed 13.24 s, remaining 87.87 s).
14500000 of 110000000 tuples (13%) done (elapsed 13.34 s, remaining 87.84 s).
14600000 of 110000000 tuples (13%) done (elapsed 13.44 s, remaining 87.80 s).
14700000 of 110000000 tuples (13%) done (elapsed 13.54 s, remaining 87.78 s).
14800000 of 110000000 tuples (13%) done (elapsed 13.64 s, remaining 87.77 s).
14900000 of 110000000 tuples (13%) done (elapsed 13.71 s, remaining 87.48 s).
15000000 of 110000000 tuples (13%) done (elapsed 13.81 s, remaining 87.44 s).
15100000 of 110000000 tuples (13%) done (elapsed 13.91 s, remaining 87.42 s).
15200000 of 110000000 tuples (13%) done (elapsed 14.01 s, remaining 87.40 s).
15300000 of 110000000 tuples (13%) done (elapsed 14.08 s, remaining 87.12 s).
15400000 of 110000000 tuples (14%) done (elapsed 14.17 s, remaining 87.07 s).
15500000 of 110000000 tuples (14%) done (elapsed 14.28 s, remaining 87.06 s).
15600000 of 110000000 tuples (14%) done (elapsed 14.38 s, remaining 87.03 s).
15700000 of 110000000 tuples (14%) done (elapsed 14.48 s, remaining 86.98 s).
15800000 of 110000000 tuples (14%) done (elapsed 14.54 s, remaining 86.71 s).
15900000 of 110000000 tuples (14%) done (elapsed 14.65 s, remaining 86.70 s).
16000000 of 110000000 tuples (14%) done (elapsed 14.75 s, remaining 86.66 s).
16100000 of 110000000 tuples (14%) done (elapsed 14.85 s, remaining 86.61 s).
16200000 of 110000000 tuples (14%) done (elapsed 14.91 s, remaining 86.35 s).
16300000 of 110000000 tuples (14%) done (elapsed 15.02 s, remaining 86.34 s).
16400000 of 110000000 tuples (14%) done (elapsed 15.12 s, remaining 86.29 s).
16500000 of 110000000 tuples (15%) done (elapsed 15.22 s, remaining 86.24 s).
16600000 of 110000000 tuples (15%) done (elapsed 15.32 s, remaining 86.22 s).
16700000 of 110000000 tuples (15%) done (elapsed 15.39 s, remaining 85.98 s).
16800000 of 110000000 tuples (15%) done (elapsed 15.49 s, remaining 85.93 s).
16900000 of 110000000 tuples (15%) done (elapsed 15.59 s, remaining 85.87 s).
17000000 of 110000000 tuples (15%) done (elapsed 15.70 s, remaining 85.86 s).
17100000 of 110000000 tuples (15%) done (elapsed 15.76 s, remaining 85.61 s).
17200000 of 110000000 tuples (15%) done (elapsed 15.86 s, remaining 85.56 s).
17300000 of 110000000 tuples (15%) done (elapsed 15.96 s, remaining 85.52 s).
17400000 of 110000000 tuples (15%) done (elapsed 16.07 s, remaining 85.50 s).
17500000 of 110000000 tuples (15%) done (elapsed 16.17 s, remaining 85.44 s).
17600000 of 110000000 tuples (16%) done (elapsed 16.23 s, remaining 85.19 s).
17700000 of 110000000 tuples (16%) done (elapsed 16.33 s, remaining 85.16 s).
17800000 of 110000000 tuples (16%) done (elapsed 16.44 s, remaining 85.13 s).
17900000 of 110000000 tuples (16%) done (elapsed 16.54 s, remaining 85.08 s).
18000000 of 110000000 tuples (16%) done (elapsed 16.64 s, remaining 85.03 s).
18100000 of 110000000 tuples (16%) done (elapsed 16.70 s, remaining 84.80 s).
18200000 of 110000000 tuples (16%) done (elapsed 16.81 s, remaining 84.76 s).
18300000 of 110000000 tuples (16%) done (elapsed 16.90 s, remaining 84.71 s).
18400000 of 110000000 tuples (16%) done (elapsed 17.01 s, remaining 84.67 s).
18500000 of 110000000 tuples (16%) done (elapsed 17.07 s, remaining 84.44 s).
18600000 of 110000000 tuples (16%) done (elapsed 17.17 s, remaining 84.39 s).
18700000 of 110000000 tuples (17%) done (elapsed 17.27 s, remaining 84.34 s).
18800000 of 110000000 tuples (17%) done (elapsed 17.38 s, remaining 84.31 s).
18900000 of 110000000 tuples (17%) done (elapsed 17.48 s, remaining 84.26 s).
19000000 of 110000000 tuples (17%) done (elapsed 17.54 s, remaining 84.02 s).
19100000 of 110000000 tuples (17%) done (elapsed 17.64 s, remaining 83.97 s).
19200000 of 110000000 tuples (17%) done (elapsed 17.75 s, remaining 83.94 s).
19300000 of 110000000 tuples (17%) done (elapsed 17.85 s, remaining 83.89 s).
19400000 of 110000000 tuples (17%) done (elapsed 17.91 s, remaining 83.65 s).
19500000 of 110000000 tuples (17%) done (elapsed 18.02 s, remaining 83.61 s).
19600000 of 110000000 tuples (17%) done (elapsed 18.12 s, remaining 83.58 s).
19700000 of 110000000 tuples (17%) done (elapsed 18.22 s, remaining 83.52 s).
19800000 of 110000000 tuples (18%) done (elapsed 18.32 s, remaining 83.46 s).
19900000 of 110000000 tuples (18%) done (elapsed 18.39 s, remaining 83.25 s).
20000000 of 110000000 tuples (18%) done (elapsed 18.49 s, remaining 83.21 s).
20100000 of 110000000 tuples (18%) done (elapsed 18.59 s, remaining 83.15 s).
20200000 of 110000000 tuples (18%) done (elapsed 18.69 s, remaining 83.10 s).
20300000 of 110000000 tuples (18%) done (elapsed 18.76 s, remaining 82.89 s).
20400000 of 110000000 tuples (18%) done (elapsed 18.86 s, remaining 82.84 s).
20500000 of 110000000 tuples (18%) done (elapsed 18.96 s, remaining 82.78 s).
20600000 of 110000000 tuples (18%) done (elapsed 19.06 s, remaining 82.74 s).
20700000 of 110000000 tuples (18%) done (elapsed 19.17 s, remaining 82.70 s).
20800000 of 110000000 tuples (18%) done (elapsed 19.23 s, remaining 82.47 s).
20900000 of 110000000 tuples (19%) done (elapsed 19.33 s, remaining 82.41 s).
21000000 of 110000000 tuples (19%) done (elapsed 19.44 s, remaining 82.37 s).
21100000 of 110000000 tuples (19%) done (elapsed 19.54 s, remaining 82.32 s).
21200000 of 110000000 tuples (19%) done (elapsed 19.60 s, remaining 82.10 s).
21300000 of 110000000 tuples (19%) done (elapsed 19.70 s, remaining 82.04 s).
21400000 of 110000000 tuples (19%) done (elapsed 19.81 s, remaining 82.01 s).
21500000 of 110000000 tuples (19%) done (elapsed 19.91 s, remaining 81.95 s).
21600000 of 110000000 tuples (19%) done (elapsed 20.01 s, remaining 81.89 s).
21700000 of 110000000 tuples (19%) done (elapsed 20.07 s, remaining 81.68 s).
21800000 of 110000000 tuples (19%) done (elapsed 20.18 s, remaining 81.65 s).
21900000 of 110000000 tuples (19%) done (elapsed 20.28 s, remaining 81.58 s).
22000000 of 110000000 tuples (20%) done (elapsed 20.38 s, remaining 81.52 s).
22100000 of 110000000 tuples (20%) done (elapsed 20.44 s, remaining 81.31 s).
22200000 of 110000000 tuples (20%) done (elapsed 20.55 s, remaining 81.27 s).
22300000 of 110000000 tuples (20%) done (elapsed 20.65 s, remaining 81.21 s).
22400000 of 110000000 tuples (20%) done (elapsed 20.75 s, remaining 81.15 s).
22500000 of 110000000 tuples (20%) done (elapsed 20.86 s, remaining 81.11 s).
22600000 of 110000000 tuples (20%) done (elapsed 20.92 s, remaining 80.90 s).
22700000 of 110000000 tuples (20%) done (elapsed 21.02 s, remaining 80.84 s).
22800000 of 110000000 tuples (20%) done (elapsed 21.12 s, remaining 80.77 s).
22900000 of 110000000 tuples (20%) done (elapsed 21.23 s, remaining 80.74 s).
23000000 of 110000000 tuples (20%) done (elapsed 21.29 s, remaining 80.53 s).
23100000 of 110000000 tuples (21%) done (elapsed 21.39 s, remaining 80.46 s).
23200000 of 110000000 tuples (21%) done (elapsed 21.49 s, remaining 80.41 s).
23300000 of 110000000 tuples (21%) done (elapsed 21.60 s, remaining 80.37 s).
23400000 of 110000000 tuples (21%) done (elapsed 21.70 s, remaining 80.30 s).
23500000 of 110000000 tuples (21%) done (elapsed 21.76 s, remaining 80.09 s).
23600000 of 110000000 tuples (21%) done (elapsed 21.86 s, remaining 80.04 s).
23700000 of 110000000 tuples (21%) done (elapsed 21.97 s, remaining 79.99 s).
23800000 of 110000000 tuples (21%) done (elapsed 22.07 s, remaining 79.92 s).
23900000 of 110000000 tuples (21%) done (elapsed 22.17 s, remaining 79.86 s).
24000000 of 110000000 tuples (21%) done (elapsed 22.23 s, remaining 79.67 s).
24100000 of 110000000 tuples (21%) done (elapsed 22.34 s, remaining 79.61 s).
24200000 of 110000000 tuples (22%) done (elapsed 22.44 s, remaining 79.55 s).
24300000 of 110000000 tuples (22%) done (elapsed 22.54 s, remaining 79.49 s).
24400000 of 110000000 tuples (22%) done (elapsed 22.60 s, remaining 79.30 s).
24500000 of 110000000 tuples (22%) done (elapsed 22.71 s, remaining 79.24 s).
24600000 of 110000000 tuples (22%) done (elapsed 22.81 s, remaining 79.17 s).
24700000 of 110000000 tuples (22%) done (elapsed 22.91 s, remaining 79.12 s).
24800000 of 110000000 tuples (22%) done (elapsed 23.02 s, remaining 79.07 s).
24900000 of 110000000 tuples (22%) done (elapsed 23.08 s, remaining 78.87 s).
25000000 of 110000000 tuples (22%) done (elapsed 23.18 s, remaining 78.80 s).
25100000 of 110000000 tuples (22%) done (elapsed 23.28 s, remaining 78.74 s).
25200000 of 110000000 tuples (22%) done (elapsed 23.39 s, remaining 78.69 s).
25300000 of 110000000 tuples (23%) done (elapsed 23.45 s, remaining 78.50 s).
25400000 of 110000000 tuples (23%) done (elapsed 23.55 s, remaining 78.43 s).
25500000 of 110000000 tuples (23%) done (elapsed 23.65 s, remaining 78.37 s).
25600000 of 110000000 tuples (23%) done (elapsed 23.76 s, remaining 78.32 s).
25700000 of 110000000 tuples (23%) done (elapsed 23.86 s, remaining 78.25 s).
25800000 of 110000000 tuples (23%) done (elapsed 23.92 s, remaining 78.06 s).
25900000 of 110000000 tuples (23%) done (elapsed 24.02 s, remaining 77.99 s).
26000000 of 110000000 tuples (23%) done (elapsed 24.13 s, remaining 77.95 s).
26100000 of 110000000 tuples (23%) done (elapsed 24.23 s, remaining 77.88 s).
26200000 of 110000000 tuples (23%) done (elapsed 24.33 s, remaining 77.81 s).
26300000 of 110000000 tuples (23%) done (elapsed 24.39 s, remaining 77.62 s).
26400000 of 110000000 tuples (24%) done (elapsed 24.50 s, remaining 77.57 s).
26500000 of 110000000 tuples (24%) done (elapsed 24.60 s, remaining 77.50 s).
26600000 of 110000000 tuples (24%) done (elapsed 24.70 s, remaining 77.43 s).
26700000 of 110000000 tuples (24%) done (elapsed 24.76 s, remaining 77.25 s).
26800000 of 110000000 tuples (24%) done (elapsed 24.87 s, remaining 77.20 s).
26900000 of 110000000 tuples (24%) done (elapsed 24.97 s, remaining 77.13 s).
27000000 of 110000000 tuples (24%) done (elapsed 25.07 s, remaining 77.06 s).
27100000 of 110000000 tuples (24%) done (elapsed 25.18 s, remaining 77.01 s).
27200000 of 110000000 tuples (24%) done (elapsed 25.24 s, remaining 76.83 s).
27300000 of 110000000 tuples (24%) done (elapsed 25.34 s, remaining 76.76 s).
27400000 of 110000000 tuples (24%) done (elapsed 25.44 s, remaining 76.69 s).
27500000 of 110000000 tuples (25%) done (elapsed 25.55 s, remaining 76.64 s).
27600000 of 110000000 tuples (25%) done (elapsed 25.61 s, remaining 76.46 s).
27700000 of 110000000 tuples (25%) done (elapsed 25.71 s, remaining 76.39 s).
27800000 of 110000000 tuples (25%) done (elapsed 25.81 s, remaining 76.32 s).
27900000 of 110000000 tuples (25%) done (elapsed 25.92 s, remaining 76.27 s).
28000000 of 110000000 tuples (25%) done (elapsed 26.02 s, remaining 76.20 s).
28100000 of 110000000 tuples (25%) done (elapsed 26.08 s, remaining 76.02 s).
28200000 of 110000000 tuples (25%) done (elapsed 26.18 s, remaining 75.95 s).
28300000 of 110000000 tuples (25%) done (elapsed 26.29 s, remaining 75.89 s).
28400000 of 110000000 tuples (25%) done (elapsed 26.39 s, remaining 75.83 s).
28500000 of 110000000 tuples (25%) done (elapsed 26.45 s, remaining 75.65 s).
28600000 of 110000000 tuples (26%) done (elapsed 26.55 s, remaining 75.57 s).
28700000 of 110000000 tuples (26%) done (elapsed 26.66 s, remaining 75.51 s).
28800000 of 110000000 tuples (26%) done (elapsed 26.76 s, remaining 75.46 s).
28900000 of 110000000 tuples (26%) done (elapsed 26.86 s, remaining 75.38 s).
29000000 of 110000000 tuples (26%) done (elapsed 26.92 s, remaining 75.20 s).
29100000 of 110000000 tuples (26%) done (elapsed 27.02 s, remaining 75.13 s).
29200000 of 110000000 tuples (26%) done (elapsed 27.13 s, remaining 75.07 s).
29300000 of 110000000 tuples (26%) done (elapsed 27.23 s, remaining 75.01 s).
29400000 of 110000000 tuples (26%) done (elapsed 27.33 s, remaining 74.93 s).
29500000 of 110000000 tuples (26%) done (elapsed 27.40 s, remaining 74.76 s).
29600000 of 110000000 tuples (26%) done (elapsed 27.50 s, remaining 74.69 s).
29700000 of 110000000 tuples (27%) done (elapsed 27.60 s, remaining 74.64 s).
29800000 of 110000000 tuples (27%) done (elapsed 27.70 s, remaining 74.56 s).
29900000 of 110000000 tuples (27%) done (elapsed 27.77 s, remaining 74.39 s).
30000000 of 110000000 tuples (27%) done (elapsed 27.87 s, remaining 74.31 s).
30100000 of 110000000 tuples (27%) done (elapsed 27.98 s, remaining 74.26 s).
30200000 of 110000000 tuples (27%) done (elapsed 28.08 s, remaining 74.20 s).
30300000 of 110000000 tuples (27%) done (elapsed 28.14 s, remaining 74.02 s).
30400000 of 110000000 tuples (27%) done (elapsed 28.24 s, remaining 73.95 s).
30500000 of 110000000 tuples (27%) done (elapsed 28.35 s, remaining 73.89 s).
30600000 of 110000000 tuples (27%) done (elapsed 28.45 s, remaining 73.82 s).
30700000 of 110000000 tuples (27%) done (elapsed 28.55 s, remaining 73.75 s).
30800000 of 110000000 tuples (28%) done (elapsed 28.61 s, remaining 73.58 s).
30900000 of 110000000 tuples (28%) done (elapsed 28.72 s, remaining 73.51 s).
31000000 of 110000000 tuples (28%) done (elapsed 28.82 s, remaining 73.45 s).
31100000 of 110000000 tuples (28%) done (elapsed 28.92 s, remaining 73.37 s).
31200000 of 110000000 tuples (28%) done (elapsed 29.02 s, remaining 73.30 s).
31300000 of 110000000 tuples (28%) done (elapsed 29.08 s, remaining 73.13 s).
31400000 of 110000000 tuples (28%) done (elapsed 29.19 s, remaining 73.07 s).
31500000 of 110000000 tuples (28%) done (elapsed 29.29 s, remaining 73.00 s).
31600000 of 110000000 tuples (28%) done (elapsed 29.39 s, remaining 72.92 s).
31700000 of 110000000 tuples (28%) done (elapsed 29.46 s, remaining 72.76 s).
31800000 of 110000000 tuples (28%) done (elapsed 29.55 s, remaining 72.68 s).
31900000 of 110000000 tuples (29%) done (elapsed 29.66 s, remaining 72.62 s).
32000000 of 110000000 tuples (29%) done (elapsed 29.76 s, remaining 72.55 s).
32100000 of 110000000 tuples (29%) done (elapsed 29.86 s, remaining 72.47 s).
32200000 of 110000000 tuples (29%) done (elapsed 29.93 s, remaining 72.31 s).
32300000 of 110000000 tuples (29%) done (elapsed 30.03 s, remaining 72.23 s).
32400000 of 110000000 tuples (29%) done (elapsed 30.13 s, remaining 72.17 s).
32500000 of 110000000 tuples (29%) done (elapsed 30.24 s, remaining 72.10 s).
32600000 of 110000000 tuples (29%) done (elapsed 30.30 s, remaining 71.93 s).
32700000 of 110000000 tuples (29%) done (elapsed 30.40 s, remaining 71.86 s).
32800000 of 110000000 tuples (29%) done (elapsed 30.50 s, remaining 71.78 s).
32900000 of 110000000 tuples (29%) done (elapsed 30.60 s, remaining 71.71 s).
33000000 of 110000000 tuples (30%) done (elapsed 30.71 s, remaining 71.65 s).
33100000 of 110000000 tuples (30%) done (elapsed 30.77 s, remaining 71.48 s).
33200000 of 110000000 tuples (30%) done (elapsed 30.87 s, remaining 71.41 s).
33300000 of 110000000 tuples (30%) done (elapsed 30.97 s, remaining 71.33 s).
33400000 of 110000000 tuples (30%) done (elapsed 31.07 s, remaining 71.25 s).
33500000 of 110000000 tuples (30%) done (elapsed 31.17 s, remaining 71.19 s).
33600000 of 110000000 tuples (30%) done (elapsed 31.24 s, remaining 71.03 s).
33700000 of 110000000 tuples (30%) done (elapsed 31.34 s, remaining 70.96 s).
33800000 of 110000000 tuples (30%) done (elapsed 31.44 s, remaining 70.88 s).
33900000 of 110000000 tuples (30%) done (elapsed 31.54 s, remaining 70.80 s).
34000000 of 110000000 tuples (30%) done (elapsed 31.60 s, remaining 70.64 s).
34100000 of 110000000 tuples (31%) done (elapsed 31.70 s, remaining 70.56 s).
34200000 of 110000000 tuples (31%) done (elapsed 31.81 s, remaining 70.51 s).
34300000 of 110000000 tuples (31%) done (elapsed 31.92 s, remaining 70.44 s).
34400000 of 110000000 tuples (31%) done (elapsed 32.02 s, remaining 70.37 s).
34500000 of 110000000 tuples (31%) done (elapsed 32.12 s, remaining 70.29 s).
34600000 of 110000000 tuples (31%) done (elapsed 32.18 s, remaining 70.13 s).
34700000 of 110000000 tuples (31%) done (elapsed 32.29 s, remaining 70.06 s).
34800000 of 110000000 tuples (31%) done (elapsed 32.40 s, remaining 70.01 s).
34900000 of 110000000 tuples (31%) done (elapsed 32.50 s, remaining 69.93 s).
35000000 of 110000000 tuples (31%) done (elapsed 32.56 s, remaining 69.78 s).
35100000 of 110000000 tuples (31%) done (elapsed 32.66 s, remaining 69.70 s).
35200000 of 110000000 tuples (32%) done (elapsed 32.77 s, remaining 69.63 s).
35300000 of 110000000 tuples (32%) done (elapsed 32.87 s, remaining 69.55 s).
35400000 of 110000000 tuples (32%) done (elapsed 32.98 s, remaining 69.50 s).
35500000 of 110000000 tuples (32%) done (elapsed 33.04 s, remaining 69.34 s).
35600000 of 110000000 tuples (32%) done (elapsed 33.14 s, remaining 69.27 s).
35700000 of 110000000 tuples (32%) done (elapsed 33.25 s, remaining 69.19 s).
35800000 of 110000000 tuples (32%) done (elapsed 33.35 s, remaining 69.12 s).
35900000 of 110000000 tuples (32%) done (elapsed 33.41 s, remaining 68.96 s).
36000000 of 110000000 tuples (32%) done (elapsed 33.52 s, remaining 68.90 s).
36100000 of 110000000 tuples (32%) done (elapsed 33.62 s, remaining 68.83 s).
36200000 of 110000000 tuples (32%) done (elapsed 33.73 s, remaining 68.76 s).
36300000 of 110000000 tuples (33%) done (elapsed 33.83 s, remaining 68.68 s).
36400000 of 110000000 tuples (33%) done (elapsed 33.89 s, remaining 68.53 s).
36500000 of 110000000 tuples (33%) done (elapsed 33.99 s, remaining 68.45 s).
36600000 of 110000000 tuples (33%) done (elapsed 34.09 s, remaining 68.37 s).
36700000 of 110000000 tuples (33%) done (elapsed 34.20 s, remaining 68.31 s).
36800000 of 110000000 tuples (33%) done (elapsed 34.31 s, remaining 68.24 s).
36900000 of 110000000 tuples (33%) done (elapsed 34.37 s, remaining 68.09 s).
37000000 of 110000000 tuples (33%) done (elapsed 34.47 s, remaining 68.01 s).
37100000 of 110000000 tuples (33%) done (elapsed 34.57 s, remaining 67.93 s).
37200000 of 110000000 tuples (33%) done (elapsed 34.67 s, remaining 67.86 s).
37300000 of 110000000 tuples (33%) done (elapsed 34.74 s, remaining 67.71 s).
37400000 of 110000000 tuples (34%) done (elapsed 34.85 s, remaining 67.65 s).
37500000 of 110000000 tuples (34%) done (elapsed 34.95 s, remaining 67.58 s).
37600000 of 110000000 tuples (34%) done (elapsed 35.06 s, remaining 67.50 s).
37700000 of 110000000 tuples (34%) done (elapsed 35.16 s, remaining 67.42 s).
37800000 of 110000000 tuples (34%) done (elapsed 35.22 s, remaining 67.27 s).
37900000 of 110000000 tuples (34%) done (elapsed 35.32 s, remaining 67.20 s).
38000000 of 110000000 tuples (34%) done (elapsed 35.43 s, remaining 67.14 s).
38100000 of 110000000 tuples (34%) done (elapsed 35.53 s, remaining 67.06 s).
38200000 of 110000000 tuples (34%) done (elapsed 35.64 s, remaining 66.98 s).
38300000 of 110000000 tuples (34%) done (elapsed 35.70 s, remaining 66.83 s).
38400000 of 110000000 tuples (34%) done (elapsed 35.80 s, remaining 66.76 s).
38500000 of 110000000 tuples (35%) done (elapsed 35.90 s, remaining 66.68 s).
38600000 of 110000000 tuples (35%) done (elapsed 36.01 s, remaining 66.61 s).
38700000 of 110000000 tuples (35%) done (elapsed 36.08 s, remaining 66.47 s).
38800000 of 110000000 tuples (35%) done (elapsed 36.18 s, remaining 66.39 s).
38900000 of 110000000 tuples (35%) done (elapsed 36.28 s, remaining 66.31 s).
39000000 of 110000000 tuples (35%) done (elapsed 36.38 s, remaining 66.23 s).
39100000 of 110000000 tuples (35%) done (elapsed 36.48 s, remaining 66.16 s).
39200000 of 110000000 tuples (35%) done (elapsed 36.55 s, remaining 66.01 s).
39300000 of 110000000 tuples (35%) done (elapsed 36.66 s, remaining 65.95 s).
39400000 of 110000000 tuples (35%) done (elapsed 36.76 s, remaining 65.87 s).
39500000 of 110000000 tuples (35%) done (elapsed 36.86 s, remaining 65.79 s).
39600000 of 110000000 tuples (36%) done (elapsed 36.96 s, remaining 65.71 s).
39700000 of 110000000 tuples (36%) done (elapsed 37.03 s, remaining 65.57 s).
39800000 of 110000000 tuples (36%) done (elapsed 37.13 s, remaining 65.49 s).
39900000 of 110000000 tuples (36%) done (elapsed 37.24 s, remaining 65.43 s).
40000000 of 110000000 tuples (36%) done (elapsed 37.34 s, remaining 65.35 s).
40100000 of 110000000 tuples (36%) done (elapsed 37.41 s, remaining 65.20 s).
40200000 of 110000000 tuples (36%) done (elapsed 37.51 s, remaining 65.13 s).
40300000 of 110000000 tuples (36%) done (elapsed 37.61 s, remaining 65.05 s).
40400000 of 110000000 tuples (36%) done (elapsed 37.71 s, remaining 64.97 s).
40500000 of 110000000 tuples (36%) done (elapsed 37.82 s, remaining 64.90 s).
40600000 of 110000000 tuples (36%) done (elapsed 37.88 s, remaining 64.76 s).
40700000 of 110000000 tuples (37%) done (elapsed 37.99 s, remaining 64.68 s).
40800000 of 110000000 tuples (37%) done (elapsed 38.09 s, remaining 64.60 s).
40900000 of 110000000 tuples (37%) done (elapsed 38.19 s, remaining 64.52 s).
41000000 of 110000000 tuples (37%) done (elapsed 38.29 s, remaining 64.44 s).
41100000 of 110000000 tuples (37%) done (elapsed 38.36 s, remaining 64.30 s).
41200000 of 110000000 tuples (37%) done (elapsed 38.46 s, remaining 64.23 s).
41300000 of 110000000 tuples (37%) done (elapsed 38.57 s, remaining 64.16 s).
41400000 of 110000000 tuples (37%) done (elapsed 38.67 s, remaining 64.08 s).
41500000 of 110000000 tuples (37%) done (elapsed 38.73 s, remaining 63.93 s).
41600000 of 110000000 tuples (37%) done (elapsed 38.83 s, remaining 63.85 s).
41700000 of 110000000 tuples (37%) done (elapsed 38.94 s, remaining 63.77 s).
41800000 of 110000000 tuples (38%) done (elapsed 39.04 s, remaining 63.69 s).
41900000 of 110000000 tuples (38%) done (elapsed 39.15 s, remaining 63.63 s).
42000000 of 110000000 tuples (38%) done (elapsed 39.21 s, remaining 63.49 s).
42100000 of 110000000 tuples (38%) done (elapsed 39.31 s, remaining 63.41 s).
42200000 of 110000000 tuples (38%) done (elapsed 39.42 s, remaining 63.33 s).
42300000 of 110000000 tuples (38%) done (elapsed 39.52 s, remaining 63.25 s).
42400000 of 110000000 tuples (38%) done (elapsed 39.58 s, remaining 63.10 s).
42500000 of 110000000 tuples (38%) done (elapsed 39.68 s, remaining 63.02 s).
42600000 of 110000000 tuples (38%) done (elapsed 39.79 s, remaining 62.95 s).
42700000 of 110000000 tuples (38%) done (elapsed 39.89 s, remaining 62.88 s).
42800000 of 110000000 tuples (38%) done (elapsed 40.00 s, remaining 62.80 s).
42900000 of 110000000 tuples (39%) done (elapsed 40.06 s, remaining 62.66 s).
43000000 of 110000000 tuples (39%) done (elapsed 40.16 s, remaining 62.58 s).
43100000 of 110000000 tuples (39%) done (elapsed 40.26 s, remaining 62.49 s).
43200000 of 110000000 tuples (39%) done (elapsed 40.36 s, remaining 62.41 s).
43300000 of 110000000 tuples (39%) done (elapsed 40.43 s, remaining 62.27 s).
43400000 of 110000000 tuples (39%) done (elapsed 40.54 s, remaining 62.21 s).
43500000 of 110000000 tuples (39%) done (elapsed 40.64 s, remaining 62.13 s).
43600000 of 110000000 tuples (39%) done (elapsed 40.74 s, remaining 62.05 s).
43700000 of 110000000 tuples (39%) done (elapsed 40.85 s, remaining 61.97 s).
43800000 of 110000000 tuples (39%) done (elapsed 40.91 s, remaining 61.83 s).
43900000 of 110000000 tuples (39%) done (elapsed 41.01 s, remaining 61.75 s).
44000000 of 110000000 tuples (40%) done (elapsed 41.11 s, remaining 61.67 s).
44100000 of 110000000 tuples (40%) done (elapsed 41.22 s, remaining 61.60 s).
44200000 of 110000000 tuples (40%) done (elapsed 41.29 s, remaining 61.46 s).
44300000 of 110000000 tuples (40%) done (elapsed 41.39 s, remaining 61.38 s).
44400000 of 110000000 tuples (40%) done (elapsed 41.49 s, remaining 61.30 s).
44500000 of 110000000 tuples (40%) done (elapsed 41.59 s, remaining 61.22 s).
44600000 of 110000000 tuples (40%) done (elapsed 41.69 s, remaining 61.14 s).
44700000 of 110000000 tuples (40%) done (elapsed 41.76 s, remaining 61.00 s).
44800000 of 110000000 tuples (40%) done (elapsed 41.86 s, remaining 60.92 s).
44900000 of 110000000 tuples (40%) done (elapsed 41.97 s, remaining 60.85 s).
45000000 of 110000000 tuples (40%) done (elapsed 42.07 s, remaining 60.77 s).
45100000 of 110000000 tuples (41%) done (elapsed 42.17 s, remaining 60.69 s).
45200000 of 110000000 tuples (41%) done (elapsed 42.24 s, remaining 60.55 s).
45300000 of 110000000 tuples (41%) done (elapsed 42.34 s, remaining 60.47 s).
45400000 of 110000000 tuples (41%) done (elapsed 42.44 s, remaining 60.39 s).
45500000 of 110000000 tuples (41%) done (elapsed 42.54 s, remaining 60.30 s).
45600000 of 110000000 tuples (41%) done (elapsed 42.60 s, remaining 60.17 s).
45700000 of 110000000 tuples (41%) done (elapsed 42.71 s, remaining 60.10 s).
45800000 of 110000000 tuples (41%) done (elapsed 42.82 s, remaining 60.02 s).
45900000 of 110000000 tuples (41%) done (elapsed 42.92 s, remaining 59.93 s).
46000000 of 110000000 tuples (41%) done (elapsed 43.02 s, remaining 59.85 s).
46100000 of 110000000 tuples (41%) done (elapsed 43.08 s, remaining 59.72 s).
46200000 of 110000000 tuples (42%) done (elapsed 43.18 s, remaining 59.64 s).
46300000 of 110000000 tuples (42%) done (elapsed 43.29 s, remaining 59.55 s).
46400000 of 110000000 tuples (42%) done (elapsed 43.40 s, remaining 59.48 s).
46500000 of 110000000 tuples (42%) done (elapsed 43.46 s, remaining 59.35 s).
46600000 of 110000000 tuples (42%) done (elapsed 43.56 s, remaining 59.27 s).
46700000 of 110000000 tuples (42%) done (elapsed 43.66 s, remaining 59.18 s).
46800000 of 110000000 tuples (42%) done (elapsed 43.77 s, remaining 59.10 s).
46900000 of 110000000 tuples (42%) done (elapsed 43.87 s, remaining 59.02 s).
47000000 of 110000000 tuples (42%) done (elapsed 43.93 s, remaining 58.88 s).
47100000 of 110000000 tuples (42%) done (elapsed 44.03 s, remaining 58.80 s).
47200000 of 110000000 tuples (42%) done (elapsed 44.14 s, remaining 58.73 s).
47300000 of 110000000 tuples (43%) done (elapsed 44.25 s, remaining 58.65 s).
47400000 of 110000000 tuples (43%) done (elapsed 44.31 s, remaining 58.52 s).
47500000 of 110000000 tuples (43%) done (elapsed 44.41 s, remaining 58.44 s).
47600000 of 110000000 tuples (43%) done (elapsed 44.51 s, remaining 58.35 s).
47700000 of 110000000 tuples (43%) done (elapsed 44.61 s, remaining 58.27 s).
47800000 of 110000000 tuples (43%) done (elapsed 44.72 s, remaining 58.19 s).
47900000 of 110000000 tuples (43%) done (elapsed 44.79 s, remaining 58.06 s).
48000000 of 110000000 tuples (43%) done (elapsed 44.90 s, remaining 57.99 s).
48100000 of 110000000 tuples (43%) done (elapsed 45.00 s, remaining 57.90 s).
48200000 of 110000000 tuples (43%) done (elapsed 45.10 s, remaining 57.82 s).
48300000 of 110000000 tuples (43%) done (elapsed 45.20 s, remaining 57.73 s).
48400000 of 110000000 tuples (44%) done (elapsed 45.26 s, remaining 57.60 s).
48500000 of 110000000 tuples (44%) done (elapsed 45.36 s, remaining 57.52 s).
48600000 of 110000000 tuples (44%) done (elapsed 45.46 s, remaining 57.44 s).
48700000 of 110000000 tuples (44%) done (elapsed 45.57 s, remaining 57.36 s).
48800000 of 110000000 tuples (44%) done (elapsed 45.63 s, remaining 57.23 s).
48900000 of 110000000 tuples (44%) done (elapsed 45.73 s, remaining 57.14 s).
49000000 of 110000000 tuples (44%) done (elapsed 45.83 s, remaining 57.06 s).
49100000 of 110000000 tuples (44%) done (elapsed 45.93 s, remaining 56.97 s).
49200000 of 110000000 tuples (44%) done (elapsed 46.03 s, remaining 56.88 s).
49300000 of 110000000 tuples (44%) done (elapsed 46.09 s, remaining 56.75 s).
49400000 of 110000000 tuples (44%) done (elapsed 46.20 s, remaining 56.67 s).
49500000 of 110000000 tuples (45%) done (elapsed 46.30 s, remaining 56.59 s).
49600000 of 110000000 tuples (45%) done (elapsed 46.40 s, remaining 56.51 s).
49700000 of 110000000 tuples (45%) done (elapsed 46.50 s, remaining 56.42 s).
49800000 of 110000000 tuples (45%) done (elapsed 46.56 s, remaining 56.29 s).
49900000 of 110000000 tuples (45%) done (elapsed 46.66 s, remaining 56.20 s).
50000000 of 110000000 tuples (45%) done (elapsed 46.76 s, remaining 56.11 s).
50100000 of 110000000 tuples (45%) done (elapsed 46.87 s, remaining 56.04 s).
50200000 of 110000000 tuples (45%) done (elapsed 46.93 s, remaining 55.91 s).
50300000 of 110000000 tuples (45%) done (elapsed 47.03 s, remaining 55.82 s).
50400000 of 110000000 tuples (45%) done (elapsed 47.13 s, remaining 55.74 s).
50500000 of 110000000 tuples (45%) done (elapsed 47.23 s, remaining 55.65 s).
50600000 of 110000000 tuples (46%) done (elapsed 47.33 s, remaining 55.56 s).
50700000 of 110000000 tuples (46%) done (elapsed 47.39 s, remaining 55.43 s).
50800000 of 110000000 tuples (46%) done (elapsed 47.50 s, remaining 55.35 s).
50900000 of 110000000 tuples (46%) done (elapsed 47.60 s, remaining 55.27 s).
51000000 of 110000000 tuples (46%) done (elapsed 47.70 s, remaining 55.19 s).
51100000 of 110000000 tuples (46%) done (elapsed 47.77 s, remaining 55.06 s).
51200000 of 110000000 tuples (46%) done (elapsed 47.87 s, remaining 54.97 s).
51300000 of 110000000 tuples (46%) done (elapsed 47.97 s, remaining 54.88 s).
51400000 of 110000000 tuples (46%) done (elapsed 48.07 s, remaining 54.80 s).
51500000 of 110000000 tuples (46%) done (elapsed 48.17 s, remaining 54.72 s).
51600000 of 110000000 tuples (46%) done (elapsed 48.23 s, remaining 54.59 s).
51700000 of 110000000 tuples (47%) done (elapsed 48.34 s, remaining 54.51 s).
51800000 of 110000000 tuples (47%) done (elapsed 48.44 s, remaining 54.42 s).
51900000 of 110000000 tuples (47%) done (elapsed 48.54 s, remaining 54.33 s).
52000000 of 110000000 tuples (47%) done (elapsed 48.60 s, remaining 54.21 s).
52100000 of 110000000 tuples (47%) done (elapsed 48.70 s, remaining 54.12 s).
52200000 of 110000000 tuples (47%) done (elapsed 48.80 s, remaining 54.03 s).
52300000 of 110000000 tuples (47%) done (elapsed 48.90 s, remaining 53.95 s).
52400000 of 110000000 tuples (47%) done (elapsed 49.01 s, remaining 53.87 s).
52500000 of 110000000 tuples (47%) done (elapsed 49.07 s, remaining 53.74 s).
52600000 of 110000000 tuples (47%) done (elapsed 49.17 s, remaining 53.65 s).
52700000 of 110000000 tuples (47%) done (elapsed 49.27 s, remaining 53.57 s).
52800000 of 110000000 tuples (48%) done (elapsed 49.37 s, remaining 53.48 s).
52900000 of 110000000 tuples (48%) done (elapsed 49.43 s, remaining 53.35 s).
53000000 of 110000000 tuples (48%) done (elapsed 49.54 s, remaining 53.27 s).
53100000 of 110000000 tuples (48%) done (elapsed 49.64 s, remaining 53.19 s).
53200000 of 110000000 tuples (48%) done (elapsed 49.74 s, remaining 53.10 s).
53300000 of 110000000 tuples (48%) done (elapsed 49.84 s, remaining 53.02 s).
53400000 of 110000000 tuples (48%) done (elapsed 49.90 s, remaining 52.89 s).
53500000 of 110000000 tuples (48%) done (elapsed 50.00 s, remaining 52.80 s).
53600000 of 110000000 tuples (48%) done (elapsed 50.11 s, remaining 52.72 s).
53700000 of 110000000 tuples (48%) done (elapsed 50.21 s, remaining 52.64 s).
53800000 of 110000000 tuples (48%) done (elapsed 50.31 s, remaining 52.55 s).
53900000 of 110000000 tuples (49%) done (elapsed 50.37 s, remaining 52.43 s).
54000000 of 110000000 tuples (49%) done (elapsed 50.47 s, remaining 52.34 s).
54100000 of 110000000 tuples (49%) done (elapsed 50.57 s, remaining 52.25 s).
54200000 of 110000000 tuples (49%) done (elapsed 50.68 s, remaining 52.18 s).
54300000 of 110000000 tuples (49%) done (elapsed 50.74 s, remaining 52.05 s).
54400000 of 110000000 tuples (49%) done (elapsed 50.84 s, remaining 51.96 s).
54500000 of 110000000 tuples (49%) done (elapsed 50.94 s, remaining 51.88 s).
54600000 of 110000000 tuples (49%) done (elapsed 51.04 s, remaining 51.79 s).
54700000 of 110000000 tuples (49%) done (elapsed 51.14 s, remaining 51.70 s).
54800000 of 110000000 tuples (49%) done (elapsed 51.21 s, remaining 51.58 s).
54900000 of 110000000 tuples (49%) done (elapsed 51.31 s, remaining 51.50 s).
55000000 of 110000000 tuples (50%) done (elapsed 51.41 s, remaining 51.41 s).
55100000 of 110000000 tuples (50%) done (elapsed 51.51 s, remaining 51.32 s).
55200000 of 110000000 tuples (50%) done (elapsed 51.57 s, remaining 51.20 s).
55300000 of 110000000 tuples (50%) done (elapsed 51.67 s, remaining 51.11 s).
55400000 of 110000000 tuples (50%) done (elapsed 51.78 s, remaining 51.03 s).
55500000 of 110000000 tuples (50%) done (elapsed 51.88 s, remaining 50.95 s).
55600000 of 110000000 tuples (50%) done (elapsed 51.98 s, remaining 50.86 s).
55700000 of 110000000 tuples (50%) done (elapsed 52.04 s, remaining 50.73 s).
55800000 of 110000000 tuples (50%) done (elapsed 52.14 s, remaining 50.65 s).
55900000 of 110000000 tuples (50%) done (elapsed 52.24 s, remaining 50.56 s).
56000000 of 110000000 tuples (50%) done (elapsed 52.35 s, remaining 50.48 s).
56100000 of 110000000 tuples (51%) done (elapsed 52.41 s, remaining 50.36 s).
56200000 of 110000000 tuples (51%) done (elapsed 52.51 s, remaining 50.27 s).
56300000 of 110000000 tuples (51%) done (elapsed 52.61 s, remaining 50.18 s).
56400000 of 110000000 tuples (51%) done (elapsed 52.71 s, remaining 50.09 s).
56500000 of 110000000 tuples (51%) done (elapsed 52.81 s, remaining 50.01 s).
56600000 of 110000000 tuples (51%) done (elapsed 52.88 s, remaining 49.89 s).
56700000 of 110000000 tuples (51%) done (elapsed 52.98 s, remaining 49.80 s).
56800000 of 110000000 tuples (51%) done (elapsed 53.08 s, remaining 49.72 s).
56900000 of 110000000 tuples (51%) done (elapsed 53.18 s, remaining 49.63 s).
57000000 of 110000000 tuples (51%) done (elapsed 53.28 s, remaining 49.54 s).
57100000 of 110000000 tuples (51%) done (elapsed 53.35 s, remaining 49.43 s).
57200000 of 110000000 tuples (52%) done (elapsed 53.45 s, remaining 49.34 s).
57300000 of 110000000 tuples (52%) done (elapsed 53.55 s, remaining 49.25 s).
57400000 of 110000000 tuples (52%) done (elapsed 53.65 s, remaining 49.16 s).
57500000 of 110000000 tuples (52%) done (elapsed 53.71 s, remaining 49.04 s).
57600000 of 110000000 tuples (52%) done (elapsed 53.82 s, remaining 48.96 s).
57700000 of 110000000 tuples (52%) done (elapsed 53.92 s, remaining 48.87 s).
57800000 of 110000000 tuples (52%) done (elapsed 54.02 s, remaining 48.79 s).
57900000 of 110000000 tuples (52%) done (elapsed 54.12 s, remaining 48.70 s).
58000000 of 110000000 tuples (52%) done (elapsed 54.19 s, remaining 48.58 s).
58100000 of 110000000 tuples (52%) done (elapsed 54.29 s, remaining 48.50 s).
58200000 of 110000000 tuples (52%) done (elapsed 54.39 s, remaining 48.41 s).
58300000 of 110000000 tuples (53%) done (elapsed 54.49 s, remaining 48.32 s).
58400000 of 110000000 tuples (53%) done (elapsed 54.56 s, remaining 48.20 s).
58500000 of 110000000 tuples (53%) done (elapsed 54.66 s, remaining 48.12 s).
58600000 of 110000000 tuples (53%) done (elapsed 54.76 s, remaining 48.03 s).
58700000 of 110000000 tuples (53%) done (elapsed 54.86 s, remaining 47.94 s).
58800000 of 110000000 tuples (53%) done (elapsed 54.97 s, remaining 47.86 s).
58900000 of 110000000 tuples (53%) done (elapsed 55.03 s, remaining 47.74 s).
59000000 of 110000000 tuples (53%) done (elapsed 55.13 s, remaining 47.66 s).
59100000 of 110000000 tuples (53%) done (elapsed 55.23 s, remaining 47.57 s).
59200000 of 110000000 tuples (53%) done (elapsed 55.33 s, remaining 47.48 s).
59300000 of 110000000 tuples (53%) done (elapsed 55.44 s, remaining 47.40 s).
59400000 of 110000000 tuples (54%) done (elapsed 55.50 s, remaining 47.28 s).
59500000 of 110000000 tuples (54%) done (elapsed 55.60 s, remaining 47.19 s).
59600000 of 110000000 tuples (54%) done (elapsed 55.70 s, remaining 47.11 s).
59700000 of 110000000 tuples (54%) done (elapsed 55.81 s, remaining 47.02 s).
59800000 of 110000000 tuples (54%) done (elapsed 55.87 s, remaining 46.90 s).
59900000 of 110000000 tuples (54%) done (elapsed 55.97 s, remaining 46.81 s).
60000000 of 110000000 tuples (54%) done (elapsed 56.07 s, remaining 46.73 s).
60100000 of 110000000 tuples (54%) done (elapsed 56.18 s, remaining 46.64 s).
60200000 of 110000000 tuples (54%) done (elapsed 56.28 s, remaining 46.56 s).
60300000 of 110000000 tuples (54%) done (elapsed 56.34 s, remaining 46.44 s).
60400000 of 110000000 tuples (54%) done (elapsed 56.44 s, remaining 46.35 s).
60500000 of 110000000 tuples (55%) done (elapsed 56.55 s, remaining 46.27 s).
60600000 of 110000000 tuples (55%) done (elapsed 56.65 s, remaining 46.18 s).
60700000 of 110000000 tuples (55%) done (elapsed 56.71 s, remaining 46.06 s).
60800000 of 110000000 tuples (55%) done (elapsed 56.81 s, remaining 45.97 s).
60900000 of 110000000 tuples (55%) done (elapsed 56.92 s, remaining 45.89 s).
61000000 of 110000000 tuples (55%) done (elapsed 57.02 s, remaining 45.80 s).
61100000 of 110000000 tuples (55%) done (elapsed 57.12 s, remaining 45.71 s).
61200000 of 110000000 tuples (55%) done (elapsed 57.18 s, remaining 45.59 s).
61300000 of 110000000 tuples (55%) done (elapsed 57.29 s, remaining 45.51 s).
61400000 of 110000000 tuples (55%) done (elapsed 57.39 s, remaining 45.43 s).
61500000 of 110000000 tuples (55%) done (elapsed 57.49 s, remaining 45.34 s).
61600000 of 110000000 tuples (56%) done (elapsed 57.55 s, remaining 45.22 s).
61700000 of 110000000 tuples (56%) done (elapsed 57.65 s, remaining 45.13 s).
61800000 of 110000000 tuples (56%) done (elapsed 57.76 s, remaining 45.05 s).
61900000 of 110000000 tuples (56%) done (elapsed 57.86 s, remaining 44.96 s).
62000000 of 110000000 tuples (56%) done (elapsed 57.96 s, remaining 44.87 s).
62100000 of 110000000 tuples (56%) done (elapsed 58.02 s, remaining 44.75 s).
62200000 of 110000000 tuples (56%) done (elapsed 58.13 s, remaining 44.67 s).
62300000 of 110000000 tuples (56%) done (elapsed 58.23 s, remaining 44.58 s).
62400000 of 110000000 tuples (56%) done (elapsed 58.33 s, remaining 44.50 s).
62500000 of 110000000 tuples (56%) done (elapsed 58.43 s, remaining 44.41 s).
62600000 of 110000000 tuples (56%) done (elapsed 58.49 s, remaining 44.29 s).
62700000 of 110000000 tuples (57%) done (elapsed 58.60 s, remaining 44.21 s).
62800000 of 110000000 tuples (57%) done (elapsed 58.70 s, remaining 44.12 s).
62900000 of 110000000 tuples (57%) done (elapsed 58.80 s, remaining 44.03 s).
63000000 of 110000000 tuples (57%) done (elapsed 58.86 s, remaining 43.91 s).
63100000 of 110000000 tuples (57%) done (elapsed 58.96 s, remaining 43.82 s).
63200000 of 110000000 tuples (57%) done (elapsed 59.07 s, remaining 43.74 s).
63300000 of 110000000 tuples (57%) done (elapsed 59.17 s, remaining 43.65 s).
63400000 of 110000000 tuples (57%) done (elapsed 59.27 s, remaining 43.56 s).
63500000 of 110000000 tuples (57%) done (elapsed 59.33 s, remaining 43.45 s).
63600000 of 110000000 tuples (57%) done (elapsed 59.43 s, remaining 43.36 s).
63700000 of 110000000 tuples (57%) done (elapsed 59.54 s, remaining 43.28 s).
63800000 of 110000000 tuples (58%) done (elapsed 59.64 s, remaining 43.19 s).
63900000 of 110000000 tuples (58%) done (elapsed 59.70 s, remaining 43.07 s).
64000000 of 110000000 tuples (58%) done (elapsed 59.80 s, remaining 42.98 s).
64100000 of 110000000 tuples (58%) done (elapsed 59.91 s, remaining 42.90 s).
64200000 of 110000000 tuples (58%) done (elapsed 60.01 s, remaining 42.81 s).
64300000 of 110000000 tuples (58%) done (elapsed 60.11 s, remaining 42.72 s).
64400000 of 110000000 tuples (58%) done (elapsed 60.17 s, remaining 42.61 s).
64500000 of 110000000 tuples (58%) done (elapsed 60.27 s, remaining 42.52 s).
64600000 of 110000000 tuples (58%) done (elapsed 60.38 s, remaining 42.43 s).
64700000 of 110000000 tuples (58%) done (elapsed 60.48 s, remaining 42.35 s).
64800000 of 110000000 tuples (58%) done (elapsed 60.54 s, remaining 42.23 s).
64900000 of 110000000 tuples (59%) done (elapsed 60.64 s, remaining 42.14 s).
65000000 of 110000000 tuples (59%) done (elapsed 60.74 s, remaining 42.05 s).
65100000 of 110000000 tuples (59%) done (elapsed 60.85 s, remaining 41.97 s).
65200000 of 110000000 tuples (59%) done (elapsed 60.95 s, remaining 41.88 s).
65300000 of 110000000 tuples (59%) done (elapsed 61.05 s, remaining 41.79 s).
65400000 of 110000000 tuples (59%) done (elapsed 61.12 s, remaining 41.68 s).
65500000 of 110000000 tuples (59%) done (elapsed 61.22 s, remaining 41.59 s).
65600000 of 110000000 tuples (59%) done (elapsed 61.32 s, remaining 41.50 s).
65700000 of 110000000 tuples (59%) done (elapsed 61.42 s, remaining 41.42 s).
65800000 of 110000000 tuples (59%) done (elapsed 61.49 s, remaining 41.30 s).
65900000 of 110000000 tuples (59%) done (elapsed 61.59 s, remaining 41.21 s).
66000000 of 110000000 tuples (60%) done (elapsed 61.68 s, remaining 41.12 s).
66100000 of 110000000 tuples (60%) done (elapsed 61.79 s, remaining 41.04 s).
66200000 of 110000000 tuples (60%) done (elapsed 61.89 s, remaining 40.95 s).
66300000 of 110000000 tuples (60%) done (elapsed 61.96 s, remaining 40.84 s).
66400000 of 110000000 tuples (60%) done (elapsed 62.05 s, remaining 40.75 s).
66500000 of 110000000 tuples (60%) done (elapsed 62.15 s, remaining 40.66 s).
66600000 of 110000000 tuples (60%) done (elapsed 62.26 s, remaining 40.57 s).
66700000 of 110000000 tuples (60%) done (elapsed 62.32 s, remaining 40.46 s).
66800000 of 110000000 tuples (60%) done (elapsed 62.42 s, remaining 40.37 s).
66900000 of 110000000 tuples (60%) done (elapsed 62.52 s, remaining 40.28 s).
67000000 of 110000000 tuples (60%) done (elapsed 62.63 s, remaining 40.19 s).
67100000 of 110000000 tuples (61%) done (elapsed 62.73 s, remaining 40.11 s).
67200000 of 110000000 tuples (61%) done (elapsed 62.79 s, remaining 39.99 s).
67300000 of 110000000 tuples (61%) done (elapsed 62.89 s, remaining 39.90 s).
67400000 of 110000000 tuples (61%) done (elapsed 62.99 s, remaining 39.81 s).
67500000 of 110000000 tuples (61%) done (elapsed 63.10 s, remaining 39.73 s).
67600000 of 110000000 tuples (61%) done (elapsed 63.16 s, remaining 39.62 s).
67700000 of 110000000 tuples (61%) done (elapsed 63.26 s, remaining 39.53 s).
67800000 of 110000000 tuples (61%) done (elapsed 63.36 s, remaining 39.44 s).
67900000 of 110000000 tuples (61%) done (elapsed 63.46 s, remaining 39.35 s).
68000000 of 110000000 tuples (61%) done (elapsed 63.57 s, remaining 39.26 s).
68100000 of 110000000 tuples (61%) done (elapsed 63.63 s, remaining 39.15 s).
68200000 of 110000000 tuples (62%) done (elapsed 63.73 s, remaining 39.06 s).
68300000 of 110000000 tuples (62%) done (elapsed 63.83 s, remaining 38.97 s).
68400000 of 110000000 tuples (62%) done (elapsed 63.93 s, remaining 38.88 s).
68500000 of 110000000 tuples (62%) done (elapsed 64.04 s, remaining 38.80 s).
68600000 of 110000000 tuples (62%) done (elapsed 64.10 s, remaining 38.68 s).
68700000 of 110000000 tuples (62%) done (elapsed 64.20 s, remaining 38.59 s).
68800000 of 110000000 tuples (62%) done (elapsed 64.30 s, remaining 38.50 s).
68900000 of 110000000 tuples (62%) done (elapsed 64.40 s, remaining 38.41 s).
69000000 of 110000000 tuples (62%) done (elapsed 64.47 s, remaining 38.31 s).
69100000 of 110000000 tuples (62%) done (elapsed 64.57 s, remaining 38.22 s).
69200000 of 110000000 tuples (62%) done (elapsed 64.67 s, remaining 38.13 s).
69300000 of 110000000 tuples (63%) done (elapsed 64.77 s, remaining 38.04 s).
69400000 of 110000000 tuples (63%) done (elapsed 64.87 s, remaining 37.95 s).
69500000 of 110000000 tuples (63%) done (elapsed 64.93 s, remaining 37.84 s).
69600000 of 110000000 tuples (63%) done (elapsed 65.04 s, remaining 37.75 s).
69700000 of 110000000 tuples (63%) done (elapsed 65.14 s, remaining 37.66 s).
69800000 of 110000000 tuples (63%) done (elapsed 65.24 s, remaining 37.57 s).
69900000 of 110000000 tuples (63%) done (elapsed 65.30 s, remaining 37.46 s).
70000000 of 110000000 tuples (63%) done (elapsed 65.40 s, remaining 37.37 s).
70100000 of 110000000 tuples (63%) done (elapsed 65.51 s, remaining 37.29 s).
70200000 of 110000000 tuples (63%) done (elapsed 65.61 s, remaining 37.20 s).
70300000 of 110000000 tuples (63%) done (elapsed 65.71 s, remaining 37.11 s).
70400000 of 110000000 tuples (64%) done (elapsed 65.77 s, remaining 36.99 s).
70500000 of 110000000 tuples (64%) done (elapsed 65.87 s, remaining 36.91 s).
70600000 of 110000000 tuples (64%) done (elapsed 65.97 s, remaining 36.82 s).
70700000 of 110000000 tuples (64%) done (elapsed 66.07 s, remaining 36.73 s).
70800000 of 110000000 tuples (64%) done (elapsed 66.17 s, remaining 36.64 s).
70900000 of 110000000 tuples (64%) done (elapsed 66.24 s, remaining 36.53 s).
71000000 of 110000000 tuples (64%) done (elapsed 66.34 s, remaining 36.44 s).
71100000 of 110000000 tuples (64%) done (elapsed 66.44 s, remaining 36.35 s).
71200000 of 110000000 tuples (64%) done (elapsed 66.54 s, remaining 36.26 s).
71300000 of 110000000 tuples (64%) done (elapsed 66.64 s, remaining 36.17 s).
71400000 of 110000000 tuples (64%) done (elapsed 66.71 s, remaining 36.06 s).
71500000 of 110000000 tuples (65%) done (elapsed 66.81 s, remaining 35.97 s).
71600000 of 110000000 tuples (65%) done (elapsed 66.91 s, remaining 35.89 s).
71700000 of 110000000 tuples (65%) done (elapsed 67.01 s, remaining 35.80 s).
71800000 of 110000000 tuples (65%) done (elapsed 67.11 s, remaining 35.71 s).
71900000 of 110000000 tuples (65%) done (elapsed 67.18 s, remaining 35.60 s).
72000000 of 110000000 tuples (65%) done (elapsed 67.28 s, remaining 35.51 s).
72100000 of 110000000 tuples (65%) done (elapsed 67.38 s, remaining 35.42 s).
72200000 of 110000000 tuples (65%) done (elapsed 67.48 s, remaining 35.33 s).
72300000 of 110000000 tuples (65%) done (elapsed 67.55 s, remaining 35.22 s).
72400000 of 110000000 tuples (65%) done (elapsed 67.64 s, remaining 35.13 s).
72500000 of 110000000 tuples (65%) done (elapsed 67.74 s, remaining 35.04 s).
72600000 of 110000000 tuples (66%) done (elapsed 67.85 s, remaining 34.95 s).
72700000 of 110000000 tuples (66%) done (elapsed 67.95 s, remaining 34.86 s).
72800000 of 110000000 tuples (66%) done (elapsed 68.01 s, remaining 34.75 s).
72900000 of 110000000 tuples (66%) done (elapsed 68.11 s, remaining 34.66 s).
73000000 of 110000000 tuples (66%) done (elapsed 68.21 s, remaining 34.57 s).
73100000 of 110000000 tuples (66%) done (elapsed 68.32 s, remaining 34.49 s).
73200000 of 110000000 tuples (66%) done (elapsed 68.38 s, remaining 34.38 s).
73300000 of 110000000 tuples (66%) done (elapsed 68.48 s, remaining 34.29 s).
73400000 of 110000000 tuples (66%) done (elapsed 68.58 s, remaining 34.20 s).
73500000 of 110000000 tuples (66%) done (elapsed 68.68 s, remaining 34.11 s).
73600000 of 110000000 tuples (66%) done (elapsed 68.78 s, remaining 34.02 s).
73700000 of 110000000 tuples (67%) done (elapsed 68.85 s, remaining 33.91 s).
73800000 of 110000000 tuples (67%) done (elapsed 68.95 s, remaining 33.82 s).
73900000 of 110000000 tuples (67%) done (elapsed 69.05 s, remaining 33.73 s).
74000000 of 110000000 tuples (67%) done (elapsed 69.15 s, remaining 33.64 s).
74100000 of 110000000 tuples (67%) done (elapsed 69.25 s, remaining 33.55 s).
74200000 of 110000000 tuples (67%) done (elapsed 69.31 s, remaining 33.44 s).
74300000 of 110000000 tuples (67%) done (elapsed 69.42 s, remaining 33.35 s).
74400000 of 110000000 tuples (67%) done (elapsed 69.52 s, remaining 33.27 s).
74500000 of 110000000 tuples (67%) done (elapsed 69.62 s, remaining 33.18 s).
74600000 of 110000000 tuples (67%) done (elapsed 69.68 s, remaining 33.07 s).
74700000 of 110000000 tuples (67%) done (elapsed 69.78 s, remaining 32.98 s).
74800000 of 110000000 tuples (68%) done (elapsed 69.88 s, remaining 32.89 s).
74900000 of 110000000 tuples (68%) done (elapsed 69.99 s, remaining 32.80 s).
75000000 of 110000000 tuples (68%) done (elapsed 70.09 s, remaining 32.71 s).
75100000 of 110000000 tuples (68%) done (elapsed 70.15 s, remaining 32.60 s).
75200000 of 110000000 tuples (68%) done (elapsed 70.25 s, remaining 32.51 s).
75300000 of 110000000 tuples (68%) done (elapsed 70.35 s, remaining 32.42 s).
75400000 of 110000000 tuples (68%) done (elapsed 70.45 s, remaining 32.33 s).
75500000 of 110000000 tuples (68%) done (elapsed 70.51 s, remaining 32.22 s).
75600000 of 110000000 tuples (68%) done (elapsed 70.62 s, remaining 32.14 s).
75700000 of 110000000 tuples (68%) done (elapsed 70.72 s, remaining 32.04 s).
75800000 of 110000000 tuples (68%) done (elapsed 70.82 s, remaining 31.95 s).
75900000 of 110000000 tuples (69%) done (elapsed 70.92 s, remaining 31.86 s).
76000000 of 110000000 tuples (69%) done (elapsed 70.98 s, remaining 31.76 s).
76100000 of 110000000 tuples (69%) done (elapsed 71.08 s, remaining 31.67 s).
76200000 of 110000000 tuples (69%) done (elapsed 71.19 s, remaining 31.58 s).
76300000 of 110000000 tuples (69%) done (elapsed 71.29 s, remaining 31.49 s).
76400000 of 110000000 tuples (69%) done (elapsed 71.35 s, remaining 31.38 s).
76500000 of 110000000 tuples (69%) done (elapsed 71.45 s, remaining 31.29 s).
76600000 of 110000000 tuples (69%) done (elapsed 71.55 s, remaining 31.20 s).
76700000 of 110000000 tuples (69%) done (elapsed 71.65 s, remaining 31.11 s).
76800000 of 110000000 tuples (69%) done (elapsed 71.75 s, remaining 31.02 s).
76900000 of 110000000 tuples (69%) done (elapsed 71.81 s, remaining 30.91 s).
77000000 of 110000000 tuples (70%) done (elapsed 71.92 s, remaining 30.82 s).
77100000 of 110000000 tuples (70%) done (elapsed 72.02 s, remaining 30.73 s).
77200000 of 110000000 tuples (70%) done (elapsed 72.12 s, remaining 30.64 s).
77300000 of 110000000 tuples (70%) done (elapsed 72.19 s, remaining 30.54 s).
77400000 of 110000000 tuples (70%) done (elapsed 72.29 s, remaining 30.45 s).
77500000 of 110000000 tuples (70%) done (elapsed 72.39 s, remaining 30.36 s).
77600000 of 110000000 tuples (70%) done (elapsed 72.49 s, remaining 30.26 s).
77700000 of 110000000 tuples (70%) done (elapsed 72.59 s, remaining 30.17 s).
77800000 of 110000000 tuples (70%) done (elapsed 72.66 s, remaining 30.07 s).
77900000 of 110000000 tuples (70%) done (elapsed 72.76 s, remaining 29.98 s).
78000000 of 110000000 tuples (70%) done (elapsed 72.86 s, remaining 29.89 s).
78100000 of 110000000 tuples (71%) done (elapsed 72.96 s, remaining 29.80 s).
78200000 of 110000000 tuples (71%) done (elapsed 73.02 s, remaining 29.69 s).
78300000 of 110000000 tuples (71%) done (elapsed 73.12 s, remaining 29.60 s).
78400000 of 110000000 tuples (71%) done (elapsed 73.22 s, remaining 29.51 s).
78500000 of 110000000 tuples (71%) done (elapsed 73.32 s, remaining 29.42 s).
78600000 of 110000000 tuples (71%) done (elapsed 73.43 s, remaining 29.33 s).
78700000 of 110000000 tuples (71%) done (elapsed 73.49 s, remaining 29.23 s).
78800000 of 110000000 tuples (71%) done (elapsed 73.59 s, remaining 29.14 s).
78900000 of 110000000 tuples (71%) done (elapsed 73.69 s, remaining 29.05 s).
79000000 of 110000000 tuples (71%) done (elapsed 73.79 s, remaining 28.96 s).
79100000 of 110000000 tuples (71%) done (elapsed 73.85 s, remaining 28.85 s).
79200000 of 110000000 tuples (72%) done (elapsed 73.95 s, remaining 28.76 s).
79300000 of 110000000 tuples (72%) done (elapsed 74.05 s, remaining 28.67 s).
79400000 of 110000000 tuples (72%) done (elapsed 74.15 s, remaining 28.58 s).
79500000 of 110000000 tuples (72%) done (elapsed 74.26 s, remaining 28.49 s).
79600000 of 110000000 tuples (72%) done (elapsed 74.32 s, remaining 28.38 s).
79700000 of 110000000 tuples (72%) done (elapsed 74.42 s, remaining 28.29 s).
79800000 of 110000000 tuples (72%) done (elapsed 74.52 s, remaining 28.20 s).
79900000 of 110000000 tuples (72%) done (elapsed 74.62 s, remaining 28.11 s).
80000000 of 110000000 tuples (72%) done (elapsed 74.72 s, remaining 28.02 s).
80100000 of 110000000 tuples (72%) done (elapsed 74.78 s, remaining 27.92 s).
80200000 of 110000000 tuples (72%) done (elapsed 74.88 s, remaining 27.83 s).
80300000 of 110000000 tuples (73%) done (elapsed 74.99 s, remaining 27.74 s).
80400000 of 110000000 tuples (73%) done (elapsed 75.09 s, remaining 27.65 s).
80500000 of 110000000 tuples (73%) done (elapsed 75.15 s, remaining 27.54 s).
80600000 of 110000000 tuples (73%) done (elapsed 75.25 s, remaining 27.45 s).
80700000 of 110000000 tuples (73%) done (elapsed 75.35 s, remaining 27.36 s).
80800000 of 110000000 tuples (73%) done (elapsed 75.46 s, remaining 27.27 s).
80900000 of 110000000 tuples (73%) done (elapsed 75.55 s, remaining 27.18 s).
81000000 of 110000000 tuples (73%) done (elapsed 75.62 s, remaining 27.07 s).
81100000 of 110000000 tuples (73%) done (elapsed 75.72 s, remaining 26.98 s).
81200000 of 110000000 tuples (73%) done (elapsed 75.83 s, remaining 26.89 s).
81300000 of 110000000 tuples (73%) done (elapsed 75.93 s, remaining 26.80 s).
81400000 of 110000000 tuples (74%) done (elapsed 76.03 s, remaining 26.71 s).
81500000 of 110000000 tuples (74%) done (elapsed 76.09 s, remaining 26.61 s).
81600000 of 110000000 tuples (74%) done (elapsed 76.19 s, remaining 26.52 s).
81700000 of 110000000 tuples (74%) done (elapsed 76.29 s, remaining 26.43 s).
81800000 of 110000000 tuples (74%) done (elapsed 76.39 s, remaining 26.33 s).
81900000 of 110000000 tuples (74%) done (elapsed 76.50 s, remaining 26.25 s).
82000000 of 110000000 tuples (74%) done (elapsed 76.60 s, remaining 26.16 s).
82100000 of 110000000 tuples (74%) done (elapsed 76.66 s, remaining 26.05 s).
82200000 of 110000000 tuples (74%) done (elapsed 76.76 s, remaining 25.96 s).
82300000 of 110000000 tuples (74%) done (elapsed 76.86 s, remaining 25.87 s).
82400000 of 110000000 tuples (74%) done (elapsed 76.96 s, remaining 25.78 s).
82500000 of 110000000 tuples (75%) done (elapsed 77.06 s, remaining 25.69 s).
82600000 of 110000000 tuples (75%) done (elapsed 77.12 s, remaining 25.58 s).
82700000 of 110000000 tuples (75%) done (elapsed 77.23 s, remaining 25.50 s).
82800000 of 110000000 tuples (75%) done (elapsed 77.33 s, remaining 25.40 s).
82900000 of 110000000 tuples (75%) done (elapsed 77.43 s, remaining 25.31 s).
83000000 of 110000000 tuples (75%) done (elapsed 77.50 s, remaining 25.21 s).
83100000 of 110000000 tuples (75%) done (elapsed 77.60 s, remaining 25.12 s).
83200000 of 110000000 tuples (75%) done (elapsed 77.70 s, remaining 25.03 s).
83300000 of 110000000 tuples (75%) done (elapsed 77.80 s, remaining 24.94 s).
83400000 of 110000000 tuples (75%) done (elapsed 77.90 s, remaining 24.85 s).
83500000 of 110000000 tuples (75%) done (elapsed 77.97 s, remaining 24.74 s).
83600000 of 110000000 tuples (76%) done (elapsed 78.07 s, remaining 24.65 s).
83700000 of 110000000 tuples (76%) done (elapsed 78.17 s, remaining 24.56 s).
83800000 of 110000000 tuples (76%) done (elapsed 78.27 s, remaining 24.47 s).
83900000 of 110000000 tuples (76%) done (elapsed 78.33 s, remaining 24.37 s).
84000000 of 110000000 tuples (76%) done (elapsed 78.43 s, remaining 24.28 s).
84100000 of 110000000 tuples (76%) done (elapsed 78.53 s, remaining 24.18 s).
84200000 of 110000000 tuples (76%) done (elapsed 78.64 s, remaining 24.10 s).
84300000 of 110000000 tuples (76%) done (elapsed 78.74 s, remaining 24.00 s).
84400000 of 110000000 tuples (76%) done (elapsed 78.80 s, remaining 23.90 s).
84500000 of 110000000 tuples (76%) done (elapsed 78.90 s, remaining 23.81 s).
84600000 of 110000000 tuples (76%) done (elapsed 79.00 s, remaining 23.72 s).
84700000 of 110000000 tuples (77%) done (elapsed 79.10 s, remaining 23.63 s).
84800000 of 110000000 tuples (77%) done (elapsed 79.16 s, remaining 23.52 s).
84900000 of 110000000 tuples (77%) done (elapsed 79.26 s, remaining 23.43 s).
85000000 of 110000000 tuples (77%) done (elapsed 79.37 s, remaining 23.34 s).
85100000 of 110000000 tuples (77%) done (elapsed 79.47 s, remaining 23.25 s).
85200000 of 110000000 tuples (77%) done (elapsed 79.57 s, remaining 23.16 s).
85300000 of 110000000 tuples (77%) done (elapsed 79.63 s, remaining 23.06 s).
85400000 of 110000000 tuples (77%) done (elapsed 79.73 s, remaining 22.97 s).
85500000 of 110000000 tuples (77%) done (elapsed 79.83 s, remaining 22.88 s).
85600000 of 110000000 tuples (77%) done (elapsed 79.93 s, remaining 22.78 s).
85700000 of 110000000 tuples (77%) done (elapsed 80.04 s, remaining 22.70 s).
85800000 of 110000000 tuples (78%) done (elapsed 80.10 s, remaining 22.59 s).
85900000 of 110000000 tuples (78%) done (elapsed 80.21 s, remaining 22.50 s).
86000000 of 110000000 tuples (78%) done (elapsed 80.31 s, remaining 22.41 s).
86100000 of 110000000 tuples (78%) done (elapsed 80.41 s, remaining 22.32 s).
86200000 of 110000000 tuples (78%) done (elapsed 80.47 s, remaining 22.22 s).
86300000 of 110000000 tuples (78%) done (elapsed 80.58 s, remaining 22.13 s).
86400000 of 110000000 tuples (78%) done (elapsed 80.69 s, remaining 22.04 s).
86500000 of 110000000 tuples (78%) done (elapsed 80.79 s, remaining 21.95 s).
86600000 of 110000000 tuples (78%) done (elapsed 80.89 s, remaining 21.86 s).
86700000 of 110000000 tuples (78%) done (elapsed 80.96 s, remaining 21.76 s).
86800000 of 110000000 tuples (78%) done (elapsed 81.06 s, remaining 21.67 s).
86900000 of 110000000 tuples (79%) done (elapsed 81.16 s, remaining 21.57 s).
87000000 of 110000000 tuples (79%) done (elapsed 81.27 s, remaining 21.48 s).
87100000 of 110000000 tuples (79%) done (elapsed 81.33 s, remaining 21.38 s).
87200000 of 110000000 tuples (79%) done (elapsed 81.44 s, remaining 21.29 s).
87300000 of 110000000 tuples (79%) done (elapsed 81.54 s, remaining 21.20 s).
87400000 of 110000000 tuples (79%) done (elapsed 81.64 s, remaining 21.11 s).
87500000 of 110000000 tuples (79%) done (elapsed 81.75 s, remaining 21.02 s).
87600000 of 110000000 tuples (79%) done (elapsed 81.81 s, remaining 20.92 s).
87700000 of 110000000 tuples (79%) done (elapsed 81.91 s, remaining 20.83 s).
87800000 of 110000000 tuples (79%) done (elapsed 82.02 s, remaining 20.74 s).
87900000 of 110000000 tuples (79%) done (elapsed 82.13 s, remaining 20.65 s).
88000000 of 110000000 tuples (80%) done (elapsed 82.23 s, remaining 20.56 s).
88100000 of 110000000 tuples (80%) done (elapsed 82.29 s, remaining 20.46 s).
88200000 of 110000000 tuples (80%) done (elapsed 82.39 s, remaining 20.36 s).
88300000 of 110000000 tuples (80%) done (elapsed 82.50 s, remaining 20.27 s).
88400000 of 110000000 tuples (80%) done (elapsed 82.60 s, remaining 20.18 s).
88500000 of 110000000 tuples (80%) done (elapsed 82.67 s, remaining 20.08 s).
88600000 of 110000000 tuples (80%) done (elapsed 82.77 s, remaining 19.99 s).
88700000 of 110000000 tuples (80%) done (elapsed 82.87 s, remaining 19.90 s).
88800000 of 110000000 tuples (80%) done (elapsed 82.98 s, remaining 19.81 s).
88900000 of 110000000 tuples (80%) done (elapsed 83.08 s, remaining 19.72 s).
89000000 of 110000000 tuples (80%) done (elapsed 83.14 s, remaining 19.62 s).
89100000 of 110000000 tuples (81%) done (elapsed 83.25 s, remaining 19.53 s).
89200000 of 110000000 tuples (81%) done (elapsed 83.36 s, remaining 19.44 s).
89300000 of 110000000 tuples (81%) done (elapsed 83.46 s, remaining 19.35 s).
89400000 of 110000000 tuples (81%) done (elapsed 83.52 s, remaining 19.25 s).
89500000 of 110000000 tuples (81%) done (elapsed 83.62 s, remaining 19.15 s).
89600000 of 110000000 tuples (81%) done (elapsed 83.72 s, remaining 19.06 s).
89700000 of 110000000 tuples (81%) done (elapsed 83.83 s, remaining 18.97 s).
89800000 of 110000000 tuples (81%) done (elapsed 83.94 s, remaining 18.88 s).
89900000 of 110000000 tuples (81%) done (elapsed 84.00 s, remaining 18.78 s).
90000000 of 110000000 tuples (81%) done (elapsed 84.10 s, remaining 18.69 s).
90100000 of 110000000 tuples (81%) done (elapsed 84.21 s, remaining 18.60 s).
90200000 of 110000000 tuples (82%) done (elapsed 84.31 s, remaining 18.51 s).
90300000 of 110000000 tuples (82%) done (elapsed 84.38 s, remaining 18.41 s).
90400000 of 110000000 tuples (82%) done (elapsed 84.48 s, remaining 18.32 s).
90500000 of 110000000 tuples (82%) done (elapsed 84.59 s, remaining 18.23 s).
90600000 of 110000000 tuples (82%) done (elapsed 84.69 s, remaining 18.13 s).
90700000 of 110000000 tuples (82%) done (elapsed 84.79 s, remaining 18.04 s).
90800000 of 110000000 tuples (82%) done (elapsed 84.85 s, remaining 17.94 s).
90900000 of 110000000 tuples (82%) done (elapsed 84.97 s, remaining 17.85 s).
91000000 of 110000000 tuples (82%) done (elapsed 85.07 s, remaining 17.76 s).
91100000 of 110000000 tuples (82%) done (elapsed 85.17 s, remaining 17.67 s).
91200000 of 110000000 tuples (82%) done (elapsed 85.27 s, remaining 17.58 s).
91300000 of 110000000 tuples (83%) done (elapsed 85.34 s, remaining 17.48 s).
91400000 of 110000000 tuples (83%) done (elapsed 85.45 s, remaining 17.39 s).
91500000 of 110000000 tuples (83%) done (elapsed 85.55 s, remaining 17.30 s).
91600000 of 110000000 tuples (83%) done (elapsed 85.66 s, remaining 17.21 s).
91700000 of 110000000 tuples (83%) done (elapsed 85.72 s, remaining 17.11 s).
91800000 of 110000000 tuples (83%) done (elapsed 85.82 s, remaining 17.01 s).
91900000 of 110000000 tuples (83%) done (elapsed 85.92 s, remaining 16.92 s).
92000000 of 110000000 tuples (83%) done (elapsed 86.03 s, remaining 16.83 s).
92100000 of 110000000 tuples (83%) done (elapsed 86.13 s, remaining 16.74 s).
92200000 of 110000000 tuples (83%) done (elapsed 86.19 s, remaining 16.64 s).
92300000 of 110000000 tuples (83%) done (elapsed 86.29 s, remaining 16.55 s).
92400000 of 110000000 tuples (84%) done (elapsed 86.39 s, remaining 16.46 s).
92500000 of 110000000 tuples (84%) done (elapsed 86.49 s, remaining 16.36 s).
92600000 of 110000000 tuples (84%) done (elapsed 86.56 s, remaining 16.27 s).
92700000 of 110000000 tuples (84%) done (elapsed 86.66 s, remaining 16.17 s).
92800000 of 110000000 tuples (84%) done (elapsed 86.76 s, remaining 16.08 s).
92900000 of 110000000 tuples (84%) done (elapsed 86.86 s, remaining 15.99 s).
93000000 of 110000000 tuples (84%) done (elapsed 86.96 s, remaining 15.90 s).
93100000 of 110000000 tuples (84%) done (elapsed 87.02 s, remaining 15.80 s).
93200000 of 110000000 tuples (84%) done (elapsed 87.13 s, remaining 15.71 s).
93300000 of 110000000 tuples (84%) done (elapsed 87.23 s, remaining 15.61 s).
93400000 of 110000000 tuples (84%) done (elapsed 87.33 s, remaining 15.52 s).
93500000 of 110000000 tuples (85%) done (elapsed 87.39 s, remaining 15.42 s).
93600000 of 110000000 tuples (85%) done (elapsed 87.49 s, remaining 15.33 s).
93700000 of 110000000 tuples (85%) done (elapsed 87.59 s, remaining 15.24 s).
93800000 of 110000000 tuples (85%) done (elapsed 87.70 s, remaining 15.15 s).
93900000 of 110000000 tuples (85%) done (elapsed 87.80 s, remaining 15.05 s).
94000000 of 110000000 tuples (85%) done (elapsed 87.86 s, remaining 14.96 s).
94100000 of 110000000 tuples (85%) done (elapsed 87.96 s, remaining 14.86 s).
94200000 of 110000000 tuples (85%) done (elapsed 88.06 s, remaining 14.77 s).
94300000 of 110000000 tuples (85%) done (elapsed 88.16 s, remaining 14.68 s).
94400000 of 110000000 tuples (85%) done (elapsed 88.27 s, remaining 14.59 s).
94500000 of 110000000 tuples (85%) done (elapsed 88.33 s, remaining 14.49 s).
94600000 of 110000000 tuples (86%) done (elapsed 88.43 s, remaining 14.40 s).
94700000 of 110000000 tuples (86%) done (elapsed 88.53 s, remaining 14.30 s).
94800000 of 110000000 tuples (86%) done (elapsed 88.63 s, remaining 14.21 s).
94900000 of 110000000 tuples (86%) done (elapsed 88.70 s, remaining 14.11 s).
95000000 of 110000000 tuples (86%) done (elapsed 88.80 s, remaining 14.02 s).
95100000 of 110000000 tuples (86%) done (elapsed 88.90 s, remaining 13.93 s).
95200000 of 110000000 tuples (86%) done (elapsed 89.00 s, remaining 13.84 s).
95300000 of 110000000 tuples (86%) done (elapsed 89.10 s, remaining 13.74 s).
95400000 of 110000000 tuples (86%) done (elapsed 89.17 s, remaining 13.65 s).
95500000 of 110000000 tuples (86%) done (elapsed 89.27 s, remaining 13.55 s).
95600000 of 110000000 tuples (86%) done (elapsed 89.37 s, remaining 13.46 s).
95700000 of 110000000 tuples (87%) done (elapsed 89.47 s, remaining 13.37 s).
95800000 of 110000000 tuples (87%) done (elapsed 89.54 s, remaining 13.27 s).
95900000 of 110000000 tuples (87%) done (elapsed 89.64 s, remaining 13.18 s).
96000000 of 110000000 tuples (87%) done (elapsed 89.74 s, remaining 13.09 s).
96100000 of 110000000 tuples (87%) done (elapsed 89.84 s, remaining 12.99 s).
96200000 of 110000000 tuples (87%) done (elapsed 89.94 s, remaining 12.90 s).
96300000 of 110000000 tuples (87%) done (elapsed 90.00 s, remaining 12.80 s).
96400000 of 110000000 tuples (87%) done (elapsed 90.10 s, remaining 12.71 s).
96500000 of 110000000 tuples (87%) done (elapsed 90.21 s, remaining 12.62 s).
96600000 of 110000000 tuples (87%) done (elapsed 90.31 s, remaining 12.53 s).
96700000 of 110000000 tuples (87%) done (elapsed 90.41 s, remaining 12.43 s).
96800000 of 110000000 tuples (88%) done (elapsed 90.47 s, remaining 12.34 s).
96900000 of 110000000 tuples (88%) done (elapsed 90.57 s, remaining 12.24 s).
97000000 of 110000000 tuples (88%) done (elapsed 90.67 s, remaining 12.15 s).
97100000 of 110000000 tuples (88%) done (elapsed 90.78 s, remaining 12.06 s).
97200000 of 110000000 tuples (88%) done (elapsed 90.84 s, remaining 11.96 s).
97300000 of 110000000 tuples (88%) done (elapsed 90.94 s, remaining 11.87 s).
97400000 of 110000000 tuples (88%) done (elapsed 91.04 s, remaining 11.78 s).
97500000 of 110000000 tuples (88%) done (elapsed 91.14 s, remaining 11.68 s).
97600000 of 110000000 tuples (88%) done (elapsed 91.24 s, remaining 11.59 s).
97700000 of 110000000 tuples (88%) done (elapsed 91.30 s, remaining 11.49 s).
97800000 of 110000000 tuples (88%) done (elapsed 91.41 s, remaining 11.40 s).
97900000 of 110000000 tuples (89%) done (elapsed 91.51 s, remaining 11.31 s).
98000000 of 110000000 tuples (89%) done (elapsed 91.61 s, remaining 11.22 s).
98100000 of 110000000 tuples (89%) done (elapsed 91.67 s, remaining 11.12 s).
98200000 of 110000000 tuples (89%) done (elapsed 91.77 s, remaining 11.03 s).
98300000 of 110000000 tuples (89%) done (elapsed 91.87 s, remaining 10.93 s).
98400000 of 110000000 tuples (89%) done (elapsed 91.97 s, remaining 10.84 s).
98500000 of 110000000 tuples (89%) done (elapsed 92.08 s, remaining 10.75 s).
98600000 of 110000000 tuples (89%) done (elapsed 92.14 s, remaining 10.65 s).
98700000 of 110000000 tuples (89%) done (elapsed 92.24 s, remaining 10.56 s).
98800000 of 110000000 tuples (89%) done (elapsed 92.34 s, remaining 10.47 s).
98900000 of 110000000 tuples (89%) done (elapsed 92.44 s, remaining 10.38 s).
99000000 of 110000000 tuples (90%) done (elapsed 92.50 s, remaining 10.28 s).
99100000 of 110000000 tuples (90%) done (elapsed 92.61 s, remaining 10.19 s).
99200000 of 110000000 tuples (90%) done (elapsed 92.71 s, remaining 10.09 s).
99300000 of 110000000 tuples (90%) done (elapsed 92.81 s, remaining 10.00 s).
99400000 of 110000000 tuples (90%) done (elapsed 92.91 s, remaining 9.91 s).
99500000 of 110000000 tuples (90%) done (elapsed 92.97 s, remaining 9.81 s).
99600000 of 110000000 tuples (90%) done (elapsed 93.07 s, remaining 9.72 s).
99700000 of 110000000 tuples (90%) done (elapsed 93.18 s, remaining 9.63 s).
99800000 of 110000000 tuples (90%) done (elapsed 93.28 s, remaining 9.53 s).
99900000 of 110000000 tuples (90%) done (elapsed 93.35 s, remaining 9.44 s).
100000000 of 110000000 tuples (90%) done (elapsed 93.45 s, remaining 9.34 s).
100100000 of 110000000 tuples (91%) done (elapsed 93.55 s, remaining 9.25 s).
100200000 of 110000000 tuples (91%) done (elapsed 93.65 s, remaining 9.16 s).
100300000 of 110000000 tuples (91%) done (elapsed 93.74 s, remaining 9.07 s).
100400000 of 110000000 tuples (91%) done (elapsed 93.85 s, remaining 8.97 s).
100500000 of 110000000 tuples (91%) done (elapsed 93.94 s, remaining 8.88 s).
100600000 of 110000000 tuples (91%) done (elapsed 94.04 s, remaining 8.79 s).
100700000 of 110000000 tuples (91%) done (elapsed 94.13 s, remaining 8.69 s).
100800000 of 110000000 tuples (91%) done (elapsed 94.23 s, remaining 8.60 s).
100900000 of 110000000 tuples (91%) done (elapsed 94.32 s, remaining 8.51 s).
101000000 of 110000000 tuples (91%) done (elapsed 94.42 s, remaining 8.41 s).
101100000 of 110000000 tuples (91%) done (elapsed 94.52 s, remaining 8.32 s).
101200000 of 110000000 tuples (92%) done (elapsed 94.62 s, remaining 8.23 s).
101300000 of 110000000 tuples (92%) done (elapsed 94.71 s, remaining 8.13 s).
101400000 of 110000000 tuples (92%) done (elapsed 94.77 s, remaining 8.04 s).
101500000 of 110000000 tuples (92%) done (elapsed 94.87 s, remaining 7.94 s).
101600000 of 110000000 tuples (92%) done (elapsed 94.96 s, remaining 7.85 s).
101700000 of 110000000 tuples (92%) done (elapsed 95.06 s, remaining 7.76 s).
101800000 of 110000000 tuples (92%) done (elapsed 95.16 s, remaining 7.67 s).
101900000 of 110000000 tuples (92%) done (elapsed 95.26 s, remaining 7.57 s).
102000000 of 110000000 tuples (92%) done (elapsed 95.35 s, remaining 7.48 s).
102100000 of 110000000 tuples (92%) done (elapsed 95.45 s, remaining 7.39 s).
102200000 of 110000000 tuples (92%) done (elapsed 95.54 s, remaining 7.29 s).
102300000 of 110000000 tuples (93%) done (elapsed 95.65 s, remaining 7.20 s).
102400000 of 110000000 tuples (93%) done (elapsed 95.74 s, remaining 7.11 s).
102500000 of 110000000 tuples (93%) done (elapsed 95.84 s, remaining 7.01 s).
102600000 of 110000000 tuples (93%) done (elapsed 95.90 s, remaining 6.92 s).
102700000 of 110000000 tuples (93%) done (elapsed 96.00 s, remaining 6.82 s).
102800000 of 110000000 tuples (93%) done (elapsed 96.09 s, remaining 6.73 s).
102900000 of 110000000 tuples (93%) done (elapsed 96.19 s, remaining 6.64 s).
103000000 of 110000000 tuples (93%) done (elapsed 96.29 s, remaining 6.54 s).
103100000 of 110000000 tuples (93%) done (elapsed 96.38 s, remaining 6.45 s).
103200000 of 110000000 tuples (93%) done (elapsed 96.48 s, remaining 6.36 s).
103300000 of 110000000 tuples (93%) done (elapsed 96.57 s, remaining 6.26 s).
103400000 of 110000000 tuples (94%) done (elapsed 96.67 s, remaining 6.17 s).
103500000 of 110000000 tuples (94%) done (elapsed 96.77 s, remaining 6.08 s).
103600000 of 110000000 tuples (94%) done (elapsed 96.87 s, remaining 5.98 s).
103700000 of 110000000 tuples (94%) done (elapsed 96.96 s, remaining 5.89 s).
103800000 of 110000000 tuples (94%) done (elapsed 97.06 s, remaining 5.80 s).
103900000 of 110000000 tuples (94%) done (elapsed 97.15 s, remaining 5.70 s).
104000000 of 110000000 tuples (94%) done (elapsed 97.25 s, remaining 5.61 s).
104100000 of 110000000 tuples (94%) done (elapsed 97.35 s, remaining 5.52 s).
104200000 of 110000000 tuples (94%) done (elapsed 97.45 s, remaining 5.42 s).
104300000 of 110000000 tuples (94%) done (elapsed 97.51 s, remaining 5.33 s).
104400000 of 110000000 tuples (94%) done (elapsed 97.60 s, remaining 5.24 s).
104500000 of 110000000 tuples (95%) done (elapsed 97.70 s, remaining 5.14 s).
104600000 of 110000000 tuples (95%) done (elapsed 97.80 s, remaining 5.05 s).
104700000 of 110000000 tuples (95%) done (elapsed 97.90 s, remaining 4.96 s).
104800000 of 110000000 tuples (95%) done (elapsed 98.00 s, remaining 4.86 s).
104900000 of 110000000 tuples (95%) done (elapsed 98.09 s, remaining 4.77 s).
105000000 of 110000000 tuples (95%) done (elapsed 98.19 s, remaining 4.68 s).
105100000 of 110000000 tuples (95%) done (elapsed 98.29 s, remaining 4.58 s).
105200000 of 110000000 tuples (95%) done (elapsed 98.39 s, remaining 4.49 s).
105300000 of 110000000 tuples (95%) done (elapsed 98.49 s, remaining 4.40 s).
105400000 of 110000000 tuples (95%) done (elapsed 98.59 s, remaining 4.30 s).
105500000 of 110000000 tuples (95%) done (elapsed 98.68 s, remaining 4.21 s).
105600000 of 110000000 tuples (96%) done (elapsed 98.78 s, remaining 4.12 s).
105700000 of 110000000 tuples (96%) done (elapsed 98.89 s, remaining 4.02 s).
105800000 of 110000000 tuples (96%) done (elapsed 98.99 s, remaining 3.93 s).
105900000 of 110000000 tuples (96%) done (elapsed 99.08 s, remaining 3.84 s).
106000000 of 110000000 tuples (96%) done (elapsed 99.18 s, remaining 3.74 s).
106100000 of 110000000 tuples (96%) done (elapsed 99.27 s, remaining 3.65 s).
106200000 of 110000000 tuples (96%) done (elapsed 99.34 s, remaining 3.55 s).
106300000 of 110000000 tuples (96%) done (elapsed 99.44 s, remaining 3.46 s).
106400000 of 110000000 tuples (96%) done (elapsed 99.54 s, remaining 3.37 s).
106500000 of 110000000 tuples (96%) done (elapsed 99.64 s, remaining 3.27 s).
106600000 of 110000000 tuples (96%) done (elapsed 99.73 s, remaining 3.18 s).
106700000 of 110000000 tuples (97%) done (elapsed 99.83 s, remaining 3.09 s).
106800000 of 110000000 tuples (97%) done (elapsed 99.94 s, remaining 2.99 s).
106900000 of 110000000 tuples (97%) done (elapsed 100.03 s, remaining 2.90 s).
107000000 of 110000000 tuples (97%) done (elapsed 100.13 s, remaining 2.81 s).
107100000 of 110000000 tuples (97%) done (elapsed 100.23 s, remaining 2.71 s).
107200000 of 110000000 tuples (97%) done (elapsed 100.33 s, remaining 2.62 s).
107300000 of 110000000 tuples (97%) done (elapsed 100.43 s, remaining 2.53 s).
107400000 of 110000000 tuples (97%) done (elapsed 100.53 s, remaining 2.43 s).
107500000 of 110000000 tuples (97%) done (elapsed 100.63 s, remaining 2.34 s).
107600000 of 110000000 tuples (97%) done (elapsed 100.72 s, remaining 2.25 s).
107700000 of 110000000 tuples (97%) done (elapsed 100.78 s, remaining 2.15 s).
107800000 of 110000000 tuples (98%) done (elapsed 100.88 s, remaining 2.06 s).
107900000 of 110000000 tuples (98%) done (elapsed 100.98 s, remaining 1.97 s).
108000000 of 110000000 tuples (98%) done (elapsed 101.08 s, remaining 1.87 s).
108100000 of 110000000 tuples (98%) done (elapsed 101.18 s, remaining 1.78 s).
108200000 of 110000000 tuples (98%) done (elapsed 101.27 s, remaining 1.68 s).
108300000 of 110000000 tuples (98%) done (elapsed 101.38 s, remaining 1.59 s).
108400000 of 110000000 tuples (98%) done (elapsed 101.47 s, remaining 1.50 s).
108500000 of 110000000 tuples (98%) done (elapsed 101.57 s, remaining 1.40 s).
108600000 of 110000000 tuples (98%) done (elapsed 101.67 s, remaining 1.31 s).
108700000 of 110000000 tuples (98%) done (elapsed 101.77 s, remaining 1.22 s).
108800000 of 110000000 tuples (98%) done (elapsed 101.87 s, remaining 1.12 s).
108900000 of 110000000 tuples (99%) done (elapsed 101.97 s, remaining 1.03 s).
109000000 of 110000000 tuples (99%) done (elapsed 102.07 s, remaining 0.94 s).
109100000 of 110000000 tuples (99%) done (elapsed 102.16 s, remaining 0.84 s).
109200000 of 110000000 tuples (99%) done (elapsed 102.26 s, remaining 0.75 s).
109300000 of 110000000 tuples (99%) done (elapsed 102.36 s, remaining 0.66 s).
109400000 of 110000000 tuples (99%) done (elapsed 102.46 s, remaining 0.56 s).
109500000 of 110000000 tuples (99%) done (elapsed 102.52 s, remaining 0.47 s).
109600000 of 110000000 tuples (99%) done (elapsed 102.62 s, remaining 0.37 s).
109700000 of 110000000 tuples (99%) done (elapsed 102.72 s, remaining 0.28 s).
109800000 of 110000000 tuples (99%) done (elapsed 102.82 s, remaining 0.19 s).
109900000 of 110000000 tuples (99%) done (elapsed 102.92 s, remaining 0.09 s).
110000000 of 110000000 tuples (100%) done (elapsed 103.01 s, remaining 0.00 s).
vacuum...
set primary keys...
done.
