transaction type: TPC-B (sort of)
scaling factor: 1100
query mode: simple
number of clients: 16
number of threads: 16
duration: 1800 s
number of transactions actually processed: 3950071
latency average: 7.291 ms
tps = 2194.464415 (including connections establishing)
tps = 2194.472320 (excluding connections establishing)
