type,scale,1,2,4,8,16
ro,small,15041,29749,54079,53687,53097
ro,large,1262,2046,2707,3071,3127
ro,medium,11796,24011,43868,43523,42869
rw,small,1784,3393,5249,6248,6593
rw,large,318,381,438,490,561
rw,medium,1068,1398,1725,1807,1902
