CHECKPOINT
transaction type: SELECT only
scaling factor: 1100
query mode: simple
number of clients: 8
number of threads: 8
duration: 1800 s
number of transactions actually processed: 33241323
latency average: 0.433 ms
tps = 18467.310500 (including connections establishing)
tps = 18467.337774 (excluding connections establishing)
