NOTICE:  table "pgbench_history" does not exist, skipping
NOTICE:  table "pgbench_tellers" does not exist, skipping
NOTICE:  table "pgbench_accounts" does not exist, skipping
NOTICE:  table "pgbench_branches" does not exist, skipping
creating tables...
100000 of 110000000 tuples (0%) done (elapsed 0.02 s, remaining 26.07 s).
200000 of 110000000 tuples (0%) done (elapsed 0.05 s, remaining 26.08 s).
300000 of 110000000 tuples (0%) done (elapsed 0.07 s, remaining 25.90 s).
400000 of 110000000 tuples (0%) done (elapsed 0.13 s, remaining 35.65 s).
500000 of 110000000 tuples (0%) done (elapsed 0.19 s, remaining 42.43 s).
600000 of 110000000 tuples (0%) done (elapsed 0.26 s, remaining 46.70 s).
700000 of 110000000 tuples (0%) done (elapsed 0.36 s, remaining 55.88 s).
800000 of 110000000 tuples (0%) done (elapsed 0.42 s, remaining 57.34 s).
900000 of 110000000 tuples (0%) done (elapsed 0.48 s, remaining 58.52 s).
1000000 of 110000000 tuples (0%) done (elapsed 0.59 s, remaining 63.85 s).
1100000 of 110000000 tuples (1%) done (elapsed 0.65 s, remaining 64.32 s).
1200000 of 110000000 tuples (1%) done (elapsed 0.75 s, remaining 68.35 s).
1300000 of 110000000 tuples (1%) done (elapsed 0.86 s, remaining 71.57 s).
1400000 of 110000000 tuples (1%) done (elapsed 0.92 s, remaining 71.19 s).
1500000 of 110000000 tuples (1%) done (elapsed 1.02 s, remaining 73.85 s).
1600000 of 110000000 tuples (1%) done (elapsed 1.08 s, remaining 73.43 s).
1700000 of 110000000 tuples (1%) done (elapsed 1.19 s, remaining 75.61 s).
1800000 of 110000000 tuples (1%) done (elapsed 1.34 s, remaining 80.56 s).
1900000 of 110000000 tuples (1%) done (elapsed 1.44 s, remaining 82.13 s).
2000000 of 110000000 tuples (1%) done (elapsed 1.51 s, remaining 81.39 s).
2100000 of 110000000 tuples (1%) done (elapsed 1.61 s, remaining 82.73 s).
2200000 of 110000000 tuples (2%) done (elapsed 1.67 s, remaining 82.02 s).
2300000 of 110000000 tuples (2%) done (elapsed 1.78 s, remaining 83.14 s).
2400000 of 110000000 tuples (2%) done (elapsed 1.84 s, remaining 82.45 s).
2500000 of 110000000 tuples (2%) done (elapsed 1.95 s, remaining 83.98 s).
2600000 of 110000000 tuples (2%) done (elapsed 2.02 s, remaining 83.31 s).
2700000 of 110000000 tuples (2%) done (elapsed 2.12 s, remaining 84.32 s).
2800000 of 110000000 tuples (2%) done (elapsed 2.26 s, remaining 86.55 s).
2900000 of 110000000 tuples (2%) done (elapsed 2.36 s, remaining 87.31 s).
3000000 of 110000000 tuples (2%) done (elapsed 2.43 s, remaining 86.61 s).
3100000 of 110000000 tuples (2%) done (elapsed 2.53 s, remaining 87.28 s).
3200000 of 110000000 tuples (2%) done (elapsed 2.63 s, remaining 87.90 s).
3300000 of 110000000 tuples (3%) done (elapsed 2.70 s, remaining 87.21 s).
3400000 of 110000000 tuples (3%) done (elapsed 2.80 s, remaining 87.79 s).
3500000 of 110000000 tuples (3%) done (elapsed 2.86 s, remaining 87.18 s).
3600000 of 110000000 tuples (3%) done (elapsed 2.97 s, remaining 87.72 s).
3700000 of 110000000 tuples (3%) done (elapsed 3.03 s, remaining 87.08 s).
3800000 of 110000000 tuples (3%) done (elapsed 3.15 s, remaining 87.99 s).
3900000 of 110000000 tuples (3%) done (elapsed 3.21 s, remaining 87.39 s).
4000000 of 110000000 tuples (3%) done (elapsed 3.32 s, remaining 87.87 s).
4100000 of 110000000 tuples (3%) done (elapsed 3.38 s, remaining 87.29 s).
4200000 of 110000000 tuples (3%) done (elapsed 3.48 s, remaining 87.71 s).
4300000 of 110000000 tuples (3%) done (elapsed 3.55 s, remaining 87.16 s).
4400000 of 110000000 tuples (4%) done (elapsed 3.65 s, remaining 87.58 s).
4500000 of 110000000 tuples (4%) done (elapsed 3.71 s, remaining 87.05 s).
4600000 of 110000000 tuples (4%) done (elapsed 3.82 s, remaining 87.43 s).
4700000 of 110000000 tuples (4%) done (elapsed 3.88 s, remaining 86.91 s).
4800000 of 110000000 tuples (4%) done (elapsed 3.98 s, remaining 87.25 s).
4900000 of 110000000 tuples (4%) done (elapsed 4.08 s, remaining 87.60 s).
5000000 of 110000000 tuples (4%) done (elapsed 4.15 s, remaining 87.10 s).
5100000 of 110000000 tuples (4%) done (elapsed 4.25 s, remaining 87.43 s).
5200000 of 110000000 tuples (4%) done (elapsed 4.31 s, remaining 86.96 s).
5300000 of 110000000 tuples (4%) done (elapsed 4.42 s, remaining 87.25 s).
5400000 of 110000000 tuples (4%) done (elapsed 4.48 s, remaining 86.79 s).
5500000 of 110000000 tuples (5%) done (elapsed 4.58 s, remaining 87.09 s).
5600000 of 110000000 tuples (5%) done (elapsed 4.65 s, remaining 86.63 s).
5700000 of 110000000 tuples (5%) done (elapsed 4.75 s, remaining 86.92 s).
5800000 of 110000000 tuples (5%) done (elapsed 4.82 s, remaining 86.63 s).
5900000 of 110000000 tuples (5%) done (elapsed 4.93 s, remaining 86.90 s).
6000000 of 110000000 tuples (5%) done (elapsed 5.03 s, remaining 87.15 s).
6100000 of 110000000 tuples (5%) done (elapsed 5.09 s, remaining 86.72 s).
6200000 of 110000000 tuples (5%) done (elapsed 5.19 s, remaining 86.96 s).
6300000 of 110000000 tuples (5%) done (elapsed 5.26 s, remaining 86.55 s).
6400000 of 110000000 tuples (5%) done (elapsed 5.36 s, remaining 86.77 s).
6500000 of 110000000 tuples (5%) done (elapsed 5.42 s, remaining 86.36 s).
6600000 of 110000000 tuples (6%) done (elapsed 5.53 s, remaining 86.59 s).
6700000 of 110000000 tuples (6%) done (elapsed 5.59 s, remaining 86.19 s).
6800000 of 110000000 tuples (6%) done (elapsed 5.70 s, remaining 86.45 s).
6900000 of 110000000 tuples (6%) done (elapsed 5.76 s, remaining 86.05 s).
7000000 of 110000000 tuples (6%) done (elapsed 5.86 s, remaining 86.26 s).
7100000 of 110000000 tuples (6%) done (elapsed 5.93 s, remaining 85.89 s).
7200000 of 110000000 tuples (6%) done (elapsed 6.03 s, remaining 86.08 s).
7300000 of 110000000 tuples (6%) done (elapsed 6.09 s, remaining 85.71 s).
7400000 of 110000000 tuples (6%) done (elapsed 6.20 s, remaining 85.90 s).
7500000 of 110000000 tuples (6%) done (elapsed 6.26 s, remaining 85.54 s).
7600000 of 110000000 tuples (6%) done (elapsed 6.36 s, remaining 85.71 s).
7700000 of 110000000 tuples (7%) done (elapsed 6.42 s, remaining 85.36 s).
7800000 of 110000000 tuples (7%) done (elapsed 6.53 s, remaining 85.62 s).
7900000 of 110000000 tuples (7%) done (elapsed 6.64 s, remaining 85.76 s).
8000000 of 110000000 tuples (7%) done (elapsed 6.70 s, remaining 85.40 s).
8100000 of 110000000 tuples (7%) done (elapsed 6.80 s, remaining 85.59 s).
8200000 of 110000000 tuples (7%) done (elapsed 6.87 s, remaining 85.24 s).
8300000 of 110000000 tuples (7%) done (elapsed 6.97 s, remaining 85.43 s).
8400000 of 110000000 tuples (7%) done (elapsed 7.18 s, remaining 86.86 s).
8500000 of 110000000 tuples (7%) done (elapsed 7.24 s, remaining 86.51 s).
8600000 of 110000000 tuples (7%) done (elapsed 7.35 s, remaining 86.64 s).
8700000 of 110000000 tuples (7%) done (elapsed 7.41 s, remaining 86.30 s).
8800000 of 110000000 tuples (8%) done (elapsed 7.52 s, remaining 86.44 s).
8900000 of 110000000 tuples (8%) done (elapsed 7.58 s, remaining 86.09 s).
9000000 of 110000000 tuples (8%) done (elapsed 7.68 s, remaining 86.22 s).
9100000 of 110000000 tuples (8%) done (elapsed 7.79 s, remaining 86.32 s).
9200000 of 110000000 tuples (8%) done (elapsed 7.85 s, remaining 86.00 s).
9300000 of 110000000 tuples (8%) done (elapsed 7.95 s, remaining 86.12 s).
9400000 of 110000000 tuples (8%) done (elapsed 8.02 s, remaining 85.80 s).
9500000 of 110000000 tuples (8%) done (elapsed 8.12 s, remaining 85.91 s).
9600000 of 110000000 tuples (8%) done (elapsed 8.18 s, remaining 85.59 s).
9700000 of 110000000 tuples (8%) done (elapsed 8.29 s, remaining 85.70 s).
9800000 of 110000000 tuples (8%) done (elapsed 8.35 s, remaining 85.40 s).
9900000 of 110000000 tuples (9%) done (elapsed 8.45 s, remaining 85.48 s).
10000000 of 110000000 tuples (9%) done (elapsed 8.56 s, remaining 85.55 s).
10100000 of 110000000 tuples (9%) done (elapsed 8.63 s, remaining 85.34 s).
10200000 of 110000000 tuples (9%) done (elapsed 8.73 s, remaining 85.37 s).
10300000 of 110000000 tuples (9%) done (elapsed 8.82 s, remaining 85.34 s).
10400000 of 110000000 tuples (9%) done (elapsed 8.88 s, remaining 85.00 s).
10500000 of 110000000 tuples (9%) done (elapsed 8.97 s, remaining 84.97 s).
10600000 of 110000000 tuples (9%) done (elapsed 9.06 s, remaining 84.93 s).
10700000 of 110000000 tuples (9%) done (elapsed 9.15 s, remaining 84.90 s).
10800000 of 110000000 tuples (9%) done (elapsed 9.21 s, remaining 84.57 s).
10900000 of 110000000 tuples (9%) done (elapsed 9.30 s, remaining 84.54 s).
11000000 of 110000000 tuples (10%) done (elapsed 9.39 s, remaining 84.50 s).
11100000 of 110000000 tuples (10%) done (elapsed 9.45 s, remaining 84.21 s).
11200000 of 110000000 tuples (10%) done (elapsed 9.54 s, remaining 84.18 s).
11300000 of 110000000 tuples (10%) done (elapsed 9.63 s, remaining 84.14 s).
11400000 of 110000000 tuples (10%) done (elapsed 9.69 s, remaining 83.82 s).
11500000 of 110000000 tuples (10%) done (elapsed 9.78 s, remaining 83.79 s).
11600000 of 110000000 tuples (10%) done (elapsed 9.88 s, remaining 83.77 s).
11700000 of 110000000 tuples (10%) done (elapsed 9.93 s, remaining 83.47 s).
11800000 of 110000000 tuples (10%) done (elapsed 10.03 s, remaining 83.45 s).
11900000 of 110000000 tuples (10%) done (elapsed 10.12 s, remaining 83.41 s).
12000000 of 110000000 tuples (10%) done (elapsed 10.18 s, remaining 83.10 s).
12100000 of 110000000 tuples (11%) done (elapsed 10.27 s, remaining 83.07 s).
12200000 of 110000000 tuples (11%) done (elapsed 10.36 s, remaining 83.03 s).
12300000 of 110000000 tuples (11%) done (elapsed 10.45 s, remaining 83.00 s).
12400000 of 110000000 tuples (11%) done (elapsed 10.51 s, remaining 82.70 s).
12500000 of 110000000 tuples (11%) done (elapsed 10.60 s, remaining 82.66 s).
12600000 of 110000000 tuples (11%) done (elapsed 10.69 s, remaining 82.62 s).
12700000 of 110000000 tuples (11%) done (elapsed 10.75 s, remaining 82.33 s).
12800000 of 110000000 tuples (11%) done (elapsed 10.84 s, remaining 82.31 s).
12900000 of 110000000 tuples (11%) done (elapsed 10.93 s, remaining 82.27 s).
13000000 of 110000000 tuples (11%) done (elapsed 10.99 s, remaining 81.98 s).
13100000 of 110000000 tuples (11%) done (elapsed 11.09 s, remaining 82.01 s).
13200000 of 110000000 tuples (12%) done (elapsed 11.18 s, remaining 81.97 s).
13300000 of 110000000 tuples (12%) done (elapsed 11.24 s, remaining 81.69 s).
13400000 of 110000000 tuples (12%) done (elapsed 11.33 s, remaining 81.65 s).
13500000 of 110000000 tuples (12%) done (elapsed 11.42 s, remaining 81.62 s).
13600000 of 110000000 tuples (12%) done (elapsed 11.48 s, remaining 81.34 s).
13700000 of 110000000 tuples (12%) done (elapsed 11.57 s, remaining 81.30 s).
13800000 of 110000000 tuples (12%) done (elapsed 11.66 s, remaining 81.26 s).
13900000 of 110000000 tuples (12%) done (elapsed 11.72 s, remaining 81.00 s).
14000000 of 110000000 tuples (12%) done (elapsed 11.81 s, remaining 80.96 s).
14100000 of 110000000 tuples (12%) done (elapsed 11.96 s, remaining 81.32 s).
14200000 of 110000000 tuples (12%) done (elapsed 12.06 s, remaining 81.37 s).
14300000 of 110000000 tuples (13%) done (elapsed 12.12 s, remaining 81.11 s).
14400000 of 110000000 tuples (13%) done (elapsed 12.21 s, remaining 81.05 s).
14500000 of 110000000 tuples (13%) done (elapsed 12.30 s, remaining 81.01 s).
14600000 of 110000000 tuples (13%) done (elapsed 12.36 s, remaining 80.76 s).
14700000 of 110000000 tuples (13%) done (elapsed 12.45 s, remaining 80.72 s).
14800000 of 110000000 tuples (13%) done (elapsed 12.51 s, remaining 80.47 s).
14900000 of 110000000 tuples (13%) done (elapsed 12.60 s, remaining 80.41 s).
15000000 of 110000000 tuples (13%) done (elapsed 12.69 s, remaining 80.36 s).
15100000 of 110000000 tuples (13%) done (elapsed 12.75 s, remaining 80.10 s).
15200000 of 110000000 tuples (13%) done (elapsed 12.84 s, remaining 80.06 s).
15300000 of 110000000 tuples (13%) done (elapsed 12.92 s, remaining 80.00 s).
15400000 of 110000000 tuples (14%) done (elapsed 12.98 s, remaining 79.74 s).
15500000 of 110000000 tuples (14%) done (elapsed 13.07 s, remaining 79.70 s).
15600000 of 110000000 tuples (14%) done (elapsed 13.16 s, remaining 79.65 s).
15700000 of 110000000 tuples (14%) done (elapsed 13.25 s, remaining 79.61 s).
15800000 of 110000000 tuples (14%) done (elapsed 13.31 s, remaining 79.37 s).
15900000 of 110000000 tuples (14%) done (elapsed 13.40 s, remaining 79.32 s).
16000000 of 110000000 tuples (14%) done (elapsed 13.49 s, remaining 79.27 s).
16100000 of 110000000 tuples (14%) done (elapsed 13.55 s, remaining 79.05 s).
16200000 of 110000000 tuples (14%) done (elapsed 13.64 s, remaining 79.00 s).
16300000 of 110000000 tuples (14%) done (elapsed 13.90 s, remaining 79.89 s).
16400000 of 110000000 tuples (14%) done (elapsed 13.99 s, remaining 79.82 s).
16500000 of 110000000 tuples (15%) done (elapsed 14.04 s, remaining 79.57 s).
16600000 of 110000000 tuples (15%) done (elapsed 14.13 s, remaining 79.51 s).
16700000 of 110000000 tuples (15%) done (elapsed 14.22 s, remaining 79.45 s).
16800000 of 110000000 tuples (15%) done (elapsed 14.28 s, remaining 79.22 s).
16900000 of 110000000 tuples (15%) done (elapsed 14.37 s, remaining 79.16 s).
17000000 of 110000000 tuples (15%) done (elapsed 14.46 s, remaining 79.10 s).
17100000 of 110000000 tuples (15%) done (elapsed 14.53 s, remaining 78.92 s).
17200000 of 110000000 tuples (15%) done (elapsed 14.62 s, remaining 78.86 s).
17300000 of 110000000 tuples (15%) done (elapsed 14.71 s, remaining 78.81 s).
17400000 of 110000000 tuples (15%) done (elapsed 14.77 s, remaining 78.58 s).
17500000 of 110000000 tuples (15%) done (elapsed 14.86 s, remaining 78.54 s).
17600000 of 110000000 tuples (16%) done (elapsed 14.95 s, remaining 78.49 s).
17700000 of 110000000 tuples (16%) done (elapsed 15.01 s, remaining 78.27 s).
17800000 of 110000000 tuples (16%) done (elapsed 15.10 s, remaining 78.22 s).
17900000 of 110000000 tuples (16%) done (elapsed 15.19 s, remaining 78.17 s).
18000000 of 110000000 tuples (16%) done (elapsed 15.25 s, remaining 77.94 s).
18100000 of 110000000 tuples (16%) done (elapsed 15.35 s, remaining 77.95 s).
18200000 of 110000000 tuples (16%) done (elapsed 15.44 s, remaining 77.90 s).
18300000 of 110000000 tuples (16%) done (elapsed 15.53 s, remaining 77.84 s).
18400000 of 110000000 tuples (16%) done (elapsed 15.59 s, remaining 77.62 s).
18500000 of 110000000 tuples (16%) done (elapsed 15.68 s, remaining 77.57 s).
18600000 of 110000000 tuples (16%) done (elapsed 15.78 s, remaining 77.53 s).
18700000 of 110000000 tuples (17%) done (elapsed 15.83 s, remaining 77.31 s).
18800000 of 110000000 tuples (17%) done (elapsed 15.93 s, remaining 77.26 s).
18900000 of 110000000 tuples (17%) done (elapsed 16.02 s, remaining 77.20 s).
19000000 of 110000000 tuples (17%) done (elapsed 16.07 s, remaining 76.99 s).
19100000 of 110000000 tuples (17%) done (elapsed 16.18 s, remaining 76.99 s).
19200000 of 110000000 tuples (17%) done (elapsed 16.27 s, remaining 76.95 s).
19300000 of 110000000 tuples (17%) done (elapsed 16.33 s, remaining 76.74 s).
19400000 of 110000000 tuples (17%) done (elapsed 16.42 s, remaining 76.68 s).
19500000 of 110000000 tuples (17%) done (elapsed 16.51 s, remaining 76.63 s).
19600000 of 110000000 tuples (17%) done (elapsed 16.57 s, remaining 76.42 s).
19700000 of 110000000 tuples (17%) done (elapsed 16.66 s, remaining 76.36 s).
19800000 of 110000000 tuples (18%) done (elapsed 16.75 s, remaining 76.31 s).
19900000 of 110000000 tuples (18%) done (elapsed 16.81 s, remaining 76.11 s).
20000000 of 110000000 tuples (18%) done (elapsed 16.90 s, remaining 76.06 s).
20100000 of 110000000 tuples (18%) done (elapsed 17.01 s, remaining 76.07 s).
20200000 of 110000000 tuples (18%) done (elapsed 17.31 s, remaining 76.95 s).
20300000 of 110000000 tuples (18%) done (elapsed 17.37 s, remaining 76.75 s).
20400000 of 110000000 tuples (18%) done (elapsed 17.46 s, remaining 76.67 s).
20500000 of 110000000 tuples (18%) done (elapsed 17.55 s, remaining 76.61 s).
20600000 of 110000000 tuples (18%) done (elapsed 17.60 s, remaining 76.40 s).
20700000 of 110000000 tuples (18%) done (elapsed 17.70 s, remaining 76.34 s).
20800000 of 110000000 tuples (18%) done (elapsed 17.79 s, remaining 76.28 s).
20900000 of 110000000 tuples (19%) done (elapsed 17.85 s, remaining 76.08 s).
21000000 of 110000000 tuples (19%) done (elapsed 17.94 s, remaining 76.02 s).
21100000 of 110000000 tuples (19%) done (elapsed 18.21 s, remaining 76.73 s).
21200000 of 110000000 tuples (19%) done (elapsed 18.30 s, remaining 76.66 s).
21300000 of 110000000 tuples (19%) done (elapsed 18.36 s, remaining 76.46 s).
21400000 of 110000000 tuples (19%) done (elapsed 18.45 s, remaining 76.39 s).
21500000 of 110000000 tuples (19%) done (elapsed 18.54 s, remaining 76.33 s).
21600000 of 110000000 tuples (19%) done (elapsed 18.60 s, remaining 76.13 s).
21700000 of 110000000 tuples (19%) done (elapsed 18.69 s, remaining 76.06 s).
21800000 of 110000000 tuples (19%) done (elapsed 18.78 s, remaining 76.00 s).
21900000 of 110000000 tuples (19%) done (elapsed 18.84 s, remaining 75.80 s).
22000000 of 110000000 tuples (20%) done (elapsed 18.93 s, remaining 75.73 s).
22100000 of 110000000 tuples (20%) done (elapsed 19.03 s, remaining 75.69 s).
22200000 of 110000000 tuples (20%) done (elapsed 19.09 s, remaining 75.50 s).
22300000 of 110000000 tuples (20%) done (elapsed 19.18 s, remaining 75.43 s).
22400000 of 110000000 tuples (20%) done (elapsed 19.27 s, remaining 75.36 s).
22500000 of 110000000 tuples (20%) done (elapsed 19.33 s, remaining 75.17 s).
22600000 of 110000000 tuples (20%) done (elapsed 19.42 s, remaining 75.10 s).
22700000 of 110000000 tuples (20%) done (elapsed 19.51 s, remaining 75.04 s).
22800000 of 110000000 tuples (20%) done (elapsed 19.60 s, remaining 74.97 s).
22900000 of 110000000 tuples (20%) done (elapsed 19.66 s, remaining 74.78 s).
23000000 of 110000000 tuples (20%) done (elapsed 19.75 s, remaining 74.71 s).
23100000 of 110000000 tuples (21%) done (elapsed 19.85 s, remaining 74.68 s).
23200000 of 110000000 tuples (21%) done (elapsed 19.91 s, remaining 74.49 s).
23300000 of 110000000 tuples (21%) done (elapsed 20.00 s, remaining 74.42 s).
23400000 of 110000000 tuples (21%) done (elapsed 20.09 s, remaining 74.36 s).
23500000 of 110000000 tuples (21%) done (elapsed 20.15 s, remaining 74.17 s).
23600000 of 110000000 tuples (21%) done (elapsed 20.24 s, remaining 74.10 s).
23700000 of 110000000 tuples (21%) done (elapsed 20.33 s, remaining 74.04 s).
23800000 of 110000000 tuples (21%) done (elapsed 20.39 s, remaining 73.85 s).
23900000 of 110000000 tuples (21%) done (elapsed 20.48 s, remaining 73.79 s).
24000000 of 110000000 tuples (21%) done (elapsed 20.57 s, remaining 73.72 s).
24100000 of 110000000 tuples (21%) done (elapsed 20.63 s, remaining 73.53 s).
24200000 of 110000000 tuples (22%) done (elapsed 20.72 s, remaining 73.47 s).
24300000 of 110000000 tuples (22%) done (elapsed 20.81 s, remaining 73.40 s).
24400000 of 110000000 tuples (22%) done (elapsed 20.90 s, remaining 73.33 s).
24500000 of 110000000 tuples (22%) done (elapsed 20.96 s, remaining 73.15 s).
24600000 of 110000000 tuples (22%) done (elapsed 21.05 s, remaining 73.08 s).
24700000 of 110000000 tuples (22%) done (elapsed 21.14 s, remaining 73.01 s).
24800000 of 110000000 tuples (22%) done (elapsed 21.20 s, remaining 72.83 s).
24900000 of 110000000 tuples (22%) done (elapsed 21.29 s, remaining 72.77 s).
25000000 of 110000000 tuples (22%) done (elapsed 21.40 s, remaining 72.75 s).
25100000 of 110000000 tuples (22%) done (elapsed 21.46 s, remaining 72.57 s).
25200000 of 110000000 tuples (22%) done (elapsed 21.55 s, remaining 72.51 s).
25300000 of 110000000 tuples (23%) done (elapsed 21.64 s, remaining 72.44 s).
25400000 of 110000000 tuples (23%) done (elapsed 21.70 s, remaining 72.26 s).
25500000 of 110000000 tuples (23%) done (elapsed 21.79 s, remaining 72.19 s).
25600000 of 110000000 tuples (23%) done (elapsed 21.88 s, remaining 72.13 s).
25700000 of 110000000 tuples (23%) done (elapsed 21.94 s, remaining 71.95 s).
25800000 of 110000000 tuples (23%) done (elapsed 22.03 s, remaining 71.89 s).
25900000 of 110000000 tuples (23%) done (elapsed 22.12 s, remaining 71.82 s).
26000000 of 110000000 tuples (23%) done (elapsed 22.18 s, remaining 71.65 s).
26100000 of 110000000 tuples (23%) done (elapsed 22.28 s, remaining 71.62 s).
26200000 of 110000000 tuples (23%) done (elapsed 22.37 s, remaining 71.55 s).
26300000 of 110000000 tuples (23%) done (elapsed 22.46 s, remaining 71.49 s).
26400000 of 110000000 tuples (24%) done (elapsed 22.52 s, remaining 71.32 s).
26500000 of 110000000 tuples (24%) done (elapsed 22.61 s, remaining 71.25 s).
26600000 of 110000000 tuples (24%) done (elapsed 22.70 s, remaining 71.17 s).
26700000 of 110000000 tuples (24%) done (elapsed 22.76 s, remaining 71.00 s).
26800000 of 110000000 tuples (24%) done (elapsed 22.85 s, remaining 70.93 s).
26900000 of 110000000 tuples (24%) done (elapsed 22.94 s, remaining 70.86 s).
27000000 of 110000000 tuples (24%) done (elapsed 22.99 s, remaining 70.69 s).
27100000 of 110000000 tuples (24%) done (elapsed 23.10 s, remaining 70.66 s).
27200000 of 110000000 tuples (24%) done (elapsed 23.19 s, remaining 70.60 s).
27300000 of 110000000 tuples (24%) done (elapsed 23.25 s, remaining 70.43 s).
27400000 of 110000000 tuples (24%) done (elapsed 23.34 s, remaining 70.36 s).
27500000 of 110000000 tuples (25%) done (elapsed 23.43 s, remaining 70.29 s).
27600000 of 110000000 tuples (25%) done (elapsed 23.49 s, remaining 70.12 s).
27700000 of 110000000 tuples (25%) done (elapsed 23.58 s, remaining 70.06 s).
27800000 of 110000000 tuples (25%) done (elapsed 23.67 s, remaining 69.99 s).
27900000 of 110000000 tuples (25%) done (elapsed 23.73 s, remaining 69.82 s).
28000000 of 110000000 tuples (25%) done (elapsed 23.82 s, remaining 69.75 s).
28100000 of 110000000 tuples (25%) done (elapsed 23.91 s, remaining 69.68 s).
28200000 of 110000000 tuples (25%) done (elapsed 24.00 s, remaining 69.62 s).
28300000 of 110000000 tuples (25%) done (elapsed 24.06 s, remaining 69.45 s).
28400000 of 110000000 tuples (25%) done (elapsed 24.15 s, remaining 69.38 s).
28500000 of 110000000 tuples (25%) done (elapsed 24.24 s, remaining 69.32 s).
28600000 of 110000000 tuples (26%) done (elapsed 24.30 s, remaining 69.15 s).
28700000 of 110000000 tuples (26%) done (elapsed 24.39 s, remaining 69.09 s).
28800000 of 110000000 tuples (26%) done (elapsed 24.48 s, remaining 69.02 s).
28900000 of 110000000 tuples (26%) done (elapsed 24.54 s, remaining 68.86 s).
29000000 of 110000000 tuples (26%) done (elapsed 24.63 s, remaining 68.79 s).
29100000 of 110000000 tuples (26%) done (elapsed 24.74 s, remaining 68.77 s).
29200000 of 110000000 tuples (26%) done (elapsed 24.79 s, remaining 68.61 s).
29300000 of 110000000 tuples (26%) done (elapsed 24.89 s, remaining 68.54 s).
29400000 of 110000000 tuples (26%) done (elapsed 24.98 s, remaining 68.47 s).
29500000 of 110000000 tuples (26%) done (elapsed 25.03 s, remaining 68.32 s).
29600000 of 110000000 tuples (26%) done (elapsed 25.13 s, remaining 68.25 s).
29700000 of 110000000 tuples (27%) done (elapsed 25.22 s, remaining 68.18 s).
29800000 of 110000000 tuples (27%) done (elapsed 25.31 s, remaining 68.11 s).
29900000 of 110000000 tuples (27%) done (elapsed 25.37 s, remaining 67.96 s).
30000000 of 110000000 tuples (27%) done (elapsed 25.46 s, remaining 67.89 s).
30100000 of 110000000 tuples (27%) done (elapsed 25.55 s, remaining 67.83 s).
30200000 of 110000000 tuples (27%) done (elapsed 25.61 s, remaining 67.68 s).
30300000 of 110000000 tuples (27%) done (elapsed 25.70 s, remaining 67.61 s).
30400000 of 110000000 tuples (27%) done (elapsed 25.79 s, remaining 67.54 s).
30500000 of 110000000 tuples (27%) done (elapsed 25.85 s, remaining 67.39 s).
30600000 of 110000000 tuples (27%) done (elapsed 25.94 s, remaining 67.32 s).
30700000 of 110000000 tuples (27%) done (elapsed 26.04 s, remaining 67.25 s).
30800000 of 110000000 tuples (28%) done (elapsed 26.09 s, remaining 67.10 s).
30900000 of 110000000 tuples (28%) done (elapsed 26.18 s, remaining 67.03 s).
31000000 of 110000000 tuples (28%) done (elapsed 26.27 s, remaining 66.96 s).
31100000 of 110000000 tuples (28%) done (elapsed 26.38 s, remaining 66.91 s).
31200000 of 110000000 tuples (28%) done (elapsed 26.43 s, remaining 66.76 s).
31300000 of 110000000 tuples (28%) done (elapsed 26.52 s, remaining 66.69 s).
31400000 of 110000000 tuples (28%) done (elapsed 26.62 s, remaining 66.62 s).
31500000 of 110000000 tuples (28%) done (elapsed 26.67 s, remaining 66.47 s).
31600000 of 110000000 tuples (28%) done (elapsed 26.76 s, remaining 66.40 s).
31700000 of 110000000 tuples (28%) done (elapsed 26.86 s, remaining 66.34 s).
31800000 of 110000000 tuples (28%) done (elapsed 26.91 s, remaining 66.19 s).
31900000 of 110000000 tuples (29%) done (elapsed 27.01 s, remaining 66.12 s).
32000000 of 110000000 tuples (29%) done (elapsed 27.10 s, remaining 66.05 s).
32100000 of 110000000 tuples (29%) done (elapsed 27.19 s, remaining 65.98 s).
32200000 of 110000000 tuples (29%) done (elapsed 27.25 s, remaining 65.83 s).
32300000 of 110000000 tuples (29%) done (elapsed 27.35 s, remaining 65.79 s).
32400000 of 110000000 tuples (29%) done (elapsed 27.44 s, remaining 65.72 s).
32500000 of 110000000 tuples (29%) done (elapsed 27.50 s, remaining 65.57 s).
32600000 of 110000000 tuples (29%) done (elapsed 27.59 s, remaining 65.52 s).
32700000 of 110000000 tuples (29%) done (elapsed 27.69 s, remaining 65.45 s).
32800000 of 110000000 tuples (29%) done (elapsed 27.74 s, remaining 65.30 s).
32900000 of 110000000 tuples (29%) done (elapsed 27.83 s, remaining 65.23 s).
33000000 of 110000000 tuples (30%) done (elapsed 27.93 s, remaining 65.18 s).
33100000 of 110000000 tuples (30%) done (elapsed 27.99 s, remaining 65.03 s).
33200000 of 110000000 tuples (30%) done (elapsed 28.08 s, remaining 64.96 s).
33300000 of 110000000 tuples (30%) done (elapsed 28.17 s, remaining 64.89 s).
33400000 of 110000000 tuples (30%) done (elapsed 28.23 s, remaining 64.74 s).
33500000 of 110000000 tuples (30%) done (elapsed 28.32 s, remaining 64.67 s).
33600000 of 110000000 tuples (30%) done (elapsed 28.41 s, remaining 64.61 s).
33700000 of 110000000 tuples (30%) done (elapsed 28.47 s, remaining 64.46 s).
33800000 of 110000000 tuples (30%) done (elapsed 28.56 s, remaining 64.40 s).
33900000 of 110000000 tuples (30%) done (elapsed 28.65 s, remaining 64.33 s).
34000000 of 110000000 tuples (30%) done (elapsed 28.71 s, remaining 64.18 s).
34100000 of 110000000 tuples (31%) done (elapsed 28.87 s, remaining 64.27 s).
34200000 of 110000000 tuples (31%) done (elapsed 28.96 s, remaining 64.19 s).
34300000 of 110000000 tuples (31%) done (elapsed 29.02 s, remaining 64.05 s).
34400000 of 110000000 tuples (31%) done (elapsed 29.11 s, remaining 63.98 s).
34500000 of 110000000 tuples (31%) done (elapsed 29.20 s, remaining 63.91 s).
34600000 of 110000000 tuples (31%) done (elapsed 29.26 s, remaining 63.77 s).
34700000 of 110000000 tuples (31%) done (elapsed 29.35 s, remaining 63.70 s).
34800000 of 110000000 tuples (31%) done (elapsed 29.44 s, remaining 63.62 s).
34900000 of 110000000 tuples (31%) done (elapsed 29.50 s, remaining 63.49 s).
35000000 of 110000000 tuples (31%) done (elapsed 29.60 s, remaining 63.42 s).
35100000 of 110000000 tuples (31%) done (elapsed 29.70 s, remaining 63.38 s).
35200000 of 110000000 tuples (32%) done (elapsed 29.76 s, remaining 63.23 s).
35300000 of 110000000 tuples (32%) done (elapsed 29.85 s, remaining 63.16 s).
35400000 of 110000000 tuples (32%) done (elapsed 29.94 s, remaining 63.10 s).
35500000 of 110000000 tuples (32%) done (elapsed 30.03 s, remaining 63.03 s).
35600000 of 110000000 tuples (32%) done (elapsed 30.09 s, remaining 62.88 s).
35700000 of 110000000 tuples (32%) done (elapsed 30.18 s, remaining 62.81 s).
35800000 of 110000000 tuples (32%) done (elapsed 30.27 s, remaining 62.74 s).
35900000 of 110000000 tuples (32%) done (elapsed 30.33 s, remaining 62.60 s).
36000000 of 110000000 tuples (32%) done (elapsed 30.42 s, remaining 62.53 s).
36100000 of 110000000 tuples (32%) done (elapsed 30.51 s, remaining 62.46 s).
36200000 of 110000000 tuples (32%) done (elapsed 30.57 s, remaining 62.32 s).
36300000 of 110000000 tuples (33%) done (elapsed 30.66 s, remaining 62.25 s).
36400000 of 110000000 tuples (33%) done (elapsed 30.75 s, remaining 62.18 s).
36500000 of 110000000 tuples (33%) done (elapsed 30.84 s, remaining 62.11 s).
36600000 of 110000000 tuples (33%) done (elapsed 30.90 s, remaining 61.97 s).
36700000 of 110000000 tuples (33%) done (elapsed 30.99 s, remaining 61.90 s).
36800000 of 110000000 tuples (33%) done (elapsed 31.09 s, remaining 61.83 s).
36900000 of 110000000 tuples (33%) done (elapsed 31.14 s, remaining 61.70 s).
37000000 of 110000000 tuples (33%) done (elapsed 31.23 s, remaining 61.63 s).
37100000 of 110000000 tuples (33%) done (elapsed 31.33 s, remaining 61.57 s).
37200000 of 110000000 tuples (33%) done (elapsed 31.39 s, remaining 61.43 s).
37300000 of 110000000 tuples (33%) done (elapsed 31.48 s, remaining 61.36 s).
37400000 of 110000000 tuples (34%) done (elapsed 31.57 s, remaining 61.29 s).
37500000 of 110000000 tuples (34%) done (elapsed 31.63 s, remaining 61.15 s).
37600000 of 110000000 tuples (34%) done (elapsed 31.72 s, remaining 61.08 s).
37700000 of 110000000 tuples (34%) done (elapsed 31.81 s, remaining 61.01 s).
37800000 of 110000000 tuples (34%) done (elapsed 31.87 s, remaining 60.88 s).
37900000 of 110000000 tuples (34%) done (elapsed 31.96 s, remaining 60.80 s).
38000000 of 110000000 tuples (34%) done (elapsed 32.06 s, remaining 60.75 s).
38100000 of 110000000 tuples (34%) done (elapsed 32.12 s, remaining 60.62 s).
38200000 of 110000000 tuples (34%) done (elapsed 32.21 s, remaining 60.55 s).
38300000 of 110000000 tuples (34%) done (elapsed 33.22 s, remaining 62.19 s).
38400000 of 110000000 tuples (34%) done (elapsed 33.45 s, remaining 62.36 s).
38500000 of 110000000 tuples (35%) done (elapsed 33.50 s, remaining 62.22 s).
38600000 of 110000000 tuples (35%) done (elapsed 33.59 s, remaining 62.14 s).
38700000 of 110000000 tuples (35%) done (elapsed 33.68 s, remaining 62.05 s).
38800000 of 110000000 tuples (35%) done (elapsed 33.77 s, remaining 61.97 s).
38900000 of 110000000 tuples (35%) done (elapsed 33.83 s, remaining 61.83 s).
39000000 of 110000000 tuples (35%) done (elapsed 33.93 s, remaining 61.77 s).
39100000 of 110000000 tuples (35%) done (elapsed 34.02 s, remaining 61.69 s).
39200000 of 110000000 tuples (35%) done (elapsed 34.08 s, remaining 61.55 s).
39300000 of 110000000 tuples (35%) done (elapsed 34.17 s, remaining 61.47 s).
39400000 of 110000000 tuples (35%) done (elapsed 34.26 s, remaining 61.39 s).
39500000 of 110000000 tuples (35%) done (elapsed 34.32 s, remaining 61.25 s).
39600000 of 110000000 tuples (36%) done (elapsed 34.41 s, remaining 61.17 s).
39700000 of 110000000 tuples (36%) done (elapsed 34.50 s, remaining 61.09 s).
39800000 of 110000000 tuples (36%) done (elapsed 34.56 s, remaining 60.95 s).
39900000 of 110000000 tuples (36%) done (elapsed 34.65 s, remaining 60.87 s).
40000000 of 110000000 tuples (36%) done (elapsed 34.74 s, remaining 60.79 s).
40100000 of 110000000 tuples (36%) done (elapsed 34.83 s, remaining 60.71 s).
40200000 of 110000000 tuples (36%) done (elapsed 34.89 s, remaining 60.58 s).
40300000 of 110000000 tuples (36%) done (elapsed 34.98 s, remaining 60.50 s).
40400000 of 110000000 tuples (36%) done (elapsed 35.07 s, remaining 60.42 s).
40500000 of 110000000 tuples (36%) done (elapsed 35.13 s, remaining 60.28 s).
40600000 of 110000000 tuples (36%) done (elapsed 35.22 s, remaining 60.21 s).
40700000 of 110000000 tuples (37%) done (elapsed 35.31 s, remaining 60.13 s).
40800000 of 110000000 tuples (37%) done (elapsed 35.37 s, remaining 59.99 s).
40900000 of 110000000 tuples (37%) done (elapsed 35.46 s, remaining 59.91 s).
41000000 of 110000000 tuples (37%) done (elapsed 35.57 s, remaining 59.87 s).
41100000 of 110000000 tuples (37%) done (elapsed 35.63 s, remaining 59.73 s).
41200000 of 110000000 tuples (37%) done (elapsed 35.72 s, remaining 59.65 s).
41300000 of 110000000 tuples (37%) done (elapsed 35.81 s, remaining 59.57 s).
41400000 of 110000000 tuples (37%) done (elapsed 35.87 s, remaining 59.44 s).
41500000 of 110000000 tuples (37%) done (elapsed 35.96 s, remaining 59.36 s).
41600000 of 110000000 tuples (37%) done (elapsed 36.05 s, remaining 59.28 s).
41700000 of 110000000 tuples (37%) done (elapsed 36.11 s, remaining 59.15 s).
41800000 of 110000000 tuples (38%) done (elapsed 36.20 s, remaining 59.07 s).
41900000 of 110000000 tuples (38%) done (elapsed 36.29 s, remaining 58.99 s).
42000000 of 110000000 tuples (38%) done (elapsed 36.39 s, remaining 58.92 s).
42100000 of 110000000 tuples (38%) done (elapsed 36.45 s, remaining 58.79 s).
42200000 of 110000000 tuples (38%) done (elapsed 36.54 s, remaining 58.71 s).
42300000 of 110000000 tuples (38%) done (elapsed 36.63 s, remaining 58.63 s).
42400000 of 110000000 tuples (38%) done (elapsed 36.69 s, remaining 58.50 s).
42500000 of 110000000 tuples (38%) done (elapsed 36.78 s, remaining 58.42 s).
42600000 of 110000000 tuples (38%) done (elapsed 36.87 s, remaining 58.34 s).
42700000 of 110000000 tuples (38%) done (elapsed 36.93 s, remaining 58.20 s).
42800000 of 110000000 tuples (38%) done (elapsed 37.02 s, remaining 58.13 s).
42900000 of 110000000 tuples (39%) done (elapsed 37.11 s, remaining 58.05 s).
43000000 of 110000000 tuples (39%) done (elapsed 37.17 s, remaining 57.92 s).
43100000 of 110000000 tuples (39%) done (elapsed 37.27 s, remaining 57.85 s).
43200000 of 110000000 tuples (39%) done (elapsed 37.36 s, remaining 57.77 s).
43300000 of 110000000 tuples (39%) done (elapsed 37.42 s, remaining 57.64 s).
43400000 of 110000000 tuples (39%) done (elapsed 37.51 s, remaining 57.56 s).
43500000 of 110000000 tuples (39%) done (elapsed 37.60 s, remaining 57.48 s).
43600000 of 110000000 tuples (39%) done (elapsed 37.66 s, remaining 57.35 s).
43700000 of 110000000 tuples (39%) done (elapsed 37.75 s, remaining 57.27 s).
43800000 of 110000000 tuples (39%) done (elapsed 37.84 s, remaining 57.19 s).
43900000 of 110000000 tuples (39%) done (elapsed 37.90 s, remaining 57.06 s).
44000000 of 110000000 tuples (40%) done (elapsed 37.99 s, remaining 56.98 s).
44100000 of 110000000 tuples (40%) done (elapsed 38.08 s, remaining 56.91 s).
44200000 of 110000000 tuples (40%) done (elapsed 38.17 s, remaining 56.83 s).
44300000 of 110000000 tuples (40%) done (elapsed 38.24 s, remaining 56.72 s).
44400000 of 110000000 tuples (40%) done (elapsed 38.33 s, remaining 56.64 s).
44500000 of 110000000 tuples (40%) done (elapsed 38.43 s, remaining 56.56 s).
44600000 of 110000000 tuples (40%) done (elapsed 38.48 s, remaining 56.43 s).
44700000 of 110000000 tuples (40%) done (elapsed 38.57 s, remaining 56.35 s).
44800000 of 110000000 tuples (40%) done (elapsed 38.65 s, remaining 56.24 s).
44900000 of 110000000 tuples (40%) done (elapsed 38.74 s, remaining 56.17 s).
45000000 of 110000000 tuples (40%) done (elapsed 38.84 s, remaining 56.10 s).
45100000 of 110000000 tuples (41%) done (elapsed 38.90 s, remaining 55.97 s).
45200000 of 110000000 tuples (41%) done (elapsed 38.99 s, remaining 55.89 s).
45300000 of 110000000 tuples (41%) done (elapsed 39.08 s, remaining 55.81 s).
45400000 of 110000000 tuples (41%) done (elapsed 39.14 s, remaining 55.69 s).
45500000 of 110000000 tuples (41%) done (elapsed 39.23 s, remaining 55.61 s).
45600000 of 110000000 tuples (41%) done (elapsed 39.32 s, remaining 55.53 s).
45700000 of 110000000 tuples (41%) done (elapsed 39.38 s, remaining 55.40 s).
45800000 of 110000000 tuples (41%) done (elapsed 39.47 s, remaining 55.32 s).
45900000 of 110000000 tuples (41%) done (elapsed 39.56 s, remaining 55.25 s).
46000000 of 110000000 tuples (41%) done (elapsed 39.62 s, remaining 55.12 s).
46100000 of 110000000 tuples (41%) done (elapsed 39.72 s, remaining 55.06 s).
46200000 of 110000000 tuples (42%) done (elapsed 39.81 s, remaining 54.98 s).
46300000 of 110000000 tuples (42%) done (elapsed 39.87 s, remaining 54.86 s).
46400000 of 110000000 tuples (42%) done (elapsed 39.97 s, remaining 54.78 s).
46500000 of 110000000 tuples (42%) done (elapsed 40.06 s, remaining 54.70 s).
46600000 of 110000000 tuples (42%) done (elapsed 40.12 s, remaining 54.58 s).
46700000 of 110000000 tuples (42%) done (elapsed 40.21 s, remaining 54.50 s).
46800000 of 110000000 tuples (42%) done (elapsed 40.30 s, remaining 54.42 s).
46900000 of 110000000 tuples (42%) done (elapsed 40.36 s, remaining 54.30 s).
47000000 of 110000000 tuples (42%) done (elapsed 40.45 s, remaining 54.22 s).
47100000 of 110000000 tuples (42%) done (elapsed 40.54 s, remaining 54.14 s).
47200000 of 110000000 tuples (42%) done (elapsed 40.60 s, remaining 54.02 s).
47300000 of 110000000 tuples (43%) done (elapsed 40.69 s, remaining 53.94 s).
47400000 of 110000000 tuples (43%) done (elapsed 40.78 s, remaining 53.86 s).
47500000 of 110000000 tuples (43%) done (elapsed 40.84 s, remaining 53.74 s).
47600000 of 110000000 tuples (43%) done (elapsed 40.93 s, remaining 53.66 s).
47700000 of 110000000 tuples (43%) done (elapsed 41.02 s, remaining 53.58 s).
47800000 of 110000000 tuples (43%) done (elapsed 41.08 s, remaining 53.46 s).
47900000 of 110000000 tuples (43%) done (elapsed 41.17 s, remaining 53.38 s).
48000000 of 110000000 tuples (43%) done (elapsed 41.38 s, remaining 53.45 s).
48100000 of 110000000 tuples (43%) done (elapsed 41.44 s, remaining 53.33 s).
48200000 of 110000000 tuples (43%) done (elapsed 41.53 s, remaining 53.25 s).
48300000 of 110000000 tuples (43%) done (elapsed 41.62 s, remaining 53.17 s).
48400000 of 110000000 tuples (44%) done (elapsed 41.68 s, remaining 53.05 s).
48500000 of 110000000 tuples (44%) done (elapsed 41.77 s, remaining 52.97 s).
48600000 of 110000000 tuples (44%) done (elapsed 41.86 s, remaining 52.89 s).
48700000 of 110000000 tuples (44%) done (elapsed 41.92 s, remaining 52.76 s).
48800000 of 110000000 tuples (44%) done (elapsed 42.01 s, remaining 52.68 s).
48900000 of 110000000 tuples (44%) done (elapsed 42.10 s, remaining 52.60 s).
49000000 of 110000000 tuples (44%) done (elapsed 42.34 s, remaining 52.70 s).
49100000 of 110000000 tuples (44%) done (elapsed 42.39 s, remaining 52.58 s).
49200000 of 110000000 tuples (44%) done (elapsed 42.49 s, remaining 52.50 s).
49300000 of 110000000 tuples (44%) done (elapsed 42.58 s, remaining 52.42 s).
49400000 of 110000000 tuples (44%) done (elapsed 42.64 s, remaining 52.30 s).
49500000 of 110000000 tuples (45%) done (elapsed 42.73 s, remaining 52.22 s).
49600000 of 110000000 tuples (45%) done (elapsed 42.82 s, remaining 52.14 s).
49700000 of 110000000 tuples (45%) done (elapsed 42.88 s, remaining 52.02 s).
49800000 of 110000000 tuples (45%) done (elapsed 42.97 s, remaining 51.94 s).
49900000 of 110000000 tuples (45%) done (elapsed 43.06 s, remaining 51.86 s).
50000000 of 110000000 tuples (45%) done (elapsed 43.11 s, remaining 51.74 s).
50100000 of 110000000 tuples (45%) done (elapsed 43.32 s, remaining 51.79 s).
50200000 of 110000000 tuples (45%) done (elapsed 43.41 s, remaining 51.71 s).
50300000 of 110000000 tuples (45%) done (elapsed 43.46 s, remaining 51.59 s).
50400000 of 110000000 tuples (45%) done (elapsed 43.55 s, remaining 51.50 s).
50500000 of 110000000 tuples (45%) done (elapsed 43.64 s, remaining 51.42 s).
50600000 of 110000000 tuples (46%) done (elapsed 43.70 s, remaining 51.30 s).
50700000 of 110000000 tuples (46%) done (elapsed 43.79 s, remaining 51.22 s).
50800000 of 110000000 tuples (46%) done (elapsed 43.88 s, remaining 51.14 s).
50900000 of 110000000 tuples (46%) done (elapsed 43.94 s, remaining 51.02 s).
51000000 of 110000000 tuples (46%) done (elapsed 44.04 s, remaining 50.95 s).
51100000 of 110000000 tuples (46%) done (elapsed 44.13 s, remaining 50.87 s).
51200000 of 110000000 tuples (46%) done (elapsed 44.19 s, remaining 50.75 s).
51300000 of 110000000 tuples (46%) done (elapsed 44.28 s, remaining 50.67 s).
51400000 of 110000000 tuples (46%) done (elapsed 44.37 s, remaining 50.58 s).
51500000 of 110000000 tuples (46%) done (elapsed 44.46 s, remaining 50.50 s).
51600000 of 110000000 tuples (46%) done (elapsed 44.52 s, remaining 50.38 s).
51700000 of 110000000 tuples (47%) done (elapsed 44.61 s, remaining 50.30 s).
51800000 of 110000000 tuples (47%) done (elapsed 44.70 s, remaining 50.22 s).
51900000 of 110000000 tuples (47%) done (elapsed 44.75 s, remaining 50.10 s).
52000000 of 110000000 tuples (47%) done (elapsed 44.93 s, remaining 50.11 s).
52100000 of 110000000 tuples (47%) done (elapsed 45.02 s, remaining 50.03 s).
52200000 of 110000000 tuples (47%) done (elapsed 45.08 s, remaining 49.91 s).
52300000 of 110000000 tuples (47%) done (elapsed 45.17 s, remaining 49.83 s).
52400000 of 110000000 tuples (47%) done (elapsed 45.26 s, remaining 49.75 s).
52500000 of 110000000 tuples (47%) done (elapsed 45.31 s, remaining 49.63 s).
52600000 of 110000000 tuples (47%) done (elapsed 45.40 s, remaining 49.55 s).
52700000 of 110000000 tuples (47%) done (elapsed 45.49 s, remaining 49.47 s).
52800000 of 110000000 tuples (48%) done (elapsed 45.55 s, remaining 49.35 s).
52900000 of 110000000 tuples (48%) done (elapsed 45.64 s, remaining 49.27 s).
53000000 of 110000000 tuples (48%) done (elapsed 45.89 s, remaining 49.35 s).
53100000 of 110000000 tuples (48%) done (elapsed 45.95 s, remaining 49.23 s).
53200000 of 110000000 tuples (48%) done (elapsed 46.04 s, remaining 49.15 s).
53300000 of 110000000 tuples (48%) done (elapsed 46.13 s, remaining 49.07 s).
53400000 of 110000000 tuples (48%) done (elapsed 46.19 s, remaining 48.96 s).
53500000 of 110000000 tuples (48%) done (elapsed 46.28 s, remaining 48.88 s).
53600000 of 110000000 tuples (48%) done (elapsed 46.37 s, remaining 48.80 s).
53700000 of 110000000 tuples (48%) done (elapsed 46.43 s, remaining 48.68 s).
53800000 of 110000000 tuples (48%) done (elapsed 46.52 s, remaining 48.60 s).
53900000 of 110000000 tuples (49%) done (elapsed 46.62 s, remaining 48.52 s).
54000000 of 110000000 tuples (49%) done (elapsed 46.73 s, remaining 48.47 s).
54100000 of 110000000 tuples (49%) done (elapsed 46.79 s, remaining 48.35 s).
54200000 of 110000000 tuples (49%) done (elapsed 46.88 s, remaining 48.27 s).
54300000 of 110000000 tuples (49%) done (elapsed 46.98 s, remaining 48.19 s).
54400000 of 110000000 tuples (49%) done (elapsed 47.03 s, remaining 48.07 s).
54500000 of 110000000 tuples (49%) done (elapsed 47.12 s, remaining 47.99 s).
54600000 of 110000000 tuples (49%) done (elapsed 47.22 s, remaining 47.91 s).
54700000 of 110000000 tuples (49%) done (elapsed 47.27 s, remaining 47.79 s).
54800000 of 110000000 tuples (49%) done (elapsed 47.37 s, remaining 47.71 s).
54900000 of 110000000 tuples (49%) done (elapsed 47.46 s, remaining 47.63 s).
55000000 of 110000000 tuples (50%) done (elapsed 47.61 s, remaining 47.61 s).
55100000 of 110000000 tuples (50%) done (elapsed 47.67 s, remaining 47.50 s).
55200000 of 110000000 tuples (50%) done (elapsed 47.76 s, remaining 47.42 s).
55300000 of 110000000 tuples (50%) done (elapsed 47.86 s, remaining 47.34 s).
55400000 of 110000000 tuples (50%) done (elapsed 47.91 s, remaining 47.22 s).
55500000 of 110000000 tuples (50%) done (elapsed 48.01 s, remaining 47.14 s).
55600000 of 110000000 tuples (50%) done (elapsed 48.10 s, remaining 47.06 s).
55700000 of 110000000 tuples (50%) done (elapsed 48.19 s, remaining 46.98 s).
55800000 of 110000000 tuples (50%) done (elapsed 48.25 s, remaining 46.86 s).
55900000 of 110000000 tuples (50%) done (elapsed 48.34 s, remaining 46.79 s).
56000000 of 110000000 tuples (50%) done (elapsed 48.56 s, remaining 46.83 s).
56100000 of 110000000 tuples (51%) done (elapsed 48.65 s, remaining 46.74 s).
56200000 of 110000000 tuples (51%) done (elapsed 48.71 s, remaining 46.63 s).
56300000 of 110000000 tuples (51%) done (elapsed 48.80 s, remaining 46.55 s).
56400000 of 110000000 tuples (51%) done (elapsed 48.89 s, remaining 46.46 s).
56500000 of 110000000 tuples (51%) done (elapsed 48.95 s, remaining 46.35 s).
56600000 of 110000000 tuples (51%) done (elapsed 49.04 s, remaining 46.27 s).
56700000 of 110000000 tuples (51%) done (elapsed 49.13 s, remaining 46.19 s).
56800000 of 110000000 tuples (51%) done (elapsed 49.19 s, remaining 46.07 s).
56900000 of 110000000 tuples (51%) done (elapsed 49.28 s, remaining 45.99 s).
57000000 of 110000000 tuples (51%) done (elapsed 49.38 s, remaining 45.91 s).
57100000 of 110000000 tuples (51%) done (elapsed 49.43 s, remaining 45.80 s).
57200000 of 110000000 tuples (52%) done (elapsed 49.52 s, remaining 45.71 s).
57300000 of 110000000 tuples (52%) done (elapsed 49.61 s, remaining 45.63 s).
57400000 of 110000000 tuples (52%) done (elapsed 49.67 s, remaining 45.52 s).
57500000 of 110000000 tuples (52%) done (elapsed 49.76 s, remaining 45.43 s).
57600000 of 110000000 tuples (52%) done (elapsed 49.85 s, remaining 45.35 s).
57700000 of 110000000 tuples (52%) done (elapsed 49.91 s, remaining 45.24 s).
57800000 of 110000000 tuples (52%) done (elapsed 50.00 s, remaining 45.16 s).
57900000 of 110000000 tuples (52%) done (elapsed 50.06 s, remaining 45.05 s).
58000000 of 110000000 tuples (52%) done (elapsed 50.17 s, remaining 44.98 s).
58100000 of 110000000 tuples (52%) done (elapsed 50.26 s, remaining 44.90 s).
58200000 of 110000000 tuples (52%) done (elapsed 50.35 s, remaining 44.82 s).
58300000 of 110000000 tuples (53%) done (elapsed 50.41 s, remaining 44.70 s).
58400000 of 110000000 tuples (53%) done (elapsed 50.50 s, remaining 44.62 s).
58500000 of 110000000 tuples (53%) done (elapsed 50.56 s, remaining 44.51 s).
58600000 of 110000000 tuples (53%) done (elapsed 50.65 s, remaining 44.43 s).
58700000 of 110000000 tuples (53%) done (elapsed 50.75 s, remaining 44.35 s).
58800000 of 110000000 tuples (53%) done (elapsed 50.80 s, remaining 44.24 s).
58900000 of 110000000 tuples (53%) done (elapsed 51.00 s, remaining 44.25 s).
59000000 of 110000000 tuples (53%) done (elapsed 51.23 s, remaining 44.28 s).
59100000 of 110000000 tuples (53%) done (elapsed 51.32 s, remaining 44.20 s).
59200000 of 110000000 tuples (53%) done (elapsed 51.37 s, remaining 44.09 s).
59300000 of 110000000 tuples (53%) done (elapsed 51.46 s, remaining 44.00 s).
59400000 of 110000000 tuples (54%) done (elapsed 51.55 s, remaining 43.92 s).
59500000 of 110000000 tuples (54%) done (elapsed 51.61 s, remaining 43.81 s).
59600000 of 110000000 tuples (54%) done (elapsed 51.70 s, remaining 43.72 s).
59700000 of 110000000 tuples (54%) done (elapsed 51.79 s, remaining 43.64 s).
59800000 of 110000000 tuples (54%) done (elapsed 51.85 s, remaining 43.53 s).
59900000 of 110000000 tuples (54%) done (elapsed 51.94 s, remaining 43.45 s).
60000000 of 110000000 tuples (54%) done (elapsed 52.04 s, remaining 43.37 s).
60100000 of 110000000 tuples (54%) done (elapsed 52.10 s, remaining 43.26 s).
60200000 of 110000000 tuples (54%) done (elapsed 52.19 s, remaining 43.17 s).
60300000 of 110000000 tuples (54%) done (elapsed 52.28 s, remaining 43.09 s).
60400000 of 110000000 tuples (54%) done (elapsed 52.34 s, remaining 42.98 s).
60500000 of 110000000 tuples (55%) done (elapsed 52.43 s, remaining 42.90 s).
60600000 of 110000000 tuples (55%) done (elapsed 52.52 s, remaining 42.81 s).
60700000 of 110000000 tuples (55%) done (elapsed 52.58 s, remaining 42.70 s).
60800000 of 110000000 tuples (55%) done (elapsed 52.67 s, remaining 42.62 s).
60900000 of 110000000 tuples (55%) done (elapsed 52.76 s, remaining 42.54 s).
61000000 of 110000000 tuples (55%) done (elapsed 52.83 s, remaining 42.43 s).
61100000 of 110000000 tuples (55%) done (elapsed 52.92 s, remaining 42.35 s).
61200000 of 110000000 tuples (55%) done (elapsed 53.01 s, remaining 42.27 s).
61300000 of 110000000 tuples (55%) done (elapsed 53.06 s, remaining 42.16 s).
61400000 of 110000000 tuples (55%) done (elapsed 53.15 s, remaining 42.07 s).
61500000 of 110000000 tuples (55%) done (elapsed 53.25 s, remaining 41.99 s).
61600000 of 110000000 tuples (56%) done (elapsed 53.34 s, remaining 41.91 s).
61700000 of 110000000 tuples (56%) done (elapsed 53.40 s, remaining 41.80 s).
61800000 of 110000000 tuples (56%) done (elapsed 53.49 s, remaining 41.72 s).
61900000 of 110000000 tuples (56%) done (elapsed 53.58 s, remaining 41.63 s).
62000000 of 110000000 tuples (56%) done (elapsed 53.64 s, remaining 41.53 s).
62100000 of 110000000 tuples (56%) done (elapsed 53.74 s, remaining 41.45 s).
62200000 of 110000000 tuples (56%) done (elapsed 53.83 s, remaining 41.36 s).
62300000 of 110000000 tuples (56%) done (elapsed 53.88 s, remaining 41.26 s).
62400000 of 110000000 tuples (56%) done (elapsed 53.97 s, remaining 41.17 s).
62500000 of 110000000 tuples (56%) done (elapsed 54.06 s, remaining 41.09 s).
62600000 of 110000000 tuples (56%) done (elapsed 54.12 s, remaining 40.98 s).
62700000 of 110000000 tuples (57%) done (elapsed 54.21 s, remaining 40.90 s).
62800000 of 110000000 tuples (57%) done (elapsed 54.27 s, remaining 40.79 s).
62900000 of 110000000 tuples (57%) done (elapsed 54.36 s, remaining 40.70 s).
63000000 of 110000000 tuples (57%) done (elapsed 54.46 s, remaining 40.63 s).
63100000 of 110000000 tuples (57%) done (elapsed 54.55 s, remaining 40.54 s).
63200000 of 110000000 tuples (57%) done (elapsed 54.60 s, remaining 40.44 s).
63300000 of 110000000 tuples (57%) done (elapsed 54.69 s, remaining 40.35 s).
63400000 of 110000000 tuples (57%) done (elapsed 54.78 s, remaining 40.27 s).
63500000 of 110000000 tuples (57%) done (elapsed 54.84 s, remaining 40.16 s).
63600000 of 110000000 tuples (57%) done (elapsed 54.93 s, remaining 40.08 s).
63700000 of 110000000 tuples (57%) done (elapsed 55.03 s, remaining 40.00 s).
63800000 of 110000000 tuples (58%) done (elapsed 55.08 s, remaining 39.89 s).
63900000 of 110000000 tuples (58%) done (elapsed 55.17 s, remaining 39.80 s).
64000000 of 110000000 tuples (58%) done (elapsed 55.41 s, remaining 39.83 s).
64100000 of 110000000 tuples (58%) done (elapsed 55.47 s, remaining 39.72 s).
64200000 of 110000000 tuples (58%) done (elapsed 55.56 s, remaining 39.64 s).
64300000 of 110000000 tuples (58%) done (elapsed 55.65 s, remaining 39.55 s).
64400000 of 110000000 tuples (58%) done (elapsed 55.74 s, remaining 39.47 s).
64500000 of 110000000 tuples (58%) done (elapsed 55.80 s, remaining 39.36 s).
64600000 of 110000000 tuples (58%) done (elapsed 55.90 s, remaining 39.28 s).
64700000 of 110000000 tuples (58%) done (elapsed 55.95 s, remaining 39.18 s).
64800000 of 110000000 tuples (58%) done (elapsed 56.04 s, remaining 39.09 s).
64900000 of 110000000 tuples (59%) done (elapsed 56.13 s, remaining 39.01 s).
65000000 of 110000000 tuples (59%) done (elapsed 56.23 s, remaining 38.93 s).
65100000 of 110000000 tuples (59%) done (elapsed 56.28 s, remaining 38.82 s).
65200000 of 110000000 tuples (59%) done (elapsed 56.38 s, remaining 38.74 s).
65300000 of 110000000 tuples (59%) done (elapsed 56.47 s, remaining 38.65 s).
65400000 of 110000000 tuples (59%) done (elapsed 56.53 s, remaining 38.55 s).
65500000 of 110000000 tuples (59%) done (elapsed 56.62 s, remaining 38.47 s).
65600000 of 110000000 tuples (59%) done (elapsed 56.68 s, remaining 38.36 s).
65700000 of 110000000 tuples (59%) done (elapsed 56.77 s, remaining 38.28 s).
65800000 of 110000000 tuples (59%) done (elapsed 56.86 s, remaining 38.20 s).
65900000 of 110000000 tuples (59%) done (elapsed 56.92 s, remaining 38.09 s).
66000000 of 110000000 tuples (60%) done (elapsed 57.02 s, remaining 38.01 s).
66100000 of 110000000 tuples (60%) done (elapsed 57.11 s, remaining 37.93 s).
66200000 of 110000000 tuples (60%) done (elapsed 57.17 s, remaining 37.83 s).
66300000 of 110000000 tuples (60%) done (elapsed 57.26 s, remaining 37.74 s).
66400000 of 110000000 tuples (60%) done (elapsed 57.35 s, remaining 37.66 s).
66500000 of 110000000 tuples (60%) done (elapsed 57.41 s, remaining 37.55 s).
66600000 of 110000000 tuples (60%) done (elapsed 57.50 s, remaining 37.47 s).
66700000 of 110000000 tuples (60%) done (elapsed 57.59 s, remaining 37.39 s).
66800000 of 110000000 tuples (60%) done (elapsed 57.65 s, remaining 37.28 s).
66900000 of 110000000 tuples (60%) done (elapsed 57.74 s, remaining 37.20 s).
67000000 of 110000000 tuples (60%) done (elapsed 57.86 s, remaining 37.13 s).
67100000 of 110000000 tuples (61%) done (elapsed 57.92 s, remaining 37.03 s).
67200000 of 110000000 tuples (61%) done (elapsed 58.01 s, remaining 36.95 s).
67300000 of 110000000 tuples (61%) done (elapsed 58.10 s, remaining 36.86 s).
67400000 of 110000000 tuples (61%) done (elapsed 58.16 s, remaining 36.76 s).
67500000 of 110000000 tuples (61%) done (elapsed 58.25 s, remaining 36.67 s).
67600000 of 110000000 tuples (61%) done (elapsed 58.44 s, remaining 36.66 s).
67700000 of 110000000 tuples (61%) done (elapsed 58.50 s, remaining 36.55 s).
67800000 of 110000000 tuples (61%) done (elapsed 58.59 s, remaining 36.47 s).
67900000 of 110000000 tuples (61%) done (elapsed 58.68 s, remaining 36.38 s).
68000000 of 110000000 tuples (61%) done (elapsed 58.78 s, remaining 36.31 s).
68100000 of 110000000 tuples (61%) done (elapsed 58.84 s, remaining 36.20 s).
68200000 of 110000000 tuples (62%) done (elapsed 58.93 s, remaining 36.12 s).
68300000 of 110000000 tuples (62%) done (elapsed 59.02 s, remaining 36.03 s).
68400000 of 110000000 tuples (62%) done (elapsed 59.08 s, remaining 35.93 s).
68500000 of 110000000 tuples (62%) done (elapsed 59.17 s, remaining 35.85 s).
68600000 of 110000000 tuples (62%) done (elapsed 59.26 s, remaining 35.76 s).
68700000 of 110000000 tuples (62%) done (elapsed 59.32 s, remaining 35.66 s).
68800000 of 110000000 tuples (62%) done (elapsed 59.41 s, remaining 35.57 s).
68900000 of 110000000 tuples (62%) done (elapsed 59.50 s, remaining 35.49 s).
69000000 of 110000000 tuples (62%) done (elapsed 59.61 s, remaining 35.42 s).
69100000 of 110000000 tuples (62%) done (elapsed 59.70 s, remaining 35.33 s).
69200000 of 110000000 tuples (62%) done (elapsed 59.79 s, remaining 35.25 s).
69300000 of 110000000 tuples (63%) done (elapsed 59.84 s, remaining 35.15 s).
69400000 of 110000000 tuples (63%) done (elapsed 59.93 s, remaining 35.06 s).
69500000 of 110000000 tuples (63%) done (elapsed 60.02 s, remaining 34.98 s).
69600000 of 110000000 tuples (63%) done (elapsed 60.08 s, remaining 34.88 s).
69700000 of 110000000 tuples (63%) done (elapsed 60.25 s, remaining 34.84 s).
69800000 of 110000000 tuples (63%) done (elapsed 60.60 s, remaining 34.90 s).
69900000 of 110000000 tuples (63%) done (elapsed 61.02 s, remaining 35.01 s).
70000000 of 110000000 tuples (63%) done (elapsed 61.27 s, remaining 35.01 s).
70100000 of 110000000 tuples (63%) done (elapsed 61.36 s, remaining 34.93 s).
70200000 of 110000000 tuples (63%) done (elapsed 61.51 s, remaining 34.87 s).
70300000 of 110000000 tuples (63%) done (elapsed 61.67 s, remaining 34.83 s).
70400000 of 110000000 tuples (64%) done (elapsed 61.83 s, remaining 34.78 s).
70500000 of 110000000 tuples (64%) done (elapsed 62.06 s, remaining 34.77 s).
70600000 of 110000000 tuples (64%) done (elapsed 62.17 s, remaining 34.70 s).
70700000 of 110000000 tuples (64%) done (elapsed 62.24 s, remaining 34.60 s).
70800000 of 110000000 tuples (64%) done (elapsed 62.36 s, remaining 34.53 s).
70900000 of 110000000 tuples (64%) done (elapsed 62.48 s, remaining 34.45 s).
71000000 of 110000000 tuples (64%) done (elapsed 62.63 s, remaining 34.40 s).
71100000 of 110000000 tuples (64%) done (elapsed 62.72 s, remaining 34.32 s).
71200000 of 110000000 tuples (64%) done (elapsed 62.78 s, remaining 34.21 s).
71300000 of 110000000 tuples (64%) done (elapsed 62.88 s, remaining 34.13 s).
71400000 of 110000000 tuples (64%) done (elapsed 63.00 s, remaining 34.06 s).
71500000 of 110000000 tuples (65%) done (elapsed 63.07 s, remaining 33.96 s).
71600000 of 110000000 tuples (65%) done (elapsed 63.18 s, remaining 33.88 s).
71700000 of 110000000 tuples (65%) done (elapsed 63.28 s, remaining 33.80 s).
71800000 of 110000000 tuples (65%) done (elapsed 63.38 s, remaining 33.72 s).
71900000 of 110000000 tuples (65%) done (elapsed 63.50 s, remaining 33.65 s).
72000000 of 110000000 tuples (65%) done (elapsed 63.68 s, remaining 33.61 s).
72100000 of 110000000 tuples (65%) done (elapsed 63.77 s, remaining 33.52 s).
72200000 of 110000000 tuples (65%) done (elapsed 63.86 s, remaining 33.43 s).
72300000 of 110000000 tuples (65%) done (elapsed 63.92 s, remaining 33.33 s).
72400000 of 110000000 tuples (65%) done (elapsed 64.01 s, remaining 33.24 s).
72500000 of 110000000 tuples (65%) done (elapsed 64.10 s, remaining 33.16 s).
72600000 of 110000000 tuples (66%) done (elapsed 64.18 s, remaining 33.06 s).
72700000 of 110000000 tuples (66%) done (elapsed 64.24 s, remaining 32.96 s).
72800000 of 110000000 tuples (66%) done (elapsed 64.35 s, remaining 32.88 s).
72900000 of 110000000 tuples (66%) done (elapsed 64.46 s, remaining 32.81 s).
73000000 of 110000000 tuples (66%) done (elapsed 64.57 s, remaining 32.73 s).
73100000 of 110000000 tuples (66%) done (elapsed 64.64 s, remaining 32.63 s).
73200000 of 110000000 tuples (66%) done (elapsed 64.75 s, remaining 32.55 s).
73300000 of 110000000 tuples (66%) done (elapsed 64.88 s, remaining 32.48 s).
73400000 of 110000000 tuples (66%) done (elapsed 64.93 s, remaining 32.38 s).
73500000 of 110000000 tuples (66%) done (elapsed 65.04 s, remaining 32.30 s).
73600000 of 110000000 tuples (66%) done (elapsed 65.16 s, remaining 32.22 s).
73700000 of 110000000 tuples (67%) done (elapsed 65.26 s, remaining 32.14 s).
73800000 of 110000000 tuples (67%) done (elapsed 65.33 s, remaining 32.04 s).
73900000 of 110000000 tuples (67%) done (elapsed 65.44 s, remaining 31.97 s).
74000000 of 110000000 tuples (67%) done (elapsed 65.56 s, remaining 31.89 s).
74100000 of 110000000 tuples (67%) done (elapsed 65.67 s, remaining 31.81 s).
74200000 of 110000000 tuples (67%) done (elapsed 65.78 s, remaining 31.74 s).
74300000 of 110000000 tuples (67%) done (elapsed 65.89 s, remaining 31.66 s).
74400000 of 110000000 tuples (67%) done (elapsed 66.01 s, remaining 31.59 s).
74500000 of 110000000 tuples (67%) done (elapsed 66.09 s, remaining 31.49 s).
74600000 of 110000000 tuples (67%) done (elapsed 66.21 s, remaining 31.42 s).
74700000 of 110000000 tuples (67%) done (elapsed 66.34 s, remaining 31.35 s).
74800000 of 110000000 tuples (68%) done (elapsed 66.45 s, remaining 31.27 s).
74900000 of 110000000 tuples (68%) done (elapsed 66.52 s, remaining 31.17 s).
75000000 of 110000000 tuples (68%) done (elapsed 66.63 s, remaining 31.09 s).
75100000 of 110000000 tuples (68%) done (elapsed 66.74 s, remaining 31.01 s).
75200000 of 110000000 tuples (68%) done (elapsed 66.84 s, remaining 30.93 s).
75300000 of 110000000 tuples (68%) done (elapsed 66.95 s, remaining 30.85 s).
75400000 of 110000000 tuples (68%) done (elapsed 67.07 s, remaining 30.78 s).
75500000 of 110000000 tuples (68%) done (elapsed 67.14 s, remaining 30.68 s).
75600000 of 110000000 tuples (68%) done (elapsed 67.25 s, remaining 30.60 s).
75700000 of 110000000 tuples (68%) done (elapsed 67.50 s, remaining 30.58 s).
75800000 of 110000000 tuples (68%) done (elapsed 67.59 s, remaining 30.49 s).
75900000 of 110000000 tuples (69%) done (elapsed 67.64 s, remaining 30.39 s).
76000000 of 110000000 tuples (69%) done (elapsed 67.73 s, remaining 30.30 s).
76100000 of 110000000 tuples (69%) done (elapsed 67.82 s, remaining 30.21 s).
76200000 of 110000000 tuples (69%) done (elapsed 67.88 s, remaining 30.11 s).
76300000 of 110000000 tuples (69%) done (elapsed 67.97 s, remaining 30.02 s).
76400000 of 110000000 tuples (69%) done (elapsed 68.07 s, remaining 29.94 s).
76500000 of 110000000 tuples (69%) done (elapsed 68.18 s, remaining 29.86 s).
76600000 of 110000000 tuples (69%) done (elapsed 68.26 s, remaining 29.76 s).
76700000 of 110000000 tuples (69%) done (elapsed 68.38 s, remaining 29.69 s).
76800000 of 110000000 tuples (69%) done (elapsed 68.50 s, remaining 29.61 s).
76900000 of 110000000 tuples (69%) done (elapsed 68.61 s, remaining 29.53 s).
77000000 of 110000000 tuples (70%) done (elapsed 68.71 s, remaining 29.45 s).
77100000 of 110000000 tuples (70%) done (elapsed 68.78 s, remaining 29.35 s).
77200000 of 110000000 tuples (70%) done (elapsed 68.88 s, remaining 29.27 s).
77300000 of 110000000 tuples (70%) done (elapsed 68.99 s, remaining 29.18 s).
77400000 of 110000000 tuples (70%) done (elapsed 69.10 s, remaining 29.10 s).
77500000 of 110000000 tuples (70%) done (elapsed 69.20 s, remaining 29.02 s).
77600000 of 110000000 tuples (70%) done (elapsed 69.32 s, remaining 28.94 s).
77700000 of 110000000 tuples (70%) done (elapsed 69.39 s, remaining 28.85 s).
77800000 of 110000000 tuples (70%) done (elapsed 69.51 s, remaining 28.77 s).
77900000 of 110000000 tuples (70%) done (elapsed 69.63 s, remaining 28.69 s).
78000000 of 110000000 tuples (70%) done (elapsed 69.74 s, remaining 28.61 s).
78100000 of 110000000 tuples (71%) done (elapsed 69.81 s, remaining 28.52 s).
78200000 of 110000000 tuples (71%) done (elapsed 69.91 s, remaining 28.43 s).
78300000 of 110000000 tuples (71%) done (elapsed 70.02 s, remaining 28.35 s).
78400000 of 110000000 tuples (71%) done (elapsed 70.12 s, remaining 28.26 s).
78500000 of 110000000 tuples (71%) done (elapsed 70.23 s, remaining 28.18 s).
78600000 of 110000000 tuples (71%) done (elapsed 70.34 s, remaining 28.10 s).
78700000 of 110000000 tuples (71%) done (elapsed 70.53 s, remaining 28.05 s).
78800000 of 110000000 tuples (71%) done (elapsed 70.63 s, remaining 27.97 s).
78900000 of 110000000 tuples (71%) done (elapsed 70.73 s, remaining 27.88 s).
79000000 of 110000000 tuples (71%) done (elapsed 70.78 s, remaining 27.78 s).
79100000 of 110000000 tuples (71%) done (elapsed 70.87 s, remaining 27.69 s).
79200000 of 110000000 tuples (72%) done (elapsed 70.97 s, remaining 27.60 s).
79300000 of 110000000 tuples (72%) done (elapsed 71.03 s, remaining 27.50 s).
79400000 of 110000000 tuples (72%) done (elapsed 71.12 s, remaining 27.41 s).
79500000 of 110000000 tuples (72%) done (elapsed 71.22 s, remaining 27.32 s).
79600000 of 110000000 tuples (72%) done (elapsed 71.28 s, remaining 27.22 s).
79700000 of 110000000 tuples (72%) done (elapsed 71.38 s, remaining 27.14 s).
79800000 of 110000000 tuples (72%) done (elapsed 71.48 s, remaining 27.05 s).
79900000 of 110000000 tuples (72%) done (elapsed 71.55 s, remaining 26.96 s).
80000000 of 110000000 tuples (72%) done (elapsed 71.65 s, remaining 26.87 s).
80100000 of 110000000 tuples (72%) done (elapsed 71.76 s, remaining 26.79 s).
80200000 of 110000000 tuples (72%) done (elapsed 72.34 s, remaining 26.88 s).
80300000 of 110000000 tuples (73%) done (elapsed 72.43 s, remaining 26.79 s).
80400000 of 110000000 tuples (73%) done (elapsed 72.49 s, remaining 26.69 s).
80500000 of 110000000 tuples (73%) done (elapsed 72.58 s, remaining 26.60 s).
80600000 of 110000000 tuples (73%) done (elapsed 72.67 s, remaining 26.51 s).
80700000 of 110000000 tuples (73%) done (elapsed 72.74 s, remaining 26.41 s).
80800000 of 110000000 tuples (73%) done (elapsed 72.83 s, remaining 26.32 s).
80900000 of 110000000 tuples (73%) done (elapsed 72.92 s, remaining 26.23 s).
81000000 of 110000000 tuples (73%) done (elapsed 72.97 s, remaining 26.13 s).
81100000 of 110000000 tuples (73%) done (elapsed 73.07 s, remaining 26.04 s).
81200000 of 110000000 tuples (73%) done (elapsed 73.16 s, remaining 25.95 s).
81300000 of 110000000 tuples (73%) done (elapsed 73.21 s, remaining 25.85 s).
81400000 of 110000000 tuples (74%) done (elapsed 73.31 s, remaining 25.76 s).
81500000 of 110000000 tuples (74%) done (elapsed 73.40 s, remaining 25.67 s).
81600000 of 110000000 tuples (74%) done (elapsed 73.45 s, remaining 25.56 s).
81700000 of 110000000 tuples (74%) done (elapsed 73.69 s, remaining 25.52 s).
81800000 of 110000000 tuples (74%) done (elapsed 73.78 s, remaining 25.43 s).
81900000 of 110000000 tuples (74%) done (elapsed 73.87 s, remaining 25.34 s).
82000000 of 110000000 tuples (74%) done (elapsed 73.93 s, remaining 25.24 s).
82100000 of 110000000 tuples (74%) done (elapsed 74.02 s, remaining 25.15 s).
82200000 of 110000000 tuples (74%) done (elapsed 74.11 s, remaining 25.06 s).
82300000 of 110000000 tuples (74%) done (elapsed 74.16 s, remaining 24.96 s).
82400000 of 110000000 tuples (74%) done (elapsed 74.26 s, remaining 24.87 s).
82500000 of 110000000 tuples (75%) done (elapsed 74.35 s, remaining 24.78 s).
82600000 of 110000000 tuples (75%) done (elapsed 74.40 s, remaining 24.68 s).
82700000 of 110000000 tuples (75%) done (elapsed 74.50 s, remaining 24.59 s).
82800000 of 110000000 tuples (75%) done (elapsed 74.59 s, remaining 24.50 s).
82900000 of 110000000 tuples (75%) done (elapsed 74.65 s, remaining 24.40 s).
83000000 of 110000000 tuples (75%) done (elapsed 74.74 s, remaining 24.31 s).
83100000 of 110000000 tuples (75%) done (elapsed 74.83 s, remaining 24.22 s).
83200000 of 110000000 tuples (75%) done (elapsed 74.92 s, remaining 24.13 s).
83300000 of 110000000 tuples (75%) done (elapsed 74.98 s, remaining 24.03 s).
83400000 of 110000000 tuples (75%) done (elapsed 75.07 s, remaining 23.94 s).
83500000 of 110000000 tuples (75%) done (elapsed 75.16 s, remaining 23.85 s).
83600000 of 110000000 tuples (76%) done (elapsed 75.22 s, remaining 23.75 s).
83700000 of 110000000 tuples (76%) done (elapsed 75.32 s, remaining 23.67 s).
83800000 of 110000000 tuples (76%) done (elapsed 75.41 s, remaining 23.58 s).
83900000 of 110000000 tuples (76%) done (elapsed 75.47 s, remaining 23.48 s).
84000000 of 110000000 tuples (76%) done (elapsed 75.56 s, remaining 23.39 s).
84100000 of 110000000 tuples (76%) done (elapsed 75.65 s, remaining 23.30 s).
84200000 of 110000000 tuples (76%) done (elapsed 75.71 s, remaining 23.20 s).
84300000 of 110000000 tuples (76%) done (elapsed 75.80 s, remaining 23.11 s).
84400000 of 110000000 tuples (76%) done (elapsed 75.89 s, remaining 23.02 s).
84500000 of 110000000 tuples (76%) done (elapsed 75.96 s, remaining 22.92 s).
84600000 of 110000000 tuples (76%) done (elapsed 76.07 s, remaining 22.84 s).
84700000 of 110000000 tuples (77%) done (elapsed 76.29 s, remaining 22.79 s).
84800000 of 110000000 tuples (77%) done (elapsed 76.39 s, remaining 22.70 s).
84900000 of 110000000 tuples (77%) done (elapsed 76.44 s, remaining 22.60 s).
85000000 of 110000000 tuples (77%) done (elapsed 76.54 s, remaining 22.51 s).
85100000 of 110000000 tuples (77%) done (elapsed 76.63 s, remaining 22.42 s).
85200000 of 110000000 tuples (77%) done (elapsed 76.70 s, remaining 22.33 s).
85300000 of 110000000 tuples (77%) done (elapsed 76.81 s, remaining 22.24 s).
85400000 of 110000000 tuples (77%) done (elapsed 76.91 s, remaining 22.16 s).
85500000 of 110000000 tuples (77%) done (elapsed 77.02 s, remaining 22.07 s).
85600000 of 110000000 tuples (77%) done (elapsed 77.16 s, remaining 21.99 s).
85700000 of 110000000 tuples (77%) done (elapsed 77.22 s, remaining 21.90 s).
85800000 of 110000000 tuples (78%) done (elapsed 77.31 s, remaining 21.81 s).
85900000 of 110000000 tuples (78%) done (elapsed 77.40 s, remaining 21.72 s).
86000000 of 110000000 tuples (78%) done (elapsed 77.51 s, remaining 21.63 s).
86100000 of 110000000 tuples (78%) done (elapsed 77.58 s, remaining 21.54 s).
86200000 of 110000000 tuples (78%) done (elapsed 77.68 s, remaining 21.45 s).
86300000 of 110000000 tuples (78%) done (elapsed 77.79 s, remaining 21.36 s).
86400000 of 110000000 tuples (78%) done (elapsed 77.90 s, remaining 21.28 s).
86500000 of 110000000 tuples (78%) done (elapsed 77.97 s, remaining 21.18 s).
86600000 of 110000000 tuples (78%) done (elapsed 78.08 s, remaining 21.10 s).
86700000 of 110000000 tuples (78%) done (elapsed 78.18 s, remaining 21.01 s).
86800000 of 110000000 tuples (78%) done (elapsed 78.29 s, remaining 20.93 s).
86900000 of 110000000 tuples (79%) done (elapsed 78.36 s, remaining 20.83 s).
87000000 of 110000000 tuples (79%) done (elapsed 78.46 s, remaining 20.74 s).
87100000 of 110000000 tuples (79%) done (elapsed 78.56 s, remaining 20.65 s).
87200000 of 110000000 tuples (79%) done (elapsed 78.67 s, remaining 20.57 s).
87300000 of 110000000 tuples (79%) done (elapsed 78.77 s, remaining 20.48 s).
87400000 of 110000000 tuples (79%) done (elapsed 78.88 s, remaining 20.40 s).
87500000 of 110000000 tuples (79%) done (elapsed 78.99 s, remaining 20.31 s).
87600000 of 110000000 tuples (79%) done (elapsed 79.05 s, remaining 20.21 s).
87700000 of 110000000 tuples (79%) done (elapsed 79.21 s, remaining 20.14 s).
87800000 of 110000000 tuples (79%) done (elapsed 79.30 s, remaining 20.05 s).
87900000 of 110000000 tuples (79%) done (elapsed 79.40 s, remaining 19.96 s).
88000000 of 110000000 tuples (80%) done (elapsed 79.52 s, remaining 19.88 s).
88100000 of 110000000 tuples (80%) done (elapsed 79.60 s, remaining 19.79 s).
88200000 of 110000000 tuples (80%) done (elapsed 79.71 s, remaining 19.70 s).
88300000 of 110000000 tuples (80%) done (elapsed 79.78 s, remaining 19.61 s).
88400000 of 110000000 tuples (80%) done (elapsed 79.89 s, remaining 19.52 s).
88500000 of 110000000 tuples (80%) done (elapsed 80.00 s, remaining 19.44 s).
88600000 of 110000000 tuples (80%) done (elapsed 80.11 s, remaining 19.35 s).
88700000 of 110000000 tuples (80%) done (elapsed 80.18 s, remaining 19.25 s).
88800000 of 110000000 tuples (80%) done (elapsed 80.30 s, remaining 19.17 s).
88900000 of 110000000 tuples (80%) done (elapsed 80.40 s, remaining 19.08 s).
89000000 of 110000000 tuples (80%) done (elapsed 80.51 s, remaining 19.00 s).
89100000 of 110000000 tuples (81%) done (elapsed 80.62 s, remaining 18.91 s).
89200000 of 110000000 tuples (81%) done (elapsed 80.72 s, remaining 18.82 s).
89300000 of 110000000 tuples (81%) done (elapsed 80.79 s, remaining 18.73 s).
89400000 of 110000000 tuples (81%) done (elapsed 80.89 s, remaining 18.64 s).
89500000 of 110000000 tuples (81%) done (elapsed 81.00 s, remaining 18.55 s).
89600000 of 110000000 tuples (81%) done (elapsed 81.11 s, remaining 18.47 s).
89700000 of 110000000 tuples (81%) done (elapsed 81.23 s, remaining 18.38 s).
89800000 of 110000000 tuples (81%) done (elapsed 81.34 s, remaining 18.30 s).
89900000 of 110000000 tuples (81%) done (elapsed 81.45 s, remaining 18.21 s).
90000000 of 110000000 tuples (81%) done (elapsed 81.54 s, remaining 18.12 s).
90100000 of 110000000 tuples (81%) done (elapsed 81.61 s, remaining 18.02 s).
90200000 of 110000000 tuples (82%) done (elapsed 81.72 s, remaining 17.94 s).
90300000 of 110000000 tuples (82%) done (elapsed 81.82 s, remaining 17.85 s).
90400000 of 110000000 tuples (82%) done (elapsed 81.89 s, remaining 17.75 s).
90500000 of 110000000 tuples (82%) done (elapsed 82.00 s, remaining 17.67 s).
90600000 of 110000000 tuples (82%) done (elapsed 82.09 s, remaining 17.58 s).
90700000 of 110000000 tuples (82%) done (elapsed 82.31 s, remaining 17.51 s).
90800000 of 110000000 tuples (82%) done (elapsed 82.36 s, remaining 17.42 s).
90900000 of 110000000 tuples (82%) done (elapsed 82.45 s, remaining 17.33 s).
91000000 of 110000000 tuples (82%) done (elapsed 82.54 s, remaining 17.23 s).
91100000 of 110000000 tuples (82%) done (elapsed 82.60 s, remaining 17.14 s).
91200000 of 110000000 tuples (82%) done (elapsed 82.69 s, remaining 17.05 s).
91300000 of 110000000 tuples (83%) done (elapsed 82.78 s, remaining 16.96 s).
91400000 of 110000000 tuples (83%) done (elapsed 82.84 s, remaining 16.86 s).
91500000 of 110000000 tuples (83%) done (elapsed 82.93 s, remaining 16.77 s).
91600000 of 110000000 tuples (83%) done (elapsed 83.02 s, remaining 16.68 s).
91700000 of 110000000 tuples (83%) done (elapsed 83.11 s, remaining 16.59 s).
91800000 of 110000000 tuples (83%) done (elapsed 83.17 s, remaining 16.49 s).
91900000 of 110000000 tuples (83%) done (elapsed 83.28 s, remaining 16.40 s).
92000000 of 110000000 tuples (83%) done (elapsed 83.39 s, remaining 16.32 s).
92100000 of 110000000 tuples (83%) done (elapsed 83.45 s, remaining 16.22 s).
92200000 of 110000000 tuples (83%) done (elapsed 83.56 s, remaining 16.13 s).
92300000 of 110000000 tuples (83%) done (elapsed 83.67 s, remaining 16.04 s).
92400000 of 110000000 tuples (84%) done (elapsed 83.76 s, remaining 15.95 s).
92500000 of 110000000 tuples (84%) done (elapsed 83.83 s, remaining 15.86 s).
92600000 of 110000000 tuples (84%) done (elapsed 83.94 s, remaining 15.77 s).
92700000 of 110000000 tuples (84%) done (elapsed 84.17 s, remaining 15.71 s).
92800000 of 110000000 tuples (84%) done (elapsed 84.23 s, remaining 15.61 s).
92900000 of 110000000 tuples (84%) done (elapsed 84.32 s, remaining 15.52 s).
93000000 of 110000000 tuples (84%) done (elapsed 84.42 s, remaining 15.43 s).
93100000 of 110000000 tuples (84%) done (elapsed 84.47 s, remaining 15.33 s).
93200000 of 110000000 tuples (84%) done (elapsed 84.56 s, remaining 15.24 s).
93300000 of 110000000 tuples (84%) done (elapsed 84.65 s, remaining 15.15 s).
93400000 of 110000000 tuples (84%) done (elapsed 84.71 s, remaining 15.06 s).
93500000 of 110000000 tuples (85%) done (elapsed 84.81 s, remaining 14.97 s).
93600000 of 110000000 tuples (85%) done (elapsed 84.92 s, remaining 14.88 s).
93700000 of 110000000 tuples (85%) done (elapsed 85.02 s, remaining 14.79 s).
93800000 of 110000000 tuples (85%) done (elapsed 85.09 s, remaining 14.70 s).
93900000 of 110000000 tuples (85%) done (elapsed 85.21 s, remaining 14.61 s).
94000000 of 110000000 tuples (85%) done (elapsed 85.31 s, remaining 14.52 s).
94100000 of 110000000 tuples (85%) done (elapsed 85.42 s, remaining 14.43 s).
94200000 of 110000000 tuples (85%) done (elapsed 85.52 s, remaining 14.34 s).
94300000 of 110000000 tuples (85%) done (elapsed 85.59 s, remaining 14.25 s).
94400000 of 110000000 tuples (85%) done (elapsed 85.70 s, remaining 14.16 s).
94500000 of 110000000 tuples (85%) done (elapsed 85.80 s, remaining 14.07 s).
94600000 of 110000000 tuples (86%) done (elapsed 85.91 s, remaining 13.99 s).
94700000 of 110000000 tuples (86%) done (elapsed 86.02 s, remaining 13.90 s).
94800000 of 110000000 tuples (86%) done (elapsed 86.09 s, remaining 13.80 s).
94900000 of 110000000 tuples (86%) done (elapsed 86.20 s, remaining 13.72 s).
95000000 of 110000000 tuples (86%) done (elapsed 86.31 s, remaining 13.63 s).
95100000 of 110000000 tuples (86%) done (elapsed 86.38 s, remaining 13.53 s).
95200000 of 110000000 tuples (86%) done (elapsed 86.49 s, remaining 13.45 s).
95300000 of 110000000 tuples (86%) done (elapsed 86.60 s, remaining 13.36 s).
95400000 of 110000000 tuples (86%) done (elapsed 86.71 s, remaining 13.27 s).
95500000 of 110000000 tuples (86%) done (elapsed 86.78 s, remaining 13.18 s).
95600000 of 110000000 tuples (86%) done (elapsed 86.89 s, remaining 13.09 s).
95700000 of 110000000 tuples (87%) done (elapsed 87.12 s, remaining 13.02 s).
95800000 of 110000000 tuples (87%) done (elapsed 87.17 s, remaining 12.92 s).
95900000 of 110000000 tuples (87%) done (elapsed 87.26 s, remaining 12.83 s).
96000000 of 110000000 tuples (87%) done (elapsed 87.36 s, remaining 12.74 s).
96100000 of 110000000 tuples (87%) done (elapsed 87.42 s, remaining 12.64 s).
96200000 of 110000000 tuples (87%) done (elapsed 87.51 s, remaining 12.55 s).
96300000 of 110000000 tuples (87%) done (elapsed 87.60 s, remaining 12.46 s).
96400000 of 110000000 tuples (87%) done (elapsed 87.65 s, remaining 12.37 s).
96500000 of 110000000 tuples (87%) done (elapsed 87.75 s, remaining 12.28 s).
96600000 of 110000000 tuples (87%) done (elapsed 87.84 s, remaining 12.18 s).
96700000 of 110000000 tuples (87%) done (elapsed 87.93 s, remaining 12.09 s).
96800000 of 110000000 tuples (88%) done (elapsed 87.99 s, remaining 12.00 s).
96900000 of 110000000 tuples (88%) done (elapsed 88.16 s, remaining 11.92 s).
97000000 of 110000000 tuples (88%) done (elapsed 88.25 s, remaining 11.83 s).
97100000 of 110000000 tuples (88%) done (elapsed 88.31 s, remaining 11.73 s).
97200000 of 110000000 tuples (88%) done (elapsed 88.40 s, remaining 11.64 s).
97300000 of 110000000 tuples (88%) done (elapsed 88.46 s, remaining 11.55 s).
97400000 of 110000000 tuples (88%) done (elapsed 88.55 s, remaining 11.45 s).
97500000 of 110000000 tuples (88%) done (elapsed 88.64 s, remaining 11.36 s).
97600000 of 110000000 tuples (88%) done (elapsed 88.69 s, remaining 11.27 s).
97700000 of 110000000 tuples (88%) done (elapsed 88.80 s, remaining 11.18 s).
97800000 of 110000000 tuples (88%) done (elapsed 88.89 s, remaining 11.09 s).
97900000 of 110000000 tuples (89%) done (elapsed 88.95 s, remaining 10.99 s).
98000000 of 110000000 tuples (89%) done (elapsed 89.04 s, remaining 10.90 s).
98100000 of 110000000 tuples (89%) done (elapsed 89.13 s, remaining 10.81 s).
98200000 of 110000000 tuples (89%) done (elapsed 89.19 s, remaining 10.72 s).
98300000 of 110000000 tuples (89%) done (elapsed 89.27 s, remaining 10.63 s).
98400000 of 110000000 tuples (89%) done (elapsed 89.36 s, remaining 10.53 s).
98500000 of 110000000 tuples (89%) done (elapsed 89.42 s, remaining 10.44 s).
98600000 of 110000000 tuples (89%) done (elapsed 89.51 s, remaining 10.35 s).
98700000 of 110000000 tuples (89%) done (elapsed 89.60 s, remaining 10.26 s).
98800000 of 110000000 tuples (89%) done (elapsed 89.66 s, remaining 10.16 s).
98900000 of 110000000 tuples (89%) done (elapsed 89.75 s, remaining 10.07 s).
99000000 of 110000000 tuples (90%) done (elapsed 89.82 s, remaining 9.98 s).
99100000 of 110000000 tuples (90%) done (elapsed 89.91 s, remaining 9.89 s).
99200000 of 110000000 tuples (90%) done (elapsed 89.97 s, remaining 9.80 s).
99300000 of 110000000 tuples (90%) done (elapsed 90.06 s, remaining 9.70 s).
99400000 of 110000000 tuples (90%) done (elapsed 90.15 s, remaining 9.61 s).
99500000 of 110000000 tuples (90%) done (elapsed 90.21 s, remaining 9.52 s).
99600000 of 110000000 tuples (90%) done (elapsed 90.30 s, remaining 9.43 s).
99700000 of 110000000 tuples (90%) done (elapsed 90.53 s, remaining 9.35 s).
99800000 of 110000000 tuples (90%) done (elapsed 90.58 s, remaining 9.26 s).
99900000 of 110000000 tuples (90%) done (elapsed 90.68 s, remaining 9.17 s).
100000000 of 110000000 tuples (90%) done (elapsed 90.77 s, remaining 9.08 s).
100100000 of 110000000 tuples (91%) done (elapsed 90.86 s, remaining 8.99 s).
100200000 of 110000000 tuples (91%) done (elapsed 90.95 s, remaining 8.89 s).
100300000 of 110000000 tuples (91%) done (elapsed 91.00 s, remaining 8.80 s).
100400000 of 110000000 tuples (91%) done (elapsed 91.09 s, remaining 8.71 s).
100500000 of 110000000 tuples (91%) done (elapsed 91.17 s, remaining 8.62 s).
100600000 of 110000000 tuples (91%) done (elapsed 91.26 s, remaining 8.53 s).
100700000 of 110000000 tuples (91%) done (elapsed 91.35 s, remaining 8.44 s).
100800000 of 110000000 tuples (91%) done (elapsed 91.43 s, remaining 8.34 s).
100900000 of 110000000 tuples (91%) done (elapsed 91.49 s, remaining 8.25 s).
101000000 of 110000000 tuples (91%) done (elapsed 91.57 s, remaining 8.16 s).
101100000 of 110000000 tuples (91%) done (elapsed 91.66 s, remaining 8.07 s).
101200000 of 110000000 tuples (92%) done (elapsed 91.74 s, remaining 7.98 s).
101300000 of 110000000 tuples (92%) done (elapsed 91.83 s, remaining 7.89 s).
101400000 of 110000000 tuples (92%) done (elapsed 91.91 s, remaining 7.80 s).
101500000 of 110000000 tuples (92%) done (elapsed 92.00 s, remaining 7.70 s).
101600000 of 110000000 tuples (92%) done (elapsed 92.05 s, remaining 7.61 s).
101700000 of 110000000 tuples (92%) done (elapsed 92.15 s, remaining 7.52 s).
101800000 of 110000000 tuples (92%) done (elapsed 92.23 s, remaining 7.43 s).
101900000 of 110000000 tuples (92%) done (elapsed 92.32 s, remaining 7.34 s).
102000000 of 110000000 tuples (92%) done (elapsed 92.41 s, remaining 7.25 s).
102100000 of 110000000 tuples (92%) done (elapsed 92.49 s, remaining 7.16 s).
102200000 of 110000000 tuples (92%) done (elapsed 92.58 s, remaining 7.07 s).
102300000 of 110000000 tuples (93%) done (elapsed 92.66 s, remaining 6.97 s).
102400000 of 110000000 tuples (93%) done (elapsed 92.72 s, remaining 6.88 s).
102500000 of 110000000 tuples (93%) done (elapsed 92.80 s, remaining 6.79 s).
102600000 of 110000000 tuples (93%) done (elapsed 92.89 s, remaining 6.70 s).
102700000 of 110000000 tuples (93%) done (elapsed 93.03 s, remaining 6.61 s).
102800000 of 110000000 tuples (93%) done (elapsed 93.13 s, remaining 6.52 s).
102900000 of 110000000 tuples (93%) done (elapsed 93.21 s, remaining 6.43 s).
103000000 of 110000000 tuples (93%) done (elapsed 93.30 s, remaining 6.34 s).
103100000 of 110000000 tuples (93%) done (elapsed 93.39 s, remaining 6.25 s).
103200000 of 110000000 tuples (93%) done (elapsed 93.44 s, remaining 6.16 s).
103300000 of 110000000 tuples (93%) done (elapsed 93.53 s, remaining 6.07 s).
103400000 of 110000000 tuples (94%) done (elapsed 93.62 s, remaining 5.98 s).
103500000 of 110000000 tuples (94%) done (elapsed 93.70 s, remaining 5.88 s).
103600000 of 110000000 tuples (94%) done (elapsed 93.80 s, remaining 5.79 s).
103700000 of 110000000 tuples (94%) done (elapsed 93.89 s, remaining 5.70 s).
103800000 of 110000000 tuples (94%) done (elapsed 93.98 s, remaining 5.61 s).
103900000 of 110000000 tuples (94%) done (elapsed 94.03 s, remaining 5.52 s).
104000000 of 110000000 tuples (94%) done (elapsed 94.12 s, remaining 5.43 s).
104100000 of 110000000 tuples (94%) done (elapsed 94.20 s, remaining 5.34 s).
104200000 of 110000000 tuples (94%) done (elapsed 94.29 s, remaining 5.25 s).
104300000 of 110000000 tuples (94%) done (elapsed 94.37 s, remaining 5.16 s).
104400000 of 110000000 tuples (94%) done (elapsed 94.46 s, remaining 5.07 s).
104500000 of 110000000 tuples (95%) done (elapsed 94.51 s, remaining 4.97 s).
104600000 of 110000000 tuples (95%) done (elapsed 94.60 s, remaining 4.88 s).
104700000 of 110000000 tuples (95%) done (elapsed 94.69 s, remaining 4.79 s).
104800000 of 110000000 tuples (95%) done (elapsed 94.78 s, remaining 4.70 s).
104900000 of 110000000 tuples (95%) done (elapsed 94.86 s, remaining 4.61 s).
105000000 of 110000000 tuples (95%) done (elapsed 94.93 s, remaining 4.52 s).
105100000 of 110000000 tuples (95%) done (elapsed 95.01 s, remaining 4.43 s).
105200000 of 110000000 tuples (95%) done (elapsed 95.10 s, remaining 4.34 s).
105300000 of 110000000 tuples (95%) done (elapsed 95.18 s, remaining 4.25 s).
105400000 of 110000000 tuples (95%) done (elapsed 95.27 s, remaining 4.16 s).
105500000 of 110000000 tuples (95%) done (elapsed 95.36 s, remaining 4.07 s).
105600000 of 110000000 tuples (96%) done (elapsed 95.45 s, remaining 3.98 s).
105700000 of 110000000 tuples (96%) done (elapsed 95.50 s, remaining 3.89 s).
105800000 of 110000000 tuples (96%) done (elapsed 95.59 s, remaining 3.79 s).
105900000 of 110000000 tuples (96%) done (elapsed 95.68 s, remaining 3.70 s).
106000000 of 110000000 tuples (96%) done (elapsed 95.76 s, remaining 3.61 s).
106100000 of 110000000 tuples (96%) done (elapsed 95.85 s, remaining 3.52 s).
106200000 of 110000000 tuples (96%) done (elapsed 95.94 s, remaining 3.43 s).
106300000 of 110000000 tuples (96%) done (elapsed 96.03 s, remaining 3.34 s).
106400000 of 110000000 tuples (96%) done (elapsed 96.08 s, remaining 3.25 s).
106500000 of 110000000 tuples (96%) done (elapsed 96.17 s, remaining 3.16 s).
106600000 of 110000000 tuples (96%) done (elapsed 96.26 s, remaining 3.07 s).
106700000 of 110000000 tuples (97%) done (elapsed 96.35 s, remaining 2.98 s).
106800000 of 110000000 tuples (97%) done (elapsed 96.44 s, remaining 2.89 s).
106900000 of 110000000 tuples (97%) done (elapsed 96.53 s, remaining 2.80 s).
107000000 of 110000000 tuples (97%) done (elapsed 96.62 s, remaining 2.71 s).
107100000 of 110000000 tuples (97%) done (elapsed 96.70 s, remaining 2.62 s).
107200000 of 110000000 tuples (97%) done (elapsed 96.76 s, remaining 2.53 s).
107300000 of 110000000 tuples (97%) done (elapsed 96.84 s, remaining 2.44 s).
107400000 of 110000000 tuples (97%) done (elapsed 96.93 s, remaining 2.35 s).
107500000 of 110000000 tuples (97%) done (elapsed 97.02 s, remaining 2.26 s).
107600000 of 110000000 tuples (97%) done (elapsed 97.23 s, remaining 2.17 s).
107700000 of 110000000 tuples (97%) done (elapsed 97.32 s, remaining 2.08 s).
107800000 of 110000000 tuples (98%) done (elapsed 97.40 s, remaining 1.99 s).
107900000 of 110000000 tuples (98%) done (elapsed 97.46 s, remaining 1.90 s).
108000000 of 110000000 tuples (98%) done (elapsed 97.54 s, remaining 1.81 s).
108100000 of 110000000 tuples (98%) done (elapsed 97.62 s, remaining 1.72 s).
108200000 of 110000000 tuples (98%) done (elapsed 97.71 s, remaining 1.63 s).
108300000 of 110000000 tuples (98%) done (elapsed 97.79 s, remaining 1.54 s).
108400000 of 110000000 tuples (98%) done (elapsed 97.88 s, remaining 1.44 s).
108500000 of 110000000 tuples (98%) done (elapsed 97.93 s, remaining 1.35 s).
108600000 of 110000000 tuples (98%) done (elapsed 98.02 s, remaining 1.26 s).
108700000 of 110000000 tuples (98%) done (elapsed 98.15 s, remaining 1.17 s).
108800000 of 110000000 tuples (98%) done (elapsed 98.23 s, remaining 1.08 s).
108900000 of 110000000 tuples (99%) done (elapsed 98.32 s, remaining 0.99 s).
109000000 of 110000000 tuples (99%) done (elapsed 98.41 s, remaining 0.90 s).
109100000 of 110000000 tuples (99%) done (elapsed 98.49 s, remaining 0.81 s).
109200000 of 110000000 tuples (99%) done (elapsed 98.55 s, remaining 0.72 s).
109300000 of 110000000 tuples (99%) done (elapsed 98.63 s, remaining 0.63 s).
109400000 of 110000000 tuples (99%) done (elapsed 98.72 s, remaining 0.54 s).
109500000 of 110000000 tuples (99%) done (elapsed 98.80 s, remaining 0.45 s).
109600000 of 110000000 tuples (99%) done (elapsed 98.89 s, remaining 0.36 s).
109700000 of 110000000 tuples (99%) done (elapsed 98.98 s, remaining 0.27 s).
109800000 of 110000000 tuples (99%) done (elapsed 99.07 s, remaining 0.18 s).
109900000 of 110000000 tuples (99%) done (elapsed 99.12 s, remaining 0.09 s).
110000000 of 110000000 tuples (100%) done (elapsed 99.21 s, remaining 0.00 s).
vacuum...
set primary keys...
done.
