CHECKPOINT
transaction type: TPC-B (sort of)
scaling factor: 10
query mode: simple
number of clients: 4
number of threads: 4
duration: 1800 s
number of transactions actually processed: 4472612
latency average: 1.610 ms
tps = 2484.780799 (including connections establishing)
tps = 2484.782799 (excluding connections establishing)
