CHECKPOINT
transaction type: SELECT only
scaling factor: 10
query mode: simple
number of clients: 16
number of threads: 16
duration: 1800 s
number of transactions actually processed: 96011955
latency average: 0.300 ms
tps = 53339.959620 (including connections establishing)
tps = 53340.308631 (excluding connections establishing)
