CHECKPOINT
transaction type: SELECT only
scaling factor: 140
query mode: simple
number of clients: 2
number of threads: 2
duration: 1800 s
number of transactions actually processed: 51167763
latency average: 0.070 ms
tps = 28426.533389 (including connections establishing)
tps = 28426.553927 (excluding connections establishing)
