NOTICE:  table "pgbench_history" does not exist, skipping
NOTICE:  table "pgbench_tellers" does not exist, skipping
NOTICE:  table "pgbench_accounts" does not exist, skipping
NOTICE:  table "pgbench_branches" does not exist, skipping
creating tables...
100000 of 14000000 tuples (0%) done (elapsed 0.02 s, remaining 3.30 s).
200000 of 14000000 tuples (1%) done (elapsed 0.05 s, remaining 3.29 s).
300000 of 14000000 tuples (2%) done (elapsed 0.07 s, remaining 3.24 s).
400000 of 14000000 tuples (2%) done (elapsed 0.09 s, remaining 3.21 s).
500000 of 14000000 tuples (3%) done (elapsed 0.15 s, remaining 4.10 s).
600000 of 14000000 tuples (4%) done (elapsed 0.43 s, remaining 9.53 s).
700000 of 14000000 tuples (5%) done (elapsed 0.60 s, remaining 11.38 s).
800000 of 14000000 tuples (5%) done (elapsed 0.66 s, remaining 10.84 s).
900000 of 14000000 tuples (6%) done (elapsed 0.74 s, remaining 10.70 s).
1000000 of 14000000 tuples (7%) done (elapsed 0.95 s, remaining 12.38 s).
1100000 of 14000000 tuples (7%) done (elapsed 1.16 s, remaining 13.58 s).
1200000 of 14000000 tuples (8%) done (elapsed 1.22 s, remaining 12.96 s).
1300000 of 14000000 tuples (9%) done (elapsed 1.33 s, remaining 12.98 s).
1400000 of 14000000 tuples (10%) done (elapsed 1.54 s, remaining 13.86 s).
1500000 of 14000000 tuples (10%) done (elapsed 1.65 s, remaining 13.71 s).
1600000 of 14000000 tuples (11%) done (elapsed 1.70 s, remaining 13.18 s).
1700000 of 14000000 tuples (12%) done (elapsed 2.08 s, remaining 15.02 s).
1800000 of 14000000 tuples (12%) done (elapsed 2.13 s, remaining 14.44 s).
1900000 of 14000000 tuples (13%) done (elapsed 2.32 s, remaining 14.75 s).
2000000 of 14000000 tuples (14%) done (elapsed 2.39 s, remaining 14.35 s).
2100000 of 14000000 tuples (15%) done (elapsed 2.48 s, remaining 14.04 s).
2200000 of 14000000 tuples (15%) done (elapsed 2.81 s, remaining 15.08 s).
2300000 of 14000000 tuples (16%) done (elapsed 3.00 s, remaining 15.25 s).
2400000 of 14000000 tuples (17%) done (elapsed 3.05 s, remaining 14.75 s).
2500000 of 14000000 tuples (17%) done (elapsed 3.13 s, remaining 14.40 s).
2600000 of 14000000 tuples (18%) done (elapsed 3.34 s, remaining 14.66 s).
2700000 of 14000000 tuples (19%) done (elapsed 3.50 s, remaining 14.63 s).
2800000 of 14000000 tuples (20%) done (elapsed 3.59 s, remaining 14.36 s).
2900000 of 14000000 tuples (20%) done (elapsed 3.65 s, remaining 13.96 s).
3000000 of 14000000 tuples (21%) done (elapsed 3.92 s, remaining 14.39 s).
3100000 of 14000000 tuples (22%) done (elapsed 4.02 s, remaining 14.14 s).
3200000 of 14000000 tuples (22%) done (elapsed 4.08 s, remaining 13.76 s).
3300000 of 14000000 tuples (23%) done (elapsed 4.36 s, remaining 14.13 s).
3400000 of 14000000 tuples (24%) done (elapsed 4.46 s, remaining 13.90 s).
3500000 of 14000000 tuples (25%) done (elapsed 4.51 s, remaining 13.54 s).
3600000 of 14000000 tuples (25%) done (elapsed 4.82 s, remaining 13.91 s).
3700000 of 14000000 tuples (26%) done (elapsed 4.87 s, remaining 13.56 s).
3800000 of 14000000 tuples (27%) done (elapsed 4.97 s, remaining 13.34 s).
3900000 of 14000000 tuples (27%) done (elapsed 5.25 s, remaining 13.60 s).
4000000 of 14000000 tuples (28%) done (elapsed 5.36 s, remaining 13.39 s).
4100000 of 14000000 tuples (29%) done (elapsed 5.41 s, remaining 13.06 s).
4200000 of 14000000 tuples (30%) done (elapsed 5.69 s, remaining 13.28 s).
4300000 of 14000000 tuples (30%) done (elapsed 5.75 s, remaining 12.96 s).
4400000 of 14000000 tuples (31%) done (elapsed 5.84 s, remaining 12.73 s).
4500000 of 14000000 tuples (32%) done (elapsed 6.11 s, remaining 12.91 s).
4600000 of 14000000 tuples (32%) done (elapsed 6.21 s, remaining 12.69 s).
4700000 of 14000000 tuples (33%) done (elapsed 6.26 s, remaining 12.39 s).
4800000 of 14000000 tuples (34%) done (elapsed 6.57 s, remaining 12.59 s).
4900000 of 14000000 tuples (35%) done (elapsed 6.63 s, remaining 12.31 s).
5000000 of 14000000 tuples (35%) done (elapsed 6.72 s, remaining 12.09 s).
5100000 of 14000000 tuples (36%) done (elapsed 7.00 s, remaining 12.21 s).
5200000 of 14000000 tuples (37%) done (elapsed 7.10 s, remaining 12.01 s).
5300000 of 14000000 tuples (37%) done (elapsed 7.15 s, remaining 11.74 s).
5400000 of 14000000 tuples (38%) done (elapsed 7.45 s, remaining 11.87 s).
5500000 of 14000000 tuples (39%) done (elapsed 7.51 s, remaining 11.60 s).
5600000 of 14000000 tuples (40%) done (elapsed 7.60 s, remaining 11.40 s).
5700000 of 14000000 tuples (40%) done (elapsed 7.87 s, remaining 11.47 s).
5800000 of 14000000 tuples (41%) done (elapsed 7.97 s, remaining 11.27 s).
5900000 of 14000000 tuples (42%) done (elapsed 8.03 s, remaining 11.02 s).
6000000 of 14000000 tuples (42%) done (elapsed 8.33 s, remaining 11.10 s).
6100000 of 14000000 tuples (43%) done (elapsed 8.39 s, remaining 10.86 s).
6200000 of 14000000 tuples (44%) done (elapsed 8.44 s, remaining 10.62 s).
6300000 of 14000000 tuples (45%) done (elapsed 8.75 s, remaining 10.69 s).
6400000 of 14000000 tuples (45%) done (elapsed 8.84 s, remaining 10.50 s).
6500000 of 14000000 tuples (46%) done (elapsed 8.89 s, remaining 10.26 s).
6600000 of 14000000 tuples (47%) done (elapsed 9.16 s, remaining 10.27 s).
6700000 of 14000000 tuples (47%) done (elapsed 9.26 s, remaining 10.09 s).
6800000 of 14000000 tuples (48%) done (elapsed 9.31 s, remaining 9.86 s).
6900000 of 14000000 tuples (49%) done (elapsed 9.60 s, remaining 9.88 s).
7000000 of 14000000 tuples (50%) done (elapsed 9.66 s, remaining 9.66 s).
7100000 of 14000000 tuples (50%) done (elapsed 9.95 s, remaining 9.67 s).
7200000 of 14000000 tuples (51%) done (elapsed 10.01 s, remaining 9.45 s).
7300000 of 14000000 tuples (52%) done (elapsed 10.10 s, remaining 9.27 s).
7400000 of 14000000 tuples (52%) done (elapsed 10.36 s, remaining 9.24 s).
7500000 of 14000000 tuples (53%) done (elapsed 10.41 s, remaining 9.02 s).
7600000 of 14000000 tuples (54%) done (elapsed 10.51 s, remaining 8.85 s).
7700000 of 14000000 tuples (55%) done (elapsed 10.80 s, remaining 8.84 s).
7800000 of 14000000 tuples (55%) done (elapsed 10.86 s, remaining 8.63 s).
7900000 of 14000000 tuples (56%) done (elapsed 10.95 s, remaining 8.45 s).
8000000 of 14000000 tuples (57%) done (elapsed 11.21 s, remaining 8.41 s).
8100000 of 14000000 tuples (57%) done (elapsed 11.31 s, remaining 8.24 s).
8200000 of 14000000 tuples (58%) done (elapsed 11.36 s, remaining 8.04 s).
8300000 of 14000000 tuples (59%) done (elapsed 11.62 s, remaining 7.98 s).
8400000 of 14000000 tuples (60%) done (elapsed 11.84 s, remaining 7.89 s).
8500000 of 14000000 tuples (60%) done (elapsed 12.01 s, remaining 7.77 s).
8600000 of 14000000 tuples (61%) done (elapsed 12.12 s, remaining 7.61 s).
8700000 of 14000000 tuples (62%) done (elapsed 12.20 s, remaining 7.43 s).
8800000 of 14000000 tuples (62%) done (elapsed 12.45 s, remaining 7.36 s).
8900000 of 14000000 tuples (63%) done (elapsed 12.50 s, remaining 7.17 s).
9000000 of 14000000 tuples (64%) done (elapsed 12.63 s, remaining 7.02 s).
9100000 of 14000000 tuples (65%) done (elapsed 12.85 s, remaining 6.92 s).
9200000 of 14000000 tuples (65%) done (elapsed 12.95 s, remaining 6.76 s).
9300000 of 14000000 tuples (66%) done (elapsed 13.01 s, remaining 6.57 s).
9400000 of 14000000 tuples (67%) done (elapsed 13.27 s, remaining 6.50 s).
9500000 of 14000000 tuples (67%) done (elapsed 13.34 s, remaining 6.32 s).
9600000 of 14000000 tuples (68%) done (elapsed 13.62 s, remaining 6.24 s).
9700000 of 14000000 tuples (69%) done (elapsed 13.68 s, remaining 6.06 s).
9800000 of 14000000 tuples (70%) done (elapsed 13.76 s, remaining 5.90 s).
9900000 of 14000000 tuples (70%) done (elapsed 14.01 s, remaining 5.80 s).
10000000 of 14000000 tuples (71%) done (elapsed 14.10 s, remaining 5.64 s).
10100000 of 14000000 tuples (72%) done (elapsed 14.16 s, remaining 5.47 s).
10200000 of 14000000 tuples (72%) done (elapsed 14.44 s, remaining 5.38 s).
10300000 of 14000000 tuples (73%) done (elapsed 14.53 s, remaining 5.22 s).
10400000 of 14000000 tuples (74%) done (elapsed 14.78 s, remaining 5.11 s).
10500000 of 14000000 tuples (75%) done (elapsed 14.86 s, remaining 4.95 s).
10600000 of 14000000 tuples (75%) done (elapsed 14.91 s, remaining 4.78 s).
10700000 of 14000000 tuples (76%) done (elapsed 15.18 s, remaining 4.68 s).
10800000 of 14000000 tuples (77%) done (elapsed 15.27 s, remaining 4.52 s).
10900000 of 14000000 tuples (77%) done (elapsed 15.54 s, remaining 4.42 s).
11000000 of 14000000 tuples (78%) done (elapsed 15.60 s, remaining 4.25 s).
11100000 of 14000000 tuples (79%) done (elapsed 15.68 s, remaining 4.10 s).
11200000 of 14000000 tuples (80%) done (elapsed 15.94 s, remaining 3.98 s).
11300000 of 14000000 tuples (80%) done (elapsed 16.02 s, remaining 3.83 s).
11400000 of 14000000 tuples (81%) done (elapsed 16.08 s, remaining 3.67 s).
11500000 of 14000000 tuples (82%) done (elapsed 16.36 s, remaining 3.56 s).
11600000 of 14000000 tuples (82%) done (elapsed 16.45 s, remaining 3.40 s).
11700000 of 14000000 tuples (83%) done (elapsed 16.72 s, remaining 3.29 s).
11800000 of 14000000 tuples (84%) done (elapsed 16.78 s, remaining 3.13 s).
11900000 of 14000000 tuples (85%) done (elapsed 16.86 s, remaining 2.98 s).
12000000 of 14000000 tuples (85%) done (elapsed 17.12 s, remaining 2.85 s).
12100000 of 14000000 tuples (86%) done (elapsed 17.21 s, remaining 2.70 s).
12200000 of 14000000 tuples (87%) done (elapsed 17.26 s, remaining 2.55 s).
12300000 of 14000000 tuples (87%) done (elapsed 17.55 s, remaining 2.43 s).
12400000 of 14000000 tuples (88%) done (elapsed 17.64 s, remaining 2.28 s).
12500000 of 14000000 tuples (89%) done (elapsed 17.95 s, remaining 2.15 s).
12600000 of 14000000 tuples (90%) done (elapsed 18.03 s, remaining 2.00 s).
12700000 of 14000000 tuples (90%) done (elapsed 18.35 s, remaining 1.88 s).
12800000 of 14000000 tuples (91%) done (elapsed 18.41 s, remaining 1.73 s).
12900000 of 14000000 tuples (92%) done (elapsed 18.49 s, remaining 1.58 s).
13000000 of 14000000 tuples (92%) done (elapsed 18.70 s, remaining 1.44 s).
13100000 of 14000000 tuples (93%) done (elapsed 18.86 s, remaining 1.30 s).
13200000 of 14000000 tuples (94%) done (elapsed 18.95 s, remaining 1.15 s).
13300000 of 14000000 tuples (95%) done (elapsed 19.00 s, remaining 1.00 s).
13400000 of 14000000 tuples (95%) done (elapsed 19.08 s, remaining 0.85 s).
13500000 of 14000000 tuples (96%) done (elapsed 19.14 s, remaining 0.71 s).
13600000 of 14000000 tuples (97%) done (elapsed 19.55 s, remaining 0.57 s).
13700000 of 14000000 tuples (97%) done (elapsed 19.60 s, remaining 0.43 s).
13800000 of 14000000 tuples (98%) done (elapsed 19.69 s, remaining 0.29 s).
13900000 of 14000000 tuples (99%) done (elapsed 19.92 s, remaining 0.14 s).
14000000 of 14000000 tuples (100%) done (elapsed 20.05 s, remaining 0.00 s).
vacuum...
set primary keys...
done.
