CHECKPOINT
transaction type: SELECT only
scaling factor: 10
query mode: simple
number of clients: 2
number of threads: 2
duration: 1800 s
number of transactions actually processed: 53757717
latency average: 0.067 ms
tps = 29865.396674 (including connections establishing)
tps = 29865.416584 (excluding connections establishing)
