CHECKPOINT
transaction type: TPC-B (sort of)
scaling factor: 1100
query mode: simple
number of clients: 1
number of threads: 1
duration: 1800 s
number of transactions actually processed: 1746899
latency average: 1.030 ms
tps = 970.498666 (including connections establishing)
tps = 970.499400 (excluding connections establishing)
