type,scale,clients,0,1,2
ro,small,1,14952.428133,14961.485977,14932.36116
ro,small,2,29509.852184,29678.782257,29656.771031
ro,small,4,53877.069442,53964.554976,53948.590398
ro,small,8,53395.758657,53458.184916,53416.899032
ro,small,16,53565.071787,53159.58303,53397.926834
ro,large,1,3658.854664,5902.072448,5925.764077
ro,large,2,11223.349317,11456.586281,11501.385592
ro,large,4,20273.460967,20486.012732,20520.435963
ro,large,8,31881.258262,32081.701095,32160.858051
ro,large,16,37743.560562,37548.449417,37788.931898
ro,medium,1,13956.684842,14319.579871,14278.005088
ro,medium,2,28268.566286,28254.165087,28343.845841
ro,medium,4,51668.909516,51318.975411,51745.9286
ro,medium,8,51433.851942,51160.026272,50427.232258
ro,medium,16,51038.631949,50790.082035,51183.780868
rw,small,1,1916.54582,1908.666388,1902.538189
rw,small,2,3651.112617,3653.378622,3655.450289
rw,small,4,5891.81965,5929.860801,5915.981703
rw,small,8,7215.589011,7217.427514,7202.91974
rw,small,16,7422.935949,7418.361009,7368.199942
rw,large,1,1225.659015,1225.110145,1218.504849
rw,large,2,2049.700114,2027.587792,2026.509453
rw,large,4,3281.27398,3260.875769,3234.651595
rw,large,8,4758.753607,4744.996899,4756.259886
rw,large,16,5906.622033,5890.15355,5899.556731
rw,medium,1,1800.315352,1800.462111,1802.489593
rw,medium,2,3368.002781,3338.879717,3313.310189
rw,medium,4,5268.232954,5179.580211,5244.442734
rw,medium,8,6220.202831,6208.253942,6121.961656
rw,medium,16,6452.813337,6529.996414,6473.260524
