NOTICE:  table "pgbench_history" does not exist, skipping
NOTICE:  table "pgbench_tellers" does not exist, skipping
NOTICE:  table "pgbench_accounts" does not exist, skipping
NOTICE:  table "pgbench_branches" does not exist, skipping
creating tables...
100000 of 1000000 tuples (10%) done (elapsed 0.02 s, remaining 0.21 s).
200000 of 1000000 tuples (20%) done (elapsed 0.05 s, remaining 0.19 s).
300000 of 1000000 tuples (30%) done (elapsed 0.07 s, remaining 0.16 s).
400000 of 1000000 tuples (40%) done (elapsed 0.13 s, remaining 0.19 s).
500000 of 1000000 tuples (50%) done (elapsed 0.42 s, remaining 0.42 s).
600000 of 1000000 tuples (60%) done (elapsed 0.47 s, remaining 0.32 s).
700000 of 1000000 tuples (70%) done (elapsed 0.53 s, remaining 0.23 s).
800000 of 1000000 tuples (80%) done (elapsed 0.78 s, remaining 0.19 s).
900000 of 1000000 tuples (90%) done (elapsed 0.83 s, remaining 0.09 s).
1000000 of 1000000 tuples (100%) done (elapsed 0.89 s, remaining 0.00 s).
vacuum...
set primary keys...
done.
