CHECKPOINT
transaction type: TPC-B (sort of)
scaling factor: 140
query mode: simple
number of clients: 4
number of threads: 4
duration: 1800 s
number of transactions actually processed: 7638154
latency average: 0.943 ms
tps = 4243.411894 (including connections establishing)
tps = 4243.416785 (excluding connections establishing)
