CHECKPOINT
transaction type: SELECT only
scaling factor: 1100
query mode: simple
number of clients: 16
number of threads: 16
duration: 1800 s
number of transactions actually processed: 67237052
latency average: 0.428 ms
tps = 37353.803890 (including connections establishing)
tps = 37353.915518 (excluding connections establishing)
