type,scale,clients,0,1,2
ro,small,1,15038.306537,15038.020267,15038.981345
ro,small,2,29784.657227,29741.139981,29750.037521
ro,small,4,53699.204783,54136.843824,53816.758472
ro,small,8,53467.748578,53403.427974,53776.227758
ro,small,16,53120.471788,53093.555124,53104.397065
ro,large,1,2843.890572,5832.909073,5863.787283
ro,large,2,10454.057462,10974.3708,11168.303919
ro,large,4,19601.135017,19751.654873,19786.902516
ro,large,8,30135.789293,30551.629484,30618.158715
ro,large,16,37223.939519,37625.359781,37693.08125
ro,medium,1,13992.434215,14335.800171,14360.558051
ro,medium,2,28470.682483,28445.079915,28340.354802
ro,medium,4,51115.429484,50743.401222,50971.60099
ro,medium,8,51121.735438,51242.416279,51249.50529
ro,medium,16,50684.320048,50700.720655,50751.076723
rw,small,1,1924.436348,1910.820408,1908.080476
rw,small,2,3652.451445,3654.993977,3654.405503
rw,small,4,5861.405044,5869.93589,5877.443391
rw,small,8,7055.634532,7055.623921,7076.542852
rw,small,16,7314.981921,7337.317068,7304.401383
rw,large,1,1058.156425,1049.424783,1045.1393
rw,large,2,1628.429103,1647.879176,1631.944016
rw,large,4,2532.664132,2532.980295,2507.811692
rw,large,8,3708.139868,3713.049053,3649.487298
rw,large,16,4801.721637,4758.49662,4639.252801
rw,medium,1,1770.081017,1755.172633,1774.365138
rw,medium,2,3191.731642,3138.533426,3160.691005
rw,medium,4,4803.461541,4821.578257,4847.651353
rw,medium,8,5918.779329,5890.156286,5840.505515
rw,medium,16,6330.424674,6287.721156,6324.795044
