starting vacuum...end.
Client 1 aborted in state 8: ERROR:  could not write block 1362494 in file "base/20549/21567.10": No space left on device
CONTEXT:  writing block 1362494 of relation base/20549/21567
