CHECKPOINT
transaction type: SELECT only
scaling factor: 10
query mode: simple
number of clients: 8
number of threads: 8
duration: 1800 s
number of transactions actually processed: 97477565
latency average: 0.148 ms
tps = 54154.194775 (including connections establishing)
tps = 54154.278045 (excluding connections establishing)
