CHECKPOINT
transaction type: SELECT only
scaling factor: 140
query mode: simple
number of clients: 2
number of threads: 2
duration: 1800 s
number of transactions actually processed: 51237955
latency average: 0.070 ms
tps = 28465.528294 (including connections establishing)
tps = 28465.549224 (excluding connections establishing)
