NOTICE:  table "pgbench_history" does not exist, skipping
NOTICE:  table "pgbench_tellers" does not exist, skipping
NOTICE:  table "pgbench_accounts" does not exist, skipping
NOTICE:  table "pgbench_branches" does not exist, skipping
creating tables...
100000 of 14000000 tuples (0%) done (elapsed 0.02 s, remaining 3.34 s).
200000 of 14000000 tuples (1%) done (elapsed 0.05 s, remaining 3.33 s).
300000 of 14000000 tuples (2%) done (elapsed 0.07 s, remaining 3.29 s).
400000 of 14000000 tuples (2%) done (elapsed 0.10 s, remaining 3.25 s).
500000 of 14000000 tuples (3%) done (elapsed 0.15 s, remaining 4.14 s).
600000 of 14000000 tuples (4%) done (elapsed 0.44 s, remaining 9.93 s).
700000 of 14000000 tuples (5%) done (elapsed 0.63 s, remaining 12.03 s).
800000 of 14000000 tuples (5%) done (elapsed 0.69 s, remaining 11.42 s).
900000 of 14000000 tuples (6%) done (elapsed 0.80 s, remaining 11.59 s).
1000000 of 14000000 tuples (7%) done (elapsed 0.89 s, remaining 11.57 s).
1100000 of 14000000 tuples (7%) done (elapsed 1.11 s, remaining 13.01 s).
1200000 of 14000000 tuples (8%) done (elapsed 1.33 s, remaining 14.18 s).
1300000 of 14000000 tuples (9%) done (elapsed 1.43 s, remaining 13.96 s).
1400000 of 14000000 tuples (10%) done (elapsed 1.52 s, remaining 13.67 s).
1500000 of 14000000 tuples (10%) done (elapsed 1.72 s, remaining 14.34 s).
1600000 of 14000000 tuples (11%) done (elapsed 1.95 s, remaining 15.13 s).
1700000 of 14000000 tuples (12%) done (elapsed 2.05 s, remaining 14.86 s).
1800000 of 14000000 tuples (12%) done (elapsed 2.14 s, remaining 14.53 s).
1900000 of 14000000 tuples (13%) done (elapsed 2.36 s, remaining 15.00 s).
2000000 of 14000000 tuples (14%) done (elapsed 2.57 s, remaining 15.41 s).
2100000 of 14000000 tuples (15%) done (elapsed 2.67 s, remaining 15.14 s).
2200000 of 14000000 tuples (15%) done (elapsed 2.76 s, remaining 14.80 s).
2300000 of 14000000 tuples (16%) done (elapsed 2.82 s, remaining 14.33 s).
2400000 of 14000000 tuples (17%) done (elapsed 3.17 s, remaining 15.33 s).
2500000 of 14000000 tuples (17%) done (elapsed 3.26 s, remaining 15.00 s).
2600000 of 14000000 tuples (18%) done (elapsed 3.46 s, remaining 15.17 s).
2700000 of 14000000 tuples (19%) done (elapsed 3.61 s, remaining 15.09 s).
2800000 of 14000000 tuples (20%) done (elapsed 3.66 s, remaining 14.65 s).
2900000 of 14000000 tuples (20%) done (elapsed 3.92 s, remaining 15.01 s).
3000000 of 14000000 tuples (21%) done (elapsed 4.11 s, remaining 15.07 s).
3100000 of 14000000 tuples (22%) done (elapsed 4.25 s, remaining 14.95 s).
3200000 of 14000000 tuples (22%) done (elapsed 4.31 s, remaining 14.54 s).
3300000 of 14000000 tuples (23%) done (elapsed 4.39 s, remaining 14.25 s).
3400000 of 14000000 tuples (24%) done (elapsed 4.82 s, remaining 15.02 s).
3500000 of 14000000 tuples (25%) done (elapsed 4.91 s, remaining 14.72 s).
3600000 of 14000000 tuples (25%) done (elapsed 5.09 s, remaining 14.71 s).
3700000 of 14000000 tuples (26%) done (elapsed 5.22 s, remaining 14.54 s).
3800000 of 14000000 tuples (27%) done (elapsed 5.28 s, remaining 14.17 s).
3900000 of 14000000 tuples (27%) done (elapsed 5.55 s, remaining 14.37 s).
4000000 of 14000000 tuples (28%) done (elapsed 5.75 s, remaining 14.39 s).
4100000 of 14000000 tuples (29%) done (elapsed 5.89 s, remaining 14.22 s).
4200000 of 14000000 tuples (30%) done (elapsed 5.95 s, remaining 13.87 s).
4300000 of 14000000 tuples (30%) done (elapsed 6.22 s, remaining 14.02 s).
4400000 of 14000000 tuples (31%) done (elapsed 6.41 s, remaining 13.97 s).
4500000 of 14000000 tuples (32%) done (elapsed 6.55 s, remaining 13.82 s).
4600000 of 14000000 tuples (32%) done (elapsed 6.60 s, remaining 13.49 s).
4700000 of 14000000 tuples (33%) done (elapsed 6.86 s, remaining 13.58 s).
4800000 of 14000000 tuples (34%) done (elapsed 7.10 s, remaining 13.61 s).
4900000 of 14000000 tuples (35%) done (elapsed 7.20 s, remaining 13.36 s).
5000000 of 14000000 tuples (35%) done (elapsed 7.25 s, remaining 13.06 s).
5100000 of 14000000 tuples (36%) done (elapsed 7.51 s, remaining 13.11 s).
5200000 of 14000000 tuples (37%) done (elapsed 7.73 s, remaining 13.08 s).
5300000 of 14000000 tuples (37%) done (elapsed 7.82 s, remaining 12.84 s).
5400000 of 14000000 tuples (38%) done (elapsed 7.95 s, remaining 12.66 s).
5500000 of 14000000 tuples (39%) done (elapsed 8.13 s, remaining 12.57 s).
5600000 of 14000000 tuples (40%) done (elapsed 8.37 s, remaining 12.55 s).
5700000 of 14000000 tuples (40%) done (elapsed 8.48 s, remaining 12.35 s).
5800000 of 14000000 tuples (41%) done (elapsed 8.57 s, remaining 12.12 s).
5900000 of 14000000 tuples (42%) done (elapsed 8.80 s, remaining 12.08 s).
6000000 of 14000000 tuples (42%) done (elapsed 9.02 s, remaining 12.02 s).
6100000 of 14000000 tuples (43%) done (elapsed 9.11 s, remaining 11.80 s).
6200000 of 14000000 tuples (44%) done (elapsed 9.20 s, remaining 11.57 s).
6300000 of 14000000 tuples (45%) done (elapsed 9.61 s, remaining 11.74 s).
6400000 of 14000000 tuples (45%) done (elapsed 9.66 s, remaining 11.47 s).
6500000 of 14000000 tuples (46%) done (elapsed 9.78 s, remaining 11.29 s).
6600000 of 14000000 tuples (47%) done (elapsed 9.88 s, remaining 11.07 s).
6700000 of 14000000 tuples (47%) done (elapsed 10.23 s, remaining 11.14 s).
6800000 of 14000000 tuples (48%) done (elapsed 10.28 s, remaining 10.89 s).
6900000 of 14000000 tuples (49%) done (elapsed 10.41 s, remaining 10.71 s).
7000000 of 14000000 tuples (50%) done (elapsed 10.67 s, remaining 10.67 s).
7100000 of 14000000 tuples (50%) done (elapsed 10.86 s, remaining 10.55 s).
7200000 of 14000000 tuples (51%) done (elapsed 11.00 s, remaining 10.38 s).
7300000 of 14000000 tuples (52%) done (elapsed 11.05 s, remaining 10.14 s).
7400000 of 14000000 tuples (52%) done (elapsed 11.28 s, remaining 10.06 s).
7500000 of 14000000 tuples (53%) done (elapsed 11.50 s, remaining 9.97 s).
7600000 of 14000000 tuples (54%) done (elapsed 11.60 s, remaining 9.77 s).
7700000 of 14000000 tuples (55%) done (elapsed 11.69 s, remaining 9.56 s).
7800000 of 14000000 tuples (55%) done (elapsed 11.92 s, remaining 9.48 s).
7900000 of 14000000 tuples (56%) done (elapsed 12.13 s, remaining 9.37 s).
8000000 of 14000000 tuples (57%) done (elapsed 12.23 s, remaining 9.18 s).
8100000 of 14000000 tuples (57%) done (elapsed 12.49 s, remaining 9.10 s).
8200000 of 14000000 tuples (58%) done (elapsed 12.68 s, remaining 8.97 s).
8300000 of 14000000 tuples (59%) done (elapsed 12.78 s, remaining 8.78 s).
8400000 of 14000000 tuples (60%) done (elapsed 12.84 s, remaining 8.56 s).
8500000 of 14000000 tuples (60%) done (elapsed 13.10 s, remaining 8.48 s).
8600000 of 14000000 tuples (61%) done (elapsed 13.28 s, remaining 8.34 s).
8700000 of 14000000 tuples (62%) done (elapsed 13.41 s, remaining 8.17 s).
8800000 of 14000000 tuples (62%) done (elapsed 13.50 s, remaining 7.98 s).
8900000 of 14000000 tuples (63%) done (elapsed 13.74 s, remaining 7.87 s).
9000000 of 14000000 tuples (64%) done (elapsed 13.97 s, remaining 7.76 s).
9100000 of 14000000 tuples (65%) done (elapsed 14.07 s, remaining 7.58 s).
9200000 of 14000000 tuples (65%) done (elapsed 14.32 s, remaining 7.47 s).
9300000 of 14000000 tuples (66%) done (elapsed 14.52 s, remaining 7.34 s).
9400000 of 14000000 tuples (67%) done (elapsed 14.64 s, remaining 7.16 s).
9500000 of 14000000 tuples (67%) done (elapsed 14.69 s, remaining 6.96 s).
9600000 of 14000000 tuples (68%) done (elapsed 14.94 s, remaining 6.85 s).
9700000 of 14000000 tuples (69%) done (elapsed 15.12 s, remaining 6.70 s).
9800000 of 14000000 tuples (70%) done (elapsed 15.24 s, remaining 6.53 s).
9900000 of 14000000 tuples (70%) done (elapsed 15.30 s, remaining 6.34 s).
10000000 of 14000000 tuples (71%) done (elapsed 15.70 s, remaining 6.28 s).
10100000 of 14000000 tuples (72%) done (elapsed 15.76 s, remaining 6.09 s).
10200000 of 14000000 tuples (72%) done (elapsed 15.89 s, remaining 5.92 s).
10300000 of 14000000 tuples (73%) done (elapsed 15.95 s, remaining 5.73 s).
10400000 of 14000000 tuples (74%) done (elapsed 16.32 s, remaining 5.65 s).
10500000 of 14000000 tuples (75%) done (elapsed 16.44 s, remaining 5.48 s).
10600000 of 14000000 tuples (75%) done (elapsed 16.50 s, remaining 5.29 s).
10700000 of 14000000 tuples (76%) done (elapsed 16.74 s, remaining 5.16 s).
10800000 of 14000000 tuples (77%) done (elapsed 16.91 s, remaining 5.01 s).
10900000 of 14000000 tuples (77%) done (elapsed 17.04 s, remaining 4.85 s).
11000000 of 14000000 tuples (78%) done (elapsed 17.12 s, remaining 4.67 s).
11100000 of 14000000 tuples (79%) done (elapsed 17.33 s, remaining 4.53 s).
11200000 of 14000000 tuples (80%) done (elapsed 17.55 s, remaining 4.39 s).
11300000 of 14000000 tuples (80%) done (elapsed 17.67 s, remaining 4.22 s).
11400000 of 14000000 tuples (81%) done (elapsed 17.73 s, remaining 4.04 s).
11500000 of 14000000 tuples (82%) done (elapsed 18.08 s, remaining 3.93 s).
11600000 of 14000000 tuples (82%) done (elapsed 18.22 s, remaining 3.77 s).
11700000 of 14000000 tuples (83%) done (elapsed 18.27 s, remaining 3.59 s).
11800000 of 14000000 tuples (84%) done (elapsed 18.50 s, remaining 3.45 s).
11900000 of 14000000 tuples (85%) done (elapsed 18.71 s, remaining 3.30 s).
12000000 of 14000000 tuples (85%) done (elapsed 18.80 s, remaining 3.13 s).
12100000 of 14000000 tuples (86%) done (elapsed 18.92 s, remaining 2.97 s).
12200000 of 14000000 tuples (87%) done (elapsed 19.24 s, remaining 2.84 s).
12300000 of 14000000 tuples (87%) done (elapsed 19.30 s, remaining 2.67 s).
12400000 of 14000000 tuples (88%) done (elapsed 19.42 s, remaining 2.51 s).
12500000 of 14000000 tuples (89%) done (elapsed 19.66 s, remaining 2.36 s).
12600000 of 14000000 tuples (90%) done (elapsed 19.82 s, remaining 2.20 s).
12700000 of 14000000 tuples (90%) done (elapsed 19.94 s, remaining 2.04 s).
12800000 of 14000000 tuples (91%) done (elapsed 20.02 s, remaining 1.88 s).
12900000 of 14000000 tuples (92%) done (elapsed 20.38 s, remaining 1.74 s).
13000000 of 14000000 tuples (92%) done (elapsed 20.44 s, remaining 1.57 s).
13100000 of 14000000 tuples (93%) done (elapsed 20.56 s, remaining 1.41 s).
13200000 of 14000000 tuples (94%) done (elapsed 20.78 s, remaining 1.26 s).
13300000 of 14000000 tuples (95%) done (elapsed 20.98 s, remaining 1.10 s).
13400000 of 14000000 tuples (95%) done (elapsed 21.07 s, remaining 0.94 s).
13500000 of 14000000 tuples (96%) done (elapsed 21.16 s, remaining 0.78 s).
13600000 of 14000000 tuples (97%) done (elapsed 21.52 s, remaining 0.63 s).
13700000 of 14000000 tuples (97%) done (elapsed 21.57 s, remaining 0.47 s).
13800000 of 14000000 tuples (98%) done (elapsed 21.69 s, remaining 0.31 s).
13900000 of 14000000 tuples (99%) done (elapsed 21.91 s, remaining 0.16 s).
14000000 of 14000000 tuples (100%) done (elapsed 22.06 s, remaining 0.00 s).
vacuum...
set primary keys...
done.
