CHECKPOINT
transaction type: TPC-B (sort of)
scaling factor: 10
query mode: simple
number of clients: 8
number of threads: 8
duration: 1800 s
number of transactions actually processed: 11683694
latency average: 1.232 ms
tps = 6490.905350 (including connections establishing)
tps = 6490.916909 (excluding connections establishing)
