CHECKPOINT
transaction type: SELECT only
scaling factor: 1100
query mode: simple
number of clients: 8
number of threads: 8
duration: 1800 s
number of transactions actually processed: 5142337
latency average: 2.800 ms
tps = 2856.229105 (including connections establishing)
tps = 2856.234416 (excluding connections establishing)
