transaction type: TPC-B (sort of)
scaling factor: 10
query mode: simple
number of clients: 16
number of threads: 16
duration: 1800 s
number of transactions actually processed: 7024791
latency average: 4.100 ms
tps = 3902.622211 (including connections establishing)
tps = 3902.638343 (excluding connections establishing)
