transaction type: TPC-B (sort of)
scaling factor: 1100
query mode: simple
number of clients: 16
number of threads: 16
duration: 1800 s
number of transactions actually processed: 1714042
latency average: 16.802 ms
tps = 948.927054 (including connections establishing)
tps = 948.929526 (excluding connections establishing)
