CHECKPOINT
transaction type: TPC-B (sort of)
scaling factor: 10
query mode: simple
number of clients: 8
number of threads: 8
duration: 1800 s
number of transactions actually processed: 11828335
latency average: 1.217 ms
tps = 6571.258543 (including connections establishing)
tps = 6571.268658 (excluding connections establishing)
