NOTICE:  table "pgbench_history" does not exist, skipping
NOTICE:  table "pgbench_tellers" does not exist, skipping
NOTICE:  table "pgbench_accounts" does not exist, skipping
NOTICE:  table "pgbench_branches" does not exist, skipping
creating tables...
100000 of 14000000 tuples (0%) done (elapsed 0.02 s, remaining 3.30 s).
200000 of 14000000 tuples (1%) done (elapsed 0.05 s, remaining 3.28 s).
300000 of 14000000 tuples (2%) done (elapsed 0.07 s, remaining 3.24 s).
400000 of 14000000 tuples (2%) done (elapsed 0.09 s, remaining 3.21 s).
500000 of 14000000 tuples (3%) done (elapsed 0.15 s, remaining 4.10 s).
600000 of 14000000 tuples (4%) done (elapsed 0.42 s, remaining 9.40 s).
700000 of 14000000 tuples (5%) done (elapsed 0.57 s, remaining 10.83 s).
800000 of 14000000 tuples (5%) done (elapsed 0.64 s, remaining 10.58 s).
900000 of 14000000 tuples (6%) done (elapsed 0.87 s, remaining 12.70 s).
1000000 of 14000000 tuples (7%) done (elapsed 1.03 s, remaining 13.40 s).
1100000 of 14000000 tuples (7%) done (elapsed 1.14 s, remaining 13.37 s).
1200000 of 14000000 tuples (8%) done (elapsed 1.33 s, remaining 14.20 s).
1300000 of 14000000 tuples (9%) done (elapsed 1.48 s, remaining 14.45 s).
1400000 of 14000000 tuples (10%) done (elapsed 1.58 s, remaining 14.19 s).
1500000 of 14000000 tuples (10%) done (elapsed 1.63 s, remaining 13.61 s).
1600000 of 14000000 tuples (11%) done (elapsed 1.96 s, remaining 15.21 s).
1700000 of 14000000 tuples (12%) done (elapsed 2.04 s, remaining 14.73 s).
1800000 of 14000000 tuples (12%) done (elapsed 2.38 s, remaining 16.14 s).
1900000 of 14000000 tuples (13%) done (elapsed 2.44 s, remaining 15.52 s).
2000000 of 14000000 tuples (14%) done (elapsed 2.51 s, remaining 15.09 s).
2100000 of 14000000 tuples (15%) done (elapsed 2.88 s, remaining 16.34 s).
2200000 of 14000000 tuples (15%) done (elapsed 2.94 s, remaining 15.76 s).
2300000 of 14000000 tuples (16%) done (elapsed 3.04 s, remaining 15.46 s).
2400000 of 14000000 tuples (17%) done (elapsed 3.37 s, remaining 16.31 s).
2500000 of 14000000 tuples (17%) done (elapsed 3.47 s, remaining 15.98 s).
2600000 of 14000000 tuples (18%) done (elapsed 3.53 s, remaining 15.48 s).
2700000 of 14000000 tuples (19%) done (elapsed 3.88 s, remaining 16.22 s).
2800000 of 14000000 tuples (20%) done (elapsed 3.98 s, remaining 15.91 s).
2900000 of 14000000 tuples (20%) done (elapsed 4.03 s, remaining 15.44 s).
3000000 of 14000000 tuples (21%) done (elapsed 4.42 s, remaining 16.22 s).
3100000 of 14000000 tuples (22%) done (elapsed 4.49 s, remaining 15.80 s).
3200000 of 14000000 tuples (22%) done (elapsed 4.55 s, remaining 15.35 s).
3300000 of 14000000 tuples (23%) done (elapsed 4.91 s, remaining 15.91 s).
3400000 of 14000000 tuples (24%) done (elapsed 5.00 s, remaining 15.60 s).
3500000 of 14000000 tuples (25%) done (elapsed 5.06 s, remaining 15.18 s).
3600000 of 14000000 tuples (25%) done (elapsed 5.42 s, remaining 15.66 s).
3700000 of 14000000 tuples (26%) done (elapsed 5.49 s, remaining 15.29 s).
3800000 of 14000000 tuples (27%) done (elapsed 5.89 s, remaining 15.80 s).
3900000 of 14000000 tuples (27%) done (elapsed 5.94 s, remaining 15.39 s).
4000000 of 14000000 tuples (28%) done (elapsed 6.04 s, remaining 15.10 s).
4100000 of 14000000 tuples (29%) done (elapsed 6.38 s, remaining 15.42 s).
4200000 of 14000000 tuples (30%) done (elapsed 6.44 s, remaining 15.03 s).
4300000 of 14000000 tuples (30%) done (elapsed 6.54 s, remaining 14.76 s).
4400000 of 14000000 tuples (31%) done (elapsed 6.89 s, remaining 15.03 s).
4500000 of 14000000 tuples (32%) done (elapsed 6.98 s, remaining 14.74 s).
4600000 of 14000000 tuples (32%) done (elapsed 7.04 s, remaining 14.39 s).
4700000 of 14000000 tuples (33%) done (elapsed 7.39 s, remaining 14.63 s).
4800000 of 14000000 tuples (34%) done (elapsed 7.46 s, remaining 14.30 s).
4900000 of 14000000 tuples (35%) done (elapsed 7.85 s, remaining 14.57 s).
5000000 of 14000000 tuples (35%) done (elapsed 7.90 s, remaining 14.22 s).
5100000 of 14000000 tuples (36%) done (elapsed 8.00 s, remaining 13.95 s).
5200000 of 14000000 tuples (37%) done (elapsed 8.35 s, remaining 14.13 s).
5300000 of 14000000 tuples (37%) done (elapsed 8.40 s, remaining 13.80 s).
5400000 of 14000000 tuples (38%) done (elapsed 8.50 s, remaining 13.54 s).
5500000 of 14000000 tuples (39%) done (elapsed 8.84 s, remaining 13.67 s).
5600000 of 14000000 tuples (40%) done (elapsed 8.94 s, remaining 13.41 s).
5700000 of 14000000 tuples (40%) done (elapsed 9.00 s, remaining 13.10 s).
5800000 of 14000000 tuples (41%) done (elapsed 9.34 s, remaining 13.21 s).
5900000 of 14000000 tuples (42%) done (elapsed 9.41 s, remaining 12.92 s).
6000000 of 14000000 tuples (42%) done (elapsed 9.78 s, remaining 13.05 s).
6100000 of 14000000 tuples (43%) done (elapsed 9.84 s, remaining 12.74 s).
6200000 of 14000000 tuples (44%) done (elapsed 9.93 s, remaining 12.49 s).
6300000 of 14000000 tuples (45%) done (elapsed 10.24 s, remaining 12.51 s).
6400000 of 14000000 tuples (45%) done (elapsed 10.33 s, remaining 12.27 s).
6500000 of 14000000 tuples (46%) done (elapsed 10.39 s, remaining 11.99 s).
6600000 of 14000000 tuples (47%) done (elapsed 10.74 s, remaining 12.04 s).
6700000 of 14000000 tuples (47%) done (elapsed 10.80 s, remaining 11.77 s).
6800000 of 14000000 tuples (48%) done (elapsed 11.14 s, remaining 11.80 s).
6900000 of 14000000 tuples (49%) done (elapsed 11.20 s, remaining 11.52 s).
7000000 of 14000000 tuples (50%) done (elapsed 11.26 s, remaining 11.26 s).
7100000 of 14000000 tuples (50%) done (elapsed 11.68 s, remaining 11.35 s).
7200000 of 14000000 tuples (51%) done (elapsed 11.73 s, remaining 11.08 s).
7300000 of 14000000 tuples (52%) done (elapsed 11.83 s, remaining 10.86 s).
7400000 of 14000000 tuples (52%) done (elapsed 12.16 s, remaining 10.84 s).
7500000 of 14000000 tuples (53%) done (elapsed 12.24 s, remaining 10.61 s).
7600000 of 14000000 tuples (54%) done (elapsed 12.56 s, remaining 10.58 s).
7700000 of 14000000 tuples (55%) done (elapsed 12.62 s, remaining 10.33 s).
7800000 of 14000000 tuples (55%) done (elapsed 12.68 s, remaining 10.08 s).
7900000 of 14000000 tuples (56%) done (elapsed 13.14 s, remaining 10.15 s).
8000000 of 14000000 tuples (57%) done (elapsed 13.20 s, remaining 9.90 s).
8100000 of 14000000 tuples (57%) done (elapsed 13.29 s, remaining 9.68 s).
8200000 of 14000000 tuples (58%) done (elapsed 13.34 s, remaining 9.44 s).
8300000 of 14000000 tuples (59%) done (elapsed 13.75 s, remaining 9.44 s).
8400000 of 14000000 tuples (60%) done (elapsed 13.80 s, remaining 9.20 s).
8500000 of 14000000 tuples (60%) done (elapsed 14.08 s, remaining 9.11 s).
8600000 of 14000000 tuples (61%) done (elapsed 14.13 s, remaining 8.87 s).
8700000 of 14000000 tuples (62%) done (elapsed 14.19 s, remaining 8.64 s).
8800000 of 14000000 tuples (62%) done (elapsed 14.28 s, remaining 8.44 s).
8900000 of 14000000 tuples (63%) done (elapsed 14.64 s, remaining 8.39 s).
9000000 of 14000000 tuples (64%) done (elapsed 14.73 s, remaining 8.18 s).
9100000 of 14000000 tuples (65%) done (elapsed 14.78 s, remaining 7.96 s).
9200000 of 14000000 tuples (65%) done (elapsed 15.08 s, remaining 7.87 s).
9300000 of 14000000 tuples (66%) done (elapsed 15.23 s, remaining 7.70 s).
9400000 of 14000000 tuples (67%) done (elapsed 15.32 s, remaining 7.50 s).
9500000 of 14000000 tuples (67%) done (elapsed 15.70 s, remaining 7.44 s).
9600000 of 14000000 tuples (68%) done (elapsed 15.75 s, remaining 7.22 s).
9700000 of 14000000 tuples (69%) done (elapsed 15.81 s, remaining 7.01 s).
9800000 of 14000000 tuples (70%) done (elapsed 16.17 s, remaining 6.93 s).
9900000 of 14000000 tuples (70%) done (elapsed 16.26 s, remaining 6.73 s).
10000000 of 14000000 tuples (71%) done (elapsed 16.49 s, remaining 6.60 s).
10100000 of 14000000 tuples (72%) done (elapsed 16.67 s, remaining 6.44 s).
10200000 of 14000000 tuples (72%) done (elapsed 16.73 s, remaining 6.23 s).
10300000 of 14000000 tuples (73%) done (elapsed 16.81 s, remaining 6.04 s).
10400000 of 14000000 tuples (74%) done (elapsed 17.26 s, remaining 5.98 s).
10500000 of 14000000 tuples (75%) done (elapsed 17.32 s, remaining 5.77 s).
10600000 of 14000000 tuples (75%) done (elapsed 17.66 s, remaining 5.66 s).
10700000 of 14000000 tuples (76%) done (elapsed 17.71 s, remaining 5.46 s).
10800000 of 14000000 tuples (77%) done (elapsed 17.80 s, remaining 5.27 s).
10900000 of 14000000 tuples (77%) done (elapsed 18.01 s, remaining 5.12 s).
11000000 of 14000000 tuples (78%) done (elapsed 18.18 s, remaining 4.96 s).
11100000 of 14000000 tuples (79%) done (elapsed 18.23 s, remaining 4.76 s).
11200000 of 14000000 tuples (80%) done (elapsed 18.31 s, remaining 4.58 s).
11300000 of 14000000 tuples (80%) done (elapsed 18.75 s, remaining 4.48 s).
11400000 of 14000000 tuples (81%) done (elapsed 18.80 s, remaining 4.29 s).
11500000 of 14000000 tuples (82%) done (elapsed 19.13 s, remaining 4.16 s).
11600000 of 14000000 tuples (82%) done (elapsed 19.19 s, remaining 3.97 s).
11700000 of 14000000 tuples (83%) done (elapsed 19.27 s, remaining 3.79 s).
11800000 of 14000000 tuples (84%) done (elapsed 19.50 s, remaining 3.64 s).
11900000 of 14000000 tuples (85%) done (elapsed 19.65 s, remaining 3.47 s).
12000000 of 14000000 tuples (85%) done (elapsed 19.71 s, remaining 3.29 s).
12100000 of 14000000 tuples (86%) done (elapsed 19.83 s, remaining 3.11 s).
12200000 of 14000000 tuples (87%) done (elapsed 20.17 s, remaining 2.98 s).
12300000 of 14000000 tuples (87%) done (elapsed 20.25 s, remaining 2.80 s).
12400000 of 14000000 tuples (88%) done (elapsed 20.56 s, remaining 2.65 s).
12500000 of 14000000 tuples (89%) done (elapsed 20.64 s, remaining 2.48 s).
12600000 of 14000000 tuples (90%) done (elapsed 20.69 s, remaining 2.30 s).
12700000 of 14000000 tuples (90%) done (elapsed 20.93 s, remaining 2.14 s).
12800000 of 14000000 tuples (91%) done (elapsed 21.08 s, remaining 1.98 s).
12900000 of 14000000 tuples (92%) done (elapsed 21.14 s, remaining 1.80 s).
13000000 of 14000000 tuples (92%) done (elapsed 21.49 s, remaining 1.65 s).
13100000 of 14000000 tuples (93%) done (elapsed 21.57 s, remaining 1.48 s).
13200000 of 14000000 tuples (94%) done (elapsed 21.62 s, remaining 1.31 s).
13300000 of 14000000 tuples (95%) done (elapsed 21.95 s, remaining 1.16 s).
13400000 of 14000000 tuples (95%) done (elapsed 22.00 s, remaining 0.99 s).
13500000 of 14000000 tuples (96%) done (elapsed 22.24 s, remaining 0.82 s).
13600000 of 14000000 tuples (97%) done (elapsed 22.30 s, remaining 0.66 s).
13700000 of 14000000 tuples (97%) done (elapsed 22.45 s, remaining 0.49 s).
13800000 of 14000000 tuples (98%) done (elapsed 22.54 s, remaining 0.33 s).
13900000 of 14000000 tuples (99%) done (elapsed 22.89 s, remaining 0.16 s).
14000000 of 14000000 tuples (100%) done (elapsed 22.94 s, remaining 0.00 s).
vacuum...
set primary keys...
done.
