NOTICE:  table "pgbench_history" does not exist, skipping
NOTICE:  table "pgbench_tellers" does not exist, skipping
NOTICE:  table "pgbench_accounts" does not exist, skipping
NOTICE:  table "pgbench_branches" does not exist, skipping
creating tables...
100000 of 110000000 tuples (0%) done (elapsed 0.02 s, remaining 26.21 s).
200000 of 110000000 tuples (0%) done (elapsed 0.05 s, remaining 26.26 s).
300000 of 110000000 tuples (0%) done (elapsed 0.07 s, remaining 26.04 s).
400000 of 110000000 tuples (0%) done (elapsed 0.09 s, remaining 25.92 s).
500000 of 110000000 tuples (0%) done (elapsed 0.15 s, remaining 33.24 s).
600000 of 110000000 tuples (0%) done (elapsed 0.24 s, remaining 44.57 s).
700000 of 110000000 tuples (0%) done (elapsed 0.30 s, remaining 47.27 s).
800000 of 110000000 tuples (0%) done (elapsed 0.36 s, remaining 49.82 s).
900000 of 110000000 tuples (0%) done (elapsed 0.42 s, remaining 51.35 s).
1000000 of 110000000 tuples (0%) done (elapsed 0.52 s, remaining 56.23 s).
1100000 of 110000000 tuples (1%) done (elapsed 0.57 s, remaining 56.83 s).
1200000 of 110000000 tuples (1%) done (elapsed 0.67 s, remaining 60.64 s).
1300000 of 110000000 tuples (1%) done (elapsed 0.73 s, remaining 60.85 s).
1400000 of 110000000 tuples (1%) done (elapsed 0.82 s, remaining 63.65 s).
1500000 of 110000000 tuples (1%) done (elapsed 0.88 s, remaining 63.57 s).
1600000 of 110000000 tuples (1%) done (elapsed 0.94 s, remaining 63.45 s).
1700000 of 110000000 tuples (1%) done (elapsed 1.03 s, remaining 65.54 s).
1800000 of 110000000 tuples (1%) done (elapsed 1.09 s, remaining 65.34 s).
1900000 of 110000000 tuples (1%) done (elapsed 1.18 s, remaining 67.09 s).
2000000 of 110000000 tuples (1%) done (elapsed 1.24 s, remaining 66.82 s).
2100000 of 110000000 tuples (1%) done (elapsed 1.33 s, remaining 68.30 s).
2200000 of 110000000 tuples (2%) done (elapsed 1.39 s, remaining 68.00 s).
2300000 of 110000000 tuples (2%) done (elapsed 1.48 s, remaining 69.31 s).
2400000 of 110000000 tuples (2%) done (elapsed 1.54 s, remaining 68.97 s).
2500000 of 110000000 tuples (2%) done (elapsed 1.63 s, remaining 70.11 s).
2600000 of 110000000 tuples (2%) done (elapsed 1.69 s, remaining 69.75 s).
2700000 of 110000000 tuples (2%) done (elapsed 1.78 s, remaining 70.59 s).
2800000 of 110000000 tuples (2%) done (elapsed 1.83 s, remaining 70.18 s).
2900000 of 110000000 tuples (2%) done (elapsed 1.92 s, remaining 71.09 s).
3000000 of 110000000 tuples (2%) done (elapsed 1.98 s, remaining 70.73 s).
3100000 of 110000000 tuples (2%) done (elapsed 2.04 s, remaining 70.38 s).
3200000 of 110000000 tuples (2%) done (elapsed 2.13 s, remaining 71.18 s).
3300000 of 110000000 tuples (3%) done (elapsed 2.19 s, remaining 70.83 s).
3400000 of 110000000 tuples (3%) done (elapsed 2.28 s, remaining 71.56 s).
3500000 of 110000000 tuples (3%) done (elapsed 2.34 s, remaining 71.22 s).
3600000 of 110000000 tuples (3%) done (elapsed 2.43 s, remaining 71.89 s).
3700000 of 110000000 tuples (3%) done (elapsed 2.49 s, remaining 71.54 s).
3800000 of 110000000 tuples (3%) done (elapsed 2.58 s, remaining 72.15 s).
3900000 of 110000000 tuples (3%) done (elapsed 2.64 s, remaining 71.81 s).
4000000 of 110000000 tuples (3%) done (elapsed 2.70 s, remaining 71.48 s).
4100000 of 110000000 tuples (3%) done (elapsed 2.79 s, remaining 72.04 s).
4200000 of 110000000 tuples (3%) done (elapsed 2.85 s, remaining 71.72 s).
4300000 of 110000000 tuples (3%) done (elapsed 2.94 s, remaining 72.26 s).
4400000 of 110000000 tuples (4%) done (elapsed 3.00 s, remaining 71.95 s).
4500000 of 110000000 tuples (4%) done (elapsed 3.09 s, remaining 72.46 s).
4600000 of 110000000 tuples (4%) done (elapsed 3.15 s, remaining 72.16 s).
4700000 of 110000000 tuples (4%) done (elapsed 3.24 s, remaining 72.63 s).
4800000 of 110000000 tuples (4%) done (elapsed 3.30 s, remaining 72.31 s).
4900000 of 110000000 tuples (4%) done (elapsed 3.39 s, remaining 72.73 s).
5000000 of 110000000 tuples (4%) done (elapsed 3.45 s, remaining 72.42 s).
5100000 of 110000000 tuples (4%) done (elapsed 3.51 s, remaining 72.13 s).
5200000 of 110000000 tuples (4%) done (elapsed 3.60 s, remaining 72.53 s).
5300000 of 110000000 tuples (4%) done (elapsed 3.66 s, remaining 72.23 s).
5400000 of 110000000 tuples (4%) done (elapsed 3.75 s, remaining 72.59 s).
5500000 of 110000000 tuples (5%) done (elapsed 3.81 s, remaining 72.30 s).
5600000 of 110000000 tuples (5%) done (elapsed 3.90 s, remaining 72.65 s).
5700000 of 110000000 tuples (5%) done (elapsed 3.95 s, remaining 72.36 s).
5800000 of 110000000 tuples (5%) done (elapsed 4.05 s, remaining 72.69 s).
5900000 of 110000000 tuples (5%) done (elapsed 4.10 s, remaining 72.41 s).
6000000 of 110000000 tuples (5%) done (elapsed 4.16 s, remaining 72.14 s).
6100000 of 110000000 tuples (5%) done (elapsed 4.25 s, remaining 72.45 s).
6200000 of 110000000 tuples (5%) done (elapsed 4.31 s, remaining 72.18 s).
6300000 of 110000000 tuples (5%) done (elapsed 4.40 s, remaining 72.48 s).
6400000 of 110000000 tuples (5%) done (elapsed 4.46 s, remaining 72.20 s).
6500000 of 110000000 tuples (5%) done (elapsed 4.55 s, remaining 72.48 s).
6600000 of 110000000 tuples (6%) done (elapsed 4.61 s, remaining 72.22 s).
6700000 of 110000000 tuples (6%) done (elapsed 4.70 s, remaining 72.49 s).
6800000 of 110000000 tuples (6%) done (elapsed 4.76 s, remaining 72.23 s).
6900000 of 110000000 tuples (6%) done (elapsed 4.85 s, remaining 72.48 s).
7000000 of 110000000 tuples (6%) done (elapsed 4.91 s, remaining 72.22 s).
7100000 of 110000000 tuples (6%) done (elapsed 4.97 s, remaining 71.97 s).
7200000 of 110000000 tuples (6%) done (elapsed 5.06 s, remaining 72.21 s).
7300000 of 110000000 tuples (6%) done (elapsed 5.12 s, remaining 71.97 s).
7400000 of 110000000 tuples (6%) done (elapsed 5.21 s, remaining 72.19 s).
7500000 of 110000000 tuples (6%) done (elapsed 5.26 s, remaining 71.95 s).
7600000 of 110000000 tuples (6%) done (elapsed 5.36 s, remaining 72.16 s).
7700000 of 110000000 tuples (7%) done (elapsed 5.41 s, remaining 71.92 s).
7800000 of 110000000 tuples (7%) done (elapsed 5.51 s, remaining 72.14 s).
7900000 of 110000000 tuples (7%) done (elapsed 5.56 s, remaining 71.90 s).
8000000 of 110000000 tuples (7%) done (elapsed 5.62 s, remaining 71.66 s).
8100000 of 110000000 tuples (7%) done (elapsed 5.71 s, remaining 71.86 s).
8200000 of 110000000 tuples (7%) done (elapsed 5.77 s, remaining 71.63 s).
8300000 of 110000000 tuples (7%) done (elapsed 5.86 s, remaining 71.83 s).
8400000 of 110000000 tuples (7%) done (elapsed 5.92 s, remaining 71.60 s).
8500000 of 110000000 tuples (7%) done (elapsed 6.01 s, remaining 71.79 s).
8600000 of 110000000 tuples (7%) done (elapsed 6.07 s, remaining 71.58 s).
8700000 of 110000000 tuples (7%) done (elapsed 6.16 s, remaining 71.76 s).
8800000 of 110000000 tuples (8%) done (elapsed 6.22 s, remaining 71.55 s).
8900000 of 110000000 tuples (8%) done (elapsed 6.31 s, remaining 71.72 s).
9000000 of 110000000 tuples (8%) done (elapsed 6.37 s, remaining 71.50 s).
9100000 of 110000000 tuples (8%) done (elapsed 6.43 s, remaining 71.28 s).
9200000 of 110000000 tuples (8%) done (elapsed 6.52 s, remaining 71.44 s).
9300000 of 110000000 tuples (8%) done (elapsed 6.58 s, remaining 71.24 s).
9400000 of 110000000 tuples (8%) done (elapsed 6.67 s, remaining 71.40 s).
9500000 of 110000000 tuples (8%) done (elapsed 6.73 s, remaining 71.20 s).
9600000 of 110000000 tuples (8%) done (elapsed 6.84 s, remaining 71.56 s).
9700000 of 110000000 tuples (8%) done (elapsed 6.90 s, remaining 71.36 s).
9800000 of 110000000 tuples (8%) done (elapsed 6.96 s, remaining 71.14 s).
9900000 of 110000000 tuples (9%) done (elapsed 7.05 s, remaining 71.29 s).
10000000 of 110000000 tuples (9%) done (elapsed 7.11 s, remaining 71.08 s).
10100000 of 110000000 tuples (9%) done (elapsed 7.20 s, remaining 71.21 s).
10200000 of 110000000 tuples (9%) done (elapsed 7.25 s, remaining 70.98 s).
10300000 of 110000000 tuples (9%) done (elapsed 7.34 s, remaining 71.02 s).
10400000 of 110000000 tuples (9%) done (elapsed 7.42 s, remaining 71.06 s).
10500000 of 110000000 tuples (9%) done (elapsed 7.47 s, remaining 70.83 s).
10600000 of 110000000 tuples (9%) done (elapsed 7.56 s, remaining 70.86 s).
10700000 of 110000000 tuples (9%) done (elapsed 7.61 s, remaining 70.63 s).
10800000 of 110000000 tuples (9%) done (elapsed 7.69 s, remaining 70.67 s).
10900000 of 110000000 tuples (9%) done (elapsed 7.94 s, remaining 72.16 s).
11000000 of 110000000 tuples (10%) done (elapsed 7.96 s, remaining 71.66 s).
11100000 of 110000000 tuples (10%) done (elapsed 7.99 s, remaining 71.16 s).
11200000 of 110000000 tuples (10%) done (elapsed 8.04 s, remaining 70.92 s).
11300000 of 110000000 tuples (10%) done (elapsed 8.12 s, remaining 70.95 s).
11400000 of 110000000 tuples (10%) done (elapsed 8.18 s, remaining 70.72 s).
11500000 of 110000000 tuples (10%) done (elapsed 8.26 s, remaining 70.74 s).
11600000 of 110000000 tuples (10%) done (elapsed 8.34 s, remaining 70.76 s).
11700000 of 110000000 tuples (10%) done (elapsed 8.40 s, remaining 70.54 s).
11800000 of 110000000 tuples (10%) done (elapsed 8.48 s, remaining 70.55 s).
11900000 of 110000000 tuples (10%) done (elapsed 8.53 s, remaining 70.33 s).
12000000 of 110000000 tuples (10%) done (elapsed 8.61 s, remaining 70.34 s).
12100000 of 110000000 tuples (11%) done (elapsed 8.67 s, remaining 70.11 s).
12200000 of 110000000 tuples (11%) done (elapsed 8.75 s, remaining 70.12 s).
12300000 of 110000000 tuples (11%) done (elapsed 8.80 s, remaining 69.91 s).
12400000 of 110000000 tuples (11%) done (elapsed 8.88 s, remaining 69.92 s).
12500000 of 110000000 tuples (11%) done (elapsed 8.94 s, remaining 69.71 s).
12600000 of 110000000 tuples (11%) done (elapsed 9.02 s, remaining 69.73 s).
12700000 of 110000000 tuples (11%) done (elapsed 9.07 s, remaining 69.52 s).
12800000 of 110000000 tuples (11%) done (elapsed 9.16 s, remaining 69.53 s).
12900000 of 110000000 tuples (11%) done (elapsed 9.21 s, remaining 69.33 s).
13000000 of 110000000 tuples (11%) done (elapsed 9.29 s, remaining 69.34 s).
13100000 of 110000000 tuples (11%) done (elapsed 9.35 s, remaining 69.14 s).
13200000 of 110000000 tuples (12%) done (elapsed 9.43 s, remaining 69.15 s).
13300000 of 110000000 tuples (12%) done (elapsed 9.48 s, remaining 68.95 s).
13400000 of 110000000 tuples (12%) done (elapsed 9.57 s, remaining 68.96 s).
13500000 of 110000000 tuples (12%) done (elapsed 9.65 s, remaining 68.97 s).
13600000 of 110000000 tuples (12%) done (elapsed 9.70 s, remaining 68.77 s).
13700000 of 110000000 tuples (12%) done (elapsed 9.78 s, remaining 68.78 s).
13800000 of 110000000 tuples (12%) done (elapsed 9.84 s, remaining 68.58 s).
13900000 of 110000000 tuples (12%) done (elapsed 9.92 s, remaining 68.59 s).
14000000 of 110000000 tuples (12%) done (elapsed 9.98 s, remaining 68.40 s).
14100000 of 110000000 tuples (12%) done (elapsed 10.06 s, remaining 68.41 s).
14200000 of 110000000 tuples (12%) done (elapsed 10.11 s, remaining 68.22 s).
14300000 of 110000000 tuples (13%) done (elapsed 10.19 s, remaining 68.22 s).
14400000 of 110000000 tuples (13%) done (elapsed 10.25 s, remaining 68.02 s).
14500000 of 110000000 tuples (13%) done (elapsed 10.33 s, remaining 68.02 s).
14600000 of 110000000 tuples (13%) done (elapsed 10.38 s, remaining 67.83 s).
14700000 of 110000000 tuples (13%) done (elapsed 10.46 s, remaining 67.83 s).
14800000 of 110000000 tuples (13%) done (elapsed 10.52 s, remaining 67.64 s).
14900000 of 110000000 tuples (13%) done (elapsed 10.60 s, remaining 67.64 s).
15000000 of 110000000 tuples (13%) done (elapsed 10.65 s, remaining 67.45 s).
15100000 of 110000000 tuples (13%) done (elapsed 10.73 s, remaining 67.45 s).
15200000 of 110000000 tuples (13%) done (elapsed 10.79 s, remaining 67.27 s).
15300000 of 110000000 tuples (13%) done (elapsed 10.87 s, remaining 67.26 s).
15400000 of 110000000 tuples (14%) done (elapsed 10.95 s, remaining 67.26 s).
15500000 of 110000000 tuples (14%) done (elapsed 11.00 s, remaining 67.07 s).
15600000 of 110000000 tuples (14%) done (elapsed 11.08 s, remaining 67.07 s).
15700000 of 110000000 tuples (14%) done (elapsed 11.14 s, remaining 66.89 s).
15800000 of 110000000 tuples (14%) done (elapsed 11.22 s, remaining 66.88 s).
15900000 of 110000000 tuples (14%) done (elapsed 11.27 s, remaining 66.70 s).
16000000 of 110000000 tuples (14%) done (elapsed 11.35 s, remaining 66.70 s).
16100000 of 110000000 tuples (14%) done (elapsed 11.41 s, remaining 66.52 s).
16200000 of 110000000 tuples (14%) done (elapsed 17.48 s, remaining 101.24 s).
16300000 of 110000000 tuples (14%) done (elapsed 17.54 s, remaining 100.81 s).
16400000 of 110000000 tuples (14%) done (elapsed 17.62 s, remaining 100.56 s).
16500000 of 110000000 tuples (15%) done (elapsed 17.67 s, remaining 100.15 s).
16600000 of 110000000 tuples (15%) done (elapsed 17.76 s, remaining 99.90 s).
16700000 of 110000000 tuples (15%) done (elapsed 17.81 s, remaining 99.50 s).
16800000 of 110000000 tuples (15%) done (elapsed 18.62 s, remaining 103.29 s).
16900000 of 110000000 tuples (15%) done (elapsed 18.64 s, remaining 102.70 s).
17000000 of 110000000 tuples (15%) done (elapsed 18.67 s, remaining 102.12 s).
17100000 of 110000000 tuples (15%) done (elapsed 18.72 s, remaining 101.70 s).
17200000 of 110000000 tuples (15%) done (elapsed 18.80 s, remaining 101.44 s).
17300000 of 110000000 tuples (15%) done (elapsed 18.86 s, remaining 101.04 s).
17400000 of 110000000 tuples (15%) done (elapsed 18.94 s, remaining 100.79 s).
17500000 of 110000000 tuples (15%) done (elapsed 18.99 s, remaining 100.39 s).
17600000 of 110000000 tuples (16%) done (elapsed 19.07 s, remaining 100.14 s).
17700000 of 110000000 tuples (16%) done (elapsed 19.99 s, remaining 104.26 s).
17800000 of 110000000 tuples (16%) done (elapsed 20.57 s, remaining 106.55 s).
17900000 of 110000000 tuples (16%) done (elapsed 20.62 s, remaining 106.11 s).
18000000 of 110000000 tuples (16%) done (elapsed 20.73 s, remaining 105.94 s).
18100000 of 110000000 tuples (16%) done (elapsed 20.78 s, remaining 105.51 s).
18200000 of 110000000 tuples (16%) done (elapsed 20.86 s, remaining 105.23 s).
18300000 of 110000000 tuples (16%) done (elapsed 21.23 s, remaining 106.38 s).
18400000 of 110000000 tuples (16%) done (elapsed 21.28 s, remaining 105.96 s).
18500000 of 110000000 tuples (16%) done (elapsed 22.11 s, remaining 109.35 s).
18600000 of 110000000 tuples (16%) done (elapsed 22.16 s, remaining 108.90 s).
18700000 of 110000000 tuples (17%) done (elapsed 22.58 s, remaining 110.26 s).
18800000 of 110000000 tuples (17%) done (elapsed 22.65 s, remaining 109.86 s).
18900000 of 110000000 tuples (17%) done (elapsed 22.73 s, remaining 109.57 s).
19000000 of 110000000 tuples (17%) done (elapsed 22.81 s, remaining 109.27 s).
19100000 of 110000000 tuples (17%) done (elapsed 22.87 s, remaining 108.83 s).
19200000 of 110000000 tuples (17%) done (elapsed 23.32 s, remaining 110.27 s).
19300000 of 110000000 tuples (17%) done (elapsed 23.35 s, remaining 109.73 s).
19400000 of 110000000 tuples (17%) done (elapsed 23.95 s, remaining 111.85 s).
19500000 of 110000000 tuples (17%) done (elapsed 24.13 s, remaining 111.97 s).
19600000 of 110000000 tuples (17%) done (elapsed 24.20 s, remaining 111.60 s).
19700000 of 110000000 tuples (17%) done (elapsed 24.27 s, remaining 111.23 s).
19800000 of 110000000 tuples (18%) done (elapsed 24.34 s, remaining 110.86 s).
19900000 of 110000000 tuples (18%) done (elapsed 24.40 s, remaining 110.50 s).
20000000 of 110000000 tuples (18%) done (elapsed 24.47 s, remaining 110.13 s).
20100000 of 110000000 tuples (18%) done (elapsed 25.19 s, remaining 112.66 s).
20200000 of 110000000 tuples (18%) done (elapsed 25.21 s, remaining 112.09 s).
20300000 of 110000000 tuples (18%) done (elapsed 25.28 s, remaining 111.72 s).
20400000 of 110000000 tuples (18%) done (elapsed 26.10 s, remaining 114.62 s).
20500000 of 110000000 tuples (18%) done (elapsed 26.23 s, remaining 114.52 s).
20600000 of 110000000 tuples (18%) done (elapsed 26.30 s, remaining 114.14 s).
20700000 of 110000000 tuples (18%) done (elapsed 26.37 s, remaining 113.76 s).
20800000 of 110000000 tuples (18%) done (elapsed 26.46 s, remaining 113.47 s).
20900000 of 110000000 tuples (19%) done (elapsed 27.21 s, remaining 115.98 s).
21000000 of 110000000 tuples (19%) done (elapsed 27.39 s, remaining 116.07 s).
21100000 of 110000000 tuples (19%) done (elapsed 27.48 s, remaining 115.79 s).
21200000 of 110000000 tuples (19%) done (elapsed 27.57 s, remaining 115.47 s).
21300000 of 110000000 tuples (19%) done (elapsed 27.64 s, remaining 115.08 s).
21400000 of 110000000 tuples (19%) done (elapsed 27.71 s, remaining 114.70 s).
21500000 of 110000000 tuples (19%) done (elapsed 28.52 s, remaining 117.39 s).
21600000 of 110000000 tuples (19%) done (elapsed 29.33 s, remaining 120.03 s).
21700000 of 110000000 tuples (19%) done (elapsed 29.36 s, remaining 119.45 s).
21800000 of 110000000 tuples (19%) done (elapsed 29.38 s, remaining 118.87 s).
21900000 of 110000000 tuples (19%) done (elapsed 29.40 s, remaining 118.29 s).
22000000 of 110000000 tuples (20%) done (elapsed 29.60 s, remaining 118.40 s).
22100000 of 110000000 tuples (20%) done (elapsed 29.67 s, remaining 118.01 s).
22200000 of 110000000 tuples (20%) done (elapsed 29.74 s, remaining 117.62 s).
22300000 of 110000000 tuples (20%) done (elapsed 29.83 s, remaining 117.30 s).
22400000 of 110000000 tuples (20%) done (elapsed 30.09 s, remaining 117.66 s).
22500000 of 110000000 tuples (20%) done (elapsed 30.20 s, remaining 117.44 s).
22600000 of 110000000 tuples (20%) done (elapsed 31.04 s, remaining 120.04 s).
22700000 of 110000000 tuples (20%) done (elapsed 31.18 s, remaining 119.92 s).
22800000 of 110000000 tuples (20%) done (elapsed 31.25 s, remaining 119.52 s).
22900000 of 110000000 tuples (20%) done (elapsed 31.32 s, remaining 119.13 s).
23000000 of 110000000 tuples (20%) done (elapsed 31.44 s, remaining 118.92 s).
23100000 of 110000000 tuples (21%) done (elapsed 31.62 s, remaining 118.95 s).
23200000 of 110000000 tuples (21%) done (elapsed 32.29 s, remaining 120.83 s).
23300000 of 110000000 tuples (21%) done (elapsed 32.42 s, remaining 120.63 s).
23400000 of 110000000 tuples (21%) done (elapsed 32.49 s, remaining 120.24 s).
23500000 of 110000000 tuples (21%) done (elapsed 32.56 s, remaining 119.84 s).
23600000 of 110000000 tuples (21%) done (elapsed 32.63 s, remaining 119.45 s).
23700000 of 110000000 tuples (21%) done (elapsed 32.70 s, remaining 119.07 s).
23800000 of 110000000 tuples (21%) done (elapsed 32.77 s, remaining 118.68 s).
23900000 of 110000000 tuples (21%) done (elapsed 33.67 s, remaining 121.29 s).
24000000 of 110000000 tuples (21%) done (elapsed 34.28 s, remaining 122.83 s).
24100000 of 110000000 tuples (21%) done (elapsed 34.30 s, remaining 122.27 s).
24200000 of 110000000 tuples (22%) done (elapsed 34.33 s, remaining 121.71 s).
24300000 of 110000000 tuples (22%) done (elapsed 34.35 s, remaining 121.15 s).
24400000 of 110000000 tuples (22%) done (elapsed 34.42 s, remaining 120.76 s).
24500000 of 110000000 tuples (22%) done (elapsed 34.49 s, remaining 120.37 s).
24600000 of 110000000 tuples (22%) done (elapsed 34.56 s, remaining 119.99 s).
24700000 of 110000000 tuples (22%) done (elapsed 34.63 s, remaining 119.60 s).
24800000 of 110000000 tuples (22%) done (elapsed 34.70 s, remaining 119.22 s).
24900000 of 110000000 tuples (22%) done (elapsed 35.03 s, remaining 119.72 s).
25000000 of 110000000 tuples (22%) done (elapsed 35.79 s, remaining 121.69 s).
25100000 of 110000000 tuples (22%) done (elapsed 35.90 s, remaining 121.44 s).
25200000 of 110000000 tuples (22%) done (elapsed 35.97 s, remaining 121.05 s).
25300000 of 110000000 tuples (23%) done (elapsed 36.10 s, remaining 120.86 s).
25400000 of 110000000 tuples (23%) done (elapsed 36.25 s, remaining 120.75 s).
25500000 of 110000000 tuples (23%) done (elapsed 36.32 s, remaining 120.37 s).
25600000 of 110000000 tuples (23%) done (elapsed 36.39 s, remaining 119.99 s).
25700000 of 110000000 tuples (23%) done (elapsed 36.46 s, remaining 119.61 s).
25800000 of 110000000 tuples (23%) done (elapsed 36.83 s, remaining 120.18 s).
25900000 of 110000000 tuples (23%) done (elapsed 37.33 s, remaining 121.20 s).
26000000 of 110000000 tuples (23%) done (elapsed 37.58 s, remaining 121.41 s).
26100000 of 110000000 tuples (23%) done (elapsed 37.65 s, remaining 121.02 s).
26200000 of 110000000 tuples (23%) done (elapsed 37.72 s, remaining 120.64 s).
26300000 of 110000000 tuples (23%) done (elapsed 37.79 s, remaining 120.26 s).
26400000 of 110000000 tuples (24%) done (elapsed 37.86 s, remaining 119.88 s).
26500000 of 110000000 tuples (24%) done (elapsed 37.93 s, remaining 119.51 s).
26600000 of 110000000 tuples (24%) done (elapsed 38.00 s, remaining 119.13 s).
26700000 of 110000000 tuples (24%) done (elapsed 38.07 s, remaining 118.76 s).
26800000 of 110000000 tuples (24%) done (elapsed 38.14 s, remaining 118.39 s).
26900000 of 110000000 tuples (24%) done (elapsed 38.21 s, remaining 118.03 s).
27000000 of 110000000 tuples (24%) done (elapsed 39.32 s, remaining 120.89 s).
27100000 of 110000000 tuples (24%) done (elapsed 39.60 s, remaining 121.15 s).
27200000 of 110000000 tuples (24%) done (elapsed 39.63 s, remaining 120.64 s).
27300000 of 110000000 tuples (24%) done (elapsed 39.65 s, remaining 120.13 s).
27400000 of 110000000 tuples (24%) done (elapsed 39.68 s, remaining 119.62 s).
27500000 of 110000000 tuples (25%) done (elapsed 39.75 s, remaining 119.25 s).
27600000 of 110000000 tuples (25%) done (elapsed 39.82 s, remaining 118.88 s).
27700000 of 110000000 tuples (25%) done (elapsed 39.89 s, remaining 118.51 s).
27800000 of 110000000 tuples (25%) done (elapsed 40.36 s, remaining 119.35 s).
27900000 of 110000000 tuples (25%) done (elapsed 41.36 s, remaining 121.71 s).
28000000 of 110000000 tuples (25%) done (elapsed 41.43 s, remaining 121.33 s).
28100000 of 110000000 tuples (25%) done (elapsed 41.50 s, remaining 120.96 s).
28200000 of 110000000 tuples (25%) done (elapsed 41.57 s, remaining 120.58 s).
28300000 of 110000000 tuples (25%) done (elapsed 41.64 s, remaining 120.22 s).
28400000 of 110000000 tuples (25%) done (elapsed 41.71 s, remaining 119.85 s).
28500000 of 110000000 tuples (25%) done (elapsed 41.78 s, remaining 119.48 s).
28600000 of 110000000 tuples (26%) done (elapsed 41.85 s, remaining 119.12 s).
28700000 of 110000000 tuples (26%) done (elapsed 42.91 s, remaining 121.57 s).
28800000 of 110000000 tuples (26%) done (elapsed 42.98 s, remaining 121.19 s).
28900000 of 110000000 tuples (26%) done (elapsed 43.01 s, remaining 120.69 s).
29000000 of 110000000 tuples (26%) done (elapsed 43.08 s, remaining 120.33 s).
29100000 of 110000000 tuples (26%) done (elapsed 43.15 s, remaining 119.96 s).
29200000 of 110000000 tuples (26%) done (elapsed 43.22 s, remaining 119.60 s).
29300000 of 110000000 tuples (26%) done (elapsed 43.29 s, remaining 119.23 s).
29400000 of 110000000 tuples (26%) done (elapsed 43.36 s, remaining 118.87 s).
29500000 of 110000000 tuples (26%) done (elapsed 43.43 s, remaining 118.51 s).
29600000 of 110000000 tuples (26%) done (elapsed 43.50 s, remaining 118.15 s).
29700000 of 110000000 tuples (27%) done (elapsed 43.57 s, remaining 117.80 s).
29800000 of 110000000 tuples (27%) done (elapsed 45.02 s, remaining 121.15 s).
29900000 of 110000000 tuples (27%) done (elapsed 45.17 s, remaining 121.02 s).
30000000 of 110000000 tuples (27%) done (elapsed 45.24 s, remaining 120.65 s).
30100000 of 110000000 tuples (27%) done (elapsed 45.31 s, remaining 120.29 s).
30200000 of 110000000 tuples (27%) done (elapsed 45.38 s, remaining 119.92 s).
30300000 of 110000000 tuples (27%) done (elapsed 45.45 s, remaining 119.56 s).
30400000 of 110000000 tuples (27%) done (elapsed 45.52 s, remaining 119.20 s).
30500000 of 110000000 tuples (27%) done (elapsed 45.59 s, remaining 118.84 s).
30600000 of 110000000 tuples (27%) done (elapsed 45.66 s, remaining 118.48 s).
30700000 of 110000000 tuples (27%) done (elapsed 45.73 s, remaining 118.13 s).
30800000 of 110000000 tuples (28%) done (elapsed 45.80 s, remaining 117.77 s).
30900000 of 110000000 tuples (28%) done (elapsed 46.78 s, remaining 119.76 s).
31000000 of 110000000 tuples (28%) done (elapsed 46.89 s, remaining 119.49 s).
31100000 of 110000000 tuples (28%) done (elapsed 46.96 s, remaining 119.14 s).
31200000 of 110000000 tuples (28%) done (elapsed 47.03 s, remaining 118.78 s).
31300000 of 110000000 tuples (28%) done (elapsed 47.10 s, remaining 118.43 s).
31400000 of 110000000 tuples (28%) done (elapsed 47.17 s, remaining 118.08 s).
31500000 of 110000000 tuples (28%) done (elapsed 47.24 s, remaining 117.73 s).
31600000 of 110000000 tuples (28%) done (elapsed 47.54 s, remaining 117.95 s).
31700000 of 110000000 tuples (28%) done (elapsed 48.15 s, remaining 118.94 s).
31800000 of 110000000 tuples (28%) done (elapsed 48.50 s, remaining 119.26 s).
31900000 of 110000000 tuples (29%) done (elapsed 48.57 s, remaining 118.90 s).
32000000 of 110000000 tuples (29%) done (elapsed 48.64 s, remaining 118.55 s).
32100000 of 110000000 tuples (29%) done (elapsed 48.71 s, remaining 118.20 s).
32200000 of 110000000 tuples (29%) done (elapsed 48.78 s, remaining 117.85 s).
32300000 of 110000000 tuples (29%) done (elapsed 48.84 s, remaining 117.50 s).
32400000 of 110000000 tuples (29%) done (elapsed 48.92 s, remaining 117.16 s).
32500000 of 110000000 tuples (29%) done (elapsed 48.99 s, remaining 116.81 s).
32600000 of 110000000 tuples (29%) done (elapsed 49.06 s, remaining 116.47 s).
32700000 of 110000000 tuples (29%) done (elapsed 49.16 s, remaining 116.22 s).
32800000 of 110000000 tuples (29%) done (elapsed 49.94 s, remaining 117.54 s).
32900000 of 110000000 tuples (29%) done (elapsed 50.02 s, remaining 117.22 s).
33000000 of 110000000 tuples (30%) done (elapsed 50.23 s, remaining 117.20 s).
33100000 of 110000000 tuples (30%) done (elapsed 50.74 s, remaining 117.87 s).
33200000 of 110000000 tuples (30%) done (elapsed 50.76 s, remaining 117.42 s).
33300000 of 110000000 tuples (30%) done (elapsed 50.78 s, remaining 116.97 s).
33400000 of 110000000 tuples (30%) done (elapsed 50.85 s, remaining 116.63 s).
33500000 of 110000000 tuples (30%) done (elapsed 50.92 s, remaining 116.29 s).
33600000 of 110000000 tuples (30%) done (elapsed 51.17 s, remaining 116.35 s).
33700000 of 110000000 tuples (30%) done (elapsed 51.86 s, remaining 117.42 s).
33800000 of 110000000 tuples (30%) done (elapsed 51.93 s, remaining 117.08 s).
33900000 of 110000000 tuples (30%) done (elapsed 52.02 s, remaining 116.78 s).
34000000 of 110000000 tuples (30%) done (elapsed 52.09 s, remaining 116.44 s).
34100000 of 110000000 tuples (31%) done (elapsed 52.16 s, remaining 116.10 s).
34200000 of 110000000 tuples (31%) done (elapsed 52.23 s, remaining 115.77 s).
34300000 of 110000000 tuples (31%) done (elapsed 52.52 s, remaining 115.92 s).
34400000 of 110000000 tuples (31%) done (elapsed 52.76 s, remaining 115.96 s).
34500000 of 110000000 tuples (31%) done (elapsed 52.89 s, remaining 115.75 s).
34600000 of 110000000 tuples (31%) done (elapsed 53.08 s, remaining 115.68 s).
34700000 of 110000000 tuples (31%) done (elapsed 53.11 s, remaining 115.24 s).
34800000 of 110000000 tuples (31%) done (elapsed 53.18 s, remaining 114.91 s).
34900000 of 110000000 tuples (31%) done (elapsed 53.25 s, remaining 114.58 s).
35000000 of 110000000 tuples (31%) done (elapsed 53.56 s, remaining 114.77 s).
35100000 of 110000000 tuples (31%) done (elapsed 53.67 s, remaining 114.52 s).
35200000 of 110000000 tuples (32%) done (elapsed 53.84 s, remaining 114.41 s).
35300000 of 110000000 tuples (32%) done (elapsed 53.91 s, remaining 114.08 s).
35400000 of 110000000 tuples (32%) done (elapsed 53.98 s, remaining 113.76 s).
35500000 of 110000000 tuples (32%) done (elapsed 54.05 s, remaining 113.43 s).
35600000 of 110000000 tuples (32%) done (elapsed 54.12 s, remaining 113.11 s).
35700000 of 110000000 tuples (32%) done (elapsed 55.09 s, remaining 114.66 s).
35800000 of 110000000 tuples (32%) done (elapsed 55.20 s, remaining 114.41 s).
35900000 of 110000000 tuples (32%) done (elapsed 55.49 s, remaining 114.54 s).
36000000 of 110000000 tuples (32%) done (elapsed 55.91 s, remaining 114.93 s).
36100000 of 110000000 tuples (32%) done (elapsed 55.94 s, remaining 114.51 s).
36200000 of 110000000 tuples (32%) done (elapsed 55.96 s, remaining 114.09 s).
36300000 of 110000000 tuples (33%) done (elapsed 55.99 s, remaining 113.67 s).
36400000 of 110000000 tuples (33%) done (elapsed 56.06 s, remaining 113.35 s).
36500000 of 110000000 tuples (33%) done (elapsed 56.13 s, remaining 113.02 s).
36600000 of 110000000 tuples (33%) done (elapsed 56.20 s, remaining 112.70 s).
36700000 of 110000000 tuples (33%) done (elapsed 56.27 s, remaining 112.38 s).
36800000 of 110000000 tuples (33%) done (elapsed 56.34 s, remaining 112.06 s).
36900000 of 110000000 tuples (33%) done (elapsed 56.87 s, remaining 112.66 s).
37000000 of 110000000 tuples (33%) done (elapsed 57.04 s, remaining 112.54 s).
37100000 of 110000000 tuples (33%) done (elapsed 57.20 s, remaining 112.39 s).
37200000 of 110000000 tuples (33%) done (elapsed 57.27 s, remaining 112.07 s).
37300000 of 110000000 tuples (33%) done (elapsed 57.34 s, remaining 111.75 s).
37400000 of 110000000 tuples (34%) done (elapsed 57.41 s, remaining 111.44 s).
37500000 of 110000000 tuples (34%) done (elapsed 57.48 s, remaining 111.12 s).
37600000 of 110000000 tuples (34%) done (elapsed 57.55 s, remaining 110.81 s).
37700000 of 110000000 tuples (34%) done (elapsed 57.62 s, remaining 110.49 s).
37800000 of 110000000 tuples (34%) done (elapsed 57.69 s, remaining 110.18 s).
37900000 of 110000000 tuples (34%) done (elapsed 58.58 s, remaining 111.44 s).
38000000 of 110000000 tuples (34%) done (elapsed 58.66 s, remaining 111.15 s).
38100000 of 110000000 tuples (34%) done (elapsed 58.73 s, remaining 110.84 s).
38200000 of 110000000 tuples (34%) done (elapsed 58.80 s, remaining 110.52 s).
38300000 of 110000000 tuples (34%) done (elapsed 58.87 s, remaining 110.21 s).
38400000 of 110000000 tuples (34%) done (elapsed 58.94 s, remaining 109.90 s).
38500000 of 110000000 tuples (35%) done (elapsed 59.01 s, remaining 109.59 s).
38600000 of 110000000 tuples (35%) done (elapsed 59.66 s, remaining 110.36 s).
38700000 of 110000000 tuples (35%) done (elapsed 59.87 s, remaining 110.31 s).
38800000 of 110000000 tuples (35%) done (elapsed 59.94 s, remaining 110.00 s).
38900000 of 110000000 tuples (35%) done (elapsed 60.01 s, remaining 109.69 s).
39000000 of 110000000 tuples (35%) done (elapsed 60.08 s, remaining 109.38 s).
39100000 of 110000000 tuples (35%) done (elapsed 60.15 s, remaining 109.07 s).
39200000 of 110000000 tuples (35%) done (elapsed 60.22 s, remaining 108.77 s).
39300000 of 110000000 tuples (35%) done (elapsed 60.70 s, remaining 109.20 s).
39400000 of 110000000 tuples (35%) done (elapsed 61.27 s, remaining 109.79 s).
39500000 of 110000000 tuples (35%) done (elapsed 61.30 s, remaining 109.40 s).
39600000 of 110000000 tuples (36%) done (elapsed 61.32 s, remaining 109.02 s).
39700000 of 110000000 tuples (36%) done (elapsed 61.35 s, remaining 108.63 s).
39800000 of 110000000 tuples (36%) done (elapsed 61.42 s, remaining 108.33 s).
39900000 of 110000000 tuples (36%) done (elapsed 61.49 s, remaining 108.02 s).
40000000 of 110000000 tuples (36%) done (elapsed 61.56 s, remaining 107.72 s).
40100000 of 110000000 tuples (36%) done (elapsed 61.62 s, remaining 107.42 s).
40200000 of 110000000 tuples (36%) done (elapsed 61.69 s, remaining 107.12 s).
40300000 of 110000000 tuples (36%) done (elapsed 61.76 s, remaining 106.82 s).
40400000 of 110000000 tuples (36%) done (elapsed 62.97 s, remaining 108.48 s).
40500000 of 110000000 tuples (36%) done (elapsed 63.04 s, remaining 108.17 s).
40600000 of 110000000 tuples (36%) done (elapsed 63.11 s, remaining 107.87 s).
40700000 of 110000000 tuples (37%) done (elapsed 63.18 s, remaining 107.57 s).
40800000 of 110000000 tuples (37%) done (elapsed 63.25 s, remaining 107.27 s).
40900000 of 110000000 tuples (37%) done (elapsed 63.32 s, remaining 106.97 s).
41000000 of 110000000 tuples (37%) done (elapsed 63.39 s, remaining 106.68 s).
41100000 of 110000000 tuples (37%) done (elapsed 63.46 s, remaining 106.38 s).
41200000 of 110000000 tuples (37%) done (elapsed 63.53 s, remaining 106.08 s).
41300000 of 110000000 tuples (37%) done (elapsed 63.60 s, remaining 105.79 s).
41400000 of 110000000 tuples (37%) done (elapsed 63.67 s, remaining 105.49 s).
41500000 of 110000000 tuples (37%) done (elapsed 63.74 s, remaining 105.20 s).
41600000 of 110000000 tuples (37%) done (elapsed 63.81 s, remaining 104.91 s).
41700000 of 110000000 tuples (37%) done (elapsed 64.40 s, remaining 105.48 s).
41800000 of 110000000 tuples (38%) done (elapsed 64.68 s, remaining 105.53 s).
41900000 of 110000000 tuples (38%) done (elapsed 64.75 s, remaining 105.24 s).
42000000 of 110000000 tuples (38%) done (elapsed 64.82 s, remaining 104.94 s).
42100000 of 110000000 tuples (38%) done (elapsed 64.89 s, remaining 104.65 s).
42200000 of 110000000 tuples (38%) done (elapsed 64.96 s, remaining 104.36 s).
42300000 of 110000000 tuples (38%) done (elapsed 65.03 s, remaining 104.08 s).
42400000 of 110000000 tuples (38%) done (elapsed 65.80 s, remaining 104.91 s).
42500000 of 110000000 tuples (38%) done (elapsed 66.26 s, remaining 105.24 s).
42600000 of 110000000 tuples (38%) done (elapsed 66.29 s, remaining 104.87 s).
42700000 of 110000000 tuples (38%) done (elapsed 66.38 s, remaining 104.63 s).
42800000 of 110000000 tuples (38%) done (elapsed 66.47 s, remaining 104.36 s).
42900000 of 110000000 tuples (39%) done (elapsed 66.62 s, remaining 104.20 s).
43000000 of 110000000 tuples (39%) done (elapsed 66.69 s, remaining 103.92 s).
43100000 of 110000000 tuples (39%) done (elapsed 66.76 s, remaining 103.63 s).
43200000 of 110000000 tuples (39%) done (elapsed 66.83 s, remaining 103.34 s).
43300000 of 110000000 tuples (39%) done (elapsed 67.02 s, remaining 103.23 s).
43400000 of 110000000 tuples (39%) done (elapsed 67.09 s, remaining 102.95 s).
43500000 of 110000000 tuples (39%) done (elapsed 67.16 s, remaining 102.66 s).
43600000 of 110000000 tuples (39%) done (elapsed 68.11 s, remaining 103.72 s).
43700000 of 110000000 tuples (39%) done (elapsed 68.18 s, remaining 103.43 s).
43800000 of 110000000 tuples (39%) done (elapsed 68.24 s, remaining 103.15 s).
43900000 of 110000000 tuples (39%) done (elapsed 68.37 s, remaining 102.94 s).
44000000 of 110000000 tuples (40%) done (elapsed 68.47 s, remaining 102.70 s).
44100000 of 110000000 tuples (40%) done (elapsed 68.54 s, remaining 102.42 s).
44200000 of 110000000 tuples (40%) done (elapsed 68.63 s, remaining 102.16 s).
44300000 of 110000000 tuples (40%) done (elapsed 68.70 s, remaining 101.88 s).
44400000 of 110000000 tuples (40%) done (elapsed 69.56 s, remaining 102.77 s).
44500000 of 110000000 tuples (40%) done (elapsed 69.63 s, remaining 102.48 s).
44600000 of 110000000 tuples (40%) done (elapsed 69.70 s, remaining 102.20 s).
44700000 of 110000000 tuples (40%) done (elapsed 69.77 s, remaining 101.92 s).
44800000 of 110000000 tuples (40%) done (elapsed 69.84 s, remaining 101.64 s).
44900000 of 110000000 tuples (40%) done (elapsed 69.91 s, remaining 101.36 s).
45000000 of 110000000 tuples (40%) done (elapsed 69.98 s, remaining 101.08 s).
45100000 of 110000000 tuples (41%) done (elapsed 70.12 s, remaining 100.91 s).
45200000 of 110000000 tuples (41%) done (elapsed 70.22 s, remaining 100.67 s).
45300000 of 110000000 tuples (41%) done (elapsed 70.29 s, remaining 100.40 s).
45400000 of 110000000 tuples (41%) done (elapsed 70.36 s, remaining 100.12 s).
45500000 of 110000000 tuples (41%) done (elapsed 71.28 s, remaining 101.04 s).
45600000 of 110000000 tuples (41%) done (elapsed 71.63 s, remaining 101.16 s).
45700000 of 110000000 tuples (41%) done (elapsed 71.66 s, remaining 100.82 s).
45800000 of 110000000 tuples (41%) done (elapsed 71.68 s, remaining 100.48 s).
45900000 of 110000000 tuples (41%) done (elapsed 71.70 s, remaining 100.14 s).
46000000 of 110000000 tuples (41%) done (elapsed 71.77 s, remaining 99.86 s).
46100000 of 110000000 tuples (41%) done (elapsed 71.84 s, remaining 99.59 s).
46200000 of 110000000 tuples (42%) done (elapsed 71.97 s, remaining 99.38 s).
46300000 of 110000000 tuples (42%) done (elapsed 72.27 s, remaining 99.44 s).
46400000 of 110000000 tuples (42%) done (elapsed 72.38 s, remaining 99.21 s).
46500000 of 110000000 tuples (42%) done (elapsed 72.54 s, remaining 99.06 s).
46600000 of 110000000 tuples (42%) done (elapsed 72.61 s, remaining 98.79 s).
46700000 of 110000000 tuples (42%) done (elapsed 73.31 s, remaining 99.37 s).
46800000 of 110000000 tuples (42%) done (elapsed 73.38 s, remaining 99.10 s).
46900000 of 110000000 tuples (42%) done (elapsed 73.45 s, remaining 98.82 s).
47000000 of 110000000 tuples (42%) done (elapsed 73.52 s, remaining 98.55 s).
47100000 of 110000000 tuples (42%) done (elapsed 73.59 s, remaining 98.28 s).
47200000 of 110000000 tuples (42%) done (elapsed 73.66 s, remaining 98.01 s).
47300000 of 110000000 tuples (43%) done (elapsed 73.73 s, remaining 97.74 s).
47400000 of 110000000 tuples (43%) done (elapsed 74.26 s, remaining 98.07 s).
47500000 of 110000000 tuples (43%) done (elapsed 74.37 s, remaining 97.85 s).
47600000 of 110000000 tuples (43%) done (elapsed 74.44 s, remaining 97.58 s).
47700000 of 110000000 tuples (43%) done (elapsed 74.51 s, remaining 97.31 s).
47800000 of 110000000 tuples (43%) done (elapsed 74.87 s, remaining 97.43 s).
47900000 of 110000000 tuples (43%) done (elapsed 74.94 s, remaining 97.16 s).
48000000 of 110000000 tuples (43%) done (elapsed 75.01 s, remaining 96.89 s).
48100000 of 110000000 tuples (43%) done (elapsed 75.04 s, remaining 96.56 s).
48200000 of 110000000 tuples (43%) done (elapsed 75.11 s, remaining 96.30 s).
48300000 of 110000000 tuples (43%) done (elapsed 75.18 s, remaining 96.03 s).
48400000 of 110000000 tuples (44%) done (elapsed 75.32 s, remaining 95.87 s).
48500000 of 110000000 tuples (44%) done (elapsed 75.44 s, remaining 95.67 s).
48600000 of 110000000 tuples (44%) done (elapsed 75.51 s, remaining 95.40 s).
48700000 of 110000000 tuples (44%) done (elapsed 75.58 s, remaining 95.14 s).
48800000 of 110000000 tuples (44%) done (elapsed 75.65 s, remaining 94.88 s).
48900000 of 110000000 tuples (44%) done (elapsed 75.72 s, remaining 94.61 s).
49000000 of 110000000 tuples (44%) done (elapsed 76.10 s, remaining 94.74 s).
49100000 of 110000000 tuples (44%) done (elapsed 76.17 s, remaining 94.47 s).
49200000 of 110000000 tuples (44%) done (elapsed 76.26 s, remaining 94.24 s).
49300000 of 110000000 tuples (44%) done (elapsed 76.88 s, remaining 94.66 s).
49400000 of 110000000 tuples (44%) done (elapsed 76.90 s, remaining 94.34 s).
49500000 of 110000000 tuples (45%) done (elapsed 76.93 s, remaining 94.03 s).
49600000 of 110000000 tuples (45%) done (elapsed 77.07 s, remaining 93.85 s).
49700000 of 110000000 tuples (45%) done (elapsed 77.26 s, remaining 93.74 s).
49800000 of 110000000 tuples (45%) done (elapsed 77.33 s, remaining 93.48 s).
49900000 of 110000000 tuples (45%) done (elapsed 78.05 s, remaining 94.00 s).
50000000 of 110000000 tuples (45%) done (elapsed 78.30 s, remaining 93.96 s).
50100000 of 110000000 tuples (45%) done (elapsed 78.37 s, remaining 93.70 s).
50200000 of 110000000 tuples (45%) done (elapsed 78.44 s, remaining 93.44 s).
50300000 of 110000000 tuples (45%) done (elapsed 78.51 s, remaining 93.18 s).
50400000 of 110000000 tuples (45%) done (elapsed 78.58 s, remaining 92.92 s).
50500000 of 110000000 tuples (45%) done (elapsed 78.65 s, remaining 92.67 s).
50600000 of 110000000 tuples (46%) done (elapsed 78.72 s, remaining 92.41 s).
50700000 of 110000000 tuples (46%) done (elapsed 78.79 s, remaining 92.15 s).
50800000 of 110000000 tuples (46%) done (elapsed 78.86 s, remaining 91.90 s).
50900000 of 110000000 tuples (46%) done (elapsed 78.88 s, remaining 91.59 s).
51000000 of 110000000 tuples (46%) done (elapsed 78.95 s, remaining 91.34 s).
51100000 of 110000000 tuples (46%) done (elapsed 79.03 s, remaining 91.09 s).
51200000 of 110000000 tuples (46%) done (elapsed 79.10 s, remaining 90.84 s).
51300000 of 110000000 tuples (46%) done (elapsed 79.17 s, remaining 90.59 s).
51400000 of 110000000 tuples (46%) done (elapsed 79.24 s, remaining 90.34 s).
51500000 of 110000000 tuples (46%) done (elapsed 79.31 s, remaining 90.09 s).
51600000 of 110000000 tuples (46%) done (elapsed 79.38 s, remaining 89.84 s).
51700000 of 110000000 tuples (47%) done (elapsed 79.45 s, remaining 89.59 s).
51800000 of 110000000 tuples (47%) done (elapsed 79.52 s, remaining 89.34 s).
51900000 of 110000000 tuples (47%) done (elapsed 79.59 s, remaining 89.10 s).
52000000 of 110000000 tuples (47%) done (elapsed 79.66 s, remaining 88.85 s).
52100000 of 110000000 tuples (47%) done (elapsed 79.73 s, remaining 88.61 s).
52200000 of 110000000 tuples (47%) done (elapsed 79.80 s, remaining 88.36 s).
52300000 of 110000000 tuples (47%) done (elapsed 79.87 s, remaining 88.12 s).
52400000 of 110000000 tuples (47%) done (elapsed 79.94 s, remaining 87.88 s).
52500000 of 110000000 tuples (47%) done (elapsed 80.01 s, remaining 87.63 s).
52600000 of 110000000 tuples (47%) done (elapsed 80.08 s, remaining 87.39 s).
52700000 of 110000000 tuples (47%) done (elapsed 80.15 s, remaining 87.15 s).
52800000 of 110000000 tuples (48%) done (elapsed 80.22 s, remaining 86.91 s).
52900000 of 110000000 tuples (48%) done (elapsed 80.30 s, remaining 86.67 s).
53000000 of 110000000 tuples (48%) done (elapsed 80.37 s, remaining 86.43 s).
53100000 of 110000000 tuples (48%) done (elapsed 80.44 s, remaining 86.19 s).
53200000 of 110000000 tuples (48%) done (elapsed 80.51 s, remaining 85.95 s).
53300000 of 110000000 tuples (48%) done (elapsed 80.58 s, remaining 85.72 s).
53400000 of 110000000 tuples (48%) done (elapsed 80.65 s, remaining 85.48 s).
53500000 of 110000000 tuples (48%) done (elapsed 80.72 s, remaining 85.24 s).
53600000 of 110000000 tuples (48%) done (elapsed 80.79 s, remaining 85.01 s).
53700000 of 110000000 tuples (48%) done (elapsed 80.85 s, remaining 84.77 s).
53800000 of 110000000 tuples (48%) done (elapsed 80.88 s, remaining 84.49 s).
53900000 of 110000000 tuples (49%) done (elapsed 80.95 s, remaining 84.25 s).
54000000 of 110000000 tuples (49%) done (elapsed 81.02 s, remaining 84.02 s).
54100000 of 110000000 tuples (49%) done (elapsed 81.09 s, remaining 83.79 s).
54200000 of 110000000 tuples (49%) done (elapsed 81.16 s, remaining 83.55 s).
54300000 of 110000000 tuples (49%) done (elapsed 81.23 s, remaining 83.32 s).
54400000 of 110000000 tuples (49%) done (elapsed 81.30 s, remaining 83.09 s).
54500000 of 110000000 tuples (49%) done (elapsed 81.40 s, remaining 82.89 s).
54600000 of 110000000 tuples (49%) done (elapsed 81.47 s, remaining 82.66 s).
54700000 of 110000000 tuples (49%) done (elapsed 81.54 s, remaining 82.43 s).
54800000 of 110000000 tuples (49%) done (elapsed 81.61 s, remaining 82.20 s).
54900000 of 110000000 tuples (49%) done (elapsed 81.68 s, remaining 81.97 s).
55000000 of 110000000 tuples (50%) done (elapsed 81.70 s, remaining 81.70 s).
55100000 of 110000000 tuples (50%) done (elapsed 81.77 s, remaining 81.47 s).
55200000 of 110000000 tuples (50%) done (elapsed 81.84 s, remaining 81.25 s).
55300000 of 110000000 tuples (50%) done (elapsed 81.91 s, remaining 81.02 s).
55400000 of 110000000 tuples (50%) done (elapsed 81.98 s, remaining 80.79 s).
55500000 of 110000000 tuples (50%) done (elapsed 82.05 s, remaining 80.57 s).
55600000 of 110000000 tuples (50%) done (elapsed 82.12 s, remaining 80.34 s).
55700000 of 110000000 tuples (50%) done (elapsed 82.19 s, remaining 80.12 s).
55800000 of 110000000 tuples (50%) done (elapsed 82.26 s, remaining 79.90 s).
55900000 of 110000000 tuples (50%) done (elapsed 82.33 s, remaining 79.68 s).
56000000 of 110000000 tuples (50%) done (elapsed 82.40 s, remaining 79.45 s).
56100000 of 110000000 tuples (51%) done (elapsed 82.46 s, remaining 79.23 s).
56200000 of 110000000 tuples (51%) done (elapsed 82.53 s, remaining 79.01 s).
56300000 of 110000000 tuples (51%) done (elapsed 82.60 s, remaining 78.79 s).
56400000 of 110000000 tuples (51%) done (elapsed 82.67 s, remaining 78.57 s).
56500000 of 110000000 tuples (51%) done (elapsed 82.75 s, remaining 78.35 s).
56600000 of 110000000 tuples (51%) done (elapsed 82.82 s, remaining 78.13 s).
56700000 of 110000000 tuples (51%) done (elapsed 82.89 s, remaining 77.92 s).
56800000 of 110000000 tuples (51%) done (elapsed 82.96 s, remaining 77.70 s).
56900000 of 110000000 tuples (51%) done (elapsed 83.03 s, remaining 77.48 s).
57000000 of 110000000 tuples (51%) done (elapsed 83.10 s, remaining 77.27 s).
57100000 of 110000000 tuples (51%) done (elapsed 83.17 s, remaining 77.05 s).
57200000 of 110000000 tuples (52%) done (elapsed 83.24 s, remaining 76.83 s).
57300000 of 110000000 tuples (52%) done (elapsed 83.31 s, remaining 76.62 s).
57400000 of 110000000 tuples (52%) done (elapsed 83.38 s, remaining 76.40 s).
57500000 of 110000000 tuples (52%) done (elapsed 83.45 s, remaining 76.19 s).
57600000 of 110000000 tuples (52%) done (elapsed 83.52 s, remaining 75.98 s).
57700000 of 110000000 tuples (52%) done (elapsed 83.59 s, remaining 75.76 s).
57800000 of 110000000 tuples (52%) done (elapsed 83.65 s, remaining 75.55 s).
57900000 of 110000000 tuples (52%) done (elapsed 83.72 s, remaining 75.34 s).
58000000 of 110000000 tuples (52%) done (elapsed 83.79 s, remaining 75.13 s).
58100000 of 110000000 tuples (52%) done (elapsed 83.86 s, remaining 74.91 s).
58200000 of 110000000 tuples (52%) done (elapsed 83.93 s, remaining 74.70 s).
58300000 of 110000000 tuples (53%) done (elapsed 84.00 s, remaining 74.49 s).
58400000 of 110000000 tuples (53%) done (elapsed 84.07 s, remaining 74.28 s).
58500000 of 110000000 tuples (53%) done (elapsed 84.10 s, remaining 74.04 s).
58600000 of 110000000 tuples (53%) done (elapsed 84.17 s, remaining 73.83 s).
58700000 of 110000000 tuples (53%) done (elapsed 84.24 s, remaining 73.62 s).
58800000 of 110000000 tuples (53%) done (elapsed 84.31 s, remaining 73.41 s).
58900000 of 110000000 tuples (53%) done (elapsed 84.38 s, remaining 73.21 s).
59000000 of 110000000 tuples (53%) done (elapsed 84.45 s, remaining 73.00 s).
59100000 of 110000000 tuples (53%) done (elapsed 84.52 s, remaining 72.79 s).
59200000 of 110000000 tuples (53%) done (elapsed 84.59 s, remaining 72.59 s).
59300000 of 110000000 tuples (53%) done (elapsed 84.66 s, remaining 72.38 s).
59400000 of 110000000 tuples (54%) done (elapsed 84.73 s, remaining 72.18 s).
59500000 of 110000000 tuples (54%) done (elapsed 84.80 s, remaining 71.98 s).
59600000 of 110000000 tuples (54%) done (elapsed 84.87 s, remaining 71.77 s).
59700000 of 110000000 tuples (54%) done (elapsed 84.94 s, remaining 71.57 s).
59800000 of 110000000 tuples (54%) done (elapsed 85.01 s, remaining 71.37 s).
59900000 of 110000000 tuples (54%) done (elapsed 85.08 s, remaining 71.16 s).
60000000 of 110000000 tuples (54%) done (elapsed 85.15 s, remaining 70.96 s).
60100000 of 110000000 tuples (54%) done (elapsed 85.22 s, remaining 70.76 s).
60200000 of 110000000 tuples (54%) done (elapsed 85.29 s, remaining 70.56 s).
60300000 of 110000000 tuples (54%) done (elapsed 85.36 s, remaining 70.36 s).
60400000 of 110000000 tuples (54%) done (elapsed 85.43 s, remaining 70.16 s).
60500000 of 110000000 tuples (55%) done (elapsed 85.50 s, remaining 69.96 s).
60600000 of 110000000 tuples (55%) done (elapsed 85.57 s, remaining 69.76 s).
60700000 of 110000000 tuples (55%) done (elapsed 85.64 s, remaining 69.56 s).
60800000 of 110000000 tuples (55%) done (elapsed 85.71 s, remaining 69.36 s).
60900000 of 110000000 tuples (55%) done (elapsed 85.78 s, remaining 69.16 s).
61000000 of 110000000 tuples (55%) done (elapsed 85.86 s, remaining 68.97 s).
61100000 of 110000000 tuples (55%) done (elapsed 85.92 s, remaining 68.77 s).
61200000 of 110000000 tuples (55%) done (elapsed 85.99 s, remaining 68.57 s).
61300000 of 110000000 tuples (55%) done (elapsed 86.06 s, remaining 68.37 s).
61400000 of 110000000 tuples (55%) done (elapsed 86.13 s, remaining 68.18 s).
61500000 of 110000000 tuples (55%) done (elapsed 86.20 s, remaining 67.98 s).
61600000 of 110000000 tuples (56%) done (elapsed 86.27 s, remaining 67.79 s).
61700000 of 110000000 tuples (56%) done (elapsed 86.34 s, remaining 67.59 s).
61800000 of 110000000 tuples (56%) done (elapsed 86.41 s, remaining 67.40 s).
61900000 of 110000000 tuples (56%) done (elapsed 86.62 s, remaining 67.31 s).
62000000 of 110000000 tuples (56%) done (elapsed 86.65 s, remaining 67.08 s).
62100000 of 110000000 tuples (56%) done (elapsed 86.67 s, remaining 66.85 s).
62200000 of 110000000 tuples (56%) done (elapsed 86.70 s, remaining 66.63 s).
62300000 of 110000000 tuples (56%) done (elapsed 86.77 s, remaining 66.43 s).
62400000 of 110000000 tuples (56%) done (elapsed 86.84 s, remaining 66.24 s).
62500000 of 110000000 tuples (56%) done (elapsed 86.91 s, remaining 66.05 s).
62600000 of 110000000 tuples (56%) done (elapsed 86.98 s, remaining 65.86 s).
62700000 of 110000000 tuples (57%) done (elapsed 87.05 s, remaining 65.67 s).
62800000 of 110000000 tuples (57%) done (elapsed 87.12 s, remaining 65.48 s).
62900000 of 110000000 tuples (57%) done (elapsed 89.26 s, remaining 66.84 s).
63000000 of 110000000 tuples (57%) done (elapsed 89.47 s, remaining 66.75 s).
63100000 of 110000000 tuples (57%) done (elapsed 89.54 s, remaining 66.55 s).
63200000 of 110000000 tuples (57%) done (elapsed 89.61 s, remaining 66.36 s).
63300000 of 110000000 tuples (57%) done (elapsed 89.68 s, remaining 66.16 s).
63400000 of 110000000 tuples (57%) done (elapsed 89.75 s, remaining 65.97 s).
63500000 of 110000000 tuples (57%) done (elapsed 89.82 s, remaining 65.77 s).
63600000 of 110000000 tuples (57%) done (elapsed 89.89 s, remaining 65.58 s).
63700000 of 110000000 tuples (57%) done (elapsed 89.96 s, remaining 65.39 s).
63800000 of 110000000 tuples (58%) done (elapsed 90.66 s, remaining 65.65 s).
63900000 of 110000000 tuples (58%) done (elapsed 90.73 s, remaining 65.45 s).
64000000 of 110000000 tuples (58%) done (elapsed 90.86 s, remaining 65.30 s).
64100000 of 110000000 tuples (58%) done (elapsed 90.93 s, remaining 65.11 s).
64200000 of 110000000 tuples (58%) done (elapsed 91.00 s, remaining 64.92 s).
64300000 of 110000000 tuples (58%) done (elapsed 91.07 s, remaining 64.73 s).
64400000 of 110000000 tuples (58%) done (elapsed 91.14 s, remaining 64.53 s).
64500000 of 110000000 tuples (58%) done (elapsed 91.21 s, remaining 64.34 s).
64600000 of 110000000 tuples (58%) done (elapsed 91.44 s, remaining 64.27 s).
64700000 of 110000000 tuples (58%) done (elapsed 91.95 s, remaining 64.38 s).
64800000 of 110000000 tuples (58%) done (elapsed 91.98 s, remaining 64.16 s).
64900000 of 110000000 tuples (59%) done (elapsed 92.00 s, remaining 63.93 s).
65000000 of 110000000 tuples (59%) done (elapsed 92.03 s, remaining 63.71 s).
65100000 of 110000000 tuples (59%) done (elapsed 92.10 s, remaining 63.52 s).
65200000 of 110000000 tuples (59%) done (elapsed 92.17 s, remaining 63.33 s).
65300000 of 110000000 tuples (59%) done (elapsed 92.47 s, remaining 63.30 s).
65400000 of 110000000 tuples (59%) done (elapsed 92.88 s, remaining 63.34 s).
65500000 of 110000000 tuples (59%) done (elapsed 92.96 s, remaining 63.15 s).
65600000 of 110000000 tuples (59%) done (elapsed 93.25 s, remaining 63.11 s).
65700000 of 110000000 tuples (59%) done (elapsed 93.32 s, remaining 62.92 s).
65800000 of 110000000 tuples (59%) done (elapsed 93.39 s, remaining 62.73 s).
65900000 of 110000000 tuples (59%) done (elapsed 93.46 s, remaining 62.54 s).
66000000 of 110000000 tuples (60%) done (elapsed 93.53 s, remaining 62.35 s).
66100000 of 110000000 tuples (60%) done (elapsed 93.60 s, remaining 62.16 s).
66200000 of 110000000 tuples (60%) done (elapsed 93.67 s, remaining 61.97 s).
66300000 of 110000000 tuples (60%) done (elapsed 93.74 s, remaining 61.78 s).
66400000 of 110000000 tuples (60%) done (elapsed 94.43 s, remaining 62.00 s).
66500000 of 110000000 tuples (60%) done (elapsed 94.50 s, remaining 61.81 s).
66600000 of 110000000 tuples (60%) done (elapsed 94.57 s, remaining 61.62 s).
66700000 of 110000000 tuples (60%) done (elapsed 94.64 s, remaining 61.44 s).
66800000 of 110000000 tuples (60%) done (elapsed 94.71 s, remaining 61.25 s).
66900000 of 110000000 tuples (60%) done (elapsed 94.78 s, remaining 61.06 s).
67000000 of 110000000 tuples (60%) done (elapsed 95.64 s, remaining 61.38 s).
67100000 of 110000000 tuples (61%) done (elapsed 95.73 s, remaining 61.20 s).
67200000 of 110000000 tuples (61%) done (elapsed 95.80 s, remaining 61.01 s).
67300000 of 110000000 tuples (61%) done (elapsed 95.87 s, remaining 60.83 s).
67400000 of 110000000 tuples (61%) done (elapsed 95.94 s, remaining 60.64 s).
67500000 of 110000000 tuples (61%) done (elapsed 95.96 s, remaining 60.42 s).
67600000 of 110000000 tuples (61%) done (elapsed 96.03 s, remaining 60.23 s).
67700000 of 110000000 tuples (61%) done (elapsed 96.10 s, remaining 60.05 s).
67800000 of 110000000 tuples (61%) done (elapsed 96.17 s, remaining 59.86 s).
67900000 of 110000000 tuples (61%) done (elapsed 96.95 s, remaining 60.11 s).
68000000 of 110000000 tuples (61%) done (elapsed 97.38 s, remaining 60.14 s).
68100000 of 110000000 tuples (61%) done (elapsed 97.40 s, remaining 59.93 s).
68200000 of 110000000 tuples (62%) done (elapsed 97.43 s, remaining 59.71 s).
68300000 of 110000000 tuples (62%) done (elapsed 97.45 s, remaining 59.50 s).
68400000 of 110000000 tuples (62%) done (elapsed 97.52 s, remaining 59.31 s).
68500000 of 110000000 tuples (62%) done (elapsed 97.59 s, remaining 59.12 s).
68600000 of 110000000 tuples (62%) done (elapsed 97.73 s, remaining 58.98 s).
68700000 of 110000000 tuples (62%) done (elapsed 97.94 s, remaining 58.88 s).
68800000 of 110000000 tuples (62%) done (elapsed 98.48 s, remaining 58.98 s).
68900000 of 110000000 tuples (62%) done (elapsed 98.84 s, remaining 58.96 s).
69000000 of 110000000 tuples (62%) done (elapsed 98.91 s, remaining 58.77 s).
69100000 of 110000000 tuples (62%) done (elapsed 98.98 s, remaining 58.58 s).
69200000 of 110000000 tuples (62%) done (elapsed 99.05 s, remaining 58.40 s).
69300000 of 110000000 tuples (63%) done (elapsed 99.12 s, remaining 58.21 s).
69400000 of 110000000 tuples (63%) done (elapsed 99.19 s, remaining 58.02 s).
69500000 of 110000000 tuples (63%) done (elapsed 99.26 s, remaining 57.84 s).
69600000 of 110000000 tuples (63%) done (elapsed 99.33 s, remaining 57.65 s).
69700000 of 110000000 tuples (63%) done (elapsed 99.71 s, remaining 57.65 s).
69800000 of 110000000 tuples (63%) done (elapsed 99.78 s, remaining 57.47 s).
69900000 of 110000000 tuples (63%) done (elapsed 99.85 s, remaining 57.28 s).
70000000 of 110000000 tuples (63%) done (elapsed 99.92 s, remaining 57.10 s).
70100000 of 110000000 tuples (63%) done (elapsed 99.99 s, remaining 56.91 s).
70200000 of 110000000 tuples (63%) done (elapsed 100.62 s, remaining 57.05 s).
70300000 of 110000000 tuples (63%) done (elapsed 100.69 s, remaining 56.86 s).
70400000 of 110000000 tuples (64%) done (elapsed 100.97 s, remaining 56.79 s).
70500000 of 110000000 tuples (64%) done (elapsed 101.19 s, remaining 56.69 s).
70600000 of 110000000 tuples (64%) done (elapsed 101.26 s, remaining 56.51 s).
70700000 of 110000000 tuples (64%) done (elapsed 101.33 s, remaining 56.32 s).
70800000 of 110000000 tuples (64%) done (elapsed 101.40 s, remaining 56.14 s).
70900000 of 110000000 tuples (64%) done (elapsed 101.47 s, remaining 55.96 s).
71000000 of 110000000 tuples (64%) done (elapsed 101.53 s, remaining 55.77 s).
71100000 of 110000000 tuples (64%) done (elapsed 101.60 s, remaining 55.59 s).
71200000 of 110000000 tuples (64%) done (elapsed 102.12 s, remaining 55.65 s).
71300000 of 110000000 tuples (64%) done (elapsed 102.51 s, remaining 55.64 s).
71400000 of 110000000 tuples (64%) done (elapsed 102.60 s, remaining 55.47 s).
71500000 of 110000000 tuples (65%) done (elapsed 102.67 s, remaining 55.28 s).
71600000 of 110000000 tuples (65%) done (elapsed 102.74 s, remaining 55.10 s).
71700000 of 110000000 tuples (65%) done (elapsed 102.81 s, remaining 54.92 s).
71800000 of 110000000 tuples (65%) done (elapsed 102.88 s, remaining 54.74 s).
71900000 of 110000000 tuples (65%) done (elapsed 103.23 s, remaining 54.70 s).
72000000 of 110000000 tuples (65%) done (elapsed 103.44 s, remaining 54.59 s).
72100000 of 110000000 tuples (65%) done (elapsed 103.82 s, remaining 54.57 s).
72200000 of 110000000 tuples (65%) done (elapsed 103.89 s, remaining 54.39 s).
72300000 of 110000000 tuples (65%) done (elapsed 103.96 s, remaining 54.21 s).
72400000 of 110000000 tuples (65%) done (elapsed 104.03 s, remaining 54.03 s).
72500000 of 110000000 tuples (65%) done (elapsed 104.10 s, remaining 53.84 s).
72600000 of 110000000 tuples (66%) done (elapsed 104.12 s, remaining 53.64 s).
72700000 of 110000000 tuples (66%) done (elapsed 104.19 s, remaining 53.46 s).
72800000 of 110000000 tuples (66%) done (elapsed 104.26 s, remaining 53.28 s).
72900000 of 110000000 tuples (66%) done (elapsed 104.87 s, remaining 53.37 s).
73000000 of 110000000 tuples (66%) done (elapsed 105.11 s, remaining 53.28 s).
73100000 of 110000000 tuples (66%) done (elapsed 105.18 s, remaining 53.10 s).
73200000 of 110000000 tuples (66%) done (elapsed 105.25 s, remaining 52.91 s).
73300000 of 110000000 tuples (66%) done (elapsed 105.37 s, remaining 52.76 s).
73400000 of 110000000 tuples (66%) done (elapsed 105.47 s, remaining 52.59 s).
73500000 of 110000000 tuples (66%) done (elapsed 106.06 s, remaining 52.67 s).
73600000 of 110000000 tuples (66%) done (elapsed 106.13 s, remaining 52.49 s).
73700000 of 110000000 tuples (67%) done (elapsed 106.20 s, remaining 52.31 s).
73800000 of 110000000 tuples (67%) done (elapsed 106.27 s, remaining 52.13 s).
73900000 of 110000000 tuples (67%) done (elapsed 106.34 s, remaining 51.95 s).
74000000 of 110000000 tuples (67%) done (elapsed 106.41 s, remaining 51.77 s).
74100000 of 110000000 tuples (67%) done (elapsed 106.91 s, remaining 51.80 s).
74200000 of 110000000 tuples (67%) done (elapsed 107.10 s, remaining 51.67 s).
74300000 of 110000000 tuples (67%) done (elapsed 107.79 s, remaining 51.79 s).
74400000 of 110000000 tuples (67%) done (elapsed 107.82 s, remaining 51.59 s).
74500000 of 110000000 tuples (67%) done (elapsed 107.84 s, remaining 51.39 s).
74600000 of 110000000 tuples (67%) done (elapsed 107.87 s, remaining 51.19 s).
74700000 of 110000000 tuples (67%) done (elapsed 107.94 s, remaining 51.01 s).
74800000 of 110000000 tuples (68%) done (elapsed 108.01 s, remaining 50.83 s).
74900000 of 110000000 tuples (68%) done (elapsed 108.08 s, remaining 50.65 s).
75000000 of 110000000 tuples (68%) done (elapsed 108.15 s, remaining 50.47 s).
75100000 of 110000000 tuples (68%) done (elapsed 108.22 s, remaining 50.29 s).
75200000 of 110000000 tuples (68%) done (elapsed 108.92 s, remaining 50.40 s).
75300000 of 110000000 tuples (68%) done (elapsed 108.99 s, remaining 50.23 s).
75400000 of 110000000 tuples (68%) done (elapsed 109.06 s, remaining 50.05 s).
75500000 of 110000000 tuples (68%) done (elapsed 109.13 s, remaining 49.87 s).
75600000 of 110000000 tuples (68%) done (elapsed 109.20 s, remaining 49.69 s).
75700000 of 110000000 tuples (68%) done (elapsed 109.27 s, remaining 49.51 s).
75800000 of 110000000 tuples (68%) done (elapsed 109.34 s, remaining 49.33 s).
75900000 of 110000000 tuples (69%) done (elapsed 109.99 s, remaining 49.41 s).
76000000 of 110000000 tuples (69%) done (elapsed 110.07 s, remaining 49.24 s).
76100000 of 110000000 tuples (69%) done (elapsed 110.14 s, remaining 49.07 s).
76200000 of 110000000 tuples (69%) done (elapsed 110.23 s, remaining 48.90 s).
76300000 of 110000000 tuples (69%) done (elapsed 110.30 s, remaining 48.72 s).
76400000 of 110000000 tuples (69%) done (elapsed 110.37 s, remaining 48.54 s).
76500000 of 110000000 tuples (69%) done (elapsed 110.44 s, remaining 48.36 s).
76600000 of 110000000 tuples (69%) done (elapsed 110.51 s, remaining 48.19 s).
76700000 of 110000000 tuples (69%) done (elapsed 110.58 s, remaining 48.01 s).
76800000 of 110000000 tuples (69%) done (elapsed 110.65 s, remaining 47.83 s).
76900000 of 110000000 tuples (69%) done (elapsed 111.62 s, remaining 48.05 s).
77000000 of 110000000 tuples (70%) done (elapsed 111.69 s, remaining 47.87 s).
77100000 of 110000000 tuples (70%) done (elapsed 111.76 s, remaining 47.69 s).
77200000 of 110000000 tuples (70%) done (elapsed 111.83 s, remaining 47.51 s).
77300000 of 110000000 tuples (70%) done (elapsed 111.90 s, remaining 47.34 s).
77400000 of 110000000 tuples (70%) done (elapsed 111.97 s, remaining 47.16 s).
77500000 of 110000000 tuples (70%) done (elapsed 112.04 s, remaining 46.99 s).
77600000 of 110000000 tuples (70%) done (elapsed 112.60 s, remaining 47.01 s).
77700000 of 110000000 tuples (70%) done (elapsed 113.12 s, remaining 47.03 s).
77800000 of 110000000 tuples (70%) done (elapsed 113.15 s, remaining 46.83 s).
77900000 of 110000000 tuples (70%) done (elapsed 113.17 s, remaining 46.64 s).
78000000 of 110000000 tuples (70%) done (elapsed 113.20 s, remaining 46.44 s).
78100000 of 110000000 tuples (71%) done (elapsed 113.27 s, remaining 46.26 s).
78200000 of 110000000 tuples (71%) done (elapsed 113.34 s, remaining 46.09 s).
78300000 of 110000000 tuples (71%) done (elapsed 113.41 s, remaining 45.91 s).
78400000 of 110000000 tuples (71%) done (elapsed 113.48 s, remaining 45.74 s).
78500000 of 110000000 tuples (71%) done (elapsed 113.74 s, remaining 45.64 s).
78600000 of 110000000 tuples (71%) done (elapsed 114.08 s, remaining 45.57 s).
78700000 of 110000000 tuples (71%) done (elapsed 114.20 s, remaining 45.42 s).
78800000 of 110000000 tuples (71%) done (elapsed 114.27 s, remaining 45.25 s).
78900000 of 110000000 tuples (71%) done (elapsed 114.34 s, remaining 45.07 s).
79000000 of 110000000 tuples (71%) done (elapsed 114.41 s, remaining 44.90 s).
79100000 of 110000000 tuples (71%) done (elapsed 114.48 s, remaining 44.72 s).
79200000 of 110000000 tuples (72%) done (elapsed 114.51 s, remaining 44.53 s).
79300000 of 110000000 tuples (72%) done (elapsed 114.58 s, remaining 44.36 s).
79400000 of 110000000 tuples (72%) done (elapsed 114.65 s, remaining 44.19 s).
79500000 of 110000000 tuples (72%) done (elapsed 114.72 s, remaining 44.01 s).
79600000 of 110000000 tuples (72%) done (elapsed 115.33 s, remaining 44.05 s).
79700000 of 110000000 tuples (72%) done (elapsed 115.40 s, remaining 43.87 s).
79800000 of 110000000 tuples (72%) done (elapsed 115.57 s, remaining 43.74 s).
79900000 of 110000000 tuples (72%) done (elapsed 115.64 s, remaining 43.56 s).
80000000 of 110000000 tuples (72%) done (elapsed 115.71 s, remaining 43.39 s).
80100000 of 110000000 tuples (72%) done (elapsed 115.78 s, remaining 43.22 s).
80200000 of 110000000 tuples (72%) done (elapsed 115.85 s, remaining 43.05 s).
80300000 of 110000000 tuples (73%) done (elapsed 116.33 s, remaining 43.03 s).
80400000 of 110000000 tuples (73%) done (elapsed 116.61 s, remaining 42.93 s).
80500000 of 110000000 tuples (73%) done (elapsed 116.68 s, remaining 42.76 s).
80600000 of 110000000 tuples (73%) done (elapsed 116.75 s, remaining 42.58 s).
80700000 of 110000000 tuples (73%) done (elapsed 116.82 s, remaining 42.41 s).
80800000 of 110000000 tuples (73%) done (elapsed 116.89 s, remaining 42.24 s).
80900000 of 110000000 tuples (73%) done (elapsed 116.96 s, remaining 42.07 s).
81000000 of 110000000 tuples (73%) done (elapsed 117.03 s, remaining 41.90 s).
81100000 of 110000000 tuples (73%) done (elapsed 117.10 s, remaining 41.73 s).
81200000 of 110000000 tuples (73%) done (elapsed 117.17 s, remaining 41.56 s).
81300000 of 110000000 tuples (73%) done (elapsed 117.24 s, remaining 41.39 s).
81400000 of 110000000 tuples (74%) done (elapsed 117.65 s, remaining 41.34 s).
81500000 of 110000000 tuples (74%) done (elapsed 118.10 s, remaining 41.30 s).
81600000 of 110000000 tuples (74%) done (elapsed 118.35 s, remaining 41.19 s).
81700000 of 110000000 tuples (74%) done (elapsed 118.38 s, remaining 41.00 s).
81800000 of 110000000 tuples (74%) done (elapsed 118.40 s, remaining 40.82 s).
81900000 of 110000000 tuples (74%) done (elapsed 118.43 s, remaining 40.63 s).
82000000 of 110000000 tuples (74%) done (elapsed 118.50 s, remaining 40.46 s).
82100000 of 110000000 tuples (74%) done (elapsed 118.57 s, remaining 40.29 s).
82200000 of 110000000 tuples (74%) done (elapsed 119.32 s, remaining 40.35 s).
82300000 of 110000000 tuples (74%) done (elapsed 119.48 s, remaining 40.21 s).
82400000 of 110000000 tuples (74%) done (elapsed 119.55 s, remaining 40.04 s).
82500000 of 110000000 tuples (75%) done (elapsed 119.62 s, remaining 39.87 s).
82600000 of 110000000 tuples (75%) done (elapsed 119.69 s, remaining 39.70 s).
82700000 of 110000000 tuples (75%) done (elapsed 119.76 s, remaining 39.53 s).
82800000 of 110000000 tuples (75%) done (elapsed 119.83 s, remaining 39.36 s).
82900000 of 110000000 tuples (75%) done (elapsed 119.90 s, remaining 39.20 s).
83000000 of 110000000 tuples (75%) done (elapsed 119.97 s, remaining 39.03 s).
83100000 of 110000000 tuples (75%) done (elapsed 120.19 s, remaining 38.91 s).
83200000 of 110000000 tuples (75%) done (elapsed 120.61 s, remaining 38.85 s).
83300000 of 110000000 tuples (75%) done (elapsed 120.68 s, remaining 38.68 s).
83400000 of 110000000 tuples (75%) done (elapsed 120.70 s, remaining 38.50 s).
83500000 of 110000000 tuples (75%) done (elapsed 120.77 s, remaining 38.33 s).
83600000 of 110000000 tuples (76%) done (elapsed 120.84 s, remaining 38.16 s).
83700000 of 110000000 tuples (76%) done (elapsed 120.91 s, remaining 37.99 s).
83800000 of 110000000 tuples (76%) done (elapsed 120.98 s, remaining 37.83 s).
83900000 of 110000000 tuples (76%) done (elapsed 121.69 s, remaining 37.86 s).
84000000 of 110000000 tuples (76%) done (elapsed 121.71 s, remaining 37.67 s).
84100000 of 110000000 tuples (76%) done (elapsed 122.15 s, remaining 37.62 s).
84200000 of 110000000 tuples (76%) done (elapsed 122.22 s, remaining 37.45 s).
84300000 of 110000000 tuples (76%) done (elapsed 122.29 s, remaining 37.28 s).
84400000 of 110000000 tuples (76%) done (elapsed 122.36 s, remaining 37.12 s).
84500000 of 110000000 tuples (76%) done (elapsed 122.43 s, remaining 36.95 s).
84600000 of 110000000 tuples (76%) done (elapsed 122.46 s, remaining 36.77 s).
84700000 of 110000000 tuples (77%) done (elapsed 122.53 s, remaining 36.60 s).
84800000 of 110000000 tuples (77%) done (elapsed 122.60 s, remaining 36.43 s).
84900000 of 110000000 tuples (77%) done (elapsed 122.87 s, remaining 36.33 s).
85000000 of 110000000 tuples (77%) done (elapsed 123.50 s, remaining 36.32 s).
85100000 of 110000000 tuples (77%) done (elapsed 123.52 s, remaining 36.14 s).
85200000 of 110000000 tuples (77%) done (elapsed 123.55 s, remaining 35.96 s).
85300000 of 110000000 tuples (77%) done (elapsed 123.57 s, remaining 35.78 s).
85400000 of 110000000 tuples (77%) done (elapsed 123.64 s, remaining 35.62 s).
85500000 of 110000000 tuples (77%) done (elapsed 123.71 s, remaining 35.45 s).
85600000 of 110000000 tuples (77%) done (elapsed 123.78 s, remaining 35.28 s).
85700000 of 110000000 tuples (77%) done (elapsed 123.85 s, remaining 35.12 s).
85800000 of 110000000 tuples (78%) done (elapsed 123.92 s, remaining 34.95 s).
85900000 of 110000000 tuples (78%) done (elapsed 123.99 s, remaining 34.79 s).
86000000 of 110000000 tuples (78%) done (elapsed 124.78 s, remaining 34.82 s).
86100000 of 110000000 tuples (78%) done (elapsed 124.85 s, remaining 34.66 s).
86200000 of 110000000 tuples (78%) done (elapsed 124.92 s, remaining 34.49 s).
86300000 of 110000000 tuples (78%) done (elapsed 124.99 s, remaining 34.32 s).
86400000 of 110000000 tuples (78%) done (elapsed 125.06 s, remaining 34.16 s).
86500000 of 110000000 tuples (78%) done (elapsed 125.13 s, remaining 33.99 s).
86600000 of 110000000 tuples (78%) done (elapsed 125.20 s, remaining 33.83 s).
86700000 of 110000000 tuples (78%) done (elapsed 125.22 s, remaining 33.65 s).
86800000 of 110000000 tuples (78%) done (elapsed 125.29 s, remaining 33.49 s).
86900000 of 110000000 tuples (79%) done (elapsed 125.65 s, remaining 33.40 s).
87000000 of 110000000 tuples (79%) done (elapsed 126.02 s, remaining 33.32 s).
87100000 of 110000000 tuples (79%) done (elapsed 126.09 s, remaining 33.15 s).
87200000 of 110000000 tuples (79%) done (elapsed 126.12 s, remaining 32.98 s).
87300000 of 110000000 tuples (79%) done (elapsed 126.19 s, remaining 32.81 s).
87400000 of 110000000 tuples (79%) done (elapsed 126.26 s, remaining 32.65 s).
87500000 of 110000000 tuples (79%) done (elapsed 126.33 s, remaining 32.48 s).
87600000 of 110000000 tuples (79%) done (elapsed 126.40 s, remaining 32.32 s).
87700000 of 110000000 tuples (79%) done (elapsed 126.47 s, remaining 32.16 s).
87800000 of 110000000 tuples (79%) done (elapsed 127.35 s, remaining 32.20 s).
87900000 of 110000000 tuples (79%) done (elapsed 127.42 s, remaining 32.04 s).
88000000 of 110000000 tuples (80%) done (elapsed 127.49 s, remaining 31.87 s).
88100000 of 110000000 tuples (80%) done (elapsed 127.56 s, remaining 31.71 s).
88200000 of 110000000 tuples (80%) done (elapsed 127.58 s, remaining 31.53 s).
88300000 of 110000000 tuples (80%) done (elapsed 127.65 s, remaining 31.37 s).
88400000 of 110000000 tuples (80%) done (elapsed 127.72 s, remaining 31.21 s).
88500000 of 110000000 tuples (80%) done (elapsed 127.79 s, remaining 31.05 s).
88600000 of 110000000 tuples (80%) done (elapsed 127.86 s, remaining 30.88 s).
88700000 of 110000000 tuples (80%) done (elapsed 127.93 s, remaining 30.72 s).
88800000 of 110000000 tuples (80%) done (elapsed 128.00 s, remaining 30.56 s).
88900000 of 110000000 tuples (80%) done (elapsed 128.45 s, remaining 30.49 s).
89000000 of 110000000 tuples (80%) done (elapsed 128.48 s, remaining 30.31 s).
89100000 of 110000000 tuples (81%) done (elapsed 128.50 s, remaining 30.14 s).
89200000 of 110000000 tuples (81%) done (elapsed 128.53 s, remaining 29.97 s).
89300000 of 110000000 tuples (81%) done (elapsed 128.60 s, remaining 29.81 s).
89400000 of 110000000 tuples (81%) done (elapsed 128.67 s, remaining 29.65 s).
89500000 of 110000000 tuples (81%) done (elapsed 128.75 s, remaining 29.49 s).
89600000 of 110000000 tuples (81%) done (elapsed 128.97 s, remaining 29.36 s).
89700000 of 110000000 tuples (81%) done (elapsed 129.05 s, remaining 29.20 s).
89800000 of 110000000 tuples (81%) done (elapsed 129.12 s, remaining 29.04 s).
89900000 of 110000000 tuples (81%) done (elapsed 129.35 s, remaining 28.92 s).
90000000 of 110000000 tuples (81%) done (elapsed 129.42 s, remaining 28.76 s).
90100000 of 110000000 tuples (81%) done (elapsed 129.49 s, remaining 28.60 s).
90200000 of 110000000 tuples (82%) done (elapsed 129.56 s, remaining 28.44 s).
90300000 of 110000000 tuples (82%) done (elapsed 130.20 s, remaining 28.40 s).
90400000 of 110000000 tuples (82%) done (elapsed 130.28 s, remaining 28.25 s).
90500000 of 110000000 tuples (82%) done (elapsed 130.42 s, remaining 28.10 s).
90600000 of 110000000 tuples (82%) done (elapsed 130.49 s, remaining 27.94 s).
90700000 of 110000000 tuples (82%) done (elapsed 130.56 s, remaining 27.78 s).
90800000 of 110000000 tuples (82%) done (elapsed 130.59 s, remaining 27.61 s).
90900000 of 110000000 tuples (82%) done (elapsed 130.65 s, remaining 27.45 s).
91000000 of 110000000 tuples (82%) done (elapsed 130.73 s, remaining 27.29 s).
91100000 of 110000000 tuples (82%) done (elapsed 130.79 s, remaining 27.14 s).
91200000 of 110000000 tuples (82%) done (elapsed 130.86 s, remaining 26.98 s).
91300000 of 110000000 tuples (83%) done (elapsed 131.72 s, remaining 26.98 s).
91400000 of 110000000 tuples (83%) done (elapsed 131.79 s, remaining 26.82 s).
91500000 of 110000000 tuples (83%) done (elapsed 131.86 s, remaining 26.66 s).
91600000 of 110000000 tuples (83%) done (elapsed 131.93 s, remaining 26.50 s).
91700000 of 110000000 tuples (83%) done (elapsed 132.00 s, remaining 26.34 s).
91800000 of 110000000 tuples (83%) done (elapsed 132.07 s, remaining 26.18 s).
91900000 of 110000000 tuples (83%) done (elapsed 132.14 s, remaining 26.03 s).
92000000 of 110000000 tuples (83%) done (elapsed 132.21 s, remaining 25.87 s).
92100000 of 110000000 tuples (83%) done (elapsed 132.28 s, remaining 25.71 s).
92200000 of 110000000 tuples (83%) done (elapsed 132.35 s, remaining 25.55 s).
92300000 of 110000000 tuples (83%) done (elapsed 133.08 s, remaining 25.52 s).
92400000 of 110000000 tuples (84%) done (elapsed 133.49 s, remaining 25.43 s).
92500000 of 110000000 tuples (84%) done (elapsed 133.52 s, remaining 25.26 s).
92600000 of 110000000 tuples (84%) done (elapsed 133.54 s, remaining 25.09 s).
92700000 of 110000000 tuples (84%) done (elapsed 133.56 s, remaining 24.93 s).
92800000 of 110000000 tuples (84%) done (elapsed 133.64 s, remaining 24.77 s).
92900000 of 110000000 tuples (84%) done (elapsed 133.70 s, remaining 24.61 s).
93000000 of 110000000 tuples (84%) done (elapsed 133.77 s, remaining 24.45 s).
93100000 of 110000000 tuples (84%) done (elapsed 133.85 s, remaining 24.30 s).
93200000 of 110000000 tuples (84%) done (elapsed 134.40 s, remaining 24.23 s).
93300000 of 110000000 tuples (84%) done (elapsed 134.56 s, remaining 24.09 s).
93400000 of 110000000 tuples (84%) done (elapsed 134.63 s, remaining 23.93 s).
93500000 of 110000000 tuples (85%) done (elapsed 134.70 s, remaining 23.77 s).
93600000 of 110000000 tuples (85%) done (elapsed 134.77 s, remaining 23.61 s).
93700000 of 110000000 tuples (85%) done (elapsed 134.84 s, remaining 23.46 s).
93800000 of 110000000 tuples (85%) done (elapsed 134.91 s, remaining 23.30 s).
93900000 of 110000000 tuples (85%) done (elapsed 134.98 s, remaining 23.14 s).
94000000 of 110000000 tuples (85%) done (elapsed 135.05 s, remaining 22.99 s).
94100000 of 110000000 tuples (85%) done (elapsed 135.12 s, remaining 22.83 s).
94200000 of 110000000 tuples (85%) done (elapsed 135.19 s, remaining 22.68 s).
94300000 of 110000000 tuples (85%) done (elapsed 135.51 s, remaining 22.56 s).
94400000 of 110000000 tuples (85%) done (elapsed 135.83 s, remaining 22.45 s).
94500000 of 110000000 tuples (85%) done (elapsed 135.90 s, remaining 22.29 s).
94600000 of 110000000 tuples (86%) done (elapsed 135.97 s, remaining 22.13 s).
94700000 of 110000000 tuples (86%) done (elapsed 136.04 s, remaining 21.98 s).
94800000 of 110000000 tuples (86%) done (elapsed 136.11 s, remaining 21.82 s).
94900000 of 110000000 tuples (86%) done (elapsed 136.18 s, remaining 21.67 s).
95000000 of 110000000 tuples (86%) done (elapsed 136.25 s, remaining 21.51 s).
95100000 of 110000000 tuples (86%) done (elapsed 136.32 s, remaining 21.36 s).
95200000 of 110000000 tuples (86%) done (elapsed 136.34 s, remaining 21.20 s).
95300000 of 110000000 tuples (86%) done (elapsed 136.41 s, remaining 21.04 s).
95400000 of 110000000 tuples (86%) done (elapsed 136.48 s, remaining 20.89 s).
95500000 of 110000000 tuples (86%) done (elapsed 137.26 s, remaining 20.84 s).
95600000 of 110000000 tuples (86%) done (elapsed 137.33 s, remaining 20.69 s).
95700000 of 110000000 tuples (87%) done (elapsed 137.40 s, remaining 20.53 s).
95800000 of 110000000 tuples (87%) done (elapsed 137.47 s, remaining 20.38 s).
95900000 of 110000000 tuples (87%) done (elapsed 137.54 s, remaining 20.22 s).
96000000 of 110000000 tuples (87%) done (elapsed 137.57 s, remaining 20.06 s).
96100000 of 110000000 tuples (87%) done (elapsed 137.64 s, remaining 19.91 s).
96200000 of 110000000 tuples (87%) done (elapsed 137.71 s, remaining 19.75 s).
96300000 of 110000000 tuples (87%) done (elapsed 138.54 s, remaining 19.71 s).
96400000 of 110000000 tuples (87%) done (elapsed 138.83 s, remaining 19.59 s).
96500000 of 110000000 tuples (87%) done (elapsed 138.85 s, remaining 19.42 s).
96600000 of 110000000 tuples (87%) done (elapsed 138.88 s, remaining 19.26 s).
96700000 of 110000000 tuples (87%) done (elapsed 138.90 s, remaining 19.10 s).
96800000 of 110000000 tuples (88%) done (elapsed 138.97 s, remaining 18.95 s).
96900000 of 110000000 tuples (88%) done (elapsed 139.04 s, remaining 18.80 s).
97000000 of 110000000 tuples (88%) done (elapsed 139.11 s, remaining 18.64 s).
97100000 of 110000000 tuples (88%) done (elapsed 139.18 s, remaining 18.49 s).
97200000 of 110000000 tuples (88%) done (elapsed 139.25 s, remaining 18.34 s).
97300000 of 110000000 tuples (88%) done (elapsed 139.37 s, remaining 18.19 s).
97400000 of 110000000 tuples (88%) done (elapsed 139.71 s, remaining 18.07 s).
97500000 of 110000000 tuples (88%) done (elapsed 140.13 s, remaining 17.97 s).
97600000 of 110000000 tuples (88%) done (elapsed 140.31 s, remaining 17.83 s).
97700000 of 110000000 tuples (88%) done (elapsed 140.38 s, remaining 17.67 s).
97800000 of 110000000 tuples (88%) done (elapsed 140.45 s, remaining 17.52 s).
97900000 of 110000000 tuples (89%) done (elapsed 140.52 s, remaining 17.37 s).
98000000 of 110000000 tuples (89%) done (elapsed 140.59 s, remaining 17.22 s).
98100000 of 110000000 tuples (89%) done (elapsed 140.66 s, remaining 17.06 s).
98200000 of 110000000 tuples (89%) done (elapsed 140.73 s, remaining 16.91 s).
98300000 of 110000000 tuples (89%) done (elapsed 141.67 s, remaining 16.86 s).
98400000 of 110000000 tuples (89%) done (elapsed 141.79 s, remaining 16.72 s).
98500000 of 110000000 tuples (89%) done (elapsed 141.86 s, remaining 16.56 s).
98600000 of 110000000 tuples (89%) done (elapsed 141.93 s, remaining 16.41 s).
98700000 of 110000000 tuples (89%) done (elapsed 142.00 s, remaining 16.26 s).
98800000 of 110000000 tuples (89%) done (elapsed 142.07 s, remaining 16.11 s).
98900000 of 110000000 tuples (89%) done (elapsed 142.14 s, remaining 15.95 s).
99000000 of 110000000 tuples (90%) done (elapsed 142.21 s, remaining 15.80 s).
99100000 of 110000000 tuples (90%) done (elapsed 142.77 s, remaining 15.70 s).
99200000 of 110000000 tuples (90%) done (elapsed 142.88 s, remaining 15.56 s).
99300000 of 110000000 tuples (90%) done (elapsed 142.95 s, remaining 15.40 s).
99400000 of 110000000 tuples (90%) done (elapsed 143.02 s, remaining 15.25 s).
99500000 of 110000000 tuples (90%) done (elapsed 143.09 s, remaining 15.10 s).
99600000 of 110000000 tuples (90%) done (elapsed 143.16 s, remaining 14.95 s).
99700000 of 110000000 tuples (90%) done (elapsed 143.23 s, remaining 14.80 s).
99800000 of 110000000 tuples (90%) done (elapsed 143.30 s, remaining 14.65 s).
99900000 of 110000000 tuples (90%) done (elapsed 143.37 s, remaining 14.49 s).
100000000 of 110000000 tuples (90%) done (elapsed 143.44 s, remaining 14.34 s).
100100000 of 110000000 tuples (91%) done (elapsed 143.51 s, remaining 14.19 s).
100200000 of 110000000 tuples (91%) done (elapsed 143.58 s, remaining 14.04 s).
100300000 of 110000000 tuples (91%) done (elapsed 143.65 s, remaining 13.89 s).
100400000 of 110000000 tuples (91%) done (elapsed 143.89 s, remaining 13.76 s).
100500000 of 110000000 tuples (91%) done (elapsed 143.92 s, remaining 13.60 s).
100600000 of 110000000 tuples (91%) done (elapsed 143.94 s, remaining 13.45 s).
100700000 of 110000000 tuples (91%) done (elapsed 143.97 s, remaining 13.30 s).
100800000 of 110000000 tuples (91%) done (elapsed 144.03 s, remaining 13.15 s).
100900000 of 110000000 tuples (91%) done (elapsed 144.10 s, remaining 13.00 s).
101000000 of 110000000 tuples (91%) done (elapsed 144.21 s, remaining 12.85 s).
101100000 of 110000000 tuples (91%) done (elapsed 144.28 s, remaining 12.70 s).
101200000 of 110000000 tuples (92%) done (elapsed 144.35 s, remaining 12.55 s).
101300000 of 110000000 tuples (92%) done (elapsed 144.41 s, remaining 12.40 s).
101400000 of 110000000 tuples (92%) done (elapsed 144.48 s, remaining 12.25 s).
101500000 of 110000000 tuples (92%) done (elapsed 144.55 s, remaining 12.10 s).
101600000 of 110000000 tuples (92%) done (elapsed 144.61 s, remaining 11.96 s).
101700000 of 110000000 tuples (92%) done (elapsed 144.68 s, remaining 11.81 s).
101800000 of 110000000 tuples (92%) done (elapsed 144.75 s, remaining 11.66 s).
101900000 of 110000000 tuples (92%) done (elapsed 144.82 s, remaining 11.51 s).
102000000 of 110000000 tuples (92%) done (elapsed 144.88 s, remaining 11.36 s).
102100000 of 110000000 tuples (92%) done (elapsed 144.95 s, remaining 11.22 s).
102200000 of 110000000 tuples (92%) done (elapsed 145.02 s, remaining 11.07 s).
102300000 of 110000000 tuples (93%) done (elapsed 145.08 s, remaining 10.92 s).
102400000 of 110000000 tuples (93%) done (elapsed 145.15 s, remaining 10.77 s).
102500000 of 110000000 tuples (93%) done (elapsed 145.26 s, remaining 10.63 s).
102600000 of 110000000 tuples (93%) done (elapsed 145.33 s, remaining 10.48 s).
102700000 of 110000000 tuples (93%) done (elapsed 145.39 s, remaining 10.33 s).
102800000 of 110000000 tuples (93%) done (elapsed 145.46 s, remaining 10.19 s).
102900000 of 110000000 tuples (93%) done (elapsed 145.53 s, remaining 10.04 s).
103000000 of 110000000 tuples (93%) done (elapsed 145.59 s, remaining 9.89 s).
103100000 of 110000000 tuples (93%) done (elapsed 145.66 s, remaining 9.75 s).
103200000 of 110000000 tuples (93%) done (elapsed 145.73 s, remaining 9.60 s).
103300000 of 110000000 tuples (93%) done (elapsed 145.79 s, remaining 9.46 s).
103400000 of 110000000 tuples (94%) done (elapsed 145.86 s, remaining 9.31 s).
103500000 of 110000000 tuples (94%) done (elapsed 145.93 s, remaining 9.16 s).
103600000 of 110000000 tuples (94%) done (elapsed 145.99 s, remaining 9.02 s).
103700000 of 110000000 tuples (94%) done (elapsed 146.06 s, remaining 8.87 s).
103800000 of 110000000 tuples (94%) done (elapsed 146.13 s, remaining 8.73 s).
103900000 of 110000000 tuples (94%) done (elapsed 146.20 s, remaining 8.58 s).
104000000 of 110000000 tuples (94%) done (elapsed 146.26 s, remaining 8.44 s).
104100000 of 110000000 tuples (94%) done (elapsed 146.37 s, remaining 8.30 s).
104200000 of 110000000 tuples (94%) done (elapsed 146.44 s, remaining 8.15 s).
104300000 of 110000000 tuples (94%) done (elapsed 146.51 s, remaining 8.01 s).
104400000 of 110000000 tuples (94%) done (elapsed 146.57 s, remaining 7.86 s).
104500000 of 110000000 tuples (95%) done (elapsed 146.64 s, remaining 7.72 s).
104600000 of 110000000 tuples (95%) done (elapsed 146.71 s, remaining 7.57 s).
104700000 of 110000000 tuples (95%) done (elapsed 146.78 s, remaining 7.43 s).
104800000 of 110000000 tuples (95%) done (elapsed 146.84 s, remaining 7.29 s).
104900000 of 110000000 tuples (95%) done (elapsed 146.91 s, remaining 7.14 s).
105000000 of 110000000 tuples (95%) done (elapsed 146.98 s, remaining 7.00 s).
105100000 of 110000000 tuples (95%) done (elapsed 147.05 s, remaining 6.86 s).
105200000 of 110000000 tuples (95%) done (elapsed 147.11 s, remaining 6.71 s).
105300000 of 110000000 tuples (95%) done (elapsed 147.18 s, remaining 6.57 s).
105400000 of 110000000 tuples (95%) done (elapsed 147.25 s, remaining 6.43 s).
105500000 of 110000000 tuples (95%) done (elapsed 147.31 s, remaining 6.28 s).
105600000 of 110000000 tuples (96%) done (elapsed 147.42 s, remaining 6.14 s).
105700000 of 110000000 tuples (96%) done (elapsed 147.49 s, remaining 6.00 s).
105800000 of 110000000 tuples (96%) done (elapsed 147.56 s, remaining 5.86 s).
105900000 of 110000000 tuples (96%) done (elapsed 147.62 s, remaining 5.72 s).
106000000 of 110000000 tuples (96%) done (elapsed 147.69 s, remaining 5.57 s).
106100000 of 110000000 tuples (96%) done (elapsed 147.76 s, remaining 5.43 s).
106200000 of 110000000 tuples (96%) done (elapsed 147.82 s, remaining 5.29 s).
106300000 of 110000000 tuples (96%) done (elapsed 147.89 s, remaining 5.15 s).
106400000 of 110000000 tuples (96%) done (elapsed 147.96 s, remaining 5.01 s).
106500000 of 110000000 tuples (96%) done (elapsed 148.03 s, remaining 4.86 s).
106600000 of 110000000 tuples (96%) done (elapsed 148.09 s, remaining 4.72 s).
106700000 of 110000000 tuples (97%) done (elapsed 148.16 s, remaining 4.58 s).
106800000 of 110000000 tuples (97%) done (elapsed 148.23 s, remaining 4.44 s).
106900000 of 110000000 tuples (97%) done (elapsed 148.30 s, remaining 4.30 s).
107000000 of 110000000 tuples (97%) done (elapsed 148.36 s, remaining 4.16 s).
107100000 of 110000000 tuples (97%) done (elapsed 148.43 s, remaining 4.02 s).
107200000 of 110000000 tuples (97%) done (elapsed 148.54 s, remaining 3.88 s).
107300000 of 110000000 tuples (97%) done (elapsed 148.61 s, remaining 3.74 s).
107400000 of 110000000 tuples (97%) done (elapsed 148.68 s, remaining 3.60 s).
107500000 of 110000000 tuples (97%) done (elapsed 148.75 s, remaining 3.46 s).
107600000 of 110000000 tuples (97%) done (elapsed 148.83 s, remaining 3.32 s).
107700000 of 110000000 tuples (97%) done (elapsed 148.85 s, remaining 3.18 s).
107800000 of 110000000 tuples (98%) done (elapsed 148.96 s, remaining 3.04 s).
107900000 of 110000000 tuples (98%) done (elapsed 149.03 s, remaining 2.90 s).
108000000 of 110000000 tuples (98%) done (elapsed 149.10 s, remaining 2.76 s).
108100000 of 110000000 tuples (98%) done (elapsed 149.16 s, remaining 2.62 s).
108200000 of 110000000 tuples (98%) done (elapsed 149.23 s, remaining 2.48 s).
108300000 of 110000000 tuples (98%) done (elapsed 149.30 s, remaining 2.34 s).
108400000 of 110000000 tuples (98%) done (elapsed 149.37 s, remaining 2.20 s).
108500000 of 110000000 tuples (98%) done (elapsed 149.43 s, remaining 2.07 s).
108600000 of 110000000 tuples (98%) done (elapsed 149.50 s, remaining 1.93 s).
108700000 of 110000000 tuples (98%) done (elapsed 149.57 s, remaining 1.79 s).
108800000 of 110000000 tuples (98%) done (elapsed 149.64 s, remaining 1.65 s).
108900000 of 110000000 tuples (99%) done (elapsed 149.70 s, remaining 1.51 s).
109000000 of 110000000 tuples (99%) done (elapsed 149.77 s, remaining 1.37 s).
109100000 of 110000000 tuples (99%) done (elapsed 149.84 s, remaining 1.24 s).
109200000 of 110000000 tuples (99%) done (elapsed 149.90 s, remaining 1.10 s).
109300000 of 110000000 tuples (99%) done (elapsed 149.97 s, remaining 0.96 s).
109400000 of 110000000 tuples (99%) done (elapsed 150.08 s, remaining 0.82 s).
109500000 of 110000000 tuples (99%) done (elapsed 150.15 s, remaining 0.69 s).
109600000 of 110000000 tuples (99%) done (elapsed 150.21 s, remaining 0.55 s).
109700000 of 110000000 tuples (99%) done (elapsed 150.28 s, remaining 0.41 s).
109800000 of 110000000 tuples (99%) done (elapsed 150.35 s, remaining 0.27 s).
109900000 of 110000000 tuples (99%) done (elapsed 150.41 s, remaining 0.14 s).
110000000 of 110000000 tuples (100%) done (elapsed 150.48 s, remaining 0.00 s).
vacuum...
set primary keys...
done.
