NOTICE:  table "pgbench_history" does not exist, skipping
NOTICE:  table "pgbench_tellers" does not exist, skipping
NOTICE:  table "pgbench_accounts" does not exist, skipping
NOTICE:  table "pgbench_branches" does not exist, skipping
creating tables...
100000 of 110000000 tuples (0%) done (elapsed 0.02 s, remaining 26.05 s).
200000 of 110000000 tuples (0%) done (elapsed 0.05 s, remaining 26.08 s).
300000 of 110000000 tuples (0%) done (elapsed 0.07 s, remaining 25.89 s).
400000 of 110000000 tuples (0%) done (elapsed 0.09 s, remaining 25.79 s).
500000 of 110000000 tuples (0%) done (elapsed 0.19 s, remaining 41.53 s).
600000 of 110000000 tuples (0%) done (elapsed 0.25 s, remaining 45.52 s).
700000 of 110000000 tuples (0%) done (elapsed 0.31 s, remaining 48.34 s).
800000 of 110000000 tuples (0%) done (elapsed 0.41 s, remaining 55.96 s).
900000 of 110000000 tuples (0%) done (elapsed 0.47 s, remaining 57.11 s).
1000000 of 110000000 tuples (0%) done (elapsed 0.53 s, remaining 57.90 s).
1100000 of 110000000 tuples (1%) done (elapsed 0.63 s, remaining 62.27 s).
1200000 of 110000000 tuples (1%) done (elapsed 0.69 s, remaining 62.51 s).
1300000 of 110000000 tuples (1%) done (elapsed 0.78 s, remaining 65.53 s).
1400000 of 110000000 tuples (1%) done (elapsed 0.84 s, remaining 65.37 s).
1500000 of 110000000 tuples (1%) done (elapsed 0.94 s, remaining 67.79 s).
1600000 of 110000000 tuples (1%) done (elapsed 1.00 s, remaining 67.47 s).
1700000 of 110000000 tuples (1%) done (elapsed 1.09 s, remaining 69.44 s).
1800000 of 110000000 tuples (1%) done (elapsed 1.15 s, remaining 69.08 s).
1900000 of 110000000 tuples (1%) done (elapsed 1.24 s, remaining 70.75 s).
2000000 of 110000000 tuples (1%) done (elapsed 1.30 s, remaining 70.33 s).
2100000 of 110000000 tuples (1%) done (elapsed 1.36 s, remaining 69.97 s).
2200000 of 110000000 tuples (2%) done (elapsed 1.46 s, remaining 71.35 s).
2300000 of 110000000 tuples (2%) done (elapsed 1.52 s, remaining 70.97 s).
2400000 of 110000000 tuples (2%) done (elapsed 1.61 s, remaining 72.11 s).
2500000 of 110000000 tuples (2%) done (elapsed 1.67 s, remaining 71.63 s).
2600000 of 110000000 tuples (2%) done (elapsed 1.76 s, remaining 72.73 s).
2700000 of 110000000 tuples (2%) done (elapsed 1.82 s, remaining 72.31 s).
2800000 of 110000000 tuples (2%) done (elapsed 1.91 s, remaining 73.29 s).
2900000 of 110000000 tuples (2%) done (elapsed 1.97 s, remaining 72.87 s).
3000000 of 110000000 tuples (2%) done (elapsed 2.07 s, remaining 73.68 s).
3100000 of 110000000 tuples (2%) done (elapsed 2.14 s, remaining 73.81 s).
3200000 of 110000000 tuples (2%) done (elapsed 2.29 s, remaining 76.59 s).
3300000 of 110000000 tuples (3%) done (elapsed 2.35 s, remaining 76.11 s).
3400000 of 110000000 tuples (3%) done (elapsed 3.16 s, remaining 99.02 s).
3500000 of 110000000 tuples (3%) done (elapsed 3.18 s, remaining 96.84 s).
3600000 of 110000000 tuples (3%) done (elapsed 3.21 s, remaining 94.76 s).
3700000 of 110000000 tuples (3%) done (elapsed 3.26 s, remaining 93.75 s).
3800000 of 110000000 tuples (3%) done (elapsed 3.36 s, remaining 93.78 s).
3900000 of 110000000 tuples (3%) done (elapsed 3.41 s, remaining 92.87 s).
4000000 of 110000000 tuples (3%) done (elapsed 3.47 s, remaining 92.00 s).
4100000 of 110000000 tuples (3%) done (elapsed 3.56 s, remaining 92.03 s).
4200000 of 110000000 tuples (3%) done (elapsed 3.62 s, remaining 91.23 s).
4300000 of 110000000 tuples (3%) done (elapsed 3.71 s, remaining 91.27 s).
4400000 of 110000000 tuples (4%) done (elapsed 3.77 s, remaining 90.51 s).
4500000 of 110000000 tuples (4%) done (elapsed 3.86 s, remaining 90.57 s).
4600000 of 110000000 tuples (4%) done (elapsed 3.92 s, remaining 89.85 s).
4700000 of 110000000 tuples (4%) done (elapsed 4.01 s, remaining 89.91 s).
4800000 of 110000000 tuples (4%) done (elapsed 4.07 s, remaining 89.21 s).
4900000 of 110000000 tuples (4%) done (elapsed 4.16 s, remaining 89.27 s).
5000000 of 110000000 tuples (4%) done (elapsed 4.39 s, remaining 92.25 s).
5100000 of 110000000 tuples (4%) done (elapsed 4.45 s, remaining 91.55 s).
5200000 of 110000000 tuples (4%) done (elapsed 4.54 s, remaining 91.56 s).
5300000 of 110000000 tuples (4%) done (elapsed 4.60 s, remaining 90.90 s).
5400000 of 110000000 tuples (4%) done (elapsed 4.69 s, remaining 90.90 s).
5500000 of 110000000 tuples (5%) done (elapsed 4.75 s, remaining 90.26 s).
5600000 of 110000000 tuples (5%) done (elapsed 4.84 s, remaining 90.29 s).
5700000 of 110000000 tuples (5%) done (elapsed 4.90 s, remaining 89.68 s).
5800000 of 110000000 tuples (5%) done (elapsed 4.99 s, remaining 89.68 s).
5900000 of 110000000 tuples (5%) done (elapsed 5.05 s, remaining 89.10 s).
6000000 of 110000000 tuples (5%) done (elapsed 5.11 s, remaining 88.54 s).
6100000 of 110000000 tuples (5%) done (elapsed 5.20 s, remaining 88.56 s).
6200000 of 110000000 tuples (5%) done (elapsed 5.26 s, remaining 88.02 s).
6300000 of 110000000 tuples (5%) done (elapsed 5.35 s, remaining 88.05 s).
6400000 of 110000000 tuples (5%) done (elapsed 5.41 s, remaining 87.52 s).
6500000 of 110000000 tuples (5%) done (elapsed 5.50 s, remaining 87.56 s).
6600000 of 110000000 tuples (6%) done (elapsed 5.56 s, remaining 87.05 s).
6700000 of 110000000 tuples (6%) done (elapsed 5.65 s, remaining 87.09 s).
6800000 of 110000000 tuples (6%) done (elapsed 5.71 s, remaining 86.60 s).
6900000 of 110000000 tuples (6%) done (elapsed 5.80 s, remaining 86.62 s).
7000000 of 110000000 tuples (6%) done (elapsed 5.86 s, remaining 86.16 s).
7100000 of 110000000 tuples (6%) done (elapsed 5.91 s, remaining 85.71 s).
7200000 of 110000000 tuples (6%) done (elapsed 6.01 s, remaining 85.75 s).
7300000 of 110000000 tuples (6%) done (elapsed 6.06 s, remaining 85.31 s).
7400000 of 110000000 tuples (6%) done (elapsed 6.16 s, remaining 85.34 s).
7500000 of 110000000 tuples (6%) done (elapsed 6.21 s, remaining 84.92 s).
7600000 of 110000000 tuples (6%) done (elapsed 6.31 s, remaining 84.96 s).
7700000 of 110000000 tuples (7%) done (elapsed 6.36 s, remaining 84.55 s).
7800000 of 110000000 tuples (7%) done (elapsed 6.46 s, remaining 84.58 s).
7900000 of 110000000 tuples (7%) done (elapsed 6.51 s, remaining 84.18 s).
8000000 of 110000000 tuples (7%) done (elapsed 6.61 s, remaining 84.22 s).
8100000 of 110000000 tuples (7%) done (elapsed 6.66 s, remaining 83.83 s).
8200000 of 110000000 tuples (7%) done (elapsed 6.76 s, remaining 83.86 s).
8300000 of 110000000 tuples (7%) done (elapsed 6.81 s, remaining 83.49 s).
8400000 of 110000000 tuples (7%) done (elapsed 6.87 s, remaining 83.12 s).
8500000 of 110000000 tuples (7%) done (elapsed 6.96 s, remaining 83.16 s).
8600000 of 110000000 tuples (7%) done (elapsed 7.02 s, remaining 82.80 s).
8700000 of 110000000 tuples (7%) done (elapsed 7.11 s, remaining 82.84 s).
8800000 of 110000000 tuples (8%) done (elapsed 7.17 s, remaining 82.48 s).
8900000 of 110000000 tuples (8%) done (elapsed 7.26 s, remaining 82.53 s).
9000000 of 110000000 tuples (8%) done (elapsed 7.32 s, remaining 82.18 s).
9100000 of 110000000 tuples (8%) done (elapsed 7.42 s, remaining 82.22 s).
9200000 of 110000000 tuples (8%) done (elapsed 8.65 s, remaining 94.81 s).
9300000 of 110000000 tuples (8%) done (elapsed 8.68 s, remaining 93.97 s).
9400000 of 110000000 tuples (8%) done (elapsed 8.70 s, remaining 93.13 s).
9500000 of 110000000 tuples (8%) done (elapsed 8.76 s, remaining 92.66 s).
9600000 of 110000000 tuples (8%) done (elapsed 8.85 s, remaining 92.56 s).
9700000 of 110000000 tuples (8%) done (elapsed 8.91 s, remaining 92.11 s).
9800000 of 110000000 tuples (8%) done (elapsed 8.97 s, remaining 91.68 s).
9900000 of 110000000 tuples (9%) done (elapsed 9.06 s, remaining 91.58 s).
10000000 of 110000000 tuples (9%) done (elapsed 9.12 s, remaining 91.16 s).
10100000 of 110000000 tuples (9%) done (elapsed 9.21 s, remaining 91.06 s).
10200000 of 110000000 tuples (9%) done (elapsed 9.94 s, remaining 97.23 s).
10300000 of 110000000 tuples (9%) done (elapsed 10.02 s, remaining 97.02 s).
10400000 of 110000000 tuples (9%) done (elapsed 10.08 s, remaining 96.52 s).
10500000 of 110000000 tuples (9%) done (elapsed 10.17 s, remaining 96.33 s).
10600000 of 110000000 tuples (9%) done (elapsed 10.22 s, remaining 95.84 s).
10700000 of 110000000 tuples (9%) done (elapsed 10.31 s, remaining 95.65 s).
10800000 of 110000000 tuples (9%) done (elapsed 10.39 s, remaining 95.45 s).
10900000 of 110000000 tuples (9%) done (elapsed 10.45 s, remaining 94.99 s).
11000000 of 110000000 tuples (10%) done (elapsed 10.53 s, remaining 94.80 s).
11100000 of 110000000 tuples (10%) done (elapsed 10.59 s, remaining 94.35 s).
11200000 of 110000000 tuples (10%) done (elapsed 10.68 s, remaining 94.17 s).
11300000 of 110000000 tuples (10%) done (elapsed 10.76 s, remaining 94.00 s).
11400000 of 110000000 tuples (10%) done (elapsed 10.82 s, remaining 93.56 s).
11500000 of 110000000 tuples (10%) done (elapsed 10.90 s, remaining 93.38 s).
11600000 of 110000000 tuples (10%) done (elapsed 10.96 s, remaining 92.95 s).
11700000 of 110000000 tuples (10%) done (elapsed 11.04 s, remaining 92.79 s).
11800000 of 110000000 tuples (10%) done (elapsed 11.13 s, remaining 92.63 s).
11900000 of 110000000 tuples (10%) done (elapsed 11.19 s, remaining 92.21 s).
12000000 of 110000000 tuples (10%) done (elapsed 11.27 s, remaining 92.05 s).
12100000 of 110000000 tuples (11%) done (elapsed 11.33 s, remaining 91.65 s).
12200000 of 110000000 tuples (11%) done (elapsed 11.41 s, remaining 91.50 s).
12300000 of 110000000 tuples (11%) done (elapsed 11.50 s, remaining 91.35 s).
12400000 of 110000000 tuples (11%) done (elapsed 11.56 s, remaining 90.96 s).
12500000 of 110000000 tuples (11%) done (elapsed 11.64 s, remaining 90.81 s).
12600000 of 110000000 tuples (11%) done (elapsed 11.70 s, remaining 90.42 s).
12700000 of 110000000 tuples (11%) done (elapsed 11.78 s, remaining 90.28 s).
12800000 of 110000000 tuples (11%) done (elapsed 11.87 s, remaining 90.15 s).
12900000 of 110000000 tuples (11%) done (elapsed 11.93 s, remaining 89.78 s).
13000000 of 110000000 tuples (11%) done (elapsed 12.01 s, remaining 89.64 s).
13100000 of 110000000 tuples (11%) done (elapsed 12.94 s, remaining 95.71 s).
13200000 of 110000000 tuples (12%) done (elapsed 12.99 s, remaining 95.29 s).
13300000 of 110000000 tuples (12%) done (elapsed 13.08 s, remaining 95.10 s).
13400000 of 110000000 tuples (12%) done (elapsed 13.14 s, remaining 94.69 s).
13500000 of 110000000 tuples (12%) done (elapsed 13.22 s, remaining 94.51 s).
13600000 of 110000000 tuples (12%) done (elapsed 13.31 s, remaining 94.33 s).
13700000 of 110000000 tuples (12%) done (elapsed 13.36 s, remaining 93.93 s).
13800000 of 110000000 tuples (12%) done (elapsed 13.45 s, remaining 93.75 s).
13900000 of 110000000 tuples (12%) done (elapsed 13.50 s, remaining 93.36 s).
14000000 of 110000000 tuples (12%) done (elapsed 13.59 s, remaining 93.20 s).
14100000 of 110000000 tuples (12%) done (elapsed 13.68 s, remaining 93.02 s).
14200000 of 110000000 tuples (12%) done (elapsed 13.73 s, remaining 92.65 s).
14300000 of 110000000 tuples (13%) done (elapsed 13.82 s, remaining 92.48 s).
14400000 of 110000000 tuples (13%) done (elapsed 13.87 s, remaining 92.11 s).
14500000 of 110000000 tuples (13%) done (elapsed 13.96 s, remaining 91.95 s).
14600000 of 110000000 tuples (13%) done (elapsed 14.05 s, remaining 91.79 s).
14700000 of 110000000 tuples (13%) done (elapsed 14.69 s, remaining 95.23 s).
14800000 of 110000000 tuples (13%) done (elapsed 14.74 s, remaining 94.85 s).
14900000 of 110000000 tuples (13%) done (elapsed 14.83 s, remaining 94.66 s).
15000000 of 110000000 tuples (13%) done (elapsed 14.89 s, remaining 94.28 s).
15100000 of 110000000 tuples (13%) done (elapsed 14.97 s, remaining 94.11 s).
15200000 of 110000000 tuples (13%) done (elapsed 15.06 s, remaining 93.94 s).
15300000 of 110000000 tuples (13%) done (elapsed 15.12 s, remaining 93.57 s).
15400000 of 110000000 tuples (14%) done (elapsed 15.20 s, remaining 93.40 s).
15500000 of 110000000 tuples (14%) done (elapsed 15.26 s, remaining 93.04 s).
15600000 of 110000000 tuples (14%) done (elapsed 15.35 s, remaining 92.87 s).
15700000 of 110000000 tuples (14%) done (elapsed 15.43 s, remaining 92.70 s).
15800000 of 110000000 tuples (14%) done (elapsed 15.49 s, remaining 92.35 s).
15900000 of 110000000 tuples (14%) done (elapsed 15.58 s, remaining 92.19 s).
16000000 of 110000000 tuples (14%) done (elapsed 15.63 s, remaining 91.84 s).
16100000 of 110000000 tuples (14%) done (elapsed 15.72 s, remaining 91.69 s).
16200000 of 110000000 tuples (14%) done (elapsed 15.81 s, remaining 91.53 s).
16300000 of 110000000 tuples (14%) done (elapsed 15.86 s, remaining 91.19 s).
16400000 of 110000000 tuples (14%) done (elapsed 15.95 s, remaining 91.03 s).
16500000 of 110000000 tuples (15%) done (elapsed 16.01 s, remaining 90.70 s).
16600000 of 110000000 tuples (15%) done (elapsed 16.09 s, remaining 90.55 s).
16700000 of 110000000 tuples (15%) done (elapsed 16.18 s, remaining 90.39 s).
16800000 of 110000000 tuples (15%) done (elapsed 16.24 s, remaining 90.07 s).
16900000 of 110000000 tuples (15%) done (elapsed 16.32 s, remaining 89.92 s).
17000000 of 110000000 tuples (15%) done (elapsed 16.38 s, remaining 89.60 s).
17100000 of 110000000 tuples (15%) done (elapsed 16.47 s, remaining 89.46 s).
17200000 of 110000000 tuples (15%) done (elapsed 16.55 s, remaining 89.31 s).
17300000 of 110000000 tuples (15%) done (elapsed 16.61 s, remaining 89.00 s).
17400000 of 110000000 tuples (15%) done (elapsed 16.70 s, remaining 88.86 s).
17500000 of 110000000 tuples (15%) done (elapsed 16.75 s, remaining 88.55 s).
17600000 of 110000000 tuples (16%) done (elapsed 16.84 s, remaining 88.42 s).
17700000 of 110000000 tuples (16%) done (elapsed 16.93 s, remaining 88.28 s).
17800000 of 110000000 tuples (16%) done (elapsed 16.98 s, remaining 87.98 s).
17900000 of 110000000 tuples (16%) done (elapsed 17.07 s, remaining 87.84 s).
18000000 of 110000000 tuples (16%) done (elapsed 17.13 s, remaining 87.55 s).
18100000 of 110000000 tuples (16%) done (elapsed 17.22 s, remaining 87.41 s).
18200000 of 110000000 tuples (16%) done (elapsed 17.30 s, remaining 87.28 s).
18300000 of 110000000 tuples (16%) done (elapsed 17.36 s, remaining 86.99 s).
18400000 of 110000000 tuples (16%) done (elapsed 17.45 s, remaining 86.86 s).
18500000 of 110000000 tuples (16%) done (elapsed 17.53 s, remaining 86.73 s).
18600000 of 110000000 tuples (16%) done (elapsed 17.59 s, remaining 86.44 s).
18700000 of 110000000 tuples (17%) done (elapsed 17.68 s, remaining 86.31 s).
18800000 of 110000000 tuples (17%) done (elapsed 17.73 s, remaining 86.03 s).
18900000 of 110000000 tuples (17%) done (elapsed 17.82 s, remaining 85.90 s).
19000000 of 110000000 tuples (17%) done (elapsed 17.91 s, remaining 85.78 s).
19100000 of 110000000 tuples (17%) done (elapsed 17.97 s, remaining 85.50 s).
19200000 of 110000000 tuples (17%) done (elapsed 19.47 s, remaining 92.10 s).
19300000 of 110000000 tuples (17%) done (elapsed 19.50 s, remaining 91.64 s).
19400000 of 110000000 tuples (17%) done (elapsed 19.52 s, remaining 91.18 s).
19500000 of 110000000 tuples (17%) done (elapsed 20.05 s, remaining 93.06 s).
19600000 of 110000000 tuples (17%) done (elapsed 20.14 s, remaining 92.88 s).
19700000 of 110000000 tuples (17%) done (elapsed 20.19 s, remaining 92.56 s).
19800000 of 110000000 tuples (18%) done (elapsed 20.28 s, remaining 92.38 s).
19900000 of 110000000 tuples (18%) done (elapsed 20.33 s, remaining 92.07 s).
20000000 of 110000000 tuples (18%) done (elapsed 20.42 s, remaining 91.89 s).
20100000 of 110000000 tuples (18%) done (elapsed 20.51 s, remaining 91.72 s).
20200000 of 110000000 tuples (18%) done (elapsed 20.56 s, remaining 91.41 s).
20300000 of 110000000 tuples (18%) done (elapsed 20.65 s, remaining 91.24 s).
20400000 of 110000000 tuples (18%) done (elapsed 20.70 s, remaining 90.93 s).
20500000 of 110000000 tuples (18%) done (elapsed 20.79 s, remaining 90.76 s).
20600000 of 110000000 tuples (18%) done (elapsed 20.88 s, remaining 90.60 s).
20700000 of 110000000 tuples (18%) done (elapsed 20.93 s, remaining 90.30 s).
20800000 of 110000000 tuples (18%) done (elapsed 21.02 s, remaining 90.13 s).
20900000 of 110000000 tuples (19%) done (elapsed 21.10 s, remaining 89.96 s).
21000000 of 110000000 tuples (19%) done (elapsed 21.16 s, remaining 89.67 s).
21100000 of 110000000 tuples (19%) done (elapsed 21.24 s, remaining 89.51 s).
21200000 of 110000000 tuples (19%) done (elapsed 21.30 s, remaining 89.22 s).
21300000 of 110000000 tuples (19%) done (elapsed 21.39 s, remaining 89.06 s).
21400000 of 110000000 tuples (19%) done (elapsed 21.47 s, remaining 88.90 s).
21500000 of 110000000 tuples (19%) done (elapsed 21.53 s, remaining 88.61 s).
21600000 of 110000000 tuples (19%) done (elapsed 21.61 s, remaining 88.45 s).
21700000 of 110000000 tuples (19%) done (elapsed 21.67 s, remaining 88.17 s).
21800000 of 110000000 tuples (19%) done (elapsed 21.76 s, remaining 88.02 s).
21900000 of 110000000 tuples (19%) done (elapsed 21.84 s, remaining 87.86 s).
22000000 of 110000000 tuples (20%) done (elapsed 21.90 s, remaining 87.59 s).
22100000 of 110000000 tuples (20%) done (elapsed 21.98 s, remaining 87.44 s).
22200000 of 110000000 tuples (20%) done (elapsed 22.04 s, remaining 87.17 s).
22300000 of 110000000 tuples (20%) done (elapsed 22.13 s, remaining 87.02 s).
22400000 of 110000000 tuples (20%) done (elapsed 22.21 s, remaining 86.87 s).
22500000 of 110000000 tuples (20%) done (elapsed 22.27 s, remaining 86.60 s).
22600000 of 110000000 tuples (20%) done (elapsed 22.35 s, remaining 86.45 s).
22700000 of 110000000 tuples (20%) done (elapsed 22.41 s, remaining 86.18 s).
22800000 of 110000000 tuples (20%) done (elapsed 22.50 s, remaining 86.04 s).
22900000 of 110000000 tuples (20%) done (elapsed 22.58 s, remaining 85.89 s).
23000000 of 110000000 tuples (20%) done (elapsed 22.64 s, remaining 85.63 s).
23100000 of 110000000 tuples (21%) done (elapsed 22.72 s, remaining 85.49 s).
23200000 of 110000000 tuples (21%) done (elapsed 22.81 s, remaining 85.35 s).
23300000 of 110000000 tuples (21%) done (elapsed 22.87 s, remaining 85.09 s).
23400000 of 110000000 tuples (21%) done (elapsed 22.95 s, remaining 84.95 s).
23500000 of 110000000 tuples (21%) done (elapsed 24.46 s, remaining 90.03 s).
23600000 of 110000000 tuples (21%) done (elapsed 24.48 s, remaining 89.63 s).
23700000 of 110000000 tuples (21%) done (elapsed 24.98 s, remaining 90.95 s).
23800000 of 110000000 tuples (21%) done (elapsed 25.03 s, remaining 90.67 s).
23900000 of 110000000 tuples (21%) done (elapsed 25.12 s, remaining 90.49 s).
24000000 of 110000000 tuples (21%) done (elapsed 25.17 s, remaining 90.21 s).
24100000 of 110000000 tuples (21%) done (elapsed 25.26 s, remaining 90.04 s).
24200000 of 110000000 tuples (22%) done (elapsed 25.57 s, remaining 90.65 s).
24300000 of 110000000 tuples (22%) done (elapsed 25.62 s, remaining 90.36 s).
24400000 of 110000000 tuples (22%) done (elapsed 25.71 s, remaining 90.19 s).
24500000 of 110000000 tuples (22%) done (elapsed 25.77 s, remaining 89.91 s).
24600000 of 110000000 tuples (22%) done (elapsed 25.85 s, remaining 89.75 s).
24700000 of 110000000 tuples (22%) done (elapsed 25.94 s, remaining 89.58 s).
24800000 of 110000000 tuples (22%) done (elapsed 25.99 s, remaining 89.30 s).
24900000 of 110000000 tuples (22%) done (elapsed 26.08 s, remaining 89.14 s).
25000000 of 110000000 tuples (22%) done (elapsed 26.14 s, remaining 88.86 s).
25100000 of 110000000 tuples (22%) done (elapsed 26.22 s, remaining 88.70 s).
25200000 of 110000000 tuples (22%) done (elapsed 26.31 s, remaining 88.54 s).
25300000 of 110000000 tuples (23%) done (elapsed 26.37 s, remaining 88.27 s).
25400000 of 110000000 tuples (23%) done (elapsed 26.45 s, remaining 88.11 s).
25500000 of 110000000 tuples (23%) done (elapsed 26.51 s, remaining 87.85 s).
25600000 of 110000000 tuples (23%) done (elapsed 26.60 s, remaining 87.69 s).
25700000 of 110000000 tuples (23%) done (elapsed 26.68 s, remaining 87.53 s).
25800000 of 110000000 tuples (23%) done (elapsed 26.74 s, remaining 87.27 s).
25900000 of 110000000 tuples (23%) done (elapsed 26.83 s, remaining 87.11 s).
26000000 of 110000000 tuples (23%) done (elapsed 26.88 s, remaining 86.85 s).
26100000 of 110000000 tuples (23%) done (elapsed 26.97 s, remaining 86.70 s).
26200000 of 110000000 tuples (23%) done (elapsed 27.06 s, remaining 86.54 s).
26300000 of 110000000 tuples (23%) done (elapsed 27.11 s, remaining 86.29 s).
26400000 of 110000000 tuples (24%) done (elapsed 27.20 s, remaining 86.14 s).
26500000 of 110000000 tuples (24%) done (elapsed 27.26 s, remaining 85.88 s).
26600000 of 110000000 tuples (24%) done (elapsed 27.34 s, remaining 85.73 s).
26700000 of 110000000 tuples (24%) done (elapsed 27.43 s, remaining 85.58 s).
26800000 of 110000000 tuples (24%) done (elapsed 27.49 s, remaining 85.33 s).
26900000 of 110000000 tuples (24%) done (elapsed 27.57 s, remaining 85.18 s).
27000000 of 110000000 tuples (24%) done (elapsed 27.66 s, remaining 85.04 s).
27100000 of 110000000 tuples (24%) done (elapsed 27.72 s, remaining 84.79 s).
27200000 of 110000000 tuples (24%) done (elapsed 27.81 s, remaining 84.64 s).
27300000 of 110000000 tuples (24%) done (elapsed 27.86 s, remaining 84.40 s).
27400000 of 110000000 tuples (24%) done (elapsed 27.95 s, remaining 84.26 s).
27500000 of 110000000 tuples (25%) done (elapsed 29.02 s, remaining 87.06 s).
27600000 of 110000000 tuples (25%) done (elapsed 29.04 s, remaining 86.71 s).
27700000 of 110000000 tuples (25%) done (elapsed 29.07 s, remaining 86.37 s).
27800000 of 110000000 tuples (25%) done (elapsed 29.15 s, remaining 86.20 s).
27900000 of 110000000 tuples (25%) done (elapsed 29.21 s, remaining 85.95 s).
28000000 of 110000000 tuples (25%) done (elapsed 29.30 s, remaining 85.80 s).
28100000 of 110000000 tuples (25%) done (elapsed 29.35 s, remaining 85.55 s).
28200000 of 110000000 tuples (25%) done (elapsed 29.44 s, remaining 85.39 s).
28300000 of 110000000 tuples (25%) done (elapsed 29.52 s, remaining 85.23 s).
28400000 of 110000000 tuples (25%) done (elapsed 29.91 s, remaining 85.94 s).
28500000 of 110000000 tuples (25%) done (elapsed 30.00 s, remaining 85.78 s).
28600000 of 110000000 tuples (26%) done (elapsed 30.08 s, remaining 85.63 s).
28700000 of 110000000 tuples (26%) done (elapsed 30.14 s, remaining 85.38 s).
28800000 of 110000000 tuples (26%) done (elapsed 30.23 s, remaining 85.22 s).
28900000 of 110000000 tuples (26%) done (elapsed 30.28 s, remaining 84.98 s).
29000000 of 110000000 tuples (26%) done (elapsed 30.37 s, remaining 84.82 s).
29100000 of 110000000 tuples (26%) done (elapsed 30.45 s, remaining 84.66 s).
29200000 of 110000000 tuples (26%) done (elapsed 30.51 s, remaining 84.42 s).
29300000 of 110000000 tuples (26%) done (elapsed 30.59 s, remaining 84.26 s).
29400000 of 110000000 tuples (26%) done (elapsed 30.65 s, remaining 84.02 s).
29500000 of 110000000 tuples (26%) done (elapsed 30.74 s, remaining 83.87 s).
29600000 of 110000000 tuples (26%) done (elapsed 30.82 s, remaining 83.72 s).
29700000 of 110000000 tuples (27%) done (elapsed 30.88 s, remaining 83.48 s).
29800000 of 110000000 tuples (27%) done (elapsed 30.96 s, remaining 83.33 s).
29900000 of 110000000 tuples (27%) done (elapsed 31.02 s, remaining 83.10 s).
30000000 of 110000000 tuples (27%) done (elapsed 31.11 s, remaining 82.95 s).
30100000 of 110000000 tuples (27%) done (elapsed 31.19 s, remaining 82.80 s).
30200000 of 110000000 tuples (27%) done (elapsed 31.25 s, remaining 82.57 s).
30300000 of 110000000 tuples (27%) done (elapsed 31.33 s, remaining 82.42 s).
30400000 of 110000000 tuples (27%) done (elapsed 31.39 s, remaining 82.19 s).
30500000 of 110000000 tuples (27%) done (elapsed 31.47 s, remaining 82.04 s).
30600000 of 110000000 tuples (27%) done (elapsed 31.56 s, remaining 81.89 s).
30700000 of 110000000 tuples (27%) done (elapsed 31.62 s, remaining 81.67 s).
30800000 of 110000000 tuples (28%) done (elapsed 31.70 s, remaining 81.52 s).
30900000 of 110000000 tuples (28%) done (elapsed 31.76 s, remaining 81.30 s).
31000000 of 110000000 tuples (28%) done (elapsed 31.85 s, remaining 81.16 s).
31100000 of 110000000 tuples (28%) done (elapsed 31.93 s, remaining 81.01 s).
31200000 of 110000000 tuples (28%) done (elapsed 31.99 s, remaining 80.79 s).
31300000 of 110000000 tuples (28%) done (elapsed 32.07 s, remaining 80.65 s).
31400000 of 110000000 tuples (28%) done (elapsed 32.13 s, remaining 80.43 s).
31500000 of 110000000 tuples (28%) done (elapsed 32.22 s, remaining 80.28 s).
31600000 of 110000000 tuples (28%) done (elapsed 32.30 s, remaining 80.14 s).
31700000 of 110000000 tuples (28%) done (elapsed 32.36 s, remaining 79.92 s).
31800000 of 110000000 tuples (28%) done (elapsed 32.44 s, remaining 79.78 s).
31900000 of 110000000 tuples (29%) done (elapsed 32.50 s, remaining 79.57 s).
32000000 of 110000000 tuples (29%) done (elapsed 32.59 s, remaining 79.43 s).
32100000 of 110000000 tuples (29%) done (elapsed 32.67 s, remaining 79.29 s).
32200000 of 110000000 tuples (29%) done (elapsed 32.73 s, remaining 79.07 s).
32300000 of 110000000 tuples (29%) done (elapsed 32.81 s, remaining 78.94 s).
32400000 of 110000000 tuples (29%) done (elapsed 32.87 s, remaining 78.72 s).
32500000 of 110000000 tuples (29%) done (elapsed 32.96 s, remaining 78.59 s).
32600000 of 110000000 tuples (29%) done (elapsed 34.51 s, remaining 81.93 s).
32700000 of 110000000 tuples (29%) done (elapsed 34.53 s, remaining 81.63 s).
32800000 of 110000000 tuples (29%) done (elapsed 34.56 s, remaining 81.34 s).
32900000 of 110000000 tuples (29%) done (elapsed 34.64 s, remaining 81.19 s).
33000000 of 110000000 tuples (30%) done (elapsed 34.70 s, remaining 80.96 s).
33100000 of 110000000 tuples (30%) done (elapsed 34.78 s, remaining 80.81 s).
33200000 of 110000000 tuples (30%) done (elapsed 34.84 s, remaining 80.59 s).
33300000 of 110000000 tuples (30%) done (elapsed 34.93 s, remaining 80.44 s).
33400000 of 110000000 tuples (30%) done (elapsed 35.01 s, remaining 80.30 s).
33500000 of 110000000 tuples (30%) done (elapsed 35.07 s, remaining 80.08 s).
33600000 of 110000000 tuples (30%) done (elapsed 35.15 s, remaining 79.93 s).
33700000 of 110000000 tuples (30%) done (elapsed 35.24 s, remaining 79.78 s).
33800000 of 110000000 tuples (30%) done (elapsed 35.29 s, remaining 79.57 s).
33900000 of 110000000 tuples (30%) done (elapsed 35.38 s, remaining 79.42 s).
34000000 of 110000000 tuples (30%) done (elapsed 35.44 s, remaining 79.21 s).
34100000 of 110000000 tuples (31%) done (elapsed 35.52 s, remaining 79.06 s).
34200000 of 110000000 tuples (31%) done (elapsed 35.61 s, remaining 78.92 s).
34300000 of 110000000 tuples (31%) done (elapsed 35.66 s, remaining 78.71 s).
34400000 of 110000000 tuples (31%) done (elapsed 35.75 s, remaining 78.57 s).
34500000 of 110000000 tuples (31%) done (elapsed 35.81 s, remaining 78.36 s).
34600000 of 110000000 tuples (31%) done (elapsed 35.89 s, remaining 78.22 s).
34700000 of 110000000 tuples (31%) done (elapsed 35.98 s, remaining 78.07 s).
34800000 of 110000000 tuples (31%) done (elapsed 36.03 s, remaining 77.87 s).
34900000 of 110000000 tuples (31%) done (elapsed 36.12 s, remaining 77.72 s).
35000000 of 110000000 tuples (31%) done (elapsed 36.18 s, remaining 77.52 s).
35100000 of 110000000 tuples (31%) done (elapsed 36.26 s, remaining 77.38 s).
35200000 of 110000000 tuples (32%) done (elapsed 36.35 s, remaining 77.24 s).
35300000 of 110000000 tuples (32%) done (elapsed 36.40 s, remaining 77.04 s).
35400000 of 110000000 tuples (32%) done (elapsed 36.49 s, remaining 76.90 s).
35500000 of 110000000 tuples (32%) done (elapsed 36.55 s, remaining 76.69 s).
35600000 of 110000000 tuples (32%) done (elapsed 36.63 s, remaining 76.56 s).
35700000 of 110000000 tuples (32%) done (elapsed 36.72 s, remaining 76.42 s).
35800000 of 110000000 tuples (32%) done (elapsed 36.77 s, remaining 76.22 s).
35900000 of 110000000 tuples (32%) done (elapsed 36.86 s, remaining 76.08 s).
36000000 of 110000000 tuples (32%) done (elapsed 36.91 s, remaining 75.88 s).
36100000 of 110000000 tuples (32%) done (elapsed 37.00 s, remaining 75.74 s).
36200000 of 110000000 tuples (32%) done (elapsed 37.09 s, remaining 75.61 s).
36300000 of 110000000 tuples (33%) done (elapsed 37.14 s, remaining 75.41 s).
36400000 of 110000000 tuples (33%) done (elapsed 37.23 s, remaining 75.28 s).
36500000 of 110000000 tuples (33%) done (elapsed 37.29 s, remaining 75.08 s).
36600000 of 110000000 tuples (33%) done (elapsed 37.37 s, remaining 74.95 s).
36700000 of 110000000 tuples (33%) done (elapsed 37.46 s, remaining 74.81 s).
36800000 of 110000000 tuples (33%) done (elapsed 37.51 s, remaining 74.62 s).
36900000 of 110000000 tuples (33%) done (elapsed 37.60 s, remaining 74.49 s).
37000000 of 110000000 tuples (33%) done (elapsed 37.66 s, remaining 74.29 s).
37100000 of 110000000 tuples (33%) done (elapsed 37.74 s, remaining 74.16 s).
37200000 of 110000000 tuples (33%) done (elapsed 37.84 s, remaining 74.04 s).
37300000 of 110000000 tuples (33%) done (elapsed 37.93 s, remaining 73.94 s).
37400000 of 110000000 tuples (34%) done (elapsed 38.05 s, remaining 73.86 s).
37500000 of 110000000 tuples (34%) done (elapsed 40.23 s, remaining 77.78 s).
37600000 of 110000000 tuples (34%) done (elapsed 40.25 s, remaining 77.51 s).
37700000 of 110000000 tuples (34%) done (elapsed 40.28 s, remaining 77.24 s).
37800000 of 110000000 tuples (34%) done (elapsed 40.78 s, remaining 77.89 s).
37900000 of 110000000 tuples (34%) done (elapsed 40.84 s, remaining 77.68 s).
38000000 of 110000000 tuples (34%) done (elapsed 40.92 s, remaining 77.54 s).
38100000 of 110000000 tuples (34%) done (elapsed 40.98 s, remaining 77.33 s).
38200000 of 110000000 tuples (34%) done (elapsed 41.06 s, remaining 77.18 s).
38300000 of 110000000 tuples (34%) done (elapsed 41.15 s, remaining 77.03 s).
38400000 of 110000000 tuples (34%) done (elapsed 41.20 s, remaining 76.83 s).
38500000 of 110000000 tuples (35%) done (elapsed 41.29 s, remaining 76.68 s).
38600000 of 110000000 tuples (35%) done (elapsed 41.38 s, remaining 76.54 s).
38700000 of 110000000 tuples (35%) done (elapsed 41.43 s, remaining 76.34 s).
38800000 of 110000000 tuples (35%) done (elapsed 41.52 s, remaining 76.19 s).
38900000 of 110000000 tuples (35%) done (elapsed 41.57 s, remaining 75.99 s).
39000000 of 110000000 tuples (35%) done (elapsed 41.66 s, remaining 75.84 s).
39100000 of 110000000 tuples (35%) done (elapsed 41.75 s, remaining 75.70 s).
39200000 of 110000000 tuples (35%) done (elapsed 41.80 s, remaining 75.50 s).
39300000 of 110000000 tuples (35%) done (elapsed 41.89 s, remaining 75.36 s).
39400000 of 110000000 tuples (35%) done (elapsed 41.94 s, remaining 75.16 s).
39500000 of 110000000 tuples (35%) done (elapsed 42.03 s, remaining 75.02 s).
39600000 of 110000000 tuples (36%) done (elapsed 42.12 s, remaining 74.87 s).
39700000 of 110000000 tuples (36%) done (elapsed 42.17 s, remaining 74.68 s).
39800000 of 110000000 tuples (36%) done (elapsed 42.26 s, remaining 74.54 s).
39900000 of 110000000 tuples (36%) done (elapsed 42.31 s, remaining 74.34 s).
40000000 of 110000000 tuples (36%) done (elapsed 42.40 s, remaining 74.20 s).
40100000 of 110000000 tuples (36%) done (elapsed 42.49 s, remaining 74.06 s).
40200000 of 110000000 tuples (36%) done (elapsed 42.54 s, remaining 73.87 s).
40300000 of 110000000 tuples (36%) done (elapsed 42.63 s, remaining 73.73 s).
40400000 of 110000000 tuples (36%) done (elapsed 42.68 s, remaining 73.53 s).
40500000 of 110000000 tuples (36%) done (elapsed 42.77 s, remaining 73.40 s).
40600000 of 110000000 tuples (36%) done (elapsed 42.86 s, remaining 73.26 s).
40700000 of 110000000 tuples (37%) done (elapsed 42.91 s, remaining 73.07 s).
40800000 of 110000000 tuples (37%) done (elapsed 43.00 s, remaining 72.93 s).
40900000 of 110000000 tuples (37%) done (elapsed 44.64 s, remaining 75.43 s).
41000000 of 110000000 tuples (37%) done (elapsed 44.67 s, remaining 75.17 s).
41100000 of 110000000 tuples (37%) done (elapsed 44.69 s, remaining 74.92 s).
41200000 of 110000000 tuples (37%) done (elapsed 44.78 s, remaining 74.77 s).
41300000 of 110000000 tuples (37%) done (elapsed 44.83 s, remaining 74.58 s).
41400000 of 110000000 tuples (37%) done (elapsed 44.92 s, remaining 74.43 s).
41500000 of 110000000 tuples (37%) done (elapsed 45.00 s, remaining 74.29 s).
41600000 of 110000000 tuples (37%) done (elapsed 45.06 s, remaining 74.09 s).
41700000 of 110000000 tuples (37%) done (elapsed 45.15 s, remaining 73.94 s).
41800000 of 110000000 tuples (38%) done (elapsed 45.20 s, remaining 73.75 s).
41900000 of 110000000 tuples (38%) done (elapsed 45.29 s, remaining 73.61 s).
42000000 of 110000000 tuples (38%) done (elapsed 46.12 s, remaining 74.68 s).
42100000 of 110000000 tuples (38%) done (elapsed 46.18 s, remaining 74.48 s).
42200000 of 110000000 tuples (38%) done (elapsed 46.26 s, remaining 74.33 s).
42300000 of 110000000 tuples (38%) done (elapsed 46.32 s, remaining 74.13 s).
42400000 of 110000000 tuples (38%) done (elapsed 46.41 s, remaining 73.99 s).
42500000 of 110000000 tuples (38%) done (elapsed 46.49 s, remaining 73.84 s).
42600000 of 110000000 tuples (38%) done (elapsed 46.55 s, remaining 73.65 s).
42700000 of 110000000 tuples (38%) done (elapsed 46.63 s, remaining 73.50 s).
42800000 of 110000000 tuples (38%) done (elapsed 46.69 s, remaining 73.31 s).
42900000 of 110000000 tuples (39%) done (elapsed 46.78 s, remaining 73.16 s).
43000000 of 110000000 tuples (39%) done (elapsed 46.86 s, remaining 73.02 s).
43100000 of 110000000 tuples (39%) done (elapsed 46.92 s, remaining 72.82 s).
43200000 of 110000000 tuples (39%) done (elapsed 47.46 s, remaining 73.38 s).
43300000 of 110000000 tuples (39%) done (elapsed 47.51 s, remaining 73.19 s).
43400000 of 110000000 tuples (39%) done (elapsed 47.60 s, remaining 73.04 s).
43500000 of 110000000 tuples (39%) done (elapsed 47.69 s, remaining 72.90 s).
43600000 of 110000000 tuples (39%) done (elapsed 47.74 s, remaining 72.71 s).
43700000 of 110000000 tuples (39%) done (elapsed 47.83 s, remaining 72.56 s).
43800000 of 110000000 tuples (39%) done (elapsed 47.88 s, remaining 72.37 s).
43900000 of 110000000 tuples (39%) done (elapsed 47.97 s, remaining 72.23 s).
44000000 of 110000000 tuples (40%) done (elapsed 48.05 s, remaining 72.08 s).
44100000 of 110000000 tuples (40%) done (elapsed 48.46 s, remaining 72.42 s).
44200000 of 110000000 tuples (40%) done (elapsed 48.49 s, remaining 72.18 s).
44300000 of 110000000 tuples (40%) done (elapsed 48.51 s, remaining 71.95 s).
44400000 of 110000000 tuples (40%) done (elapsed 48.60 s, remaining 71.80 s).
44500000 of 110000000 tuples (40%) done (elapsed 48.65 s, remaining 71.61 s).
44600000 of 110000000 tuples (40%) done (elapsed 48.74 s, remaining 71.47 s).
44700000 of 110000000 tuples (40%) done (elapsed 48.79 s, remaining 71.28 s).
44800000 of 110000000 tuples (40%) done (elapsed 48.88 s, remaining 71.14 s).
44900000 of 110000000 tuples (40%) done (elapsed 48.97 s, remaining 71.00 s).
45000000 of 110000000 tuples (40%) done (elapsed 49.02 s, remaining 70.81 s).
45100000 of 110000000 tuples (41%) done (elapsed 49.11 s, remaining 70.67 s).
45200000 of 110000000 tuples (41%) done (elapsed 49.19 s, remaining 70.53 s).
45300000 of 110000000 tuples (41%) done (elapsed 49.25 s, remaining 70.34 s).
45400000 of 110000000 tuples (41%) done (elapsed 49.34 s, remaining 70.20 s).
45500000 of 110000000 tuples (41%) done (elapsed 49.39 s, remaining 70.02 s).
45600000 of 110000000 tuples (41%) done (elapsed 49.48 s, remaining 69.88 s).
45700000 of 110000000 tuples (41%) done (elapsed 49.56 s, remaining 69.74 s).
45800000 of 110000000 tuples (41%) done (elapsed 49.62 s, remaining 69.55 s).
45900000 of 110000000 tuples (41%) done (elapsed 49.71 s, remaining 69.42 s).
46000000 of 110000000 tuples (41%) done (elapsed 49.76 s, remaining 69.23 s).
46100000 of 110000000 tuples (41%) done (elapsed 49.85 s, remaining 69.10 s).
46200000 of 110000000 tuples (42%) done (elapsed 49.93 s, remaining 68.96 s).
46300000 of 110000000 tuples (42%) done (elapsed 49.99 s, remaining 68.78 s).
46400000 of 110000000 tuples (42%) done (elapsed 50.08 s, remaining 68.64 s).
46500000 of 110000000 tuples (42%) done (elapsed 50.13 s, remaining 68.46 s).
46600000 of 110000000 tuples (42%) done (elapsed 51.23 s, remaining 69.69 s).
46700000 of 110000000 tuples (42%) done (elapsed 51.31 s, remaining 69.55 s).
46800000 of 110000000 tuples (42%) done (elapsed 51.37 s, remaining 69.37 s).
46900000 of 110000000 tuples (42%) done (elapsed 51.46 s, remaining 69.23 s).
47000000 of 110000000 tuples (42%) done (elapsed 51.51 s, remaining 69.05 s).
47100000 of 110000000 tuples (42%) done (elapsed 51.60 s, remaining 68.91 s).
47200000 of 110000000 tuples (42%) done (elapsed 51.68 s, remaining 68.77 s).
47300000 of 110000000 tuples (43%) done (elapsed 51.74 s, remaining 68.59 s).
47400000 of 110000000 tuples (43%) done (elapsed 51.83 s, remaining 68.45 s).
47500000 of 110000000 tuples (43%) done (elapsed 51.88 s, remaining 68.27 s).
47600000 of 110000000 tuples (43%) done (elapsed 51.97 s, remaining 68.13 s).
47700000 of 110000000 tuples (43%) done (elapsed 52.06 s, remaining 67.99 s).
47800000 of 110000000 tuples (43%) done (elapsed 52.11 s, remaining 67.81 s).
47900000 of 110000000 tuples (43%) done (elapsed 52.20 s, remaining 67.67 s).
48000000 of 110000000 tuples (43%) done (elapsed 52.26 s, remaining 67.50 s).
48100000 of 110000000 tuples (43%) done (elapsed 52.34 s, remaining 67.36 s).
48200000 of 110000000 tuples (43%) done (elapsed 52.43 s, remaining 67.22 s).
48300000 of 110000000 tuples (43%) done (elapsed 52.49 s, remaining 67.05 s).
48400000 of 110000000 tuples (44%) done (elapsed 52.57 s, remaining 66.91 s).
48500000 of 110000000 tuples (44%) done (elapsed 52.66 s, remaining 66.77 s).
48600000 of 110000000 tuples (44%) done (elapsed 52.72 s, remaining 66.60 s).
48700000 of 110000000 tuples (44%) done (elapsed 52.80 s, remaining 66.46 s).
48800000 of 110000000 tuples (44%) done (elapsed 52.86 s, remaining 66.29 s).
48900000 of 110000000 tuples (44%) done (elapsed 52.95 s, remaining 66.15 s).
49000000 of 110000000 tuples (44%) done (elapsed 53.03 s, remaining 66.02 s).
49100000 of 110000000 tuples (44%) done (elapsed 53.09 s, remaining 65.85 s).
49200000 of 110000000 tuples (44%) done (elapsed 54.45 s, remaining 67.29 s).
49300000 of 110000000 tuples (44%) done (elapsed 54.47 s, remaining 67.07 s).
49400000 of 110000000 tuples (44%) done (elapsed 54.50 s, remaining 66.85 s).
49500000 of 110000000 tuples (45%) done (elapsed 54.58 s, remaining 66.71 s).
49600000 of 110000000 tuples (45%) done (elapsed 54.64 s, remaining 66.54 s).
49700000 of 110000000 tuples (45%) done (elapsed 54.73 s, remaining 66.40 s).
49800000 of 110000000 tuples (45%) done (elapsed 54.81 s, remaining 66.26 s).
49900000 of 110000000 tuples (45%) done (elapsed 54.87 s, remaining 66.09 s).
50000000 of 110000000 tuples (45%) done (elapsed 55.09 s, remaining 66.10 s).
50100000 of 110000000 tuples (45%) done (elapsed 55.14 s, remaining 65.93 s).
50200000 of 110000000 tuples (45%) done (elapsed 55.23 s, remaining 65.79 s).
50300000 of 110000000 tuples (45%) done (elapsed 55.69 s, remaining 66.10 s).
50400000 of 110000000 tuples (45%) done (elapsed 55.75 s, remaining 65.92 s).
50500000 of 110000000 tuples (45%) done (elapsed 55.83 s, remaining 65.78 s).
50600000 of 110000000 tuples (46%) done (elapsed 55.89 s, remaining 65.61 s).
50700000 of 110000000 tuples (46%) done (elapsed 55.98 s, remaining 65.47 s).
50800000 of 110000000 tuples (46%) done (elapsed 56.06 s, remaining 65.33 s).
50900000 of 110000000 tuples (46%) done (elapsed 56.12 s, remaining 65.16 s).
51000000 of 110000000 tuples (46%) done (elapsed 56.20 s, remaining 65.02 s).
51100000 of 110000000 tuples (46%) done (elapsed 56.26 s, remaining 64.85 s).
51200000 of 110000000 tuples (46%) done (elapsed 56.35 s, remaining 64.71 s).
51300000 of 110000000 tuples (46%) done (elapsed 56.45 s, remaining 64.59 s).
51400000 of 110000000 tuples (46%) done (elapsed 56.54 s, remaining 64.46 s).
51500000 of 110000000 tuples (46%) done (elapsed 56.59 s, remaining 64.29 s).
51600000 of 110000000 tuples (46%) done (elapsed 56.68 s, remaining 64.15 s).
51700000 of 110000000 tuples (47%) done (elapsed 56.74 s, remaining 63.98 s).
51800000 of 110000000 tuples (47%) done (elapsed 56.82 s, remaining 63.84 s).
51900000 of 110000000 tuples (47%) done (elapsed 57.00 s, remaining 63.81 s).
52000000 of 110000000 tuples (47%) done (elapsed 57.06 s, remaining 63.64 s).
52100000 of 110000000 tuples (47%) done (elapsed 57.24 s, remaining 63.62 s).
52200000 of 110000000 tuples (47%) done (elapsed 57.30 s, remaining 63.45 s).
52300000 of 110000000 tuples (47%) done (elapsed 57.39 s, remaining 63.32 s).
52400000 of 110000000 tuples (47%) done (elapsed 57.48 s, remaining 63.18 s).
52500000 of 110000000 tuples (47%) done (elapsed 57.53 s, remaining 63.01 s).
52600000 of 110000000 tuples (47%) done (elapsed 57.67 s, remaining 62.94 s).
52700000 of 110000000 tuples (47%) done (elapsed 57.76 s, remaining 62.80 s).
52800000 of 110000000 tuples (48%) done (elapsed 57.82 s, remaining 62.63 s).
52900000 of 110000000 tuples (48%) done (elapsed 57.90 s, remaining 62.50 s).
53000000 of 110000000 tuples (48%) done (elapsed 57.96 s, remaining 62.33 s).
53100000 of 110000000 tuples (48%) done (elapsed 58.04 s, remaining 62.20 s).
53200000 of 110000000 tuples (48%) done (elapsed 58.13 s, remaining 62.06 s).
53300000 of 110000000 tuples (48%) done (elapsed 58.55 s, remaining 62.28 s).
53400000 of 110000000 tuples (48%) done (elapsed 58.57 s, remaining 62.08 s).
53500000 of 110000000 tuples (48%) done (elapsed 58.60 s, remaining 61.88 s).
53600000 of 110000000 tuples (48%) done (elapsed 58.62 s, remaining 61.69 s).
53700000 of 110000000 tuples (48%) done (elapsed 58.70 s, remaining 61.54 s).
53800000 of 110000000 tuples (48%) done (elapsed 58.77 s, remaining 61.39 s).
53900000 of 110000000 tuples (49%) done (elapsed 58.85 s, remaining 61.25 s).
54000000 of 110000000 tuples (49%) done (elapsed 58.92 s, remaining 61.10 s).
54100000 of 110000000 tuples (49%) done (elapsed 58.99 s, remaining 60.96 s).
54200000 of 110000000 tuples (49%) done (elapsed 59.07 s, remaining 60.81 s).
54300000 of 110000000 tuples (49%) done (elapsed 59.14 s, remaining 60.67 s).
54400000 of 110000000 tuples (49%) done (elapsed 59.22 s, remaining 60.52 s).
54500000 of 110000000 tuples (49%) done (elapsed 59.29 s, remaining 60.38 s).
54600000 of 110000000 tuples (49%) done (elapsed 59.37 s, remaining 60.24 s).
54700000 of 110000000 tuples (49%) done (elapsed 59.44 s, remaining 60.09 s).
54800000 of 110000000 tuples (49%) done (elapsed 59.51 s, remaining 59.95 s).
54900000 of 110000000 tuples (49%) done (elapsed 59.59 s, remaining 59.81 s).
55000000 of 110000000 tuples (50%) done (elapsed 59.70 s, remaining 59.70 s).
55100000 of 110000000 tuples (50%) done (elapsed 59.77 s, remaining 59.55 s).
55200000 of 110000000 tuples (50%) done (elapsed 59.84 s, remaining 59.41 s).
55300000 of 110000000 tuples (50%) done (elapsed 60.00 s, remaining 59.35 s).
55400000 of 110000000 tuples (50%) done (elapsed 60.07 s, remaining 59.21 s).
55500000 of 110000000 tuples (50%) done (elapsed 60.15 s, remaining 59.06 s).
55600000 of 110000000 tuples (50%) done (elapsed 60.22 s, remaining 58.92 s).
55700000 of 110000000 tuples (50%) done (elapsed 60.90 s, remaining 59.36 s).
55800000 of 110000000 tuples (50%) done (elapsed 60.97 s, remaining 59.22 s).
55900000 of 110000000 tuples (50%) done (elapsed 61.05 s, remaining 59.08 s).
56000000 of 110000000 tuples (50%) done (elapsed 61.12 s, remaining 58.94 s).
56100000 of 110000000 tuples (51%) done (elapsed 61.20 s, remaining 58.80 s).
56200000 of 110000000 tuples (51%) done (elapsed 61.27 s, remaining 58.65 s).
56300000 of 110000000 tuples (51%) done (elapsed 61.35 s, remaining 58.51 s).
56400000 of 110000000 tuples (51%) done (elapsed 61.42 s, remaining 58.37 s).
56500000 of 110000000 tuples (51%) done (elapsed 61.50 s, remaining 58.23 s).
56600000 of 110000000 tuples (51%) done (elapsed 61.57 s, remaining 58.09 s).
56700000 of 110000000 tuples (51%) done (elapsed 61.64 s, remaining 57.95 s).
56800000 of 110000000 tuples (51%) done (elapsed 61.72 s, remaining 57.81 s).
56900000 of 110000000 tuples (51%) done (elapsed 61.79 s, remaining 57.67 s).
57000000 of 110000000 tuples (51%) done (elapsed 61.87 s, remaining 57.53 s).
57100000 of 110000000 tuples (51%) done (elapsed 61.94 s, remaining 57.39 s).
57200000 of 110000000 tuples (52%) done (elapsed 62.02 s, remaining 57.25 s).
57300000 of 110000000 tuples (52%) done (elapsed 62.10 s, remaining 57.11 s).
57400000 of 110000000 tuples (52%) done (elapsed 62.17 s, remaining 56.97 s).
57500000 of 110000000 tuples (52%) done (elapsed 62.25 s, remaining 56.83 s).
57600000 of 110000000 tuples (52%) done (elapsed 62.32 s, remaining 56.69 s).
57700000 of 110000000 tuples (52%) done (elapsed 62.40 s, remaining 56.56 s).
57800000 of 110000000 tuples (52%) done (elapsed 62.47 s, remaining 56.42 s).
57900000 of 110000000 tuples (52%) done (elapsed 62.55 s, remaining 56.28 s).
58000000 of 110000000 tuples (52%) done (elapsed 62.62 s, remaining 56.14 s).
58100000 of 110000000 tuples (52%) done (elapsed 63.19 s, remaining 56.45 s).
58200000 of 110000000 tuples (52%) done (elapsed 63.27 s, remaining 56.32 s).
58300000 of 110000000 tuples (53%) done (elapsed 63.35 s, remaining 56.18 s).
58400000 of 110000000 tuples (53%) done (elapsed 63.42 s, remaining 56.04 s).
58500000 of 110000000 tuples (53%) done (elapsed 63.49 s, remaining 55.90 s).
58600000 of 110000000 tuples (53%) done (elapsed 63.57 s, remaining 55.76 s).
58700000 of 110000000 tuples (53%) done (elapsed 63.64 s, remaining 55.62 s).
58800000 of 110000000 tuples (53%) done (elapsed 63.72 s, remaining 55.48 s).
58900000 of 110000000 tuples (53%) done (elapsed 63.79 s, remaining 55.34 s).
59000000 of 110000000 tuples (53%) done (elapsed 63.86 s, remaining 55.20 s).
59100000 of 110000000 tuples (53%) done (elapsed 63.94 s, remaining 55.07 s).
59200000 of 110000000 tuples (53%) done (elapsed 64.01 s, remaining 54.93 s).
59300000 of 110000000 tuples (53%) done (elapsed 64.08 s, remaining 54.79 s).
59400000 of 110000000 tuples (54%) done (elapsed 64.16 s, remaining 54.65 s).
59500000 of 110000000 tuples (54%) done (elapsed 64.23 s, remaining 54.52 s).
59600000 of 110000000 tuples (54%) done (elapsed 64.31 s, remaining 54.38 s).
59700000 of 110000000 tuples (54%) done (elapsed 64.38 s, remaining 54.24 s).
59800000 of 110000000 tuples (54%) done (elapsed 64.45 s, remaining 54.11 s).
59900000 of 110000000 tuples (54%) done (elapsed 64.53 s, remaining 53.97 s).
60000000 of 110000000 tuples (54%) done (elapsed 64.60 s, remaining 53.84 s).
60100000 of 110000000 tuples (54%) done (elapsed 64.68 s, remaining 53.70 s).
60200000 of 110000000 tuples (54%) done (elapsed 64.75 s, remaining 53.56 s).
60300000 of 110000000 tuples (54%) done (elapsed 64.83 s, remaining 53.43 s).
60400000 of 110000000 tuples (54%) done (elapsed 64.90 s, remaining 53.29 s).
60500000 of 110000000 tuples (55%) done (elapsed 64.97 s, remaining 53.16 s).
60600000 of 110000000 tuples (55%) done (elapsed 65.05 s, remaining 53.03 s).
60700000 of 110000000 tuples (55%) done (elapsed 65.12 s, remaining 52.89 s).
60800000 of 110000000 tuples (55%) done (elapsed 65.20 s, remaining 52.76 s).
60900000 of 110000000 tuples (55%) done (elapsed 65.27 s, remaining 52.62 s).
61000000 of 110000000 tuples (55%) done (elapsed 65.34 s, remaining 52.49 s).
61100000 of 110000000 tuples (55%) done (elapsed 66.46 s, remaining 53.19 s).
61200000 of 110000000 tuples (55%) done (elapsed 66.54 s, remaining 53.05 s).
61300000 of 110000000 tuples (55%) done (elapsed 66.61 s, remaining 52.92 s).
61400000 of 110000000 tuples (55%) done (elapsed 66.68 s, remaining 52.78 s).
61500000 of 110000000 tuples (55%) done (elapsed 66.76 s, remaining 52.65 s).
61600000 of 110000000 tuples (56%) done (elapsed 66.83 s, remaining 52.51 s).
61700000 of 110000000 tuples (56%) done (elapsed 66.90 s, remaining 52.37 s).
61800000 of 110000000 tuples (56%) done (elapsed 66.98 s, remaining 52.24 s).
61900000 of 110000000 tuples (56%) done (elapsed 67.05 s, remaining 52.10 s).
62000000 of 110000000 tuples (56%) done (elapsed 67.13 s, remaining 51.97 s).
62100000 of 110000000 tuples (56%) done (elapsed 67.20 s, remaining 51.83 s).
62200000 of 110000000 tuples (56%) done (elapsed 67.27 s, remaining 51.70 s).
62300000 of 110000000 tuples (56%) done (elapsed 67.35 s, remaining 51.56 s).
62400000 of 110000000 tuples (56%) done (elapsed 67.42 s, remaining 51.43 s).
62500000 of 110000000 tuples (56%) done (elapsed 67.50 s, remaining 51.30 s).
62600000 of 110000000 tuples (56%) done (elapsed 67.57 s, remaining 51.16 s).
62700000 of 110000000 tuples (57%) done (elapsed 67.64 s, remaining 51.03 s).
62800000 of 110000000 tuples (57%) done (elapsed 67.72 s, remaining 50.90 s).
62900000 of 110000000 tuples (57%) done (elapsed 67.79 s, remaining 50.76 s).
63000000 of 110000000 tuples (57%) done (elapsed 67.87 s, remaining 50.63 s).
63100000 of 110000000 tuples (57%) done (elapsed 67.94 s, remaining 50.50 s).
63200000 of 110000000 tuples (57%) done (elapsed 68.02 s, remaining 50.37 s).
63300000 of 110000000 tuples (57%) done (elapsed 68.09 s, remaining 50.23 s).
63400000 of 110000000 tuples (57%) done (elapsed 68.16 s, remaining 50.10 s).
63500000 of 110000000 tuples (57%) done (elapsed 68.24 s, remaining 49.97 s).
63600000 of 110000000 tuples (57%) done (elapsed 69.49 s, remaining 50.69 s).
63700000 of 110000000 tuples (57%) done (elapsed 69.51 s, remaining 50.52 s).
63800000 of 110000000 tuples (58%) done (elapsed 69.53 s, remaining 50.35 s).
63900000 of 110000000 tuples (58%) done (elapsed 69.56 s, remaining 50.18 s).
64000000 of 110000000 tuples (58%) done (elapsed 69.63 s, remaining 50.05 s).
64100000 of 110000000 tuples (58%) done (elapsed 69.71 s, remaining 49.92 s).
64200000 of 110000000 tuples (58%) done (elapsed 69.78 s, remaining 49.78 s).
64300000 of 110000000 tuples (58%) done (elapsed 69.86 s, remaining 49.65 s).
64400000 of 110000000 tuples (58%) done (elapsed 69.93 s, remaining 49.52 s).
64500000 of 110000000 tuples (58%) done (elapsed 70.00 s, remaining 49.38 s).
64600000 of 110000000 tuples (58%) done (elapsed 70.08 s, remaining 49.25 s).
64700000 of 110000000 tuples (58%) done (elapsed 70.15 s, remaining 49.12 s).
64800000 of 110000000 tuples (58%) done (elapsed 70.23 s, remaining 48.98 s).
64900000 of 110000000 tuples (59%) done (elapsed 70.30 s, remaining 48.85 s).
65000000 of 110000000 tuples (59%) done (elapsed 70.37 s, remaining 48.72 s).
65100000 of 110000000 tuples (59%) done (elapsed 70.97 s, remaining 48.95 s).
65200000 of 110000000 tuples (59%) done (elapsed 71.05 s, remaining 48.82 s).
65300000 of 110000000 tuples (59%) done (elapsed 71.12 s, remaining 48.69 s).
65400000 of 110000000 tuples (59%) done (elapsed 71.20 s, remaining 48.55 s).
65500000 of 110000000 tuples (59%) done (elapsed 71.27 s, remaining 48.42 s).
65600000 of 110000000 tuples (59%) done (elapsed 71.34 s, remaining 48.29 s).
65700000 of 110000000 tuples (59%) done (elapsed 71.42 s, remaining 48.16 s).
65800000 of 110000000 tuples (59%) done (elapsed 71.49 s, remaining 48.02 s).
65900000 of 110000000 tuples (59%) done (elapsed 71.57 s, remaining 47.89 s).
66000000 of 110000000 tuples (60%) done (elapsed 71.64 s, remaining 47.76 s).
66100000 of 110000000 tuples (60%) done (elapsed 71.71 s, remaining 47.63 s).
66200000 of 110000000 tuples (60%) done (elapsed 71.79 s, remaining 47.50 s).
66300000 of 110000000 tuples (60%) done (elapsed 71.86 s, remaining 47.37 s).
66400000 of 110000000 tuples (60%) done (elapsed 71.94 s, remaining 47.24 s).
66500000 of 110000000 tuples (60%) done (elapsed 72.01 s, remaining 47.10 s).
66600000 of 110000000 tuples (60%) done (elapsed 72.08 s, remaining 46.97 s).
66700000 of 110000000 tuples (60%) done (elapsed 72.16 s, remaining 46.84 s).
66800000 of 110000000 tuples (60%) done (elapsed 72.23 s, remaining 46.71 s).
66900000 of 110000000 tuples (60%) done (elapsed 72.31 s, remaining 46.58 s).
67000000 of 110000000 tuples (60%) done (elapsed 72.38 s, remaining 46.45 s).
67100000 of 110000000 tuples (61%) done (elapsed 72.46 s, remaining 46.32 s).
67200000 of 110000000 tuples (61%) done (elapsed 72.53 s, remaining 46.19 s).
67300000 of 110000000 tuples (61%) done (elapsed 72.60 s, remaining 46.06 s).
67400000 of 110000000 tuples (61%) done (elapsed 72.68 s, remaining 45.94 s).
67500000 of 110000000 tuples (61%) done (elapsed 72.75 s, remaining 45.81 s).
67600000 of 110000000 tuples (61%) done (elapsed 72.83 s, remaining 45.68 s).
67700000 of 110000000 tuples (61%) done (elapsed 72.90 s, remaining 45.55 s).
67800000 of 110000000 tuples (61%) done (elapsed 72.98 s, remaining 45.42 s).
67900000 of 110000000 tuples (61%) done (elapsed 73.05 s, remaining 45.29 s).
68000000 of 110000000 tuples (61%) done (elapsed 73.13 s, remaining 45.17 s).
68100000 of 110000000 tuples (61%) done (elapsed 73.20 s, remaining 45.04 s).
68200000 of 110000000 tuples (62%) done (elapsed 74.28 s, remaining 45.53 s).
68300000 of 110000000 tuples (62%) done (elapsed 74.30 s, remaining 45.36 s).
68400000 of 110000000 tuples (62%) done (elapsed 74.33 s, remaining 45.20 s).
68500000 of 110000000 tuples (62%) done (elapsed 74.35 s, remaining 45.05 s).
68600000 of 110000000 tuples (62%) done (elapsed 74.43 s, remaining 44.92 s).
68700000 of 110000000 tuples (62%) done (elapsed 74.50 s, remaining 44.79 s).
68800000 of 110000000 tuples (62%) done (elapsed 74.57 s, remaining 44.66 s).
68900000 of 110000000 tuples (62%) done (elapsed 74.65 s, remaining 44.53 s).
69000000 of 110000000 tuples (62%) done (elapsed 74.72 s, remaining 44.40 s).
69100000 of 110000000 tuples (62%) done (elapsed 74.80 s, remaining 44.27 s).
69200000 of 110000000 tuples (62%) done (elapsed 74.87 s, remaining 44.14 s).
69300000 of 110000000 tuples (63%) done (elapsed 74.95 s, remaining 44.02 s).
69400000 of 110000000 tuples (63%) done (elapsed 75.02 s, remaining 43.89 s).
69500000 of 110000000 tuples (63%) done (elapsed 75.09 s, remaining 43.76 s).
69600000 of 110000000 tuples (63%) done (elapsed 75.17 s, remaining 43.63 s).
69700000 of 110000000 tuples (63%) done (elapsed 75.24 s, remaining 43.50 s).
69800000 of 110000000 tuples (63%) done (elapsed 75.32 s, remaining 43.38 s).
69900000 of 110000000 tuples (63%) done (elapsed 75.39 s, remaining 43.25 s).
70000000 of 110000000 tuples (63%) done (elapsed 76.19 s, remaining 43.54 s).
70100000 of 110000000 tuples (63%) done (elapsed 76.26 s, remaining 43.41 s).
70200000 of 110000000 tuples (63%) done (elapsed 76.34 s, remaining 43.28 s).
70300000 of 110000000 tuples (63%) done (elapsed 76.41 s, remaining 43.15 s).
70400000 of 110000000 tuples (64%) done (elapsed 76.48 s, remaining 43.02 s).
70500000 of 110000000 tuples (64%) done (elapsed 76.56 s, remaining 42.89 s).
70600000 of 110000000 tuples (64%) done (elapsed 76.63 s, remaining 42.77 s).
70700000 of 110000000 tuples (64%) done (elapsed 76.71 s, remaining 42.64 s).
70800000 of 110000000 tuples (64%) done (elapsed 76.78 s, remaining 42.51 s).
70900000 of 110000000 tuples (64%) done (elapsed 76.85 s, remaining 42.38 s).
71000000 of 110000000 tuples (64%) done (elapsed 76.93 s, remaining 42.26 s).
71100000 of 110000000 tuples (64%) done (elapsed 77.00 s, remaining 42.13 s).
71200000 of 110000000 tuples (64%) done (elapsed 77.08 s, remaining 42.00 s).
71300000 of 110000000 tuples (64%) done (elapsed 77.15 s, remaining 41.88 s).
71400000 of 110000000 tuples (64%) done (elapsed 77.22 s, remaining 41.75 s).
71500000 of 110000000 tuples (65%) done (elapsed 77.30 s, remaining 41.62 s).
71600000 of 110000000 tuples (65%) done (elapsed 77.37 s, remaining 41.50 s).
71700000 of 110000000 tuples (65%) done (elapsed 77.45 s, remaining 41.37 s).
71800000 of 110000000 tuples (65%) done (elapsed 77.52 s, remaining 41.24 s).
71900000 of 110000000 tuples (65%) done (elapsed 77.60 s, remaining 41.12 s).
72000000 of 110000000 tuples (65%) done (elapsed 77.67 s, remaining 40.99 s).
72100000 of 110000000 tuples (65%) done (elapsed 77.74 s, remaining 40.87 s).
72200000 of 110000000 tuples (65%) done (elapsed 77.82 s, remaining 40.74 s).
72300000 of 110000000 tuples (65%) done (elapsed 77.89 s, remaining 40.62 s).
72400000 of 110000000 tuples (65%) done (elapsed 77.97 s, remaining 40.49 s).
72500000 of 110000000 tuples (65%) done (elapsed 78.04 s, remaining 40.37 s).
72600000 of 110000000 tuples (66%) done (elapsed 78.12 s, remaining 40.24 s).
72700000 of 110000000 tuples (66%) done (elapsed 78.19 s, remaining 40.12 s).
72800000 of 110000000 tuples (66%) done (elapsed 78.26 s, remaining 39.99 s).
72900000 of 110000000 tuples (66%) done (elapsed 79.30 s, remaining 40.36 s).
73000000 of 110000000 tuples (66%) done (elapsed 79.33 s, remaining 40.21 s).
73100000 of 110000000 tuples (66%) done (elapsed 79.40 s, remaining 40.08 s).
73200000 of 110000000 tuples (66%) done (elapsed 79.47 s, remaining 39.95 s).
73300000 of 110000000 tuples (66%) done (elapsed 79.55 s, remaining 39.83 s).
73400000 of 110000000 tuples (66%) done (elapsed 79.62 s, remaining 39.70 s).
73500000 of 110000000 tuples (66%) done (elapsed 79.70 s, remaining 39.58 s).
73600000 of 110000000 tuples (66%) done (elapsed 79.77 s, remaining 39.45 s).
73700000 of 110000000 tuples (67%) done (elapsed 79.84 s, remaining 39.33 s).
73800000 of 110000000 tuples (67%) done (elapsed 79.92 s, remaining 39.20 s).
73900000 of 110000000 tuples (67%) done (elapsed 80.11 s, remaining 39.14 s).
74000000 of 110000000 tuples (67%) done (elapsed 80.14 s, remaining 38.99 s).
74100000 of 110000000 tuples (67%) done (elapsed 80.16 s, remaining 38.84 s).
74200000 of 110000000 tuples (67%) done (elapsed 80.24 s, remaining 38.71 s).
74300000 of 110000000 tuples (67%) done (elapsed 80.31 s, remaining 38.59 s).
74400000 of 110000000 tuples (67%) done (elapsed 80.38 s, remaining 38.46 s).
74500000 of 110000000 tuples (67%) done (elapsed 80.84 s, remaining 38.52 s).
74600000 of 110000000 tuples (67%) done (elapsed 80.92 s, remaining 38.40 s).
74700000 of 110000000 tuples (67%) done (elapsed 80.99 s, remaining 38.27 s).
74800000 of 110000000 tuples (68%) done (elapsed 81.07 s, remaining 38.15 s).
74900000 of 110000000 tuples (68%) done (elapsed 81.14 s, remaining 38.02 s).
75000000 of 110000000 tuples (68%) done (elapsed 81.21 s, remaining 37.90 s).
75100000 of 110000000 tuples (68%) done (elapsed 81.29 s, remaining 37.78 s).
75200000 of 110000000 tuples (68%) done (elapsed 81.36 s, remaining 37.65 s).
75300000 of 110000000 tuples (68%) done (elapsed 81.44 s, remaining 37.53 s).
75400000 of 110000000 tuples (68%) done (elapsed 81.51 s, remaining 37.40 s).
75500000 of 110000000 tuples (68%) done (elapsed 81.58 s, remaining 37.28 s).
75600000 of 110000000 tuples (68%) done (elapsed 81.66 s, remaining 37.16 s).
75700000 of 110000000 tuples (68%) done (elapsed 81.73 s, remaining 37.03 s).
75800000 of 110000000 tuples (68%) done (elapsed 81.81 s, remaining 36.91 s).
75900000 of 110000000 tuples (69%) done (elapsed 81.88 s, remaining 36.79 s).
76000000 of 110000000 tuples (69%) done (elapsed 81.96 s, remaining 36.66 s).
76100000 of 110000000 tuples (69%) done (elapsed 82.03 s, remaining 36.54 s).
76200000 of 110000000 tuples (69%) done (elapsed 82.10 s, remaining 36.42 s).
76300000 of 110000000 tuples (69%) done (elapsed 82.18 s, remaining 36.30 s).
76400000 of 110000000 tuples (69%) done (elapsed 82.25 s, remaining 36.17 s).
76500000 of 110000000 tuples (69%) done (elapsed 82.33 s, remaining 36.05 s).
76600000 of 110000000 tuples (69%) done (elapsed 82.40 s, remaining 35.93 s).
76700000 of 110000000 tuples (69%) done (elapsed 82.47 s, remaining 35.81 s).
76800000 of 110000000 tuples (69%) done (elapsed 82.55 s, remaining 35.69 s).
76900000 of 110000000 tuples (69%) done (elapsed 82.62 s, remaining 35.56 s).
77000000 of 110000000 tuples (70%) done (elapsed 82.70 s, remaining 35.44 s).
77100000 of 110000000 tuples (70%) done (elapsed 82.77 s, remaining 35.32 s).
77200000 of 110000000 tuples (70%) done (elapsed 82.85 s, remaining 35.20 s).
77300000 of 110000000 tuples (70%) done (elapsed 82.92 s, remaining 35.08 s).
77400000 of 110000000 tuples (70%) done (elapsed 83.00 s, remaining 34.96 s).
77500000 of 110000000 tuples (70%) done (elapsed 83.07 s, remaining 34.84 s).
77600000 of 110000000 tuples (70%) done (elapsed 83.14 s, remaining 34.71 s).
77700000 of 110000000 tuples (70%) done (elapsed 83.22 s, remaining 34.59 s).
77800000 of 110000000 tuples (70%) done (elapsed 84.57 s, remaining 35.00 s).
77900000 of 110000000 tuples (70%) done (elapsed 84.60 s, remaining 34.86 s).
78000000 of 110000000 tuples (70%) done (elapsed 84.62 s, remaining 34.72 s).
78100000 of 110000000 tuples (71%) done (elapsed 84.65 s, remaining 34.57 s).
78200000 of 110000000 tuples (71%) done (elapsed 84.72 s, remaining 34.45 s).
78300000 of 110000000 tuples (71%) done (elapsed 84.80 s, remaining 34.33 s).
78400000 of 110000000 tuples (71%) done (elapsed 84.87 s, remaining 34.21 s).
78500000 of 110000000 tuples (71%) done (elapsed 84.94 s, remaining 34.09 s).
78600000 of 110000000 tuples (71%) done (elapsed 85.02 s, remaining 33.96 s).
78700000 of 110000000 tuples (71%) done (elapsed 85.09 s, remaining 33.84 s).
78800000 of 110000000 tuples (71%) done (elapsed 85.17 s, remaining 33.72 s).
78900000 of 110000000 tuples (71%) done (elapsed 85.24 s, remaining 33.60 s).
79000000 of 110000000 tuples (71%) done (elapsed 85.31 s, remaining 33.48 s).
79100000 of 110000000 tuples (71%) done (elapsed 85.39 s, remaining 33.36 s).
79200000 of 110000000 tuples (72%) done (elapsed 86.10 s, remaining 33.48 s).
79300000 of 110000000 tuples (72%) done (elapsed 86.17 s, remaining 33.36 s).
79400000 of 110000000 tuples (72%) done (elapsed 86.25 s, remaining 33.24 s).
79500000 of 110000000 tuples (72%) done (elapsed 86.32 s, remaining 33.12 s).
79600000 of 110000000 tuples (72%) done (elapsed 86.40 s, remaining 33.00 s).
79700000 of 110000000 tuples (72%) done (elapsed 86.47 s, remaining 32.87 s).
79800000 of 110000000 tuples (72%) done (elapsed 86.54 s, remaining 32.75 s).
79900000 of 110000000 tuples (72%) done (elapsed 86.62 s, remaining 32.63 s).
80000000 of 110000000 tuples (72%) done (elapsed 86.69 s, remaining 32.51 s).
80100000 of 110000000 tuples (72%) done (elapsed 86.77 s, remaining 32.39 s).
80200000 of 110000000 tuples (72%) done (elapsed 86.84 s, remaining 32.27 s).
80300000 of 110000000 tuples (73%) done (elapsed 87.30 s, remaining 32.29 s).
80400000 of 110000000 tuples (73%) done (elapsed 87.37 s, remaining 32.17 s).
80500000 of 110000000 tuples (73%) done (elapsed 87.45 s, remaining 32.05 s).
80600000 of 110000000 tuples (73%) done (elapsed 87.52 s, remaining 31.93 s).
80700000 of 110000000 tuples (73%) done (elapsed 87.60 s, remaining 31.80 s).
80800000 of 110000000 tuples (73%) done (elapsed 87.67 s, remaining 31.68 s).
80900000 of 110000000 tuples (73%) done (elapsed 87.75 s, remaining 31.56 s).
81000000 of 110000000 tuples (73%) done (elapsed 87.82 s, remaining 31.44 s).
81100000 of 110000000 tuples (73%) done (elapsed 87.89 s, remaining 31.32 s).
81200000 of 110000000 tuples (73%) done (elapsed 87.97 s, remaining 31.20 s).
81300000 of 110000000 tuples (73%) done (elapsed 88.04 s, remaining 31.08 s).
81400000 of 110000000 tuples (74%) done (elapsed 88.12 s, remaining 30.96 s).
81500000 of 110000000 tuples (74%) done (elapsed 88.19 s, remaining 30.84 s).
81600000 of 110000000 tuples (74%) done (elapsed 88.26 s, remaining 30.72 s).
81700000 of 110000000 tuples (74%) done (elapsed 88.74 s, remaining 30.74 s).
81800000 of 110000000 tuples (74%) done (elapsed 88.76 s, remaining 30.60 s).
81900000 of 110000000 tuples (74%) done (elapsed 88.79 s, remaining 30.46 s).
82000000 of 110000000 tuples (74%) done (elapsed 88.81 s, remaining 30.33 s).
82100000 of 110000000 tuples (74%) done (elapsed 88.89 s, remaining 30.21 s).
82200000 of 110000000 tuples (74%) done (elapsed 88.96 s, remaining 30.09 s).
82300000 of 110000000 tuples (74%) done (elapsed 89.03 s, remaining 29.97 s).
82400000 of 110000000 tuples (74%) done (elapsed 89.11 s, remaining 29.85 s).
82500000 of 110000000 tuples (75%) done (elapsed 89.18 s, remaining 29.73 s).
82600000 of 110000000 tuples (75%) done (elapsed 89.25 s, remaining 29.61 s).
82700000 of 110000000 tuples (75%) done (elapsed 89.33 s, remaining 29.49 s).
82800000 of 110000000 tuples (75%) done (elapsed 89.40 s, remaining 29.37 s).
82900000 of 110000000 tuples (75%) done (elapsed 89.48 s, remaining 29.25 s).
83000000 of 110000000 tuples (75%) done (elapsed 89.55 s, remaining 29.13 s).
83100000 of 110000000 tuples (75%) done (elapsed 89.62 s, remaining 29.01 s).
83200000 of 110000000 tuples (75%) done (elapsed 89.70 s, remaining 28.89 s).
83300000 of 110000000 tuples (75%) done (elapsed 89.77 s, remaining 28.77 s).
83400000 of 110000000 tuples (75%) done (elapsed 89.84 s, remaining 28.66 s).
83500000 of 110000000 tuples (75%) done (elapsed 89.92 s, remaining 28.54 s).
83600000 of 110000000 tuples (76%) done (elapsed 89.99 s, remaining 28.42 s).
83700000 of 110000000 tuples (76%) done (elapsed 90.07 s, remaining 28.30 s).
83800000 of 110000000 tuples (76%) done (elapsed 90.14 s, remaining 28.18 s).
83900000 of 110000000 tuples (76%) done (elapsed 90.21 s, remaining 28.06 s).
84000000 of 110000000 tuples (76%) done (elapsed 90.29 s, remaining 27.95 s).
84100000 of 110000000 tuples (76%) done (elapsed 90.36 s, remaining 27.83 s).
84200000 of 110000000 tuples (76%) done (elapsed 91.28 s, remaining 27.97 s).
84300000 of 110000000 tuples (76%) done (elapsed 91.35 s, remaining 27.85 s).
84400000 of 110000000 tuples (76%) done (elapsed 91.42 s, remaining 27.73 s).
84500000 of 110000000 tuples (76%) done (elapsed 91.50 s, remaining 27.61 s).
84600000 of 110000000 tuples (76%) done (elapsed 91.57 s, remaining 27.49 s).
84700000 of 110000000 tuples (77%) done (elapsed 91.68 s, remaining 27.39 s).
84800000 of 110000000 tuples (77%) done (elapsed 91.71 s, remaining 27.25 s).
84900000 of 110000000 tuples (77%) done (elapsed 91.78 s, remaining 27.13 s).
85000000 of 110000000 tuples (77%) done (elapsed 91.85 s, remaining 27.02 s).
85100000 of 110000000 tuples (77%) done (elapsed 91.93 s, remaining 26.90 s).
85200000 of 110000000 tuples (77%) done (elapsed 92.00 s, remaining 26.78 s).
85300000 of 110000000 tuples (77%) done (elapsed 92.07 s, remaining 26.66 s).
85400000 of 110000000 tuples (77%) done (elapsed 92.15 s, remaining 26.54 s).
85500000 of 110000000 tuples (77%) done (elapsed 92.22 s, remaining 26.43 s).
85600000 of 110000000 tuples (77%) done (elapsed 92.30 s, remaining 26.31 s).
85700000 of 110000000 tuples (77%) done (elapsed 92.37 s, remaining 26.19 s).
85800000 of 110000000 tuples (78%) done (elapsed 92.44 s, remaining 26.07 s).
85900000 of 110000000 tuples (78%) done (elapsed 92.52 s, remaining 25.96 s).
86000000 of 110000000 tuples (78%) done (elapsed 92.59 s, remaining 25.84 s).
86100000 of 110000000 tuples (78%) done (elapsed 92.67 s, remaining 25.72 s).
86200000 of 110000000 tuples (78%) done (elapsed 92.74 s, remaining 25.61 s).
86300000 of 110000000 tuples (78%) done (elapsed 92.82 s, remaining 25.49 s).
86400000 of 110000000 tuples (78%) done (elapsed 92.89 s, remaining 25.37 s).
86500000 of 110000000 tuples (78%) done (elapsed 92.97 s, remaining 25.26 s).
86600000 of 110000000 tuples (78%) done (elapsed 93.04 s, remaining 25.14 s).
86700000 of 110000000 tuples (78%) done (elapsed 93.11 s, remaining 25.02 s).
86800000 of 110000000 tuples (78%) done (elapsed 93.19 s, remaining 24.91 s).
86900000 of 110000000 tuples (79%) done (elapsed 93.26 s, remaining 24.79 s).
87000000 of 110000000 tuples (79%) done (elapsed 93.34 s, remaining 24.68 s).
87100000 of 110000000 tuples (79%) done (elapsed 94.48 s, remaining 24.84 s).
87200000 of 110000000 tuples (79%) done (elapsed 94.50 s, remaining 24.71 s).
87300000 of 110000000 tuples (79%) done (elapsed 94.52 s, remaining 24.58 s).
87400000 of 110000000 tuples (79%) done (elapsed 94.55 s, remaining 24.45 s).
87500000 of 110000000 tuples (79%) done (elapsed 94.62 s, remaining 24.33 s).
87600000 of 110000000 tuples (79%) done (elapsed 94.70 s, remaining 24.21 s).
87700000 of 110000000 tuples (79%) done (elapsed 94.77 s, remaining 24.10 s).
87800000 of 110000000 tuples (79%) done (elapsed 94.84 s, remaining 23.98 s).
87900000 of 110000000 tuples (79%) done (elapsed 94.92 s, remaining 23.86 s).
88000000 of 110000000 tuples (80%) done (elapsed 94.99 s, remaining 23.75 s).
88100000 of 110000000 tuples (80%) done (elapsed 95.70 s, remaining 23.79 s).
88200000 of 110000000 tuples (80%) done (elapsed 95.77 s, remaining 23.67 s).
88300000 of 110000000 tuples (80%) done (elapsed 95.85 s, remaining 23.55 s).
88400000 of 110000000 tuples (80%) done (elapsed 95.92 s, remaining 23.44 s).
88500000 of 110000000 tuples (80%) done (elapsed 95.99 s, remaining 23.32 s).
88600000 of 110000000 tuples (80%) done (elapsed 96.07 s, remaining 23.20 s).
88700000 of 110000000 tuples (80%) done (elapsed 96.14 s, remaining 23.09 s).
88800000 of 110000000 tuples (80%) done (elapsed 96.22 s, remaining 22.97 s).
88900000 of 110000000 tuples (80%) done (elapsed 96.29 s, remaining 22.85 s).
89000000 of 110000000 tuples (80%) done (elapsed 96.36 s, remaining 22.74 s).
89100000 of 110000000 tuples (81%) done (elapsed 96.44 s, remaining 22.62 s).
89200000 of 110000000 tuples (81%) done (elapsed 96.51 s, remaining 22.51 s).
89300000 of 110000000 tuples (81%) done (elapsed 96.59 s, remaining 22.39 s).
89400000 of 110000000 tuples (81%) done (elapsed 96.66 s, remaining 22.27 s).
89500000 of 110000000 tuples (81%) done (elapsed 96.74 s, remaining 22.16 s).
89600000 of 110000000 tuples (81%) done (elapsed 96.81 s, remaining 22.04 s).
89700000 of 110000000 tuples (81%) done (elapsed 96.89 s, remaining 21.93 s).
89800000 of 110000000 tuples (81%) done (elapsed 96.96 s, remaining 21.81 s).
89900000 of 110000000 tuples (81%) done (elapsed 97.03 s, remaining 21.70 s).
90000000 of 110000000 tuples (81%) done (elapsed 97.11 s, remaining 21.58 s).
90100000 of 110000000 tuples (81%) done (elapsed 97.18 s, remaining 21.46 s).
90200000 of 110000000 tuples (82%) done (elapsed 97.26 s, remaining 21.35 s).
90300000 of 110000000 tuples (82%) done (elapsed 97.33 s, remaining 21.23 s).
90400000 of 110000000 tuples (82%) done (elapsed 97.41 s, remaining 21.12 s).
90500000 of 110000000 tuples (82%) done (elapsed 97.48 s, remaining 21.00 s).
90600000 of 110000000 tuples (82%) done (elapsed 97.56 s, remaining 20.89 s).
90700000 of 110000000 tuples (82%) done (elapsed 97.63 s, remaining 20.77 s).
90800000 of 110000000 tuples (82%) done (elapsed 97.71 s, remaining 20.66 s).
90900000 of 110000000 tuples (82%) done (elapsed 97.78 s, remaining 20.55 s).
91000000 of 110000000 tuples (82%) done (elapsed 97.86 s, remaining 20.43 s).
91100000 of 110000000 tuples (82%) done (elapsed 97.93 s, remaining 20.32 s).
91200000 of 110000000 tuples (82%) done (elapsed 98.01 s, remaining 20.20 s).
91300000 of 110000000 tuples (83%) done (elapsed 98.08 s, remaining 20.09 s).
91400000 of 110000000 tuples (83%) done (elapsed 98.16 s, remaining 19.97 s).
91500000 of 110000000 tuples (83%) done (elapsed 98.23 s, remaining 19.86 s).
91600000 of 110000000 tuples (83%) done (elapsed 98.30 s, remaining 19.75 s).
91700000 of 110000000 tuples (83%) done (elapsed 99.47 s, remaining 19.85 s).
91800000 of 110000000 tuples (83%) done (elapsed 99.49 s, remaining 19.72 s).
91900000 of 110000000 tuples (83%) done (elapsed 99.52 s, remaining 19.60 s).
92000000 of 110000000 tuples (83%) done (elapsed 99.54 s, remaining 19.48 s).
92100000 of 110000000 tuples (83%) done (elapsed 99.61 s, remaining 19.36 s).
92200000 of 110000000 tuples (83%) done (elapsed 99.69 s, remaining 19.25 s).
92300000 of 110000000 tuples (83%) done (elapsed 99.76 s, remaining 19.13 s).
92400000 of 110000000 tuples (84%) done (elapsed 99.84 s, remaining 19.02 s).
92500000 of 110000000 tuples (84%) done (elapsed 99.91 s, remaining 18.90 s).
92600000 of 110000000 tuples (84%) done (elapsed 99.98 s, remaining 18.79 s).
92700000 of 110000000 tuples (84%) done (elapsed 100.06 s, remaining 18.67 s).
92800000 of 110000000 tuples (84%) done (elapsed 100.13 s, remaining 18.56 s).
92900000 of 110000000 tuples (84%) done (elapsed 100.21 s, remaining 18.44 s).
93000000 of 110000000 tuples (84%) done (elapsed 100.28 s, remaining 18.33 s).
93100000 of 110000000 tuples (84%) done (elapsed 100.35 s, remaining 18.22 s).
93200000 of 110000000 tuples (84%) done (elapsed 100.43 s, remaining 18.10 s).
93300000 of 110000000 tuples (84%) done (elapsed 101.20 s, remaining 18.11 s).
93400000 of 110000000 tuples (84%) done (elapsed 101.27 s, remaining 18.00 s).
93500000 of 110000000 tuples (85%) done (elapsed 101.35 s, remaining 17.88 s).
93600000 of 110000000 tuples (85%) done (elapsed 101.42 s, remaining 17.77 s).
93700000 of 110000000 tuples (85%) done (elapsed 101.50 s, remaining 17.66 s).
93800000 of 110000000 tuples (85%) done (elapsed 101.57 s, remaining 17.54 s).
93900000 of 110000000 tuples (85%) done (elapsed 101.64 s, remaining 17.43 s).
94000000 of 110000000 tuples (85%) done (elapsed 101.72 s, remaining 17.31 s).
94100000 of 110000000 tuples (85%) done (elapsed 101.79 s, remaining 17.20 s).
94200000 of 110000000 tuples (85%) done (elapsed 101.87 s, remaining 17.09 s).
94300000 of 110000000 tuples (85%) done (elapsed 101.94 s, remaining 16.97 s).
94400000 of 110000000 tuples (85%) done (elapsed 102.02 s, remaining 16.86 s).
94500000 of 110000000 tuples (85%) done (elapsed 102.09 s, remaining 16.74 s).
94600000 of 110000000 tuples (86%) done (elapsed 102.16 s, remaining 16.63 s).
94700000 of 110000000 tuples (86%) done (elapsed 102.24 s, remaining 16.52 s).
94800000 of 110000000 tuples (86%) done (elapsed 102.31 s, remaining 16.40 s).
94900000 of 110000000 tuples (86%) done (elapsed 102.39 s, remaining 16.29 s).
95000000 of 110000000 tuples (86%) done (elapsed 102.46 s, remaining 16.18 s).
95100000 of 110000000 tuples (86%) done (elapsed 102.54 s, remaining 16.07 s).
95200000 of 110000000 tuples (86%) done (elapsed 102.61 s, remaining 15.95 s).
95300000 of 110000000 tuples (86%) done (elapsed 102.69 s, remaining 15.84 s).
95400000 of 110000000 tuples (86%) done (elapsed 102.76 s, remaining 15.73 s).
95500000 of 110000000 tuples (86%) done (elapsed 102.84 s, remaining 15.61 s).
95600000 of 110000000 tuples (86%) done (elapsed 102.91 s, remaining 15.50 s).
95700000 of 110000000 tuples (87%) done (elapsed 102.99 s, remaining 15.39 s).
95800000 of 110000000 tuples (87%) done (elapsed 103.06 s, remaining 15.28 s).
95900000 of 110000000 tuples (87%) done (elapsed 103.14 s, remaining 15.16 s).
96000000 of 110000000 tuples (87%) done (elapsed 103.21 s, remaining 15.05 s).
96100000 of 110000000 tuples (87%) done (elapsed 103.29 s, remaining 14.94 s).
96200000 of 110000000 tuples (87%) done (elapsed 104.66 s, remaining 15.01 s).
96300000 of 110000000 tuples (87%) done (elapsed 104.69 s, remaining 14.89 s).
96400000 of 110000000 tuples (87%) done (elapsed 104.71 s, remaining 14.77 s).
96500000 of 110000000 tuples (87%) done (elapsed 104.74 s, remaining 14.65 s).
96600000 of 110000000 tuples (87%) done (elapsed 104.81 s, remaining 14.54 s).
96700000 of 110000000 tuples (87%) done (elapsed 104.89 s, remaining 14.43 s).
96800000 of 110000000 tuples (88%) done (elapsed 104.96 s, remaining 14.31 s).
96900000 of 110000000 tuples (88%) done (elapsed 105.03 s, remaining 14.20 s).
97000000 of 110000000 tuples (88%) done (elapsed 105.11 s, remaining 14.09 s).
97100000 of 110000000 tuples (88%) done (elapsed 105.18 s, remaining 13.97 s).
97200000 of 110000000 tuples (88%) done (elapsed 105.25 s, remaining 13.86 s).
97300000 of 110000000 tuples (88%) done (elapsed 105.33 s, remaining 13.75 s).
97400000 of 110000000 tuples (88%) done (elapsed 105.40 s, remaining 13.64 s).
97500000 of 110000000 tuples (88%) done (elapsed 105.48 s, remaining 13.52 s).
97600000 of 110000000 tuples (88%) done (elapsed 105.55 s, remaining 13.41 s).
97700000 of 110000000 tuples (88%) done (elapsed 105.96 s, remaining 13.34 s).
97800000 of 110000000 tuples (88%) done (elapsed 106.04 s, remaining 13.23 s).
97900000 of 110000000 tuples (89%) done (elapsed 106.11 s, remaining 13.11 s).
98000000 of 110000000 tuples (89%) done (elapsed 106.18 s, remaining 13.00 s).
98100000 of 110000000 tuples (89%) done (elapsed 106.26 s, remaining 12.89 s).
98200000 of 110000000 tuples (89%) done (elapsed 106.33 s, remaining 12.78 s).
98300000 of 110000000 tuples (89%) done (elapsed 106.41 s, remaining 12.66 s).
98400000 of 110000000 tuples (89%) done (elapsed 106.48 s, remaining 12.55 s).
98500000 of 110000000 tuples (89%) done (elapsed 106.55 s, remaining 12.44 s).
98600000 of 110000000 tuples (89%) done (elapsed 106.63 s, remaining 12.33 s).
98700000 of 110000000 tuples (89%) done (elapsed 106.70 s, remaining 12.22 s).
98800000 of 110000000 tuples (89%) done (elapsed 106.77 s, remaining 12.10 s).
98900000 of 110000000 tuples (89%) done (elapsed 106.85 s, remaining 11.99 s).
99000000 of 110000000 tuples (90%) done (elapsed 106.92 s, remaining 11.88 s).
99100000 of 110000000 tuples (90%) done (elapsed 107.00 s, remaining 11.77 s).
99200000 of 110000000 tuples (90%) done (elapsed 107.07 s, remaining 11.66 s).
99300000 of 110000000 tuples (90%) done (elapsed 107.14 s, remaining 11.55 s).
99400000 of 110000000 tuples (90%) done (elapsed 107.22 s, remaining 11.43 s).
99500000 of 110000000 tuples (90%) done (elapsed 107.29 s, remaining 11.32 s).
99600000 of 110000000 tuples (90%) done (elapsed 107.37 s, remaining 11.21 s).
99700000 of 110000000 tuples (90%) done (elapsed 107.44 s, remaining 11.10 s).
99800000 of 110000000 tuples (90%) done (elapsed 107.51 s, remaining 10.99 s).
99900000 of 110000000 tuples (90%) done (elapsed 107.59 s, remaining 10.88 s).
100000000 of 110000000 tuples (90%) done (elapsed 107.66 s, remaining 10.77 s).
100100000 of 110000000 tuples (91%) done (elapsed 107.74 s, remaining 10.66 s).
100200000 of 110000000 tuples (91%) done (elapsed 107.86 s, remaining 10.55 s).
100300000 of 110000000 tuples (91%) done (elapsed 107.93 s, remaining 10.44 s).
100400000 of 110000000 tuples (91%) done (elapsed 108.00 s, remaining 10.33 s).
100500000 of 110000000 tuples (91%) done (elapsed 108.08 s, remaining 10.22 s).
100600000 of 110000000 tuples (91%) done (elapsed 108.19 s, remaining 10.11 s).
100700000 of 110000000 tuples (91%) done (elapsed 108.26 s, remaining 10.00 s).
100800000 of 110000000 tuples (91%) done (elapsed 108.33 s, remaining 9.89 s).
100900000 of 110000000 tuples (91%) done (elapsed 108.40 s, remaining 9.78 s).
101000000 of 110000000 tuples (91%) done (elapsed 109.79 s, remaining 9.78 s).
101100000 of 110000000 tuples (91%) done (elapsed 109.81 s, remaining 9.67 s).
101200000 of 110000000 tuples (92%) done (elapsed 109.84 s, remaining 9.55 s).
101300000 of 110000000 tuples (92%) done (elapsed 109.86 s, remaining 9.44 s).
101400000 of 110000000 tuples (92%) done (elapsed 109.98 s, remaining 9.33 s).
101500000 of 110000000 tuples (92%) done (elapsed 110.05 s, remaining 9.22 s).
101600000 of 110000000 tuples (92%) done (elapsed 110.12 s, remaining 9.10 s).
101700000 of 110000000 tuples (92%) done (elapsed 110.19 s, remaining 8.99 s).
101800000 of 110000000 tuples (92%) done (elapsed 110.26 s, remaining 8.88 s).
101900000 of 110000000 tuples (92%) done (elapsed 110.33 s, remaining 8.77 s).
102000000 of 110000000 tuples (92%) done (elapsed 110.41 s, remaining 8.66 s).
102100000 of 110000000 tuples (92%) done (elapsed 110.48 s, remaining 8.55 s).
102200000 of 110000000 tuples (92%) done (elapsed 110.55 s, remaining 8.44 s).
102300000 of 110000000 tuples (93%) done (elapsed 110.62 s, remaining 8.33 s).
102400000 of 110000000 tuples (93%) done (elapsed 110.80 s, remaining 8.22 s).
102500000 of 110000000 tuples (93%) done (elapsed 110.87 s, remaining 8.11 s).
102600000 of 110000000 tuples (93%) done (elapsed 110.98 s, remaining 8.00 s).
102700000 of 110000000 tuples (93%) done (elapsed 111.05 s, remaining 7.89 s).
102800000 of 110000000 tuples (93%) done (elapsed 111.12 s, remaining 7.78 s).
102900000 of 110000000 tuples (93%) done (elapsed 111.19 s, remaining 7.67 s).
103000000 of 110000000 tuples (93%) done (elapsed 111.26 s, remaining 7.56 s).
103100000 of 110000000 tuples (93%) done (elapsed 111.33 s, remaining 7.45 s).
103200000 of 110000000 tuples (93%) done (elapsed 111.40 s, remaining 7.34 s).
103300000 of 110000000 tuples (93%) done (elapsed 111.47 s, remaining 7.23 s).
103400000 of 110000000 tuples (94%) done (elapsed 111.59 s, remaining 7.12 s).
103500000 of 110000000 tuples (94%) done (elapsed 111.66 s, remaining 7.01 s).
103600000 of 110000000 tuples (94%) done (elapsed 111.73 s, remaining 6.90 s).
103700000 of 110000000 tuples (94%) done (elapsed 111.80 s, remaining 6.79 s).
103800000 of 110000000 tuples (94%) done (elapsed 111.87 s, remaining 6.68 s).
103900000 of 110000000 tuples (94%) done (elapsed 111.95 s, remaining 6.57 s).
104000000 of 110000000 tuples (94%) done (elapsed 112.02 s, remaining 6.46 s).
104100000 of 110000000 tuples (94%) done (elapsed 112.09 s, remaining 6.35 s).
104200000 of 110000000 tuples (94%) done (elapsed 112.25 s, remaining 6.25 s).
104300000 of 110000000 tuples (94%) done (elapsed 112.32 s, remaining 6.14 s).
104400000 of 110000000 tuples (94%) done (elapsed 112.39 s, remaining 6.03 s).
104500000 of 110000000 tuples (95%) done (elapsed 112.46 s, remaining 5.92 s).
104600000 of 110000000 tuples (95%) done (elapsed 112.53 s, remaining 5.81 s).
104700000 of 110000000 tuples (95%) done (elapsed 112.61 s, remaining 5.70 s).
104800000 of 110000000 tuples (95%) done (elapsed 112.68 s, remaining 5.59 s).
104900000 of 110000000 tuples (95%) done (elapsed 112.78 s, remaining 5.48 s).
105000000 of 110000000 tuples (95%) done (elapsed 112.85 s, remaining 5.37 s).
105100000 of 110000000 tuples (95%) done (elapsed 112.97 s, remaining 5.27 s).
105200000 of 110000000 tuples (95%) done (elapsed 113.04 s, remaining 5.16 s).
105300000 of 110000000 tuples (95%) done (elapsed 113.11 s, remaining 5.05 s).
105400000 of 110000000 tuples (95%) done (elapsed 113.18 s, remaining 4.94 s).
105500000 of 110000000 tuples (95%) done (elapsed 113.25 s, remaining 4.83 s).
105600000 of 110000000 tuples (96%) done (elapsed 113.32 s, remaining 4.72 s).
105700000 of 110000000 tuples (96%) done (elapsed 113.39 s, remaining 4.61 s).
105800000 of 110000000 tuples (96%) done (elapsed 113.46 s, remaining 4.50 s).
105900000 of 110000000 tuples (96%) done (elapsed 113.53 s, remaining 4.40 s).
106000000 of 110000000 tuples (96%) done (elapsed 114.56 s, remaining 4.32 s).
106100000 of 110000000 tuples (96%) done (elapsed 114.58 s, remaining 4.21 s).
106200000 of 110000000 tuples (96%) done (elapsed 114.61 s, remaining 4.10 s).
106300000 of 110000000 tuples (96%) done (elapsed 114.68 s, remaining 3.99 s).
106400000 of 110000000 tuples (96%) done (elapsed 114.75 s, remaining 3.88 s).
106500000 of 110000000 tuples (96%) done (elapsed 114.82 s, remaining 3.77 s).
106600000 of 110000000 tuples (96%) done (elapsed 114.89 s, remaining 3.66 s).
106700000 of 110000000 tuples (97%) done (elapsed 114.96 s, remaining 3.56 s).
106800000 of 110000000 tuples (97%) done (elapsed 115.03 s, remaining 3.45 s).
106900000 of 110000000 tuples (97%) done (elapsed 115.10 s, remaining 3.34 s).
107000000 of 110000000 tuples (97%) done (elapsed 115.18 s, remaining 3.23 s).
107100000 of 110000000 tuples (97%) done (elapsed 115.25 s, remaining 3.12 s).
107200000 of 110000000 tuples (97%) done (elapsed 115.32 s, remaining 3.01 s).
107300000 of 110000000 tuples (97%) done (elapsed 115.39 s, remaining 2.90 s).
107400000 of 110000000 tuples (97%) done (elapsed 115.51 s, remaining 2.80 s).
107500000 of 110000000 tuples (97%) done (elapsed 115.58 s, remaining 2.69 s).
107600000 of 110000000 tuples (97%) done (elapsed 115.65 s, remaining 2.58 s).
107700000 of 110000000 tuples (97%) done (elapsed 115.82 s, remaining 2.47 s).
107800000 of 110000000 tuples (98%) done (elapsed 115.89 s, remaining 2.37 s).
107900000 of 110000000 tuples (98%) done (elapsed 115.96 s, remaining 2.26 s).
108000000 of 110000000 tuples (98%) done (elapsed 116.03 s, remaining 2.15 s).
108100000 of 110000000 tuples (98%) done (elapsed 116.10 s, remaining 2.04 s).
108200000 of 110000000 tuples (98%) done (elapsed 116.22 s, remaining 1.93 s).
108300000 of 110000000 tuples (98%) done (elapsed 116.29 s, remaining 1.83 s).
108400000 of 110000000 tuples (98%) done (elapsed 116.36 s, remaining 1.72 s).
108500000 of 110000000 tuples (98%) done (elapsed 116.43 s, remaining 1.61 s).
108600000 of 110000000 tuples (98%) done (elapsed 116.50 s, remaining 1.50 s).
108700000 of 110000000 tuples (98%) done (elapsed 116.57 s, remaining 1.39 s).
108800000 of 110000000 tuples (98%) done (elapsed 116.64 s, remaining 1.29 s).
108900000 of 110000000 tuples (99%) done (elapsed 116.72 s, remaining 1.18 s).
109000000 of 110000000 tuples (99%) done (elapsed 116.79 s, remaining 1.07 s).
109100000 of 110000000 tuples (99%) done (elapsed 116.86 s, remaining 0.96 s).
109200000 of 110000000 tuples (99%) done (elapsed 116.97 s, remaining 0.86 s).
109300000 of 110000000 tuples (99%) done (elapsed 117.04 s, remaining 0.75 s).
109400000 of 110000000 tuples (99%) done (elapsed 117.12 s, remaining 0.64 s).
109500000 of 110000000 tuples (99%) done (elapsed 117.19 s, remaining 0.54 s).
109600000 of 110000000 tuples (99%) done (elapsed 117.26 s, remaining 0.43 s).
109700000 of 110000000 tuples (99%) done (elapsed 117.33 s, remaining 0.32 s).
109800000 of 110000000 tuples (99%) done (elapsed 117.40 s, remaining 0.21 s).
109900000 of 110000000 tuples (99%) done (elapsed 117.47 s, remaining 0.11 s).
110000000 of 110000000 tuples (100%) done (elapsed 117.54 s, remaining 0.00 s).
vacuum...
set primary keys...
done.
