CHECKPOINT
transaction type: TPC-B (sort of)
scaling factor: 140
query mode: simple
number of clients: 16
number of threads: 16
duration: 1800 s
number of transactions actually processed: 11018780
latency average: 2.614 ms
tps = 6121.471514 (including connections establishing)
tps = 6121.496693 (excluding connections establishing)
