NOTICE:  table "pgbench_history" does not exist, skipping
NOTICE:  table "pgbench_tellers" does not exist, skipping
NOTICE:  table "pgbench_accounts" does not exist, skipping
NOTICE:  table "pgbench_branches" does not exist, skipping
creating tables...
100000 of 110000000 tuples (0%) done (elapsed 0.02 s, remaining 26.06 s).
200000 of 110000000 tuples (0%) done (elapsed 0.05 s, remaining 26.11 s).
300000 of 110000000 tuples (0%) done (elapsed 0.07 s, remaining 25.92 s).
400000 of 110000000 tuples (0%) done (elapsed 0.09 s, remaining 25.81 s).
500000 of 110000000 tuples (0%) done (elapsed 0.19 s, remaining 41.38 s).
600000 of 110000000 tuples (0%) done (elapsed 0.25 s, remaining 45.41 s).
700000 of 110000000 tuples (0%) done (elapsed 0.31 s, remaining 48.24 s).
800000 of 110000000 tuples (0%) done (elapsed 0.41 s, remaining 55.83 s).
900000 of 110000000 tuples (0%) done (elapsed 0.47 s, remaining 57.00 s).
1000000 of 110000000 tuples (0%) done (elapsed 0.53 s, remaining 58.00 s).
1100000 of 110000000 tuples (1%) done (elapsed 0.63 s, remaining 62.34 s).
1200000 of 110000000 tuples (1%) done (elapsed 0.69 s, remaining 62.57 s).
1300000 of 110000000 tuples (1%) done (elapsed 0.78 s, remaining 65.57 s).
1400000 of 110000000 tuples (1%) done (elapsed 0.84 s, remaining 65.40 s).
1500000 of 110000000 tuples (1%) done (elapsed 0.95 s, remaining 68.86 s).
1600000 of 110000000 tuples (1%) done (elapsed 1.01 s, remaining 68.47 s).
1700000 of 110000000 tuples (1%) done (elapsed 1.10 s, remaining 70.37 s).
1800000 of 110000000 tuples (1%) done (elapsed 1.16 s, remaining 69.94 s).
1900000 of 110000000 tuples (1%) done (elapsed 1.26 s, remaining 71.49 s).
2000000 of 110000000 tuples (1%) done (elapsed 1.32 s, remaining 71.03 s).
2100000 of 110000000 tuples (1%) done (elapsed 1.37 s, remaining 70.62 s).
2200000 of 110000000 tuples (2%) done (elapsed 1.47 s, remaining 71.96 s).
2300000 of 110000000 tuples (2%) done (elapsed 1.53 s, remaining 71.53 s).
2400000 of 110000000 tuples (2%) done (elapsed 1.73 s, remaining 77.64 s).
2500000 of 110000000 tuples (2%) done (elapsed 2.41 s, remaining 103.49 s).
2600000 of 110000000 tuples (2%) done (elapsed 2.43 s, remaining 100.41 s).
2700000 of 110000000 tuples (2%) done (elapsed 2.45 s, remaining 97.55 s).
2800000 of 110000000 tuples (2%) done (elapsed 2.51 s, remaining 96.17 s).
2900000 of 110000000 tuples (2%) done (elapsed 2.60 s, remaining 96.18 s).
3000000 of 110000000 tuples (2%) done (elapsed 2.66 s, remaining 94.97 s).
3100000 of 110000000 tuples (2%) done (elapsed 2.72 s, remaining 93.82 s).
3200000 of 110000000 tuples (2%) done (elapsed 2.81 s, remaining 93.86 s).
3300000 of 110000000 tuples (3%) done (elapsed 2.87 s, remaining 92.81 s).
3400000 of 110000000 tuples (3%) done (elapsed 2.97 s, remaining 93.22 s).
3500000 of 110000000 tuples (3%) done (elapsed 3.03 s, remaining 92.24 s).
3600000 of 110000000 tuples (3%) done (elapsed 3.12 s, remaining 92.30 s).
3700000 of 110000000 tuples (3%) done (elapsed 3.18 s, remaining 91.39 s).
3800000 of 110000000 tuples (3%) done (elapsed 3.27 s, remaining 91.47 s).
3900000 of 110000000 tuples (3%) done (elapsed 3.33 s, remaining 90.63 s).
4000000 of 110000000 tuples (3%) done (elapsed 3.42 s, remaining 90.75 s).
4100000 of 110000000 tuples (3%) done (elapsed 3.48 s, remaining 89.96 s).
4200000 of 110000000 tuples (3%) done (elapsed 3.58 s, remaining 90.06 s).
4300000 of 110000000 tuples (3%) done (elapsed 3.63 s, remaining 89.33 s).
4400000 of 110000000 tuples (4%) done (elapsed 3.69 s, remaining 88.62 s).
4500000 of 110000000 tuples (4%) done (elapsed 3.78 s, remaining 88.73 s).
4600000 of 110000000 tuples (4%) done (elapsed 3.84 s, remaining 88.06 s).
4700000 of 110000000 tuples (4%) done (elapsed 3.94 s, remaining 88.21 s).
4800000 of 110000000 tuples (4%) done (elapsed 4.00 s, remaining 87.56 s).
4900000 of 110000000 tuples (4%) done (elapsed 4.09 s, remaining 87.69 s).
5000000 of 110000000 tuples (4%) done (elapsed 4.65 s, remaining 97.63 s).
5100000 of 110000000 tuples (4%) done (elapsed 4.74 s, remaining 97.54 s).
5200000 of 110000000 tuples (4%) done (elapsed 4.80 s, remaining 96.76 s).
5300000 of 110000000 tuples (4%) done (elapsed 4.89 s, remaining 96.68 s).
5400000 of 110000000 tuples (4%) done (elapsed 4.95 s, remaining 95.94 s).
5500000 of 110000000 tuples (5%) done (elapsed 5.04 s, remaining 95.84 s).
5600000 of 110000000 tuples (5%) done (elapsed 5.10 s, remaining 95.12 s).
5700000 of 110000000 tuples (5%) done (elapsed 5.20 s, remaining 95.06 s).
5800000 of 110000000 tuples (5%) done (elapsed 5.25 s, remaining 94.40 s).
5900000 of 110000000 tuples (5%) done (elapsed 5.35 s, remaining 94.34 s).
6000000 of 110000000 tuples (5%) done (elapsed 5.40 s, remaining 93.67 s).
6100000 of 110000000 tuples (5%) done (elapsed 5.50 s, remaining 93.62 s).
6200000 of 110000000 tuples (5%) done (elapsed 5.55 s, remaining 92.99 s).
6300000 of 110000000 tuples (5%) done (elapsed 5.61 s, remaining 92.38 s).
6400000 of 110000000 tuples (5%) done (elapsed 5.70 s, remaining 92.34 s).
6500000 of 110000000 tuples (5%) done (elapsed 5.76 s, remaining 91.75 s).
6600000 of 110000000 tuples (6%) done (elapsed 5.85 s, remaining 91.71 s).
6700000 of 110000000 tuples (6%) done (elapsed 5.91 s, remaining 91.14 s).
6800000 of 110000000 tuples (6%) done (elapsed 6.00 s, remaining 91.11 s).
6900000 of 110000000 tuples (6%) done (elapsed 6.06 s, remaining 90.57 s).
7000000 of 110000000 tuples (6%) done (elapsed 6.15 s, remaining 90.56 s).
7100000 of 110000000 tuples (6%) done (elapsed 6.21 s, remaining 90.05 s).
7200000 of 110000000 tuples (6%) done (elapsed 6.31 s, remaining 90.05 s).
7300000 of 110000000 tuples (6%) done (elapsed 6.43 s, remaining 90.42 s).
7400000 of 110000000 tuples (6%) done (elapsed 6.48 s, remaining 89.91 s).
7500000 of 110000000 tuples (6%) done (elapsed 6.69 s, remaining 91.37 s).
7600000 of 110000000 tuples (6%) done (elapsed 6.74 s, remaining 90.86 s).
7700000 of 110000000 tuples (7%) done (elapsed 6.83 s, remaining 90.80 s).
7800000 of 110000000 tuples (7%) done (elapsed 8.02 s, remaining 105.10 s).
7900000 of 110000000 tuples (7%) done (elapsed 8.05 s, remaining 103.98 s).
8000000 of 110000000 tuples (7%) done (elapsed 8.07 s, remaining 102.88 s).
8100000 of 110000000 tuples (7%) done (elapsed 8.13 s, remaining 102.23 s).
8200000 of 110000000 tuples (7%) done (elapsed 8.22 s, remaining 102.02 s).
8300000 of 110000000 tuples (7%) done (elapsed 8.28 s, remaining 101.40 s).
8400000 of 110000000 tuples (7%) done (elapsed 8.33 s, remaining 100.79 s).
8500000 of 110000000 tuples (7%) done (elapsed 8.43 s, remaining 100.61 s).
8600000 of 110000000 tuples (7%) done (elapsed 8.48 s, remaining 100.02 s).
8700000 of 110000000 tuples (7%) done (elapsed 8.57 s, remaining 99.84 s).
8800000 of 110000000 tuples (8%) done (elapsed 8.63 s, remaining 99.27 s).
8900000 of 110000000 tuples (8%) done (elapsed 8.72 s, remaining 99.10 s).
9000000 of 110000000 tuples (8%) done (elapsed 8.78 s, remaining 98.55 s).
9100000 of 110000000 tuples (8%) done (elapsed 8.87 s, remaining 98.39 s).
9200000 of 110000000 tuples (8%) done (elapsed 8.93 s, remaining 97.85 s).
9300000 of 110000000 tuples (8%) done (elapsed 9.02 s, remaining 97.70 s).
9400000 of 110000000 tuples (8%) done (elapsed 9.08 s, remaining 97.19 s).
9500000 of 110000000 tuples (8%) done (elapsed 9.44 s, remaining 99.84 s).
9600000 of 110000000 tuples (8%) done (elapsed 9.50 s, remaining 99.32 s).
9700000 of 110000000 tuples (8%) done (elapsed 9.59 s, remaining 99.15 s).
9800000 of 110000000 tuples (8%) done (elapsed 9.65 s, remaining 98.64 s).
9900000 of 110000000 tuples (9%) done (elapsed 9.71 s, remaining 98.13 s).
10000000 of 110000000 tuples (9%) done (elapsed 9.80 s, remaining 97.98 s).
10100000 of 110000000 tuples (9%) done (elapsed 9.89 s, remaining 97.82 s).
10200000 of 110000000 tuples (9%) done (elapsed 9.95 s, remaining 97.33 s).
10300000 of 110000000 tuples (9%) done (elapsed 10.04 s, remaining 97.14 s).
10400000 of 110000000 tuples (9%) done (elapsed 10.12 s, remaining 96.94 s).
10500000 of 110000000 tuples (9%) done (elapsed 10.18 s, remaining 96.45 s).
10600000 of 110000000 tuples (9%) done (elapsed 10.27 s, remaining 96.26 s).
10700000 of 110000000 tuples (9%) done (elapsed 10.32 s, remaining 95.78 s).
10800000 of 110000000 tuples (9%) done (elapsed 10.41 s, remaining 95.60 s).
10900000 of 110000000 tuples (9%) done (elapsed 10.49 s, remaining 95.42 s).
11000000 of 110000000 tuples (10%) done (elapsed 10.55 s, remaining 94.95 s).
11100000 of 110000000 tuples (10%) done (elapsed 10.64 s, remaining 94.78 s).
11200000 of 110000000 tuples (10%) done (elapsed 10.72 s, remaining 94.61 s).
11300000 of 110000000 tuples (10%) done (elapsed 10.78 s, remaining 94.16 s).
11400000 of 110000000 tuples (10%) done (elapsed 10.87 s, remaining 93.99 s).
11500000 of 110000000 tuples (10%) done (elapsed 10.92 s, remaining 93.57 s).
11600000 of 110000000 tuples (10%) done (elapsed 11.01 s, remaining 93.41 s).
11700000 of 110000000 tuples (10%) done (elapsed 11.10 s, remaining 93.25 s).
11800000 of 110000000 tuples (10%) done (elapsed 11.15 s, remaining 92.83 s).
11900000 of 110000000 tuples (10%) done (elapsed 11.24 s, remaining 92.67 s).
12000000 of 110000000 tuples (10%) done (elapsed 11.30 s, remaining 92.27 s).
12100000 of 110000000 tuples (11%) done (elapsed 11.39 s, remaining 92.12 s).
12200000 of 110000000 tuples (11%) done (elapsed 11.47 s, remaining 91.97 s).
12300000 of 110000000 tuples (11%) done (elapsed 11.53 s, remaining 91.57 s).
12400000 of 110000000 tuples (11%) done (elapsed 11.62 s, remaining 91.42 s).
12500000 of 110000000 tuples (11%) done (elapsed 11.67 s, remaining 91.04 s).
12600000 of 110000000 tuples (11%) done (elapsed 11.76 s, remaining 90.90 s).
12700000 of 110000000 tuples (11%) done (elapsed 11.85 s, remaining 90.76 s).
12800000 of 110000000 tuples (11%) done (elapsed 13.31 s, remaining 101.08 s).
12900000 of 110000000 tuples (11%) done (elapsed 13.34 s, remaining 100.38 s).
13000000 of 110000000 tuples (11%) done (elapsed 13.36 s, remaining 99.69 s).
13100000 of 110000000 tuples (11%) done (elapsed 13.44 s, remaining 99.45 s).
13200000 of 110000000 tuples (12%) done (elapsed 13.50 s, remaining 99.00 s).
13300000 of 110000000 tuples (12%) done (elapsed 13.59 s, remaining 98.78 s).
13400000 of 110000000 tuples (12%) done (elapsed 13.64 s, remaining 98.34 s).
13500000 of 110000000 tuples (12%) done (elapsed 13.73 s, remaining 98.13 s).
13600000 of 110000000 tuples (12%) done (elapsed 13.81 s, remaining 97.92 s).
13700000 of 110000000 tuples (12%) done (elapsed 13.87 s, remaining 97.49 s).
13800000 of 110000000 tuples (12%) done (elapsed 13.95 s, remaining 97.28 s).
13900000 of 110000000 tuples (12%) done (elapsed 14.04 s, remaining 97.08 s).
14000000 of 110000000 tuples (12%) done (elapsed 14.10 s, remaining 96.66 s).
14100000 of 110000000 tuples (12%) done (elapsed 14.85 s, remaining 100.99 s).
14200000 of 110000000 tuples (12%) done (elapsed 14.90 s, remaining 100.55 s).
14300000 of 110000000 tuples (13%) done (elapsed 14.99 s, remaining 100.33 s).
14400000 of 110000000 tuples (13%) done (elapsed 15.08 s, remaining 100.10 s).
14500000 of 110000000 tuples (13%) done (elapsed 15.13 s, remaining 99.68 s).
14600000 of 110000000 tuples (13%) done (elapsed 15.22 s, remaining 99.46 s).
14700000 of 110000000 tuples (13%) done (elapsed 15.28 s, remaining 99.04 s).
14800000 of 110000000 tuples (13%) done (elapsed 15.36 s, remaining 98.82 s).
14900000 of 110000000 tuples (13%) done (elapsed 15.45 s, remaining 98.62 s).
15000000 of 110000000 tuples (13%) done (elapsed 15.51 s, remaining 98.21 s).
15100000 of 110000000 tuples (13%) done (elapsed 15.59 s, remaining 98.00 s).
15200000 of 110000000 tuples (13%) done (elapsed 15.65 s, remaining 97.60 s).
15300000 of 110000000 tuples (13%) done (elapsed 15.74 s, remaining 97.40 s).
15400000 of 110000000 tuples (14%) done (elapsed 15.82 s, remaining 97.20 s).
15500000 of 110000000 tuples (14%) done (elapsed 15.88 s, remaining 96.81 s).
15600000 of 110000000 tuples (14%) done (elapsed 15.97 s, remaining 96.62 s).
15700000 of 110000000 tuples (14%) done (elapsed 16.02 s, remaining 96.24 s).
15800000 of 110000000 tuples (14%) done (elapsed 16.11 s, remaining 96.05 s).
15900000 of 110000000 tuples (14%) done (elapsed 16.20 s, remaining 95.86 s).
16000000 of 110000000 tuples (14%) done (elapsed 16.25 s, remaining 95.49 s).
16100000 of 110000000 tuples (14%) done (elapsed 16.34 s, remaining 95.30 s).
16200000 of 110000000 tuples (14%) done (elapsed 16.40 s, remaining 94.93 s).
16300000 of 110000000 tuples (14%) done (elapsed 16.48 s, remaining 94.75 s).
16400000 of 110000000 tuples (14%) done (elapsed 16.57 s, remaining 94.57 s).
16500000 of 110000000 tuples (15%) done (elapsed 16.63 s, remaining 94.22 s).
16600000 of 110000000 tuples (15%) done (elapsed 16.71 s, remaining 94.04 s).
16700000 of 110000000 tuples (15%) done (elapsed 16.77 s, remaining 93.69 s).
16800000 of 110000000 tuples (15%) done (elapsed 16.86 s, remaining 93.52 s).
16900000 of 110000000 tuples (15%) done (elapsed 16.94 s, remaining 93.34 s).
17000000 of 110000000 tuples (15%) done (elapsed 18.17 s, remaining 99.41 s).
17100000 of 110000000 tuples (15%) done (elapsed 18.20 s, remaining 98.86 s).
17200000 of 110000000 tuples (15%) done (elapsed 18.22 s, remaining 98.31 s).
17300000 of 110000000 tuples (15%) done (elapsed 18.31 s, remaining 98.09 s).
17400000 of 110000000 tuples (15%) done (elapsed 18.36 s, remaining 97.71 s).
17500000 of 110000000 tuples (15%) done (elapsed 18.45 s, remaining 97.51 s).
17600000 of 110000000 tuples (16%) done (elapsed 18.50 s, remaining 97.14 s).
17700000 of 110000000 tuples (16%) done (elapsed 18.59 s, remaining 96.93 s).
17800000 of 110000000 tuples (16%) done (elapsed 18.67 s, remaining 96.73 s).
17900000 of 110000000 tuples (16%) done (elapsed 18.73 s, remaining 96.37 s).
18000000 of 110000000 tuples (16%) done (elapsed 18.82 s, remaining 96.17 s).
18100000 of 110000000 tuples (16%) done (elapsed 19.53 s, remaining 99.18 s).
18200000 of 110000000 tuples (16%) done (elapsed 19.59 s, remaining 98.80 s).
18300000 of 110000000 tuples (16%) done (elapsed 19.67 s, remaining 98.58 s).
18400000 of 110000000 tuples (16%) done (elapsed 19.73 s, remaining 98.21 s).
18500000 of 110000000 tuples (16%) done (elapsed 19.81 s, remaining 98.00 s).
18600000 of 110000000 tuples (16%) done (elapsed 19.90 s, remaining 97.79 s).
18700000 of 110000000 tuples (17%) done (elapsed 19.96 s, remaining 97.43 s).
18800000 of 110000000 tuples (17%) done (elapsed 20.04 s, remaining 97.22 s).
18900000 of 110000000 tuples (17%) done (elapsed 20.10 s, remaining 96.87 s).
19000000 of 110000000 tuples (17%) done (elapsed 20.18 s, remaining 96.66 s).
19100000 of 110000000 tuples (17%) done (elapsed 20.27 s, remaining 96.46 s).
19200000 of 110000000 tuples (17%) done (elapsed 20.32 s, remaining 96.12 s).
19300000 of 110000000 tuples (17%) done (elapsed 20.41 s, remaining 95.92 s).
19400000 of 110000000 tuples (17%) done (elapsed 20.47 s, remaining 95.58 s).
19500000 of 110000000 tuples (17%) done (elapsed 20.55 s, remaining 95.39 s).
19600000 of 110000000 tuples (17%) done (elapsed 20.64 s, remaining 95.20 s).
19700000 of 110000000 tuples (17%) done (elapsed 20.70 s, remaining 94.87 s).
19800000 of 110000000 tuples (18%) done (elapsed 20.78 s, remaining 94.68 s).
19900000 of 110000000 tuples (18%) done (elapsed 20.84 s, remaining 94.35 s).
20000000 of 110000000 tuples (18%) done (elapsed 20.93 s, remaining 94.17 s).
20100000 of 110000000 tuples (18%) done (elapsed 21.01 s, remaining 93.99 s).
20200000 of 110000000 tuples (18%) done (elapsed 21.07 s, remaining 93.66 s).
20300000 of 110000000 tuples (18%) done (elapsed 21.16 s, remaining 93.49 s).
20400000 of 110000000 tuples (18%) done (elapsed 21.21 s, remaining 93.17 s).
20500000 of 110000000 tuples (18%) done (elapsed 21.30 s, remaining 93.00 s).
20600000 of 110000000 tuples (18%) done (elapsed 21.39 s, remaining 92.82 s).
20700000 of 110000000 tuples (18%) done (elapsed 21.44 s, remaining 92.51 s).
20800000 of 110000000 tuples (18%) done (elapsed 21.53 s, remaining 92.34 s).
20900000 of 110000000 tuples (19%) done (elapsed 21.59 s, remaining 92.03 s).
21000000 of 110000000 tuples (19%) done (elapsed 21.68 s, remaining 91.86 s).
21100000 of 110000000 tuples (19%) done (elapsed 21.76 s, remaining 91.70 s).
21200000 of 110000000 tuples (19%) done (elapsed 21.82 s, remaining 91.39 s).
21300000 of 110000000 tuples (19%) done (elapsed 21.91 s, remaining 91.23 s).
21400000 of 110000000 tuples (19%) done (elapsed 23.36 s, remaining 96.72 s).
21500000 of 110000000 tuples (19%) done (elapsed 23.39 s, remaining 96.26 s).
21600000 of 110000000 tuples (19%) done (elapsed 23.41 s, remaining 95.81 s).
21700000 of 110000000 tuples (19%) done (elapsed 23.49 s, remaining 95.60 s).
21800000 of 110000000 tuples (19%) done (elapsed 23.55 s, remaining 95.28 s).
21900000 of 110000000 tuples (19%) done (elapsed 23.64 s, remaining 95.08 s).
22000000 of 110000000 tuples (20%) done (elapsed 23.69 s, remaining 94.76 s).
22100000 of 110000000 tuples (20%) done (elapsed 23.78 s, remaining 94.57 s).
22200000 of 110000000 tuples (20%) done (elapsed 23.86 s, remaining 94.38 s).
22300000 of 110000000 tuples (20%) done (elapsed 23.92 s, remaining 94.06 s).
22400000 of 110000000 tuples (20%) done (elapsed 24.00 s, remaining 93.87 s).
22500000 of 110000000 tuples (20%) done (elapsed 24.09 s, remaining 93.68 s).
22600000 of 110000000 tuples (20%) done (elapsed 24.15 s, remaining 93.38 s).
22700000 of 110000000 tuples (20%) done (elapsed 24.23 s, remaining 93.19 s).
22800000 of 110000000 tuples (20%) done (elapsed 24.29 s, remaining 92.89 s).
22900000 of 110000000 tuples (20%) done (elapsed 25.04 s, remaining 95.24 s).
23000000 of 110000000 tuples (20%) done (elapsed 25.13 s, remaining 95.05 s).
23100000 of 110000000 tuples (21%) done (elapsed 25.18 s, remaining 94.73 s).
23200000 of 110000000 tuples (21%) done (elapsed 25.27 s, remaining 94.54 s).
23300000 of 110000000 tuples (21%) done (elapsed 25.32 s, remaining 94.23 s).
23400000 of 110000000 tuples (21%) done (elapsed 25.41 s, remaining 94.04 s).
23500000 of 110000000 tuples (21%) done (elapsed 25.50 s, remaining 93.84 s).
23600000 of 110000000 tuples (21%) done (elapsed 25.55 s, remaining 93.54 s).
23700000 of 110000000 tuples (21%) done (elapsed 25.64 s, remaining 93.35 s).
23800000 of 110000000 tuples (21%) done (elapsed 25.69 s, remaining 93.05 s).
23900000 of 110000000 tuples (21%) done (elapsed 25.78 s, remaining 92.86 s).
24000000 of 110000000 tuples (21%) done (elapsed 25.86 s, remaining 92.68 s).
24100000 of 110000000 tuples (21%) done (elapsed 25.92 s, remaining 92.38 s).
24200000 of 110000000 tuples (22%) done (elapsed 26.00 s, remaining 92.20 s).
24300000 of 110000000 tuples (22%) done (elapsed 26.06 s, remaining 91.91 s).
24400000 of 110000000 tuples (22%) done (elapsed 26.15 s, remaining 91.72 s).
24500000 of 110000000 tuples (22%) done (elapsed 26.23 s, remaining 91.54 s).
24600000 of 110000000 tuples (22%) done (elapsed 26.29 s, remaining 91.26 s).
24700000 of 110000000 tuples (22%) done (elapsed 26.37 s, remaining 91.08 s).
24800000 of 110000000 tuples (22%) done (elapsed 26.43 s, remaining 90.80 s).
24900000 of 110000000 tuples (22%) done (elapsed 26.52 s, remaining 90.62 s).
25000000 of 110000000 tuples (22%) done (elapsed 26.60 s, remaining 90.45 s).
25100000 of 110000000 tuples (22%) done (elapsed 26.66 s, remaining 90.17 s).
25200000 of 110000000 tuples (22%) done (elapsed 26.74 s, remaining 89.99 s).
25300000 of 110000000 tuples (23%) done (elapsed 26.80 s, remaining 89.72 s).
25400000 of 110000000 tuples (23%) done (elapsed 26.89 s, remaining 89.55 s).
25500000 of 110000000 tuples (23%) done (elapsed 28.04 s, remaining 92.91 s).
25600000 of 110000000 tuples (23%) done (elapsed 28.06 s, remaining 92.52 s).
25700000 of 110000000 tuples (23%) done (elapsed 28.09 s, remaining 92.13 s).
25800000 of 110000000 tuples (23%) done (elapsed 28.17 s, remaining 91.95 s).
25900000 of 110000000 tuples (23%) done (elapsed 28.23 s, remaining 91.66 s).
26000000 of 110000000 tuples (23%) done (elapsed 28.31 s, remaining 91.48 s).
26100000 of 110000000 tuples (23%) done (elapsed 28.37 s, remaining 91.20 s).
26200000 of 110000000 tuples (23%) done (elapsed 28.46 s, remaining 91.01 s).
26300000 of 110000000 tuples (23%) done (elapsed 28.54 s, remaining 90.83 s).
26400000 of 110000000 tuples (24%) done (elapsed 28.60 s, remaining 90.56 s).
26500000 of 110000000 tuples (24%) done (elapsed 28.68 s, remaining 90.38 s).
26600000 of 110000000 tuples (24%) done (elapsed 28.77 s, remaining 90.20 s).
26700000 of 110000000 tuples (24%) done (elapsed 28.82 s, remaining 89.92 s).
26800000 of 110000000 tuples (24%) done (elapsed 28.91 s, remaining 89.75 s).
26900000 of 110000000 tuples (24%) done (elapsed 28.96 s, remaining 89.48 s).
27000000 of 110000000 tuples (24%) done (elapsed 29.05 s, remaining 89.31 s).
27100000 of 110000000 tuples (24%) done (elapsed 29.14 s, remaining 89.13 s).
27200000 of 110000000 tuples (24%) done (elapsed 29.19 s, remaining 88.87 s).
27300000 of 110000000 tuples (24%) done (elapsed 29.28 s, remaining 88.70 s).
27400000 of 110000000 tuples (24%) done (elapsed 29.34 s, remaining 88.44 s).
27500000 of 110000000 tuples (25%) done (elapsed 30.28 s, remaining 90.83 s).
27600000 of 110000000 tuples (25%) done (elapsed 30.36 s, remaining 90.65 s).
27700000 of 110000000 tuples (25%) done (elapsed 30.42 s, remaining 90.38 s).
27800000 of 110000000 tuples (25%) done (elapsed 30.81 s, remaining 91.09 s).
27900000 of 110000000 tuples (25%) done (elapsed 30.89 s, remaining 90.90 s).
28000000 of 110000000 tuples (25%) done (elapsed 30.95 s, remaining 90.63 s).
28100000 of 110000000 tuples (25%) done (elapsed 31.03 s, remaining 90.45 s).
28200000 of 110000000 tuples (25%) done (elapsed 31.12 s, remaining 90.26 s).
28300000 of 110000000 tuples (25%) done (elapsed 31.17 s, remaining 89.99 s).
28400000 of 110000000 tuples (25%) done (elapsed 31.26 s, remaining 89.81 s).
28500000 of 110000000 tuples (25%) done (elapsed 31.31 s, remaining 89.55 s).
28600000 of 110000000 tuples (26%) done (elapsed 31.40 s, remaining 89.37 s).
28700000 of 110000000 tuples (26%) done (elapsed 31.49 s, remaining 89.19 s).
28800000 of 110000000 tuples (26%) done (elapsed 31.54 s, remaining 88.93 s).
28900000 of 110000000 tuples (26%) done (elapsed 31.63 s, remaining 88.75 s).
29000000 of 110000000 tuples (26%) done (elapsed 31.68 s, remaining 88.49 s).
29100000 of 110000000 tuples (26%) done (elapsed 31.77 s, remaining 88.32 s).
29200000 of 110000000 tuples (26%) done (elapsed 31.85 s, remaining 88.14 s).
29300000 of 110000000 tuples (26%) done (elapsed 31.91 s, remaining 87.89 s).
29400000 of 110000000 tuples (26%) done (elapsed 32.00 s, remaining 87.72 s).
29500000 of 110000000 tuples (26%) done (elapsed 32.46 s, remaining 88.57 s).
29600000 of 110000000 tuples (26%) done (elapsed 32.48 s, remaining 88.23 s).
29700000 of 110000000 tuples (27%) done (elapsed 32.51 s, remaining 87.89 s).
29800000 of 110000000 tuples (27%) done (elapsed 32.59 s, remaining 87.72 s).
29900000 of 110000000 tuples (27%) done (elapsed 32.65 s, remaining 87.47 s).
30000000 of 110000000 tuples (27%) done (elapsed 32.74 s, remaining 87.30 s).
30100000 of 110000000 tuples (27%) done (elapsed 32.79 s, remaining 87.04 s).
30200000 of 110000000 tuples (27%) done (elapsed 32.88 s, remaining 86.87 s).
30300000 of 110000000 tuples (27%) done (elapsed 32.96 s, remaining 86.70 s).
30400000 of 110000000 tuples (27%) done (elapsed 33.02 s, remaining 86.46 s).
30500000 of 110000000 tuples (27%) done (elapsed 33.10 s, remaining 86.29 s).
30600000 of 110000000 tuples (27%) done (elapsed 33.16 s, remaining 86.04 s).
30700000 of 110000000 tuples (27%) done (elapsed 33.25 s, remaining 85.88 s).
30800000 of 110000000 tuples (28%) done (elapsed 33.33 s, remaining 85.71 s).
30900000 of 110000000 tuples (28%) done (elapsed 33.39 s, remaining 85.47 s).
31000000 of 110000000 tuples (28%) done (elapsed 33.47 s, remaining 85.31 s).
31100000 of 110000000 tuples (28%) done (elapsed 33.53 s, remaining 85.07 s).
31200000 of 110000000 tuples (28%) done (elapsed 33.62 s, remaining 84.91 s).
31300000 of 110000000 tuples (28%) done (elapsed 33.70 s, remaining 84.75 s).
31400000 of 110000000 tuples (28%) done (elapsed 33.76 s, remaining 84.51 s).
31500000 of 110000000 tuples (28%) done (elapsed 33.85 s, remaining 84.35 s).
31600000 of 110000000 tuples (28%) done (elapsed 33.90 s, remaining 84.11 s).
31700000 of 110000000 tuples (28%) done (elapsed 33.99 s, remaining 83.95 s).
31800000 of 110000000 tuples (28%) done (elapsed 34.76 s, remaining 85.47 s).
31900000 of 110000000 tuples (29%) done (elapsed 34.79 s, remaining 85.18 s).
32000000 of 110000000 tuples (29%) done (elapsed 35.06 s, remaining 85.45 s).
32100000 of 110000000 tuples (29%) done (elapsed 35.13 s, remaining 85.25 s).
32200000 of 110000000 tuples (29%) done (elapsed 35.20 s, remaining 85.06 s).
32300000 of 110000000 tuples (29%) done (elapsed 35.28 s, remaining 84.86 s).
32400000 of 110000000 tuples (29%) done (elapsed 35.35 s, remaining 84.67 s).
32500000 of 110000000 tuples (29%) done (elapsed 35.43 s, remaining 84.48 s).
32600000 of 110000000 tuples (29%) done (elapsed 35.50 s, remaining 84.29 s).
32700000 of 110000000 tuples (29%) done (elapsed 35.57 s, remaining 84.10 s).
32800000 of 110000000 tuples (29%) done (elapsed 35.65 s, remaining 83.90 s).
32900000 of 110000000 tuples (29%) done (elapsed 35.72 s, remaining 83.72 s).
33000000 of 110000000 tuples (30%) done (elapsed 35.80 s, remaining 83.53 s).
33100000 of 110000000 tuples (30%) done (elapsed 36.13 s, remaining 83.93 s).
33200000 of 110000000 tuples (30%) done (elapsed 36.20 s, remaining 83.74 s).
33300000 of 110000000 tuples (30%) done (elapsed 36.27 s, remaining 83.55 s).
33400000 of 110000000 tuples (30%) done (elapsed 36.35 s, remaining 83.36 s).
33500000 of 110000000 tuples (30%) done (elapsed 36.42 s, remaining 83.17 s).
33600000 of 110000000 tuples (30%) done (elapsed 36.50 s, remaining 82.98 s).
33700000 of 110000000 tuples (30%) done (elapsed 36.57 s, remaining 82.80 s).
33800000 of 110000000 tuples (30%) done (elapsed 36.64 s, remaining 82.61 s).
33900000 of 110000000 tuples (30%) done (elapsed 36.72 s, remaining 82.42 s).
34000000 of 110000000 tuples (30%) done (elapsed 36.79 s, remaining 82.24 s).
34100000 of 110000000 tuples (31%) done (elapsed 36.87 s, remaining 82.06 s).
34200000 of 110000000 tuples (31%) done (elapsed 36.94 s, remaining 81.87 s).
34300000 of 110000000 tuples (31%) done (elapsed 38.54 s, remaining 85.06 s).
34400000 of 110000000 tuples (31%) done (elapsed 38.57 s, remaining 84.76 s).
34500000 of 110000000 tuples (31%) done (elapsed 38.59 s, remaining 84.45 s).
34600000 of 110000000 tuples (31%) done (elapsed 38.62 s, remaining 84.15 s).
34700000 of 110000000 tuples (31%) done (elapsed 38.69 s, remaining 83.96 s).
34800000 of 110000000 tuples (31%) done (elapsed 38.76 s, remaining 83.77 s).
34900000 of 110000000 tuples (31%) done (elapsed 38.84 s, remaining 83.57 s).
35000000 of 110000000 tuples (31%) done (elapsed 38.91 s, remaining 83.38 s).
35100000 of 110000000 tuples (31%) done (elapsed 38.98 s, remaining 83.19 s).
35200000 of 110000000 tuples (32%) done (elapsed 39.06 s, remaining 83.00 s).
35300000 of 110000000 tuples (32%) done (elapsed 39.13 s, remaining 82.81 s).
35400000 of 110000000 tuples (32%) done (elapsed 39.21 s, remaining 82.62 s).
35500000 of 110000000 tuples (32%) done (elapsed 39.28 s, remaining 82.43 s).
35600000 of 110000000 tuples (32%) done (elapsed 39.35 s, remaining 82.24 s).
35700000 of 110000000 tuples (32%) done (elapsed 39.43 s, remaining 82.06 s).
35800000 of 110000000 tuples (32%) done (elapsed 39.50 s, remaining 81.87 s).
35900000 of 110000000 tuples (32%) done (elapsed 39.57 s, remaining 81.69 s).
36000000 of 110000000 tuples (32%) done (elapsed 39.65 s, remaining 81.50 s).
36100000 of 110000000 tuples (32%) done (elapsed 39.72 s, remaining 81.32 s).
36200000 of 110000000 tuples (32%) done (elapsed 40.70 s, remaining 82.97 s).
36300000 of 110000000 tuples (33%) done (elapsed 40.77 s, remaining 82.78 s).
36400000 of 110000000 tuples (33%) done (elapsed 40.85 s, remaining 82.59 s).
36500000 of 110000000 tuples (33%) done (elapsed 40.92 s, remaining 82.40 s).
36600000 of 110000000 tuples (33%) done (elapsed 40.99 s, remaining 82.21 s).
36700000 of 110000000 tuples (33%) done (elapsed 41.07 s, remaining 82.02 s).
36800000 of 110000000 tuples (33%) done (elapsed 41.14 s, remaining 81.84 s).
36900000 of 110000000 tuples (33%) done (elapsed 41.22 s, remaining 81.65 s).
37000000 of 110000000 tuples (33%) done (elapsed 41.29 s, remaining 81.46 s).
37100000 of 110000000 tuples (33%) done (elapsed 41.36 s, remaining 81.27 s).
37200000 of 110000000 tuples (33%) done (elapsed 41.44 s, remaining 81.09 s).
37300000 of 110000000 tuples (33%) done (elapsed 41.51 s, remaining 80.90 s).
37400000 of 110000000 tuples (34%) done (elapsed 41.58 s, remaining 80.72 s).
37500000 of 110000000 tuples (34%) done (elapsed 41.66 s, remaining 80.54 s).
37600000 of 110000000 tuples (34%) done (elapsed 41.73 s, remaining 80.35 s).
37700000 of 110000000 tuples (34%) done (elapsed 41.81 s, remaining 80.17 s).
37800000 of 110000000 tuples (34%) done (elapsed 41.88 s, remaining 79.99 s).
37900000 of 110000000 tuples (34%) done (elapsed 41.95 s, remaining 79.81 s).
38000000 of 110000000 tuples (34%) done (elapsed 43.21 s, remaining 81.88 s).
38100000 of 110000000 tuples (34%) done (elapsed 43.24 s, remaining 81.60 s).
38200000 of 110000000 tuples (34%) done (elapsed 43.26 s, remaining 81.32 s).
38300000 of 110000000 tuples (34%) done (elapsed 43.29 s, remaining 81.04 s).
38400000 of 110000000 tuples (34%) done (elapsed 43.36 s, remaining 80.85 s).
38500000 of 110000000 tuples (35%) done (elapsed 43.44 s, remaining 80.67 s).
38600000 of 110000000 tuples (35%) done (elapsed 43.51 s, remaining 80.48 s).
38700000 of 110000000 tuples (35%) done (elapsed 43.58 s, remaining 80.30 s).
38800000 of 110000000 tuples (35%) done (elapsed 43.66 s, remaining 80.11 s).
38900000 of 110000000 tuples (35%) done (elapsed 43.73 s, remaining 79.93 s).
39000000 of 110000000 tuples (35%) done (elapsed 43.80 s, remaining 79.75 s).
39100000 of 110000000 tuples (35%) done (elapsed 43.88 s, remaining 79.56 s).
39200000 of 110000000 tuples (35%) done (elapsed 43.95 s, remaining 79.38 s).
39300000 of 110000000 tuples (35%) done (elapsed 44.02 s, remaining 79.20 s).
39400000 of 110000000 tuples (35%) done (elapsed 44.10 s, remaining 79.02 s).
39500000 of 110000000 tuples (35%) done (elapsed 44.17 s, remaining 78.84 s).
39600000 of 110000000 tuples (36%) done (elapsed 44.25 s, remaining 78.66 s).
39700000 of 110000000 tuples (36%) done (elapsed 44.32 s, remaining 78.48 s).
39800000 of 110000000 tuples (36%) done (elapsed 44.39 s, remaining 78.30 s).
39900000 of 110000000 tuples (36%) done (elapsed 44.47 s, remaining 78.13 s).
40000000 of 110000000 tuples (36%) done (elapsed 44.54 s, remaining 77.95 s).
40100000 of 110000000 tuples (36%) done (elapsed 44.62 s, remaining 77.77 s).
40200000 of 110000000 tuples (36%) done (elapsed 44.69 s, remaining 77.59 s).
40300000 of 110000000 tuples (36%) done (elapsed 45.76 s, remaining 79.14 s).
40400000 of 110000000 tuples (36%) done (elapsed 45.83 s, remaining 78.96 s).
40500000 of 110000000 tuples (36%) done (elapsed 45.91 s, remaining 78.78 s).
40600000 of 110000000 tuples (36%) done (elapsed 45.98 s, remaining 78.60 s).
40700000 of 110000000 tuples (37%) done (elapsed 46.06 s, remaining 78.42 s).
40800000 of 110000000 tuples (37%) done (elapsed 46.13 s, remaining 78.24 s).
40900000 of 110000000 tuples (37%) done (elapsed 46.20 s, remaining 78.06 s).
41000000 of 110000000 tuples (37%) done (elapsed 46.28 s, remaining 77.88 s).
41100000 of 110000000 tuples (37%) done (elapsed 46.35 s, remaining 77.70 s).
41200000 of 110000000 tuples (37%) done (elapsed 46.42 s, remaining 77.52 s).
41300000 of 110000000 tuples (37%) done (elapsed 46.50 s, remaining 77.34 s).
41400000 of 110000000 tuples (37%) done (elapsed 46.57 s, remaining 77.17 s).
41500000 of 110000000 tuples (37%) done (elapsed 46.64 s, remaining 76.99 s).
41600000 of 110000000 tuples (37%) done (elapsed 46.72 s, remaining 76.82 s).
41700000 of 110000000 tuples (37%) done (elapsed 46.79 s, remaining 76.64 s).
41800000 of 110000000 tuples (38%) done (elapsed 46.87 s, remaining 76.47 s).
41900000 of 110000000 tuples (38%) done (elapsed 46.94 s, remaining 76.29 s).
42000000 of 110000000 tuples (38%) done (elapsed 47.01 s, remaining 76.12 s).
42100000 of 110000000 tuples (38%) done (elapsed 47.91 s, remaining 77.27 s).
42200000 of 110000000 tuples (38%) done (elapsed 47.93 s, remaining 77.01 s).
42300000 of 110000000 tuples (38%) done (elapsed 47.96 s, remaining 76.76 s).
42400000 of 110000000 tuples (38%) done (elapsed 47.98 s, remaining 76.50 s).
42500000 of 110000000 tuples (38%) done (elapsed 48.06 s, remaining 76.33 s).
42600000 of 110000000 tuples (38%) done (elapsed 48.13 s, remaining 76.15 s).
42700000 of 110000000 tuples (38%) done (elapsed 48.21 s, remaining 75.98 s).
42800000 of 110000000 tuples (38%) done (elapsed 48.28 s, remaining 75.80 s).
42900000 of 110000000 tuples (39%) done (elapsed 48.35 s, remaining 75.63 s).
43000000 of 110000000 tuples (39%) done (elapsed 48.43 s, remaining 75.45 s).
43100000 of 110000000 tuples (39%) done (elapsed 48.50 s, remaining 75.28 s).
43200000 of 110000000 tuples (39%) done (elapsed 48.57 s, remaining 75.11 s).
43300000 of 110000000 tuples (39%) done (elapsed 48.65 s, remaining 74.94 s).
43400000 of 110000000 tuples (39%) done (elapsed 48.72 s, remaining 74.76 s).
43500000 of 110000000 tuples (39%) done (elapsed 48.79 s, remaining 74.59 s).
43600000 of 110000000 tuples (39%) done (elapsed 48.87 s, remaining 74.42 s).
43700000 of 110000000 tuples (39%) done (elapsed 48.94 s, remaining 74.25 s).
43800000 of 110000000 tuples (39%) done (elapsed 49.02 s, remaining 74.08 s).
43900000 of 110000000 tuples (39%) done (elapsed 49.09 s, remaining 73.92 s).
44000000 of 110000000 tuples (40%) done (elapsed 49.16 s, remaining 73.75 s).
44100000 of 110000000 tuples (40%) done (elapsed 49.24 s, remaining 73.58 s).
44200000 of 110000000 tuples (40%) done (elapsed 49.31 s, remaining 73.41 s).
44300000 of 110000000 tuples (40%) done (elapsed 49.39 s, remaining 73.24 s).
44400000 of 110000000 tuples (40%) done (elapsed 49.46 s, remaining 73.08 s).
44500000 of 110000000 tuples (40%) done (elapsed 49.53 s, remaining 72.91 s).
44600000 of 110000000 tuples (40%) done (elapsed 49.61 s, remaining 72.74 s).
44700000 of 110000000 tuples (40%) done (elapsed 49.68 s, remaining 72.58 s).
44800000 of 110000000 tuples (40%) done (elapsed 50.97 s, remaining 74.18 s).
44900000 of 110000000 tuples (40%) done (elapsed 51.05 s, remaining 74.01 s).
45000000 of 110000000 tuples (40%) done (elapsed 51.12 s, remaining 73.84 s).
45100000 of 110000000 tuples (41%) done (elapsed 51.20 s, remaining 73.67 s).
45200000 of 110000000 tuples (41%) done (elapsed 51.27 s, remaining 73.50 s).
45300000 of 110000000 tuples (41%) done (elapsed 51.34 s, remaining 73.33 s).
45400000 of 110000000 tuples (41%) done (elapsed 51.42 s, remaining 73.16 s).
45500000 of 110000000 tuples (41%) done (elapsed 51.49 s, remaining 72.99 s).
45600000 of 110000000 tuples (41%) done (elapsed 51.57 s, remaining 72.83 s).
45700000 of 110000000 tuples (41%) done (elapsed 51.64 s, remaining 72.66 s).
45800000 of 110000000 tuples (41%) done (elapsed 51.72 s, remaining 72.49 s).
45900000 of 110000000 tuples (41%) done (elapsed 51.79 s, remaining 72.33 s).
46000000 of 110000000 tuples (41%) done (elapsed 51.87 s, remaining 72.16 s).
46100000 of 110000000 tuples (41%) done (elapsed 51.94 s, remaining 72.00 s).
46200000 of 110000000 tuples (42%) done (elapsed 52.02 s, remaining 71.83 s).
46300000 of 110000000 tuples (42%) done (elapsed 53.11 s, remaining 73.06 s).
46400000 of 110000000 tuples (42%) done (elapsed 53.13 s, remaining 72.82 s).
46500000 of 110000000 tuples (42%) done (elapsed 53.15 s, remaining 72.59 s).
46600000 of 110000000 tuples (42%) done (elapsed 53.18 s, remaining 72.35 s).
46700000 of 110000000 tuples (42%) done (elapsed 53.25 s, remaining 72.18 s).
46800000 of 110000000 tuples (42%) done (elapsed 53.33 s, remaining 72.01 s).
46900000 of 110000000 tuples (42%) done (elapsed 53.40 s, remaining 71.85 s).
47000000 of 110000000 tuples (42%) done (elapsed 53.47 s, remaining 71.68 s).
47100000 of 110000000 tuples (42%) done (elapsed 53.55 s, remaining 71.51 s).
47200000 of 110000000 tuples (42%) done (elapsed 53.62 s, remaining 71.34 s).
47300000 of 110000000 tuples (43%) done (elapsed 53.70 s, remaining 71.18 s).
47400000 of 110000000 tuples (43%) done (elapsed 53.77 s, remaining 71.01 s).
47500000 of 110000000 tuples (43%) done (elapsed 53.84 s, remaining 70.85 s).
47600000 of 110000000 tuples (43%) done (elapsed 53.92 s, remaining 70.68 s).
47700000 of 110000000 tuples (43%) done (elapsed 53.99 s, remaining 70.52 s).
47800000 of 110000000 tuples (43%) done (elapsed 54.06 s, remaining 70.35 s).
47900000 of 110000000 tuples (43%) done (elapsed 54.14 s, remaining 70.19 s).
48000000 of 110000000 tuples (43%) done (elapsed 54.21 s, remaining 70.02 s).
48100000 of 110000000 tuples (43%) done (elapsed 55.15 s, remaining 70.97 s).
48200000 of 110000000 tuples (43%) done (elapsed 55.22 s, remaining 70.80 s).
48300000 of 110000000 tuples (43%) done (elapsed 55.30 s, remaining 70.64 s).
48400000 of 110000000 tuples (44%) done (elapsed 55.37 s, remaining 70.47 s).
48500000 of 110000000 tuples (44%) done (elapsed 55.45 s, remaining 70.31 s).
48600000 of 110000000 tuples (44%) done (elapsed 55.52 s, remaining 70.15 s).
48700000 of 110000000 tuples (44%) done (elapsed 55.60 s, remaining 69.98 s).
48800000 of 110000000 tuples (44%) done (elapsed 55.67 s, remaining 69.82 s).
48900000 of 110000000 tuples (44%) done (elapsed 55.75 s, remaining 69.66 s).
49000000 of 110000000 tuples (44%) done (elapsed 55.82 s, remaining 69.49 s).
49100000 of 110000000 tuples (44%) done (elapsed 55.97 s, remaining 69.43 s).
49200000 of 110000000 tuples (44%) done (elapsed 56.05 s, remaining 69.26 s).
49300000 of 110000000 tuples (44%) done (elapsed 56.12 s, remaining 69.10 s).
49400000 of 110000000 tuples (44%) done (elapsed 56.23 s, remaining 68.98 s).
49500000 of 110000000 tuples (45%) done (elapsed 56.33 s, remaining 68.84 s).
49600000 of 110000000 tuples (45%) done (elapsed 56.51 s, remaining 68.82 s).
49700000 of 110000000 tuples (45%) done (elapsed 56.59 s, remaining 68.66 s).
49800000 of 110000000 tuples (45%) done (elapsed 56.66 s, remaining 68.50 s).
49900000 of 110000000 tuples (45%) done (elapsed 56.74 s, remaining 68.33 s).
50000000 of 110000000 tuples (45%) done (elapsed 56.81 s, remaining 68.17 s).
50100000 of 110000000 tuples (45%) done (elapsed 56.88 s, remaining 68.01 s).
50200000 of 110000000 tuples (45%) done (elapsed 56.96 s, remaining 67.85 s).
50300000 of 110000000 tuples (45%) done (elapsed 57.03 s, remaining 67.69 s).
50400000 of 110000000 tuples (45%) done (elapsed 57.95 s, remaining 68.53 s).
50500000 of 110000000 tuples (45%) done (elapsed 57.97 s, remaining 68.31 s).
50600000 of 110000000 tuples (46%) done (elapsed 58.00 s, remaining 68.09 s).
50700000 of 110000000 tuples (46%) done (elapsed 58.02 s, remaining 67.87 s).
50800000 of 110000000 tuples (46%) done (elapsed 58.10 s, remaining 67.70 s).
50900000 of 110000000 tuples (46%) done (elapsed 58.17 s, remaining 67.54 s).
51000000 of 110000000 tuples (46%) done (elapsed 58.25 s, remaining 67.38 s).
51100000 of 110000000 tuples (46%) done (elapsed 58.32 s, remaining 67.22 s).
51200000 of 110000000 tuples (46%) done (elapsed 58.39 s, remaining 67.06 s).
51300000 of 110000000 tuples (46%) done (elapsed 58.47 s, remaining 66.90 s).
51400000 of 110000000 tuples (46%) done (elapsed 58.54 s, remaining 66.74 s).
51500000 of 110000000 tuples (46%) done (elapsed 58.62 s, remaining 66.58 s).
51600000 of 110000000 tuples (46%) done (elapsed 58.69 s, remaining 66.42 s).
51700000 of 110000000 tuples (47%) done (elapsed 58.76 s, remaining 66.27 s).
51800000 of 110000000 tuples (47%) done (elapsed 58.84 s, remaining 66.11 s).
51900000 of 110000000 tuples (47%) done (elapsed 58.91 s, remaining 65.95 s).
52000000 of 110000000 tuples (47%) done (elapsed 58.99 s, remaining 65.79 s).
52100000 of 110000000 tuples (47%) done (elapsed 59.09 s, remaining 65.67 s).
52200000 of 110000000 tuples (47%) done (elapsed 59.17 s, remaining 65.51 s).
52300000 of 110000000 tuples (47%) done (elapsed 59.24 s, remaining 65.36 s).
52400000 of 110000000 tuples (47%) done (elapsed 59.31 s, remaining 65.20 s).
52500000 of 110000000 tuples (47%) done (elapsed 59.39 s, remaining 65.04 s).
52600000 of 110000000 tuples (47%) done (elapsed 59.46 s, remaining 64.89 s).
52700000 of 110000000 tuples (47%) done (elapsed 59.53 s, remaining 64.73 s).
52800000 of 110000000 tuples (48%) done (elapsed 59.70 s, remaining 64.68 s).
52900000 of 110000000 tuples (48%) done (elapsed 59.78 s, remaining 64.52 s).
53000000 of 110000000 tuples (48%) done (elapsed 59.85 s, remaining 64.37 s).
53100000 of 110000000 tuples (48%) done (elapsed 59.92 s, remaining 64.21 s).
53200000 of 110000000 tuples (48%) done (elapsed 60.00 s, remaining 64.06 s).
53300000 of 110000000 tuples (48%) done (elapsed 60.07 s, remaining 63.90 s).
53400000 of 110000000 tuples (48%) done (elapsed 60.69 s, remaining 64.33 s).
53500000 of 110000000 tuples (48%) done (elapsed 60.77 s, remaining 64.17 s).
53600000 of 110000000 tuples (48%) done (elapsed 60.84 s, remaining 64.02 s).
53700000 of 110000000 tuples (48%) done (elapsed 60.96 s, remaining 63.91 s).
53800000 of 110000000 tuples (48%) done (elapsed 61.04 s, remaining 63.76 s).
53900000 of 110000000 tuples (49%) done (elapsed 61.11 s, remaining 63.61 s).
54000000 of 110000000 tuples (49%) done (elapsed 61.19 s, remaining 63.45 s).
54100000 of 110000000 tuples (49%) done (elapsed 61.26 s, remaining 63.30 s).
54200000 of 110000000 tuples (49%) done (elapsed 61.34 s, remaining 63.15 s).
54300000 of 110000000 tuples (49%) done (elapsed 61.41 s, remaining 63.00 s).
54400000 of 110000000 tuples (49%) done (elapsed 61.49 s, remaining 62.84 s).
54500000 of 110000000 tuples (49%) done (elapsed 61.56 s, remaining 62.69 s).
54600000 of 110000000 tuples (49%) done (elapsed 61.64 s, remaining 62.54 s).
54700000 of 110000000 tuples (49%) done (elapsed 61.71 s, remaining 62.39 s).
54800000 of 110000000 tuples (49%) done (elapsed 61.79 s, remaining 62.24 s).
54900000 of 110000000 tuples (49%) done (elapsed 61.86 s, remaining 62.09 s).
55000000 of 110000000 tuples (50%) done (elapsed 61.94 s, remaining 61.94 s).
55100000 of 110000000 tuples (50%) done (elapsed 62.01 s, remaining 61.79 s).
55200000 of 110000000 tuples (50%) done (elapsed 62.13 s, remaining 61.68 s).
55300000 of 110000000 tuples (50%) done (elapsed 62.97 s, remaining 62.29 s).
55400000 of 110000000 tuples (50%) done (elapsed 63.00 s, remaining 62.09 s).
55500000 of 110000000 tuples (50%) done (elapsed 63.02 s, remaining 61.88 s).
55600000 of 110000000 tuples (50%) done (elapsed 63.04 s, remaining 61.68 s).
55700000 of 110000000 tuples (50%) done (elapsed 63.12 s, remaining 61.53 s).
55800000 of 110000000 tuples (50%) done (elapsed 63.19 s, remaining 61.38 s).
55900000 of 110000000 tuples (50%) done (elapsed 63.27 s, remaining 61.23 s).
56000000 of 110000000 tuples (50%) done (elapsed 63.34 s, remaining 61.08 s).
56100000 of 110000000 tuples (51%) done (elapsed 63.41 s, remaining 60.93 s).
56200000 of 110000000 tuples (51%) done (elapsed 63.49 s, remaining 60.78 s).
56300000 of 110000000 tuples (51%) done (elapsed 63.56 s, remaining 60.63 s).
56400000 of 110000000 tuples (51%) done (elapsed 63.64 s, remaining 60.48 s).
56500000 of 110000000 tuples (51%) done (elapsed 63.71 s, remaining 60.33 s).
56600000 of 110000000 tuples (51%) done (elapsed 63.78 s, remaining 60.18 s).
56700000 of 110000000 tuples (51%) done (elapsed 63.86 s, remaining 60.03 s).
56800000 of 110000000 tuples (51%) done (elapsed 63.93 s, remaining 59.88 s).
56900000 of 110000000 tuples (51%) done (elapsed 64.01 s, remaining 59.73 s).
57000000 of 110000000 tuples (51%) done (elapsed 64.08 s, remaining 59.58 s).
57100000 of 110000000 tuples (51%) done (elapsed 64.16 s, remaining 59.44 s).
57200000 of 110000000 tuples (52%) done (elapsed 64.23 s, remaining 59.29 s).
57300000 of 110000000 tuples (52%) done (elapsed 64.30 s, remaining 59.14 s).
57400000 of 110000000 tuples (52%) done (elapsed 64.38 s, remaining 58.99 s).
57500000 of 110000000 tuples (52%) done (elapsed 64.45 s, remaining 58.85 s).
57600000 of 110000000 tuples (52%) done (elapsed 64.52 s, remaining 58.70 s).
57700000 of 110000000 tuples (52%) done (elapsed 64.82 s, remaining 58.76 s).
57800000 of 110000000 tuples (52%) done (elapsed 64.90 s, remaining 58.61 s).
57900000 of 110000000 tuples (52%) done (elapsed 64.97 s, remaining 58.46 s).
58000000 of 110000000 tuples (52%) done (elapsed 65.04 s, remaining 58.32 s).
58100000 of 110000000 tuples (52%) done (elapsed 65.12 s, remaining 58.17 s).
58200000 of 110000000 tuples (52%) done (elapsed 66.03 s, remaining 58.77 s).
58300000 of 110000000 tuples (53%) done (elapsed 66.10 s, remaining 58.62 s).
58400000 of 110000000 tuples (53%) done (elapsed 66.18 s, remaining 58.47 s).
58500000 of 110000000 tuples (53%) done (elapsed 66.25 s, remaining 58.32 s).
58600000 of 110000000 tuples (53%) done (elapsed 66.32 s, remaining 58.17 s).
58700000 of 110000000 tuples (53%) done (elapsed 66.40 s, remaining 58.03 s).
58800000 of 110000000 tuples (53%) done (elapsed 66.47 s, remaining 57.88 s).
58900000 of 110000000 tuples (53%) done (elapsed 66.54 s, remaining 57.73 s).
59000000 of 110000000 tuples (53%) done (elapsed 66.62 s, remaining 57.58 s).
59100000 of 110000000 tuples (53%) done (elapsed 66.69 s, remaining 57.44 s).
59200000 of 110000000 tuples (53%) done (elapsed 66.77 s, remaining 57.29 s).
59300000 of 110000000 tuples (53%) done (elapsed 66.84 s, remaining 57.15 s).
59400000 of 110000000 tuples (54%) done (elapsed 66.91 s, remaining 57.00 s).
59500000 of 110000000 tuples (54%) done (elapsed 66.99 s, remaining 56.86 s).
59600000 of 110000000 tuples (54%) done (elapsed 67.06 s, remaining 56.71 s).
59700000 of 110000000 tuples (54%) done (elapsed 67.14 s, remaining 56.56 s).
59800000 of 110000000 tuples (54%) done (elapsed 68.28 s, remaining 57.32 s).
59900000 of 110000000 tuples (54%) done (elapsed 68.31 s, remaining 57.13 s).
60000000 of 110000000 tuples (54%) done (elapsed 68.33 s, remaining 56.94 s).
60100000 of 110000000 tuples (54%) done (elapsed 68.36 s, remaining 56.76 s).
60200000 of 110000000 tuples (54%) done (elapsed 68.43 s, remaining 56.61 s).
60300000 of 110000000 tuples (54%) done (elapsed 68.50 s, remaining 56.46 s).
60400000 of 110000000 tuples (54%) done (elapsed 68.58 s, remaining 56.32 s).
60500000 of 110000000 tuples (55%) done (elapsed 68.65 s, remaining 56.17 s).
60600000 of 110000000 tuples (55%) done (elapsed 68.73 s, remaining 56.02 s).
60700000 of 110000000 tuples (55%) done (elapsed 68.80 s, remaining 55.88 s).
60800000 of 110000000 tuples (55%) done (elapsed 68.87 s, remaining 55.73 s).
60900000 of 110000000 tuples (55%) done (elapsed 68.95 s, remaining 55.59 s).
61000000 of 110000000 tuples (55%) done (elapsed 69.02 s, remaining 55.44 s).
61100000 of 110000000 tuples (55%) done (elapsed 69.10 s, remaining 55.30 s).
61200000 of 110000000 tuples (55%) done (elapsed 69.17 s, remaining 55.15 s).
61300000 of 110000000 tuples (55%) done (elapsed 69.24 s, remaining 55.01 s).
61400000 of 110000000 tuples (55%) done (elapsed 69.32 s, remaining 54.87 s).
61500000 of 110000000 tuples (55%) done (elapsed 69.39 s, remaining 54.72 s).
61600000 of 110000000 tuples (56%) done (elapsed 69.47 s, remaining 54.58 s).
61700000 of 110000000 tuples (56%) done (elapsed 69.54 s, remaining 54.44 s).
61800000 of 110000000 tuples (56%) done (elapsed 69.62 s, remaining 54.30 s).
61900000 of 110000000 tuples (56%) done (elapsed 69.69 s, remaining 54.15 s).
62000000 of 110000000 tuples (56%) done (elapsed 69.76 s, remaining 54.01 s).
62100000 of 110000000 tuples (56%) done (elapsed 69.84 s, remaining 53.87 s).
62200000 of 110000000 tuples (56%) done (elapsed 69.91 s, remaining 53.73 s).
62300000 of 110000000 tuples (56%) done (elapsed 69.99 s, remaining 53.58 s).
62400000 of 110000000 tuples (56%) done (elapsed 70.06 s, remaining 53.44 s).
62500000 of 110000000 tuples (56%) done (elapsed 70.13 s, remaining 53.30 s).
62600000 of 110000000 tuples (56%) done (elapsed 71.72 s, remaining 54.31 s).
62700000 of 110000000 tuples (57%) done (elapsed 71.80 s, remaining 54.16 s).
62800000 of 110000000 tuples (57%) done (elapsed 71.87 s, remaining 54.02 s).
62900000 of 110000000 tuples (57%) done (elapsed 71.94 s, remaining 53.87 s).
63000000 of 110000000 tuples (57%) done (elapsed 72.02 s, remaining 53.73 s).
63100000 of 110000000 tuples (57%) done (elapsed 72.09 s, remaining 53.58 s).
63200000 of 110000000 tuples (57%) done (elapsed 72.16 s, remaining 53.44 s).
63300000 of 110000000 tuples (57%) done (elapsed 72.24 s, remaining 53.29 s).
63400000 of 110000000 tuples (57%) done (elapsed 73.08 s, remaining 53.72 s).
63500000 of 110000000 tuples (57%) done (elapsed 73.11 s, remaining 53.54 s).
63600000 of 110000000 tuples (57%) done (elapsed 73.18 s, remaining 53.39 s).
63700000 of 110000000 tuples (57%) done (elapsed 73.26 s, remaining 53.25 s).
63800000 of 110000000 tuples (58%) done (elapsed 73.33 s, remaining 53.10 s).
63900000 of 110000000 tuples (58%) done (elapsed 73.40 s, remaining 52.96 s).
64000000 of 110000000 tuples (58%) done (elapsed 73.48 s, remaining 52.81 s).
64100000 of 110000000 tuples (58%) done (elapsed 73.55 s, remaining 52.67 s).
64200000 of 110000000 tuples (58%) done (elapsed 73.63 s, remaining 52.52 s).
64300000 of 110000000 tuples (58%) done (elapsed 73.70 s, remaining 52.38 s).
64400000 of 110000000 tuples (58%) done (elapsed 73.77 s, remaining 52.24 s).
64500000 of 110000000 tuples (58%) done (elapsed 73.85 s, remaining 52.09 s).
64600000 of 110000000 tuples (58%) done (elapsed 73.92 s, remaining 51.95 s).
64700000 of 110000000 tuples (58%) done (elapsed 73.99 s, remaining 51.81 s).
64800000 of 110000000 tuples (58%) done (elapsed 74.07 s, remaining 51.67 s).
64900000 of 110000000 tuples (59%) done (elapsed 74.14 s, remaining 51.52 s).
65000000 of 110000000 tuples (59%) done (elapsed 74.22 s, remaining 51.38 s).
65100000 of 110000000 tuples (59%) done (elapsed 74.29 s, remaining 51.24 s).
65200000 of 110000000 tuples (59%) done (elapsed 74.36 s, remaining 51.10 s).
65300000 of 110000000 tuples (59%) done (elapsed 74.44 s, remaining 50.96 s).
65400000 of 110000000 tuples (59%) done (elapsed 74.51 s, remaining 50.81 s).
65500000 of 110000000 tuples (59%) done (elapsed 74.59 s, remaining 50.67 s).
65600000 of 110000000 tuples (59%) done (elapsed 74.66 s, remaining 50.53 s).
65700000 of 110000000 tuples (59%) done (elapsed 74.73 s, remaining 50.39 s).
65800000 of 110000000 tuples (59%) done (elapsed 74.81 s, remaining 50.25 s).
65900000 of 110000000 tuples (59%) done (elapsed 74.88 s, remaining 50.11 s).
66000000 of 110000000 tuples (60%) done (elapsed 74.96 s, remaining 49.97 s).
66100000 of 110000000 tuples (60%) done (elapsed 75.03 s, remaining 49.83 s).
66200000 of 110000000 tuples (60%) done (elapsed 75.11 s, remaining 49.69 s).
66300000 of 110000000 tuples (60%) done (elapsed 75.18 s, remaining 49.55 s).
66400000 of 110000000 tuples (60%) done (elapsed 75.25 s, remaining 49.41 s).
66500000 of 110000000 tuples (60%) done (elapsed 75.33 s, remaining 49.27 s).
66600000 of 110000000 tuples (60%) done (elapsed 75.40 s, remaining 49.14 s).
66700000 of 110000000 tuples (60%) done (elapsed 75.48 s, remaining 49.00 s).
66800000 of 110000000 tuples (60%) done (elapsed 75.55 s, remaining 48.86 s).
66900000 of 110000000 tuples (60%) done (elapsed 75.63 s, remaining 48.72 s).
67000000 of 110000000 tuples (60%) done (elapsed 75.70 s, remaining 48.58 s).
67100000 of 110000000 tuples (61%) done (elapsed 75.77 s, remaining 48.45 s).
67200000 of 110000000 tuples (61%) done (elapsed 75.85 s, remaining 48.31 s).
67300000 of 110000000 tuples (61%) done (elapsed 75.92 s, remaining 48.17 s).
67400000 of 110000000 tuples (61%) done (elapsed 76.00 s, remaining 48.03 s).
67500000 of 110000000 tuples (61%) done (elapsed 76.07 s, remaining 47.90 s).
67600000 of 110000000 tuples (61%) done (elapsed 76.15 s, remaining 47.76 s).
67700000 of 110000000 tuples (61%) done (elapsed 76.22 s, remaining 47.62 s).
67800000 of 110000000 tuples (61%) done (elapsed 76.29 s, remaining 47.49 s).
67900000 of 110000000 tuples (61%) done (elapsed 76.44 s, remaining 47.39 s).
68000000 of 110000000 tuples (61%) done (elapsed 76.53 s, remaining 47.27 s).
68100000 of 110000000 tuples (61%) done (elapsed 76.62 s, remaining 47.14 s).
68200000 of 110000000 tuples (62%) done (elapsed 76.73 s, remaining 47.03 s).
68300000 of 110000000 tuples (62%) done (elapsed 76.95 s, remaining 46.98 s).
68400000 of 110000000 tuples (62%) done (elapsed 77.03 s, remaining 46.85 s).
68500000 of 110000000 tuples (62%) done (elapsed 77.10 s, remaining 46.71 s).
68600000 of 110000000 tuples (62%) done (elapsed 77.17 s, remaining 46.57 s).
68700000 of 110000000 tuples (62%) done (elapsed 77.29 s, remaining 46.46 s).
68800000 of 110000000 tuples (62%) done (elapsed 80.35 s, remaining 48.12 s).
68900000 of 110000000 tuples (62%) done (elapsed 80.38 s, remaining 47.95 s).
69000000 of 110000000 tuples (62%) done (elapsed 80.91 s, remaining 48.08 s).
69100000 of 110000000 tuples (62%) done (elapsed 80.98 s, remaining 47.93 s).
69200000 of 110000000 tuples (62%) done (elapsed 81.06 s, remaining 47.79 s).
69300000 of 110000000 tuples (63%) done (elapsed 81.13 s, remaining 47.65 s).
69400000 of 110000000 tuples (63%) done (elapsed 81.21 s, remaining 47.51 s).
69500000 of 110000000 tuples (63%) done (elapsed 81.28 s, remaining 47.36 s).
69600000 of 110000000 tuples (63%) done (elapsed 81.35 s, remaining 47.22 s).
69700000 of 110000000 tuples (63%) done (elapsed 81.43 s, remaining 47.08 s).
69800000 of 110000000 tuples (63%) done (elapsed 81.50 s, remaining 46.94 s).
69900000 of 110000000 tuples (63%) done (elapsed 81.57 s, remaining 46.80 s).
70000000 of 110000000 tuples (63%) done (elapsed 81.65 s, remaining 46.66 s).
70100000 of 110000000 tuples (63%) done (elapsed 81.72 s, remaining 46.52 s).
70200000 of 110000000 tuples (63%) done (elapsed 81.80 s, remaining 46.37 s).
70300000 of 110000000 tuples (63%) done (elapsed 81.87 s, remaining 46.23 s).
70400000 of 110000000 tuples (64%) done (elapsed 81.94 s, remaining 46.09 s).
70500000 of 110000000 tuples (64%) done (elapsed 82.02 s, remaining 45.95 s).
70600000 of 110000000 tuples (64%) done (elapsed 82.09 s, remaining 45.81 s).
70700000 of 110000000 tuples (64%) done (elapsed 82.17 s, remaining 45.67 s).
70800000 of 110000000 tuples (64%) done (elapsed 82.24 s, remaining 45.54 s).
70900000 of 110000000 tuples (64%) done (elapsed 82.32 s, remaining 45.40 s).
71000000 of 110000000 tuples (64%) done (elapsed 84.00 s, remaining 46.14 s).
71100000 of 110000000 tuples (64%) done (elapsed 84.03 s, remaining 45.97 s).
71200000 of 110000000 tuples (64%) done (elapsed 84.05 s, remaining 45.80 s).
71300000 of 110000000 tuples (64%) done (elapsed 84.07 s, remaining 45.63 s).
71400000 of 110000000 tuples (64%) done (elapsed 84.15 s, remaining 45.49 s).
71500000 of 110000000 tuples (65%) done (elapsed 84.22 s, remaining 45.35 s).
71600000 of 110000000 tuples (65%) done (elapsed 84.30 s, remaining 45.21 s).
71700000 of 110000000 tuples (65%) done (elapsed 84.37 s, remaining 45.07 s).
71800000 of 110000000 tuples (65%) done (elapsed 84.44 s, remaining 44.93 s).
71900000 of 110000000 tuples (65%) done (elapsed 84.52 s, remaining 44.79 s).
72000000 of 110000000 tuples (65%) done (elapsed 84.59 s, remaining 44.64 s).
72100000 of 110000000 tuples (65%) done (elapsed 84.66 s, remaining 44.50 s).
72200000 of 110000000 tuples (65%) done (elapsed 84.74 s, remaining 44.36 s).
72300000 of 110000000 tuples (65%) done (elapsed 84.81 s, remaining 44.22 s).
72400000 of 110000000 tuples (65%) done (elapsed 84.88 s, remaining 44.08 s).
72500000 of 110000000 tuples (65%) done (elapsed 84.96 s, remaining 43.94 s).
72600000 of 110000000 tuples (66%) done (elapsed 85.03 s, remaining 43.80 s).
72700000 of 110000000 tuples (66%) done (elapsed 85.11 s, remaining 43.67 s).
72800000 of 110000000 tuples (66%) done (elapsed 85.18 s, remaining 43.53 s).
72900000 of 110000000 tuples (66%) done (elapsed 85.25 s, remaining 43.39 s).
73000000 of 110000000 tuples (66%) done (elapsed 85.33 s, remaining 43.25 s).
73100000 of 110000000 tuples (66%) done (elapsed 86.67 s, remaining 43.75 s).
73200000 of 110000000 tuples (66%) done (elapsed 86.74 s, remaining 43.61 s).
73300000 of 110000000 tuples (66%) done (elapsed 86.81 s, remaining 43.47 s).
73400000 of 110000000 tuples (66%) done (elapsed 86.89 s, remaining 43.33 s).
73500000 of 110000000 tuples (66%) done (elapsed 86.96 s, remaining 43.19 s).
73600000 of 110000000 tuples (66%) done (elapsed 87.04 s, remaining 43.04 s).
73700000 of 110000000 tuples (67%) done (elapsed 87.11 s, remaining 42.90 s).
73800000 of 110000000 tuples (67%) done (elapsed 87.18 s, remaining 42.76 s).
73900000 of 110000000 tuples (67%) done (elapsed 87.26 s, remaining 42.62 s).
74000000 of 110000000 tuples (67%) done (elapsed 87.33 s, remaining 42.48 s).
74100000 of 110000000 tuples (67%) done (elapsed 88.35 s, remaining 42.80 s).
74200000 of 110000000 tuples (67%) done (elapsed 88.37 s, remaining 42.64 s).
74300000 of 110000000 tuples (67%) done (elapsed 88.40 s, remaining 42.47 s).
74400000 of 110000000 tuples (67%) done (elapsed 88.42 s, remaining 42.31 s).
74500000 of 110000000 tuples (67%) done (elapsed 88.50 s, remaining 42.17 s).
74600000 of 110000000 tuples (67%) done (elapsed 88.57 s, remaining 42.03 s).
74700000 of 110000000 tuples (67%) done (elapsed 88.64 s, remaining 41.89 s).
74800000 of 110000000 tuples (68%) done (elapsed 88.72 s, remaining 41.75 s).
74900000 of 110000000 tuples (68%) done (elapsed 88.79 s, remaining 41.61 s).
75000000 of 110000000 tuples (68%) done (elapsed 88.87 s, remaining 41.47 s).
75100000 of 110000000 tuples (68%) done (elapsed 88.94 s, remaining 41.33 s).
75200000 of 110000000 tuples (68%) done (elapsed 89.01 s, remaining 41.19 s).
75300000 of 110000000 tuples (68%) done (elapsed 89.09 s, remaining 41.05 s).
75400000 of 110000000 tuples (68%) done (elapsed 89.16 s, remaining 40.91 s).
75500000 of 110000000 tuples (68%) done (elapsed 89.23 s, remaining 40.78 s).
75600000 of 110000000 tuples (68%) done (elapsed 89.31 s, remaining 40.64 s).
75700000 of 110000000 tuples (68%) done (elapsed 89.38 s, remaining 40.50 s).
75800000 of 110000000 tuples (68%) done (elapsed 89.46 s, remaining 40.36 s).
75900000 of 110000000 tuples (69%) done (elapsed 89.53 s, remaining 40.22 s).
76000000 of 110000000 tuples (69%) done (elapsed 89.61 s, remaining 40.09 s).
76100000 of 110000000 tuples (69%) done (elapsed 89.68 s, remaining 39.95 s).
76200000 of 110000000 tuples (69%) done (elapsed 89.75 s, remaining 39.81 s).
76300000 of 110000000 tuples (69%) done (elapsed 89.83 s, remaining 39.68 s).
76400000 of 110000000 tuples (69%) done (elapsed 89.90 s, remaining 39.54 s).
76500000 of 110000000 tuples (69%) done (elapsed 89.98 s, remaining 39.40 s).
76600000 of 110000000 tuples (69%) done (elapsed 90.05 s, remaining 39.26 s).
76700000 of 110000000 tuples (69%) done (elapsed 90.12 s, remaining 39.13 s).
76800000 of 110000000 tuples (69%) done (elapsed 90.20 s, remaining 38.99 s).
76900000 of 110000000 tuples (69%) done (elapsed 90.27 s, remaining 38.86 s).
77000000 of 110000000 tuples (70%) done (elapsed 90.35 s, remaining 38.72 s).
77100000 of 110000000 tuples (70%) done (elapsed 91.73 s, remaining 39.14 s).
77200000 of 110000000 tuples (70%) done (elapsed 91.80 s, remaining 39.00 s).
77300000 of 110000000 tuples (70%) done (elapsed 91.87 s, remaining 38.86 s).
77400000 of 110000000 tuples (70%) done (elapsed 91.95 s, remaining 38.73 s).
77500000 of 110000000 tuples (70%) done (elapsed 92.02 s, remaining 38.59 s).
77600000 of 110000000 tuples (70%) done (elapsed 92.09 s, remaining 38.45 s).
77700000 of 110000000 tuples (70%) done (elapsed 92.17 s, remaining 38.31 s).
77800000 of 110000000 tuples (70%) done (elapsed 92.24 s, remaining 38.18 s).
77900000 of 110000000 tuples (70%) done (elapsed 92.31 s, remaining 38.04 s).
78000000 of 110000000 tuples (70%) done (elapsed 92.39 s, remaining 37.90 s).
78100000 of 110000000 tuples (71%) done (elapsed 93.63 s, remaining 38.24 s).
78200000 of 110000000 tuples (71%) done (elapsed 93.70 s, remaining 38.10 s).
78300000 of 110000000 tuples (71%) done (elapsed 94.16 s, remaining 38.12 s).
78400000 of 110000000 tuples (71%) done (elapsed 94.19 s, remaining 37.96 s).
78500000 of 110000000 tuples (71%) done (elapsed 94.21 s, remaining 37.80 s).
78600000 of 110000000 tuples (71%) done (elapsed 94.24 s, remaining 37.65 s).
78700000 of 110000000 tuples (71%) done (elapsed 94.31 s, remaining 37.51 s).
78800000 of 110000000 tuples (71%) done (elapsed 94.38 s, remaining 37.37 s).
78900000 of 110000000 tuples (71%) done (elapsed 94.46 s, remaining 37.23 s).
79000000 of 110000000 tuples (71%) done (elapsed 94.53 s, remaining 37.09 s).
79100000 of 110000000 tuples (71%) done (elapsed 94.60 s, remaining 36.96 s).
79200000 of 110000000 tuples (72%) done (elapsed 94.68 s, remaining 36.82 s).
79300000 of 110000000 tuples (72%) done (elapsed 94.75 s, remaining 36.68 s).
79400000 of 110000000 tuples (72%) done (elapsed 94.83 s, remaining 36.54 s).
79500000 of 110000000 tuples (72%) done (elapsed 94.90 s, remaining 36.41 s).
79600000 of 110000000 tuples (72%) done (elapsed 94.97 s, remaining 36.27 s).
79700000 of 110000000 tuples (72%) done (elapsed 95.05 s, remaining 36.13 s).
79800000 of 110000000 tuples (72%) done (elapsed 95.12 s, remaining 36.00 s).
79900000 of 110000000 tuples (72%) done (elapsed 95.20 s, remaining 35.86 s).
80000000 of 110000000 tuples (72%) done (elapsed 95.27 s, remaining 35.73 s).
80100000 of 110000000 tuples (72%) done (elapsed 95.34 s, remaining 35.59 s).
80200000 of 110000000 tuples (72%) done (elapsed 96.30 s, remaining 35.78 s).
80300000 of 110000000 tuples (73%) done (elapsed 97.10 s, remaining 35.91 s).
80400000 of 110000000 tuples (73%) done (elapsed 97.17 s, remaining 35.78 s).
80500000 of 110000000 tuples (73%) done (elapsed 97.25 s, remaining 35.64 s).
80600000 of 110000000 tuples (73%) done (elapsed 97.32 s, remaining 35.50 s).
80700000 of 110000000 tuples (73%) done (elapsed 97.39 s, remaining 35.36 s).
80800000 of 110000000 tuples (73%) done (elapsed 97.47 s, remaining 35.22 s).
80900000 of 110000000 tuples (73%) done (elapsed 97.54 s, remaining 35.09 s).
81000000 of 110000000 tuples (73%) done (elapsed 97.62 s, remaining 34.95 s).
81100000 of 110000000 tuples (73%) done (elapsed 97.69 s, remaining 34.81 s).
81200000 of 110000000 tuples (73%) done (elapsed 97.76 s, remaining 34.67 s).
81300000 of 110000000 tuples (73%) done (elapsed 97.84 s, remaining 34.54 s).
81400000 of 110000000 tuples (74%) done (elapsed 97.91 s, remaining 34.40 s).
81500000 of 110000000 tuples (74%) done (elapsed 97.98 s, remaining 34.26 s).
81600000 of 110000000 tuples (74%) done (elapsed 98.06 s, remaining 34.13 s).
81700000 of 110000000 tuples (74%) done (elapsed 98.13 s, remaining 33.99 s).
81800000 of 110000000 tuples (74%) done (elapsed 98.21 s, remaining 33.86 s).
81900000 of 110000000 tuples (74%) done (elapsed 98.28 s, remaining 33.72 s).
82000000 of 110000000 tuples (74%) done (elapsed 98.35 s, remaining 33.58 s).
82100000 of 110000000 tuples (74%) done (elapsed 98.43 s, remaining 33.45 s).
82200000 of 110000000 tuples (74%) done (elapsed 98.50 s, remaining 33.31 s).
82300000 of 110000000 tuples (74%) done (elapsed 98.57 s, remaining 33.18 s).
82400000 of 110000000 tuples (74%) done (elapsed 98.65 s, remaining 33.04 s).
82500000 of 110000000 tuples (75%) done (elapsed 98.72 s, remaining 32.91 s).
82600000 of 110000000 tuples (75%) done (elapsed 98.80 s, remaining 32.77 s).
82700000 of 110000000 tuples (75%) done (elapsed 99.35 s, remaining 32.80 s).
82800000 of 110000000 tuples (75%) done (elapsed 99.38 s, remaining 32.65 s).
82900000 of 110000000 tuples (75%) done (elapsed 99.40 s, remaining 32.49 s).
83000000 of 110000000 tuples (75%) done (elapsed 99.43 s, remaining 32.34 s).
83100000 of 110000000 tuples (75%) done (elapsed 99.50 s, remaining 32.21 s).
83200000 of 110000000 tuples (75%) done (elapsed 99.57 s, remaining 32.07 s).
83300000 of 110000000 tuples (75%) done (elapsed 99.65 s, remaining 31.94 s).
83400000 of 110000000 tuples (75%) done (elapsed 99.72 s, remaining 31.81 s).
83500000 of 110000000 tuples (75%) done (elapsed 99.80 s, remaining 31.67 s).
83600000 of 110000000 tuples (76%) done (elapsed 99.87 s, remaining 31.54 s).
83700000 of 110000000 tuples (76%) done (elapsed 99.94 s, remaining 31.40 s).
83800000 of 110000000 tuples (76%) done (elapsed 100.02 s, remaining 31.27 s).
83900000 of 110000000 tuples (76%) done (elapsed 100.09 s, remaining 31.14 s).
84000000 of 110000000 tuples (76%) done (elapsed 100.17 s, remaining 31.00 s).
84100000 of 110000000 tuples (76%) done (elapsed 100.24 s, remaining 30.87 s).
84200000 of 110000000 tuples (76%) done (elapsed 100.31 s, remaining 30.74 s).
84300000 of 110000000 tuples (76%) done (elapsed 101.27 s, remaining 30.87 s).
84400000 of 110000000 tuples (76%) done (elapsed 101.35 s, remaining 30.74 s).
84500000 of 110000000 tuples (76%) done (elapsed 101.42 s, remaining 30.61 s).
84600000 of 110000000 tuples (76%) done (elapsed 101.49 s, remaining 30.47 s).
84700000 of 110000000 tuples (77%) done (elapsed 101.57 s, remaining 30.34 s).
84800000 of 110000000 tuples (77%) done (elapsed 101.64 s, remaining 30.20 s).
84900000 of 110000000 tuples (77%) done (elapsed 101.71 s, remaining 30.07 s).
85000000 of 110000000 tuples (77%) done (elapsed 101.79 s, remaining 29.94 s).
85100000 of 110000000 tuples (77%) done (elapsed 101.86 s, remaining 29.80 s).
85200000 of 110000000 tuples (77%) done (elapsed 101.93 s, remaining 29.67 s).
85300000 of 110000000 tuples (77%) done (elapsed 102.01 s, remaining 29.54 s).
85400000 of 110000000 tuples (77%) done (elapsed 102.08 s, remaining 29.41 s).
85500000 of 110000000 tuples (77%) done (elapsed 102.16 s, remaining 29.27 s).
85600000 of 110000000 tuples (77%) done (elapsed 102.23 s, remaining 29.14 s).
85700000 of 110000000 tuples (77%) done (elapsed 102.30 s, remaining 29.01 s).
85800000 of 110000000 tuples (78%) done (elapsed 102.38 s, remaining 28.88 s).
85900000 of 110000000 tuples (78%) done (elapsed 102.45 s, remaining 28.74 s).
86000000 of 110000000 tuples (78%) done (elapsed 102.53 s, remaining 28.61 s).
86100000 of 110000000 tuples (78%) done (elapsed 102.60 s, remaining 28.48 s).
86200000 of 110000000 tuples (78%) done (elapsed 102.67 s, remaining 28.35 s).
86300000 of 110000000 tuples (78%) done (elapsed 102.75 s, remaining 28.22 s).
86400000 of 110000000 tuples (78%) done (elapsed 102.82 s, remaining 28.09 s).
86500000 of 110000000 tuples (78%) done (elapsed 102.90 s, remaining 27.95 s).
86600000 of 110000000 tuples (78%) done (elapsed 102.97 s, remaining 27.82 s).
86700000 of 110000000 tuples (78%) done (elapsed 103.04 s, remaining 27.69 s).
86800000 of 110000000 tuples (78%) done (elapsed 103.12 s, remaining 27.56 s).
86900000 of 110000000 tuples (79%) done (elapsed 103.19 s, remaining 27.43 s).
87000000 of 110000000 tuples (79%) done (elapsed 103.27 s, remaining 27.30 s).
87100000 of 110000000 tuples (79%) done (elapsed 103.34 s, remaining 27.17 s).
87200000 of 110000000 tuples (79%) done (elapsed 103.41 s, remaining 27.04 s).
87300000 of 110000000 tuples (79%) done (elapsed 103.49 s, remaining 26.91 s).
87400000 of 110000000 tuples (79%) done (elapsed 103.56 s, remaining 26.78 s).
87500000 of 110000000 tuples (79%) done (elapsed 103.64 s, remaining 26.65 s).
87600000 of 110000000 tuples (79%) done (elapsed 103.71 s, remaining 26.52 s).
87700000 of 110000000 tuples (79%) done (elapsed 103.79 s, remaining 26.39 s).
87800000 of 110000000 tuples (79%) done (elapsed 105.97 s, remaining 26.80 s).
87900000 of 110000000 tuples (79%) done (elapsed 106.00 s, remaining 26.65 s).
88000000 of 110000000 tuples (80%) done (elapsed 106.47 s, remaining 26.62 s).
88100000 of 110000000 tuples (80%) done (elapsed 106.54 s, remaining 26.48 s).
88200000 of 110000000 tuples (80%) done (elapsed 106.61 s, remaining 26.35 s).
88300000 of 110000000 tuples (80%) done (elapsed 106.69 s, remaining 26.22 s).
88400000 of 110000000 tuples (80%) done (elapsed 106.76 s, remaining 26.09 s).
88500000 of 110000000 tuples (80%) done (elapsed 106.83 s, remaining 25.95 s).
88600000 of 110000000 tuples (80%) done (elapsed 106.91 s, remaining 25.82 s).
88700000 of 110000000 tuples (80%) done (elapsed 106.98 s, remaining 25.69 s).
88800000 of 110000000 tuples (80%) done (elapsed 107.05 s, remaining 25.56 s).
88900000 of 110000000 tuples (80%) done (elapsed 107.13 s, remaining 25.43 s).
89000000 of 110000000 tuples (80%) done (elapsed 107.20 s, remaining 25.29 s).
89100000 of 110000000 tuples (81%) done (elapsed 107.28 s, remaining 25.16 s).
89200000 of 110000000 tuples (81%) done (elapsed 107.35 s, remaining 25.03 s).
89300000 of 110000000 tuples (81%) done (elapsed 107.42 s, remaining 24.90 s).
89400000 of 110000000 tuples (81%) done (elapsed 107.50 s, remaining 24.77 s).
89500000 of 110000000 tuples (81%) done (elapsed 107.57 s, remaining 24.64 s).
89600000 of 110000000 tuples (81%) done (elapsed 107.65 s, remaining 24.51 s).
89700000 of 110000000 tuples (81%) done (elapsed 107.72 s, remaining 24.38 s).
89800000 of 110000000 tuples (81%) done (elapsed 107.79 s, remaining 24.25 s).
89900000 of 110000000 tuples (81%) done (elapsed 107.87 s, remaining 24.12 s).
90000000 of 110000000 tuples (81%) done (elapsed 107.94 s, remaining 23.99 s).
90100000 of 110000000 tuples (81%) done (elapsed 108.01 s, remaining 23.86 s).
90200000 of 110000000 tuples (82%) done (elapsed 108.09 s, remaining 23.73 s).
90300000 of 110000000 tuples (82%) done (elapsed 108.16 s, remaining 23.60 s).
90400000 of 110000000 tuples (82%) done (elapsed 108.24 s, remaining 23.47 s).
90500000 of 110000000 tuples (82%) done (elapsed 108.31 s, remaining 23.34 s).
90600000 of 110000000 tuples (82%) done (elapsed 108.38 s, remaining 23.21 s).
90700000 of 110000000 tuples (82%) done (elapsed 108.46 s, remaining 23.08 s).
90800000 of 110000000 tuples (82%) done (elapsed 108.53 s, remaining 22.95 s).
90900000 of 110000000 tuples (82%) done (elapsed 108.61 s, remaining 22.82 s).
91000000 of 110000000 tuples (82%) done (elapsed 108.68 s, remaining 22.69 s).
91100000 of 110000000 tuples (82%) done (elapsed 108.75 s, remaining 22.56 s).
91200000 of 110000000 tuples (82%) done (elapsed 110.18 s, remaining 22.71 s).
91300000 of 110000000 tuples (83%) done (elapsed 110.21 s, remaining 22.57 s).
91400000 of 110000000 tuples (83%) done (elapsed 110.23 s, remaining 22.43 s).
91500000 of 110000000 tuples (83%) done (elapsed 110.26 s, remaining 22.29 s).
91600000 of 110000000 tuples (83%) done (elapsed 110.33 s, remaining 22.16 s).
91700000 of 110000000 tuples (83%) done (elapsed 110.40 s, remaining 22.03 s).
91800000 of 110000000 tuples (83%) done (elapsed 110.48 s, remaining 21.90 s).
91900000 of 110000000 tuples (83%) done (elapsed 110.55 s, remaining 21.77 s).
92000000 of 110000000 tuples (83%) done (elapsed 110.63 s, remaining 21.64 s).
92100000 of 110000000 tuples (83%) done (elapsed 110.70 s, remaining 21.51 s).
92200000 of 110000000 tuples (83%) done (elapsed 110.77 s, remaining 21.39 s).
92300000 of 110000000 tuples (83%) done (elapsed 110.85 s, remaining 21.26 s).
92400000 of 110000000 tuples (84%) done (elapsed 110.92 s, remaining 21.13 s).
92500000 of 110000000 tuples (84%) done (elapsed 110.99 s, remaining 21.00 s).
92600000 of 110000000 tuples (84%) done (elapsed 111.86 s, remaining 21.02 s).
92700000 of 110000000 tuples (84%) done (elapsed 111.93 s, remaining 20.89 s).
92800000 of 110000000 tuples (84%) done (elapsed 112.00 s, remaining 20.76 s).
92900000 of 110000000 tuples (84%) done (elapsed 112.08 s, remaining 20.63 s).
93000000 of 110000000 tuples (84%) done (elapsed 112.15 s, remaining 20.50 s).
93100000 of 110000000 tuples (84%) done (elapsed 112.22 s, remaining 20.37 s).
93200000 of 110000000 tuples (84%) done (elapsed 112.30 s, remaining 20.24 s).
93300000 of 110000000 tuples (84%) done (elapsed 112.58 s, remaining 20.15 s).
93400000 of 110000000 tuples (84%) done (elapsed 112.66 s, remaining 20.02 s).
93500000 of 110000000 tuples (85%) done (elapsed 112.73 s, remaining 19.89 s).
93600000 of 110000000 tuples (85%) done (elapsed 112.80 s, remaining 19.76 s).
93700000 of 110000000 tuples (85%) done (elapsed 112.88 s, remaining 19.64 s).
93800000 of 110000000 tuples (85%) done (elapsed 112.95 s, remaining 19.51 s).
93900000 of 110000000 tuples (85%) done (elapsed 113.02 s, remaining 19.38 s).
94000000 of 110000000 tuples (85%) done (elapsed 113.10 s, remaining 19.25 s).
94100000 of 110000000 tuples (85%) done (elapsed 113.17 s, remaining 19.12 s).
94200000 of 110000000 tuples (85%) done (elapsed 113.24 s, remaining 18.99 s).
94300000 of 110000000 tuples (85%) done (elapsed 113.32 s, remaining 18.87 s).
94400000 of 110000000 tuples (85%) done (elapsed 113.39 s, remaining 18.74 s).
94500000 of 110000000 tuples (85%) done (elapsed 113.46 s, remaining 18.61 s).
94600000 of 110000000 tuples (86%) done (elapsed 113.54 s, remaining 18.48 s).
94700000 of 110000000 tuples (86%) done (elapsed 113.61 s, remaining 18.36 s).
94800000 of 110000000 tuples (86%) done (elapsed 113.69 s, remaining 18.23 s).
94900000 of 110000000 tuples (86%) done (elapsed 113.76 s, remaining 18.10 s).
95000000 of 110000000 tuples (86%) done (elapsed 113.83 s, remaining 17.97 s).
95100000 of 110000000 tuples (86%) done (elapsed 114.37 s, remaining 17.92 s).
95200000 of 110000000 tuples (86%) done (elapsed 114.39 s, remaining 17.78 s).
95300000 of 110000000 tuples (86%) done (elapsed 114.42 s, remaining 17.65 s).
95400000 of 110000000 tuples (86%) done (elapsed 114.44 s, remaining 17.51 s).
95500000 of 110000000 tuples (86%) done (elapsed 114.51 s, remaining 17.39 s).
95600000 of 110000000 tuples (86%) done (elapsed 114.59 s, remaining 17.26 s).
95700000 of 110000000 tuples (87%) done (elapsed 114.66 s, remaining 17.13 s).
95800000 of 110000000 tuples (87%) done (elapsed 114.74 s, remaining 17.01 s).
95900000 of 110000000 tuples (87%) done (elapsed 114.81 s, remaining 16.88 s).
96000000 of 110000000 tuples (87%) done (elapsed 114.88 s, remaining 16.75 s).
96100000 of 110000000 tuples (87%) done (elapsed 114.96 s, remaining 16.63 s).
96200000 of 110000000 tuples (87%) done (elapsed 115.03 s, remaining 16.50 s).
96300000 of 110000000 tuples (87%) done (elapsed 115.10 s, remaining 16.38 s).
96400000 of 110000000 tuples (87%) done (elapsed 115.18 s, remaining 16.25 s).
96500000 of 110000000 tuples (87%) done (elapsed 115.25 s, remaining 16.12 s).
96600000 of 110000000 tuples (87%) done (elapsed 115.33 s, remaining 16.00 s).
96700000 of 110000000 tuples (87%) done (elapsed 115.40 s, remaining 15.87 s).
96800000 of 110000000 tuples (88%) done (elapsed 115.47 s, remaining 15.75 s).
96900000 of 110000000 tuples (88%) done (elapsed 115.55 s, remaining 15.62 s).
97000000 of 110000000 tuples (88%) done (elapsed 115.62 s, remaining 15.50 s).
97100000 of 110000000 tuples (88%) done (elapsed 115.69 s, remaining 15.37 s).
97200000 of 110000000 tuples (88%) done (elapsed 115.77 s, remaining 15.25 s).
97300000 of 110000000 tuples (88%) done (elapsed 115.84 s, remaining 15.12 s).
97400000 of 110000000 tuples (88%) done (elapsed 115.92 s, remaining 15.00 s).
97500000 of 110000000 tuples (88%) done (elapsed 117.27 s, remaining 15.03 s).
97600000 of 110000000 tuples (88%) done (elapsed 117.34 s, remaining 14.91 s).
97700000 of 110000000 tuples (88%) done (elapsed 117.42 s, remaining 14.78 s).
97800000 of 110000000 tuples (88%) done (elapsed 117.49 s, remaining 14.66 s).
97900000 of 110000000 tuples (89%) done (elapsed 117.56 s, remaining 14.53 s).
98000000 of 110000000 tuples (89%) done (elapsed 117.64 s, remaining 14.40 s).
98100000 of 110000000 tuples (89%) done (elapsed 117.71 s, remaining 14.28 s).
98200000 of 110000000 tuples (89%) done (elapsed 117.79 s, remaining 14.15 s).
98300000 of 110000000 tuples (89%) done (elapsed 117.86 s, remaining 14.03 s).
98400000 of 110000000 tuples (89%) done (elapsed 117.93 s, remaining 13.90 s).
98500000 of 110000000 tuples (89%) done (elapsed 118.01 s, remaining 13.78 s).
98600000 of 110000000 tuples (89%) done (elapsed 118.08 s, remaining 13.65 s).
98700000 of 110000000 tuples (89%) done (elapsed 118.16 s, remaining 13.53 s).
98800000 of 110000000 tuples (89%) done (elapsed 118.23 s, remaining 13.40 s).
98900000 of 110000000 tuples (89%) done (elapsed 118.30 s, remaining 13.28 s).
99000000 of 110000000 tuples (90%) done (elapsed 118.38 s, remaining 13.15 s).
99100000 of 110000000 tuples (90%) done (elapsed 118.45 s, remaining 13.03 s).
99200000 of 110000000 tuples (90%) done (elapsed 118.52 s, remaining 12.90 s).
99300000 of 110000000 tuples (90%) done (elapsed 118.60 s, remaining 12.78 s).
99400000 of 110000000 tuples (90%) done (elapsed 118.67 s, remaining 12.66 s).
99500000 of 110000000 tuples (90%) done (elapsed 118.75 s, remaining 12.53 s).
99600000 of 110000000 tuples (90%) done (elapsed 118.82 s, remaining 12.41 s).
99700000 of 110000000 tuples (90%) done (elapsed 120.26 s, remaining 12.42 s).
99800000 of 110000000 tuples (90%) done (elapsed 120.28 s, remaining 12.29 s).
99900000 of 110000000 tuples (90%) done (elapsed 120.31 s, remaining 12.16 s).
100000000 of 110000000 tuples (90%) done (elapsed 120.33 s, remaining 12.03 s).
100100000 of 110000000 tuples (91%) done (elapsed 120.41 s, remaining 11.91 s).
100200000 of 110000000 tuples (91%) done (elapsed 120.48 s, remaining 11.78 s).
100300000 of 110000000 tuples (91%) done (elapsed 120.60 s, remaining 11.66 s).
100400000 of 110000000 tuples (91%) done (elapsed 120.67 s, remaining 11.54 s).
100500000 of 110000000 tuples (91%) done (elapsed 120.74 s, remaining 11.41 s).
100600000 of 110000000 tuples (91%) done (elapsed 120.81 s, remaining 11.29 s).
100700000 of 110000000 tuples (91%) done (elapsed 120.88 s, remaining 11.16 s).
100800000 of 110000000 tuples (91%) done (elapsed 120.95 s, remaining 11.04 s).
100900000 of 110000000 tuples (91%) done (elapsed 121.02 s, remaining 10.91 s).
101000000 of 110000000 tuples (91%) done (elapsed 121.20 s, remaining 10.80 s).
101100000 of 110000000 tuples (91%) done (elapsed 121.27 s, remaining 10.68 s).
101200000 of 110000000 tuples (92%) done (elapsed 121.34 s, remaining 10.55 s).
101300000 of 110000000 tuples (92%) done (elapsed 121.46 s, remaining 10.43 s).
101400000 of 110000000 tuples (92%) done (elapsed 121.53 s, remaining 10.31 s).
101500000 of 110000000 tuples (92%) done (elapsed 121.60 s, remaining 10.18 s).
101600000 of 110000000 tuples (92%) done (elapsed 121.67 s, remaining 10.06 s).
101700000 of 110000000 tuples (92%) done (elapsed 121.74 s, remaining 9.94 s).
101800000 of 110000000 tuples (92%) done (elapsed 121.81 s, remaining 9.81 s).
101900000 of 110000000 tuples (92%) done (elapsed 121.88 s, remaining 9.69 s).
102000000 of 110000000 tuples (92%) done (elapsed 121.96 s, remaining 9.57 s).
102100000 of 110000000 tuples (92%) done (elapsed 122.03 s, remaining 9.44 s).
102200000 of 110000000 tuples (92%) done (elapsed 122.10 s, remaining 9.32 s).
102300000 of 110000000 tuples (93%) done (elapsed 122.21 s, remaining 9.20 s).
102400000 of 110000000 tuples (93%) done (elapsed 122.28 s, remaining 9.08 s).
102500000 of 110000000 tuples (93%) done (elapsed 122.43 s, remaining 8.96 s).
102600000 of 110000000 tuples (93%) done (elapsed 122.50 s, remaining 8.84 s).
102700000 of 110000000 tuples (93%) done (elapsed 122.57 s, remaining 8.71 s).
102800000 of 110000000 tuples (93%) done (elapsed 122.64 s, remaining 8.59 s).
102900000 of 110000000 tuples (93%) done (elapsed 122.71 s, remaining 8.47 s).
103000000 of 110000000 tuples (93%) done (elapsed 122.78 s, remaining 8.34 s).
103100000 of 110000000 tuples (93%) done (elapsed 122.85 s, remaining 8.22 s).
103200000 of 110000000 tuples (93%) done (elapsed 122.92 s, remaining 8.10 s).
103300000 of 110000000 tuples (93%) done (elapsed 123.04 s, remaining 7.98 s).
103400000 of 110000000 tuples (94%) done (elapsed 123.22 s, remaining 7.86 s).
103500000 of 110000000 tuples (94%) done (elapsed 123.29 s, remaining 7.74 s).
103600000 of 110000000 tuples (94%) done (elapsed 123.36 s, remaining 7.62 s).
103700000 of 110000000 tuples (94%) done (elapsed 123.43 s, remaining 7.50 s).
103800000 of 110000000 tuples (94%) done (elapsed 123.58 s, remaining 7.38 s).
103900000 of 110000000 tuples (94%) done (elapsed 123.65 s, remaining 7.26 s).
104000000 of 110000000 tuples (94%) done (elapsed 123.72 s, remaining 7.14 s).
104100000 of 110000000 tuples (94%) done (elapsed 123.79 s, remaining 7.02 s).
104200000 of 110000000 tuples (94%) done (elapsed 123.91 s, remaining 6.90 s).
104300000 of 110000000 tuples (94%) done (elapsed 124.03 s, remaining 6.78 s).
104400000 of 110000000 tuples (94%) done (elapsed 124.93 s, remaining 6.70 s).
104500000 of 110000000 tuples (95%) done (elapsed 124.96 s, remaining 6.58 s).
104600000 of 110000000 tuples (95%) done (elapsed 124.98 s, remaining 6.45 s).
104700000 of 110000000 tuples (95%) done (elapsed 125.01 s, remaining 6.33 s).
104800000 of 110000000 tuples (95%) done (elapsed 125.12 s, remaining 6.21 s).
104900000 of 110000000 tuples (95%) done (elapsed 125.19 s, remaining 6.09 s).
105000000 of 110000000 tuples (95%) done (elapsed 125.26 s, remaining 5.96 s).
105100000 of 110000000 tuples (95%) done (elapsed 125.34 s, remaining 5.84 s).
105200000 of 110000000 tuples (95%) done (elapsed 125.41 s, remaining 5.72 s).
105300000 of 110000000 tuples (95%) done (elapsed 125.48 s, remaining 5.60 s).
105400000 of 110000000 tuples (95%) done (elapsed 125.55 s, remaining 5.48 s).
105500000 of 110000000 tuples (95%) done (elapsed 125.62 s, remaining 5.36 s).
105600000 of 110000000 tuples (96%) done (elapsed 125.69 s, remaining 5.24 s).
105700000 of 110000000 tuples (96%) done (elapsed 125.76 s, remaining 5.12 s).
105800000 of 110000000 tuples (96%) done (elapsed 125.88 s, remaining 5.00 s).
105900000 of 110000000 tuples (96%) done (elapsed 125.95 s, remaining 4.88 s).
106000000 of 110000000 tuples (96%) done (elapsed 126.02 s, remaining 4.76 s).
106100000 of 110000000 tuples (96%) done (elapsed 126.20 s, remaining 4.64 s).
106200000 of 110000000 tuples (96%) done (elapsed 126.27 s, remaining 4.52 s).
106300000 of 110000000 tuples (96%) done (elapsed 126.34 s, remaining 4.40 s).
106400000 of 110000000 tuples (96%) done (elapsed 126.41 s, remaining 4.28 s).
106500000 of 110000000 tuples (96%) done (elapsed 126.48 s, remaining 4.16 s).
106600000 of 110000000 tuples (96%) done (elapsed 126.55 s, remaining 4.04 s).
106700000 of 110000000 tuples (97%) done (elapsed 126.62 s, remaining 3.92 s).
106800000 of 110000000 tuples (97%) done (elapsed 126.74 s, remaining 3.80 s).
106900000 of 110000000 tuples (97%) done (elapsed 126.81 s, remaining 3.68 s).
107000000 of 110000000 tuples (97%) done (elapsed 126.88 s, remaining 3.56 s).
107100000 of 110000000 tuples (97%) done (elapsed 126.95 s, remaining 3.44 s).
107200000 of 110000000 tuples (97%) done (elapsed 127.02 s, remaining 3.32 s).
107300000 of 110000000 tuples (97%) done (elapsed 127.09 s, remaining 3.20 s).
107400000 of 110000000 tuples (97%) done (elapsed 127.16 s, remaining 3.08 s).
107500000 of 110000000 tuples (97%) done (elapsed 127.24 s, remaining 2.96 s).
107600000 of 110000000 tuples (97%) done (elapsed 127.31 s, remaining 2.84 s).
107700000 of 110000000 tuples (97%) done (elapsed 127.38 s, remaining 2.72 s).
107800000 of 110000000 tuples (98%) done (elapsed 127.49 s, remaining 2.60 s).
107900000 of 110000000 tuples (98%) done (elapsed 127.56 s, remaining 2.48 s).
108000000 of 110000000 tuples (98%) done (elapsed 128.12 s, remaining 2.37 s).
108100000 of 110000000 tuples (98%) done (elapsed 128.19 s, remaining 2.25 s).
108200000 of 110000000 tuples (98%) done (elapsed 128.26 s, remaining 2.13 s).
108300000 of 110000000 tuples (98%) done (elapsed 128.33 s, remaining 2.01 s).
108400000 of 110000000 tuples (98%) done (elapsed 128.40 s, remaining 1.90 s).
108500000 of 110000000 tuples (98%) done (elapsed 128.47 s, remaining 1.78 s).
108600000 of 110000000 tuples (98%) done (elapsed 128.54 s, remaining 1.66 s).
108700000 of 110000000 tuples (98%) done (elapsed 128.61 s, remaining 1.54 s).
108800000 of 110000000 tuples (98%) done (elapsed 128.73 s, remaining 1.42 s).
108900000 of 110000000 tuples (99%) done (elapsed 128.80 s, remaining 1.30 s).
109000000 of 110000000 tuples (99%) done (elapsed 128.87 s, remaining 1.18 s).
109100000 of 110000000 tuples (99%) done (elapsed 128.94 s, remaining 1.06 s).
109200000 of 110000000 tuples (99%) done (elapsed 130.28 s, remaining 0.95 s).
109300000 of 110000000 tuples (99%) done (elapsed 130.31 s, remaining 0.83 s).
109400000 of 110000000 tuples (99%) done (elapsed 130.33 s, remaining 0.71 s).
109500000 of 110000000 tuples (99%) done (elapsed 130.36 s, remaining 0.60 s).
109600000 of 110000000 tuples (99%) done (elapsed 130.48 s, remaining 0.48 s).
109700000 of 110000000 tuples (99%) done (elapsed 130.55 s, remaining 0.36 s).
109800000 of 110000000 tuples (99%) done (elapsed 130.62 s, remaining 0.24 s).
109900000 of 110000000 tuples (99%) done (elapsed 130.69 s, remaining 0.12 s).
110000000 of 110000000 tuples (100%) done (elapsed 130.76 s, remaining 0.00 s).
vacuum...
set primary keys...
done.
