type,scale,1,2,4,8,16
ro,small,15007,29744,53847,53716,52991
ro,large,4617,10479,19374,29726,36598
ro,medium,14174,28296,51066,51124,50391
rw,small,1611,3074,4915,6514,7089
rw,large,937,1220,1617,2394,3447
rw,medium,1480,2656,4124,5389,5837
