CHECKPOINT
transaction type: SELECT only
scaling factor: 10
query mode: simple
number of clients: 1
number of threads: 1
duration: 1800 s
number of transactions actually processed: 27096891
latency average: 0.066 ms
tps = 15053.827372 (including connections establishing)
tps = 15053.837433 (excluding connections establishing)
