CHECKPOINT
transaction type: SELECT only
scaling factor: 10
query mode: simple
number of clients: 4
number of threads: 4
duration: 1800 s
number of transactions actually processed: 97595515
latency average: 0.074 ms
tps = 54219.726308 (including connections establishing)
tps = 54219.768848 (excluding connections establishing)
