NOTICE:  table "pgbench_history" does not exist, skipping
NOTICE:  table "pgbench_tellers" does not exist, skipping
NOTICE:  table "pgbench_accounts" does not exist, skipping
NOTICE:  table "pgbench_branches" does not exist, skipping
creating tables...
100000 of 110000000 tuples (0%) done (elapsed 0.02 s, remaining 26.10 s).
200000 of 110000000 tuples (0%) done (elapsed 0.05 s, remaining 26.13 s).
300000 of 110000000 tuples (0%) done (elapsed 0.07 s, remaining 25.93 s).
400000 of 110000000 tuples (0%) done (elapsed 0.09 s, remaining 25.82 s).
500000 of 110000000 tuples (0%) done (elapsed 0.19 s, remaining 41.38 s).
600000 of 110000000 tuples (0%) done (elapsed 0.25 s, remaining 45.35 s).
700000 of 110000000 tuples (0%) done (elapsed 0.31 s, remaining 48.17 s).
800000 of 110000000 tuples (0%) done (elapsed 0.41 s, remaining 55.37 s).
900000 of 110000000 tuples (0%) done (elapsed 0.47 s, remaining 56.51 s).
1000000 of 110000000 tuples (0%) done (elapsed 0.53 s, remaining 57.49 s).
1100000 of 110000000 tuples (1%) done (elapsed 0.62 s, remaining 61.76 s).
1200000 of 110000000 tuples (1%) done (elapsed 0.68 s, remaining 61.92 s).
1300000 of 110000000 tuples (1%) done (elapsed 0.78 s, remaining 64.86 s).
1400000 of 110000000 tuples (1%) done (elapsed 0.83 s, remaining 64.70 s).
1500000 of 110000000 tuples (1%) done (elapsed 0.93 s, remaining 67.10 s).
1600000 of 110000000 tuples (1%) done (elapsed 0.99 s, remaining 66.78 s).
1700000 of 110000000 tuples (1%) done (elapsed 1.08 s, remaining 68.69 s).
1800000 of 110000000 tuples (1%) done (elapsed 1.14 s, remaining 68.31 s).
1900000 of 110000000 tuples (1%) done (elapsed 1.19 s, remaining 67.97 s).
2000000 of 110000000 tuples (1%) done (elapsed 1.29 s, remaining 69.52 s).
2100000 of 110000000 tuples (1%) done (elapsed 1.34 s, remaining 69.09 s).
2200000 of 110000000 tuples (2%) done (elapsed 1.44 s, remaining 70.44 s).
2300000 of 110000000 tuples (2%) done (elapsed 1.50 s, remaining 70.04 s).
2400000 of 110000000 tuples (2%) done (elapsed 1.59 s, remaining 71.17 s).
2500000 of 110000000 tuples (2%) done (elapsed 1.65 s, remaining 70.77 s).
2600000 of 110000000 tuples (2%) done (elapsed 1.74 s, remaining 71.80 s).
2700000 of 110000000 tuples (2%) done (elapsed 1.80 s, remaining 71.37 s).
2800000 of 110000000 tuples (2%) done (elapsed 1.89 s, remaining 72.27 s).
2900000 of 110000000 tuples (2%) done (elapsed 1.95 s, remaining 71.87 s).
3000000 of 110000000 tuples (2%) done (elapsed 2.04 s, remaining 72.71 s).
3100000 of 110000000 tuples (2%) done (elapsed 2.10 s, remaining 72.30 s).
3200000 of 110000000 tuples (2%) done (elapsed 2.15 s, remaining 71.91 s).
3300000 of 110000000 tuples (3%) done (elapsed 2.25 s, remaining 72.63 s).
3400000 of 110000000 tuples (3%) done (elapsed 2.30 s, remaining 72.26 s).
3500000 of 110000000 tuples (3%) done (elapsed 2.40 s, remaining 72.94 s).
3600000 of 110000000 tuples (3%) done (elapsed 2.47 s, remaining 73.07 s).
3700000 of 110000000 tuples (3%) done (elapsed 2.53 s, remaining 72.68 s).
3800000 of 110000000 tuples (3%) done (elapsed 2.62 s, remaining 73.25 s).
3900000 of 110000000 tuples (3%) done (elapsed 2.68 s, remaining 72.88 s).
4000000 of 110000000 tuples (3%) done (elapsed 2.77 s, remaining 73.43 s).
4100000 of 110000000 tuples (3%) done (elapsed 2.83 s, remaining 73.09 s).
4200000 of 110000000 tuples (3%) done (elapsed 2.92 s, remaining 73.59 s).
4300000 of 110000000 tuples (3%) done (elapsed 2.98 s, remaining 73.23 s).
4400000 of 110000000 tuples (4%) done (elapsed 3.04 s, remaining 72.89 s).
4500000 of 110000000 tuples (4%) done (elapsed 3.13 s, remaining 73.36 s).
4600000 of 110000000 tuples (4%) done (elapsed 3.19 s, remaining 73.04 s).
4700000 of 110000000 tuples (4%) done (elapsed 3.28 s, remaining 73.48 s).
4800000 of 110000000 tuples (4%) done (elapsed 3.34 s, remaining 73.12 s).
4900000 of 110000000 tuples (4%) done (elapsed 3.43 s, remaining 73.53 s).
5000000 of 110000000 tuples (4%) done (elapsed 3.49 s, remaining 73.21 s).
5100000 of 110000000 tuples (4%) done (elapsed 3.58 s, remaining 73.61 s).
5200000 of 110000000 tuples (4%) done (elapsed 3.64 s, remaining 73.27 s).
5300000 of 110000000 tuples (4%) done (elapsed 3.73 s, remaining 73.66 s).
5400000 of 110000000 tuples (4%) done (elapsed 3.79 s, remaining 73.34 s).
5500000 of 110000000 tuples (5%) done (elapsed 3.84 s, remaining 73.04 s).
5600000 of 110000000 tuples (5%) done (elapsed 3.94 s, remaining 73.37 s).
5700000 of 110000000 tuples (5%) done (elapsed 3.99 s, remaining 73.07 s).
5800000 of 110000000 tuples (5%) done (elapsed 4.09 s, remaining 73.40 s).
5900000 of 110000000 tuples (5%) done (elapsed 4.14 s, remaining 73.11 s).
6000000 of 110000000 tuples (5%) done (elapsed 4.24 s, remaining 73.42 s).
6100000 of 110000000 tuples (5%) done (elapsed 4.29 s, remaining 73.14 s).
6200000 of 110000000 tuples (5%) done (elapsed 4.39 s, remaining 73.43 s).
6300000 of 110000000 tuples (5%) done (elapsed 4.44 s, remaining 73.15 s).
6400000 of 110000000 tuples (5%) done (elapsed 4.54 s, remaining 73.42 s).
6500000 of 110000000 tuples (5%) done (elapsed 4.59 s, remaining 73.15 s).
6600000 of 110000000 tuples (6%) done (elapsed 4.65 s, remaining 72.87 s).
6700000 of 110000000 tuples (6%) done (elapsed 4.74 s, remaining 73.13 s).
6800000 of 110000000 tuples (6%) done (elapsed 4.80 s, remaining 72.87 s).
6900000 of 110000000 tuples (6%) done (elapsed 4.89 s, remaining 73.11 s).
7000000 of 110000000 tuples (6%) done (elapsed 4.95 s, remaining 72.85 s).
7100000 of 110000000 tuples (6%) done (elapsed 5.04 s, remaining 73.08 s).
7200000 of 110000000 tuples (6%) done (elapsed 5.10 s, remaining 72.82 s).
7300000 of 110000000 tuples (6%) done (elapsed 5.19 s, remaining 73.05 s).
7400000 of 110000000 tuples (6%) done (elapsed 5.25 s, remaining 72.79 s).
7500000 of 110000000 tuples (6%) done (elapsed 5.34 s, remaining 73.00 s).
7600000 of 110000000 tuples (6%) done (elapsed 5.40 s, remaining 72.75 s).
7700000 of 110000000 tuples (7%) done (elapsed 5.46 s, remaining 72.50 s).
7800000 of 110000000 tuples (7%) done (elapsed 5.55 s, remaining 72.70 s).
7900000 of 110000000 tuples (7%) done (elapsed 5.61 s, remaining 72.46 s).
8000000 of 110000000 tuples (7%) done (elapsed 5.70 s, remaining 72.65 s).
8100000 of 110000000 tuples (7%) done (elapsed 5.76 s, remaining 72.40 s).
8200000 of 110000000 tuples (7%) done (elapsed 5.85 s, remaining 72.59 s).
8300000 of 110000000 tuples (7%) done (elapsed 5.90 s, remaining 72.35 s).
8400000 of 110000000 tuples (7%) done (elapsed 6.00 s, remaining 72.54 s).
8500000 of 110000000 tuples (7%) done (elapsed 6.06 s, remaining 72.31 s).
8600000 of 110000000 tuples (7%) done (elapsed 6.15 s, remaining 72.48 s).
8700000 of 110000000 tuples (7%) done (elapsed 6.21 s, remaining 72.26 s).
8800000 of 110000000 tuples (8%) done (elapsed 6.27 s, remaining 72.06 s).
8900000 of 110000000 tuples (8%) done (elapsed 6.36 s, remaining 72.24 s).
9000000 of 110000000 tuples (8%) done (elapsed 6.42 s, remaining 72.02 s).
9100000 of 110000000 tuples (8%) done (elapsed 6.51 s, remaining 72.20 s).
9200000 of 110000000 tuples (8%) done (elapsed 6.57 s, remaining 71.98 s).
9300000 of 110000000 tuples (8%) done (elapsed 6.66 s, remaining 72.16 s).
9400000 of 110000000 tuples (8%) done (elapsed 6.73 s, remaining 71.99 s).
9500000 of 110000000 tuples (8%) done (elapsed 6.82 s, remaining 72.15 s).
9600000 of 110000000 tuples (8%) done (elapsed 6.88 s, remaining 71.94 s).
9700000 of 110000000 tuples (8%) done (elapsed 6.97 s, remaining 72.09 s).
9800000 of 110000000 tuples (8%) done (elapsed 7.03 s, remaining 71.88 s).
9900000 of 110000000 tuples (9%) done (elapsed 7.12 s, remaining 72.02 s).
10000000 of 110000000 tuples (9%) done (elapsed 7.18 s, remaining 71.80 s).
10100000 of 110000000 tuples (9%) done (elapsed 7.27 s, remaining 71.93 s).
10200000 of 110000000 tuples (9%) done (elapsed 7.36 s, remaining 72.03 s).
10300000 of 110000000 tuples (9%) done (elapsed 7.70 s, remaining 74.51 s).
10400000 of 110000000 tuples (9%) done (elapsed 7.72 s, remaining 73.96 s).
10500000 of 110000000 tuples (9%) done (elapsed 7.75 s, remaining 73.42 s).
10600000 of 110000000 tuples (9%) done (elapsed 7.83 s, remaining 73.47 s).
10700000 of 110000000 tuples (9%) done (elapsed 7.89 s, remaining 73.23 s).
10800000 of 110000000 tuples (9%) done (elapsed 7.98 s, remaining 73.28 s).
10900000 of 110000000 tuples (9%) done (elapsed 8.07 s, remaining 73.33 s).
11000000 of 110000000 tuples (10%) done (elapsed 8.12 s, remaining 73.10 s).
11100000 of 110000000 tuples (10%) done (elapsed 8.21 s, remaining 73.14 s).
11200000 of 110000000 tuples (10%) done (elapsed 8.27 s, remaining 72.91 s).
11300000 of 110000000 tuples (10%) done (elapsed 8.35 s, remaining 72.96 s).
11400000 of 110000000 tuples (10%) done (elapsed 8.44 s, remaining 73.00 s).
11500000 of 110000000 tuples (10%) done (elapsed 8.50 s, remaining 72.78 s).
11600000 of 110000000 tuples (10%) done (elapsed 8.58 s, remaining 72.81 s).
11700000 of 110000000 tuples (10%) done (elapsed 8.64 s, remaining 72.59 s).
11800000 of 110000000 tuples (10%) done (elapsed 8.73 s, remaining 72.63 s).
11900000 of 110000000 tuples (10%) done (elapsed 8.82 s, remaining 72.67 s).
12000000 of 110000000 tuples (10%) done (elapsed 8.87 s, remaining 72.45 s).
12100000 of 110000000 tuples (11%) done (elapsed 8.96 s, remaining 72.49 s).
12200000 of 110000000 tuples (11%) done (elapsed 9.02 s, remaining 72.27 s).
12300000 of 110000000 tuples (11%) done (elapsed 9.10 s, remaining 72.31 s).
12400000 of 110000000 tuples (11%) done (elapsed 9.19 s, remaining 72.34 s).
12500000 of 110000000 tuples (11%) done (elapsed 9.25 s, remaining 72.12 s).
12600000 of 110000000 tuples (11%) done (elapsed 9.33 s, remaining 72.16 s).
12700000 of 110000000 tuples (11%) done (elapsed 9.39 s, remaining 71.95 s).
12800000 of 110000000 tuples (11%) done (elapsed 9.50 s, remaining 72.12 s).
12900000 of 110000000 tuples (11%) done (elapsed 9.60 s, remaining 72.25 s).
13000000 of 110000000 tuples (11%) done (elapsed 9.70 s, remaining 72.39 s).
13100000 of 110000000 tuples (11%) done (elapsed 9.83 s, remaining 72.69 s).
13200000 of 110000000 tuples (12%) done (elapsed 9.95 s, remaining 72.98 s).
13300000 of 110000000 tuples (12%) done (elapsed 10.08 s, remaining 73.26 s).
13400000 of 110000000 tuples (12%) done (elapsed 10.20 s, remaining 73.51 s).
13500000 of 110000000 tuples (12%) done (elapsed 10.32 s, remaining 73.77 s).
13600000 of 110000000 tuples (12%) done (elapsed 10.40 s, remaining 73.72 s).
13700000 of 110000000 tuples (12%) done (elapsed 10.53 s, remaining 74.01 s).
13800000 of 110000000 tuples (12%) done (elapsed 10.67 s, remaining 74.37 s).
13900000 of 110000000 tuples (12%) done (elapsed 10.81 s, remaining 74.73 s).
14000000 of 110000000 tuples (12%) done (elapsed 10.95 s, remaining 75.07 s).
14100000 of 110000000 tuples (12%) done (elapsed 11.09 s, remaining 75.42 s).
14200000 of 110000000 tuples (12%) done (elapsed 11.28 s, remaining 76.13 s).
14300000 of 110000000 tuples (13%) done (elapsed 11.42 s, remaining 76.46 s).
14400000 of 110000000 tuples (13%) done (elapsed 11.51 s, remaining 76.39 s).
14500000 of 110000000 tuples (13%) done (elapsed 11.64 s, remaining 76.66 s).
14600000 of 110000000 tuples (13%) done (elapsed 11.77 s, remaining 76.92 s).
14700000 of 110000000 tuples (13%) done (elapsed 11.86 s, remaining 76.87 s).
14800000 of 110000000 tuples (13%) done (elapsed 11.91 s, remaining 76.63 s).
14900000 of 110000000 tuples (13%) done (elapsed 12.00 s, remaining 76.58 s).
15000000 of 110000000 tuples (13%) done (elapsed 12.11 s, remaining 76.72 s).
15100000 of 110000000 tuples (13%) done (elapsed 12.23 s, remaining 76.88 s).
15200000 of 110000000 tuples (13%) done (elapsed 12.29 s, remaining 76.63 s).
15300000 of 110000000 tuples (13%) done (elapsed 12.37 s, remaining 76.58 s).
15400000 of 110000000 tuples (14%) done (elapsed 12.43 s, remaining 76.38 s).
15500000 of 110000000 tuples (14%) done (elapsed 12.86 s, remaining 78.38 s).
15600000 of 110000000 tuples (14%) done (elapsed 12.88 s, remaining 77.95 s).
15700000 of 110000000 tuples (14%) done (elapsed 12.91 s, remaining 77.51 s).
15800000 of 110000000 tuples (14%) done (elapsed 12.99 s, remaining 77.45 s).
15900000 of 110000000 tuples (14%) done (elapsed 13.05 s, remaining 77.21 s).
16000000 of 110000000 tuples (14%) done (elapsed 13.13 s, remaining 77.15 s).
16100000 of 110000000 tuples (14%) done (elapsed 13.21 s, remaining 77.06 s).
16200000 of 110000000 tuples (14%) done (elapsed 13.27 s, remaining 76.82 s).
16300000 of 110000000 tuples (14%) done (elapsed 13.35 s, remaining 76.75 s).
16400000 of 110000000 tuples (14%) done (elapsed 13.41 s, remaining 76.51 s).
16500000 of 110000000 tuples (15%) done (elapsed 13.49 s, remaining 76.45 s).
16600000 of 110000000 tuples (15%) done (elapsed 13.58 s, remaining 76.39 s).
16700000 of 110000000 tuples (15%) done (elapsed 13.63 s, remaining 76.16 s).
16800000 of 110000000 tuples (15%) done (elapsed 13.72 s, remaining 76.10 s).
16900000 of 110000000 tuples (15%) done (elapsed 13.80 s, remaining 76.03 s).
17000000 of 110000000 tuples (15%) done (elapsed 16.34 s, remaining 89.41 s).
17100000 of 110000000 tuples (15%) done (elapsed 16.43 s, remaining 89.26 s).
17200000 of 110000000 tuples (15%) done (elapsed 16.52 s, remaining 89.12 s).
17300000 of 110000000 tuples (15%) done (elapsed 16.57 s, remaining 88.80 s).
17400000 of 110000000 tuples (15%) done (elapsed 16.66 s, remaining 88.66 s).
17500000 of 110000000 tuples (15%) done (elapsed 16.72 s, remaining 88.35 s).
17600000 of 110000000 tuples (16%) done (elapsed 16.80 s, remaining 88.21 s).
17700000 of 110000000 tuples (16%) done (elapsed 16.89 s, remaining 88.07 s).
17800000 of 110000000 tuples (16%) done (elapsed 16.95 s, remaining 87.77 s).
17900000 of 110000000 tuples (16%) done (elapsed 17.03 s, remaining 87.64 s).
18000000 of 110000000 tuples (16%) done (elapsed 17.09 s, remaining 87.34 s).
18100000 of 110000000 tuples (16%) done (elapsed 17.18 s, remaining 87.21 s).
18200000 of 110000000 tuples (16%) done (elapsed 17.26 s, remaining 87.08 s).
18300000 of 110000000 tuples (16%) done (elapsed 17.32 s, remaining 86.79 s).
18400000 of 110000000 tuples (16%) done (elapsed 17.41 s, remaining 86.66 s).
18500000 of 110000000 tuples (16%) done (elapsed 17.50 s, remaining 86.53 s).
18600000 of 110000000 tuples (16%) done (elapsed 17.94 s, remaining 88.18 s).
18700000 of 110000000 tuples (17%) done (elapsed 17.97 s, remaining 87.73 s).
18800000 of 110000000 tuples (17%) done (elapsed 17.99 s, remaining 87.29 s).
18900000 of 110000000 tuples (17%) done (elapsed 18.08 s, remaining 87.15 s).
19000000 of 110000000 tuples (17%) done (elapsed 18.15 s, remaining 86.92 s).
19100000 of 110000000 tuples (17%) done (elapsed 18.26 s, remaining 86.90 s).
19200000 of 110000000 tuples (17%) done (elapsed 18.37 s, remaining 86.90 s).
19300000 of 110000000 tuples (17%) done (elapsed 18.50 s, remaining 86.93 s).
19400000 of 110000000 tuples (17%) done (elapsed 18.63 s, remaining 87.01 s).
19500000 of 110000000 tuples (17%) done (elapsed 18.76 s, remaining 87.07 s).
19600000 of 110000000 tuples (17%) done (elapsed 18.90 s, remaining 87.17 s).
19700000 of 110000000 tuples (17%) done (elapsed 19.05 s, remaining 87.31 s).
19800000 of 110000000 tuples (18%) done (elapsed 19.20 s, remaining 87.46 s).
19900000 of 110000000 tuples (18%) done (elapsed 19.34 s, remaining 87.58 s).
20000000 of 110000000 tuples (18%) done (elapsed 19.50 s, remaining 87.74 s).
20100000 of 110000000 tuples (18%) done (elapsed 19.65 s, remaining 87.88 s).
20200000 of 110000000 tuples (18%) done (elapsed 19.81 s, remaining 88.07 s).
20300000 of 110000000 tuples (18%) done (elapsed 19.98 s, remaining 88.27 s).
20400000 of 110000000 tuples (18%) done (elapsed 20.15 s, remaining 88.49 s).
20500000 of 110000000 tuples (18%) done (elapsed 20.32 s, remaining 88.71 s).
20600000 of 110000000 tuples (18%) done (elapsed 20.43 s, remaining 88.66 s).
20700000 of 110000000 tuples (18%) done (elapsed 20.57 s, remaining 88.75 s).
20800000 of 110000000 tuples (18%) done (elapsed 20.74 s, remaining 88.93 s).
20900000 of 110000000 tuples (19%) done (elapsed 20.84 s, remaining 88.84 s).
21000000 of 110000000 tuples (19%) done (elapsed 20.90 s, remaining 88.57 s).
21100000 of 110000000 tuples (19%) done (elapsed 21.00 s, remaining 88.48 s).
21200000 of 110000000 tuples (19%) done (elapsed 21.10 s, remaining 88.36 s).
21300000 of 110000000 tuples (19%) done (elapsed 21.16 s, remaining 88.10 s).
21400000 of 110000000 tuples (19%) done (elapsed 21.26 s, remaining 88.00 s).
21500000 of 110000000 tuples (19%) done (elapsed 21.36 s, remaining 87.91 s).
21600000 of 110000000 tuples (19%) done (elapsed 21.42 s, remaining 87.68 s).
21700000 of 110000000 tuples (19%) done (elapsed 21.52 s, remaining 87.58 s).
21800000 of 110000000 tuples (19%) done (elapsed 21.63 s, remaining 87.51 s).
21900000 of 110000000 tuples (19%) done (elapsed 21.70 s, remaining 87.29 s).
22000000 of 110000000 tuples (20%) done (elapsed 21.81 s, remaining 87.25 s).
22100000 of 110000000 tuples (20%) done (elapsed 21.88 s, remaining 87.03 s).
22200000 of 110000000 tuples (20%) done (elapsed 22.00 s, remaining 86.99 s).
22300000 of 110000000 tuples (20%) done (elapsed 22.11 s, remaining 86.95 s).
22400000 of 110000000 tuples (20%) done (elapsed 22.18 s, remaining 86.74 s).
22500000 of 110000000 tuples (20%) done (elapsed 22.29 s, remaining 86.70 s).
22600000 of 110000000 tuples (20%) done (elapsed 22.41 s, remaining 86.65 s).
22700000 of 110000000 tuples (20%) done (elapsed 22.48 s, remaining 86.44 s).
22800000 of 110000000 tuples (20%) done (elapsed 22.59 s, remaining 86.40 s).
22900000 of 110000000 tuples (20%) done (elapsed 22.79 s, remaining 86.69 s).
23000000 of 110000000 tuples (20%) done (elapsed 22.82 s, remaining 86.30 s).
23100000 of 110000000 tuples (21%) done (elapsed 22.85 s, remaining 85.94 s).
23200000 of 110000000 tuples (21%) done (elapsed 22.94 s, remaining 85.82 s).
23300000 of 110000000 tuples (21%) done (elapsed 23.03 s, remaining 85.70 s).
23400000 of 110000000 tuples (21%) done (elapsed 23.13 s, remaining 85.59 s).
23500000 of 110000000 tuples (21%) done (elapsed 23.22 s, remaining 85.48 s).
23600000 of 110000000 tuples (21%) done (elapsed 23.32 s, remaining 85.39 s).
23700000 of 110000000 tuples (21%) done (elapsed 23.42 s, remaining 85.27 s).
23800000 of 110000000 tuples (21%) done (elapsed 23.58 s, remaining 85.42 s).
23900000 of 110000000 tuples (21%) done (elapsed 23.69 s, remaining 85.33 s).
24000000 of 110000000 tuples (21%) done (elapsed 23.79 s, remaining 85.23 s).
24100000 of 110000000 tuples (21%) done (elapsed 23.89 s, remaining 85.14 s).
24200000 of 110000000 tuples (22%) done (elapsed 23.99 s, remaining 85.04 s).
24300000 of 110000000 tuples (22%) done (elapsed 24.16 s, remaining 85.22 s).
24400000 of 110000000 tuples (22%) done (elapsed 24.26 s, remaining 85.12 s).
24500000 of 110000000 tuples (22%) done (elapsed 24.36 s, remaining 85.03 s).
24600000 of 110000000 tuples (22%) done (elapsed 24.47 s, remaining 84.93 s).
24700000 of 110000000 tuples (22%) done (elapsed 24.64 s, remaining 85.10 s).
24800000 of 110000000 tuples (22%) done (elapsed 24.74 s, remaining 85.00 s).
24900000 of 110000000 tuples (22%) done (elapsed 24.84 s, remaining 84.91 s).
25000000 of 110000000 tuples (22%) done (elapsed 24.95 s, remaining 84.81 s).
25100000 of 110000000 tuples (22%) done (elapsed 25.05 s, remaining 84.72 s).
25200000 of 110000000 tuples (22%) done (elapsed 25.22 s, remaining 84.88 s).
25300000 of 110000000 tuples (23%) done (elapsed 25.33 s, remaining 84.79 s).
25400000 of 110000000 tuples (23%) done (elapsed 25.43 s, remaining 84.69 s).
25500000 of 110000000 tuples (23%) done (elapsed 25.53 s, remaining 84.60 s).
25600000 of 110000000 tuples (23%) done (elapsed 25.72 s, remaining 84.80 s).
25700000 of 110000000 tuples (23%) done (elapsed 25.82 s, remaining 84.70 s).
25800000 of 110000000 tuples (23%) done (elapsed 25.93 s, remaining 84.61 s).
25900000 of 110000000 tuples (23%) done (elapsed 26.03 s, remaining 84.53 s).
26000000 of 110000000 tuples (23%) done (elapsed 26.22 s, remaining 84.72 s).
26100000 of 110000000 tuples (23%) done (elapsed 26.33 s, remaining 84.65 s).
26200000 of 110000000 tuples (23%) done (elapsed 26.43 s, remaining 84.55 s).
26300000 of 110000000 tuples (23%) done (elapsed 26.54 s, remaining 84.46 s).
26400000 of 110000000 tuples (24%) done (elapsed 26.74 s, remaining 84.68 s).
26500000 of 110000000 tuples (24%) done (elapsed 26.86 s, remaining 84.63 s).
26600000 of 110000000 tuples (24%) done (elapsed 27.32 s, remaining 85.67 s).
26700000 of 110000000 tuples (24%) done (elapsed 27.35 s, remaining 85.32 s).
26800000 of 110000000 tuples (24%) done (elapsed 27.37 s, remaining 84.98 s).
26900000 of 110000000 tuples (24%) done (elapsed 27.40 s, remaining 84.64 s).
27000000 of 110000000 tuples (24%) done (elapsed 27.47 s, remaining 84.45 s).
27100000 of 110000000 tuples (24%) done (elapsed 27.59 s, remaining 84.40 s).
27200000 of 110000000 tuples (24%) done (elapsed 27.80 s, remaining 84.61 s).
27300000 of 110000000 tuples (24%) done (elapsed 27.92 s, remaining 84.56 s).
27400000 of 110000000 tuples (24%) done (elapsed 28.38 s, remaining 85.56 s).
27500000 of 110000000 tuples (25%) done (elapsed 28.41 s, remaining 85.22 s).
27600000 of 110000000 tuples (25%) done (elapsed 28.43 s, remaining 84.88 s).
27700000 of 110000000 tuples (25%) done (elapsed 28.46 s, remaining 84.55 s).
27800000 of 110000000 tuples (25%) done (elapsed 28.57 s, remaining 84.47 s).
27900000 of 110000000 tuples (25%) done (elapsed 28.69 s, remaining 84.41 s).
28000000 of 110000000 tuples (25%) done (elapsed 28.90 s, remaining 84.65 s).
28100000 of 110000000 tuples (25%) done (elapsed 29.03 s, remaining 84.60 s).
28200000 of 110000000 tuples (25%) done (elapsed 29.15 s, remaining 84.55 s).
28300000 of 110000000 tuples (25%) done (elapsed 29.27 s, remaining 84.50 s).
28400000 of 110000000 tuples (25%) done (elapsed 29.39 s, remaining 84.44 s).
28500000 of 110000000 tuples (25%) done (elapsed 29.61 s, remaining 84.67 s).
28600000 of 110000000 tuples (26%) done (elapsed 29.73 s, remaining 84.60 s).
28700000 of 110000000 tuples (26%) done (elapsed 29.84 s, remaining 84.52 s).
28800000 of 110000000 tuples (26%) done (elapsed 29.95 s, remaining 84.45 s).
28900000 of 110000000 tuples (26%) done (elapsed 30.17 s, remaining 84.67 s).
29000000 of 110000000 tuples (26%) done (elapsed 30.29 s, remaining 84.61 s).
29100000 of 110000000 tuples (26%) done (elapsed 30.42 s, remaining 84.56 s).
29200000 of 110000000 tuples (26%) done (elapsed 30.54 s, remaining 84.50 s).
29300000 of 110000000 tuples (26%) done (elapsed 30.76 s, remaining 84.71 s).
29400000 of 110000000 tuples (26%) done (elapsed 30.88 s, remaining 84.65 s).
29500000 of 110000000 tuples (26%) done (elapsed 31.00 s, remaining 84.60 s).
29600000 of 110000000 tuples (26%) done (elapsed 31.12 s, remaining 84.54 s).
29700000 of 110000000 tuples (27%) done (elapsed 31.34 s, remaining 84.74 s).
29800000 of 110000000 tuples (27%) done (elapsed 31.47 s, remaining 84.68 s).
29900000 of 110000000 tuples (27%) done (elapsed 31.59 s, remaining 84.62 s).
30000000 of 110000000 tuples (27%) done (elapsed 31.71 s, remaining 84.56 s).
30100000 of 110000000 tuples (27%) done (elapsed 31.93 s, remaining 84.76 s).
30200000 of 110000000 tuples (27%) done (elapsed 32.05 s, remaining 84.70 s).
30300000 of 110000000 tuples (27%) done (elapsed 32.18 s, remaining 84.63 s).
30400000 of 110000000 tuples (27%) done (elapsed 32.40 s, remaining 84.83 s).
30500000 of 110000000 tuples (27%) done (elapsed 32.52 s, remaining 84.77 s).
30600000 of 110000000 tuples (27%) done (elapsed 32.64 s, remaining 84.70 s).
30700000 of 110000000 tuples (27%) done (elapsed 32.77 s, remaining 84.63 s).
30800000 of 110000000 tuples (28%) done (elapsed 33.01 s, remaining 84.87 s).
30900000 of 110000000 tuples (28%) done (elapsed 33.48 s, remaining 85.71 s).
31000000 of 110000000 tuples (28%) done (elapsed 33.51 s, remaining 85.39 s).
31100000 of 110000000 tuples (28%) done (elapsed 33.53 s, remaining 85.07 s).
31200000 of 110000000 tuples (28%) done (elapsed 33.56 s, remaining 84.75 s).
31300000 of 110000000 tuples (28%) done (elapsed 33.79 s, remaining 84.97 s).
31400000 of 110000000 tuples (28%) done (elapsed 33.93 s, remaining 84.93 s).
31500000 of 110000000 tuples (28%) done (elapsed 34.06 s, remaining 84.87 s).
31600000 of 110000000 tuples (28%) done (elapsed 34.19 s, remaining 84.82 s).
31700000 of 110000000 tuples (28%) done (elapsed 34.32 s, remaining 84.77 s).
31800000 of 110000000 tuples (28%) done (elapsed 34.57 s, remaining 85.00 s).
31900000 of 110000000 tuples (29%) done (elapsed 34.70 s, remaining 84.95 s).
32000000 of 110000000 tuples (29%) done (elapsed 34.83 s, remaining 84.91 s).
32100000 of 110000000 tuples (29%) done (elapsed 34.97 s, remaining 84.86 s).
32200000 of 110000000 tuples (29%) done (elapsed 35.21 s, remaining 85.08 s).
32300000 of 110000000 tuples (29%) done (elapsed 35.35 s, remaining 85.03 s).
32400000 of 110000000 tuples (29%) done (elapsed 35.48 s, remaining 84.98 s).
32500000 of 110000000 tuples (29%) done (elapsed 35.62 s, remaining 84.93 s).
32600000 of 110000000 tuples (29%) done (elapsed 35.85 s, remaining 85.13 s).
32700000 of 110000000 tuples (29%) done (elapsed 35.98 s, remaining 85.07 s).
32800000 of 110000000 tuples (29%) done (elapsed 36.12 s, remaining 85.01 s).
32900000 of 110000000 tuples (29%) done (elapsed 36.25 s, remaining 84.94 s).
33000000 of 110000000 tuples (30%) done (elapsed 36.37 s, remaining 84.87 s).
33100000 of 110000000 tuples (30%) done (elapsed 36.61 s, remaining 85.04 s).
33200000 of 110000000 tuples (30%) done (elapsed 36.73 s, remaining 84.97 s).
33300000 of 110000000 tuples (30%) done (elapsed 36.86 s, remaining 84.89 s).
33400000 of 110000000 tuples (30%) done (elapsed 36.98 s, remaining 84.82 s).
33500000 of 110000000 tuples (30%) done (elapsed 37.21 s, remaining 84.98 s).
33600000 of 110000000 tuples (30%) done (elapsed 37.34 s, remaining 84.90 s).
33700000 of 110000000 tuples (30%) done (elapsed 37.46 s, remaining 84.82 s).
33800000 of 110000000 tuples (30%) done (elapsed 37.69 s, remaining 84.98 s).
33900000 of 110000000 tuples (30%) done (elapsed 37.82 s, remaining 84.90 s).
34000000 of 110000000 tuples (30%) done (elapsed 37.95 s, remaining 84.83 s).
34100000 of 110000000 tuples (31%) done (elapsed 38.08 s, remaining 84.75 s).
34200000 of 110000000 tuples (31%) done (elapsed 38.31 s, remaining 84.90 s).
34300000 of 110000000 tuples (31%) done (elapsed 38.44 s, remaining 84.83 s).
34400000 of 110000000 tuples (31%) done (elapsed 38.57 s, remaining 84.77 s).
34500000 of 110000000 tuples (31%) done (elapsed 38.70 s, remaining 84.68 s).
34600000 of 110000000 tuples (31%) done (elapsed 38.93 s, remaining 84.83 s).
34700000 of 110000000 tuples (31%) done (elapsed 39.06 s, remaining 84.75 s).
34800000 of 110000000 tuples (31%) done (elapsed 39.18 s, remaining 84.67 s).
34900000 of 110000000 tuples (31%) done (elapsed 39.41 s, remaining 84.81 s).
35000000 of 110000000 tuples (31%) done (elapsed 39.54 s, remaining 84.73 s).
35100000 of 110000000 tuples (31%) done (elapsed 39.67 s, remaining 84.65 s).
35200000 of 110000000 tuples (32%) done (elapsed 39.90 s, remaining 84.79 s).
35300000 of 110000000 tuples (32%) done (elapsed 40.03 s, remaining 84.70 s).
35400000 of 110000000 tuples (32%) done (elapsed 40.15 s, remaining 84.62 s).
35500000 of 110000000 tuples (32%) done (elapsed 40.39 s, remaining 84.77 s).
35600000 of 110000000 tuples (32%) done (elapsed 40.52 s, remaining 84.69 s).
35700000 of 110000000 tuples (32%) done (elapsed 40.66 s, remaining 84.62 s).
35800000 of 110000000 tuples (32%) done (elapsed 40.79 s, remaining 84.54 s).
35900000 of 110000000 tuples (32%) done (elapsed 41.01 s, remaining 84.66 s).
36000000 of 110000000 tuples (32%) done (elapsed 41.14 s, remaining 84.57 s).
36100000 of 110000000 tuples (32%) done (elapsed 41.27 s, remaining 84.48 s).
36200000 of 110000000 tuples (32%) done (elapsed 41.50 s, remaining 84.62 s).
36300000 of 110000000 tuples (33%) done (elapsed 41.64 s, remaining 84.54 s).
36400000 of 110000000 tuples (33%) done (elapsed 41.78 s, remaining 84.48 s).
36500000 of 110000000 tuples (33%) done (elapsed 41.91 s, remaining 84.40 s).
36600000 of 110000000 tuples (33%) done (elapsed 42.16 s, remaining 84.56 s).
36700000 of 110000000 tuples (33%) done (elapsed 42.30 s, remaining 84.49 s).
36800000 of 110000000 tuples (33%) done (elapsed 42.44 s, remaining 84.42 s).
36900000 of 110000000 tuples (33%) done (elapsed 42.57 s, remaining 84.34 s).
37000000 of 110000000 tuples (33%) done (elapsed 42.82 s, remaining 84.49 s).
37100000 of 110000000 tuples (33%) done (elapsed 45.21 s, remaining 88.84 s).
37200000 of 110000000 tuples (33%) done (elapsed 45.24 s, remaining 88.53 s).
37300000 of 110000000 tuples (33%) done (elapsed 45.26 s, remaining 88.22 s).
37400000 of 110000000 tuples (34%) done (elapsed 45.35 s, remaining 88.03 s).
37500000 of 110000000 tuples (34%) done (elapsed 45.43 s, remaining 87.84 s).
37600000 of 110000000 tuples (34%) done (elapsed 45.52 s, remaining 87.65 s).
37700000 of 110000000 tuples (34%) done (elapsed 45.61 s, remaining 87.47 s).
37800000 of 110000000 tuples (34%) done (elapsed 45.71 s, remaining 87.30 s).
37900000 of 110000000 tuples (34%) done (elapsed 45.80 s, remaining 87.13 s).
38000000 of 110000000 tuples (34%) done (elapsed 45.90 s, remaining 86.97 s).
38100000 of 110000000 tuples (34%) done (elapsed 46.07 s, remaining 86.94 s).
38200000 of 110000000 tuples (34%) done (elapsed 46.17 s, remaining 86.78 s).
38300000 of 110000000 tuples (34%) done (elapsed 46.27 s, remaining 86.62 s).
38400000 of 110000000 tuples (34%) done (elapsed 46.37 s, remaining 86.46 s).
38500000 of 110000000 tuples (35%) done (elapsed 46.47 s, remaining 86.30 s).
38600000 of 110000000 tuples (35%) done (elapsed 46.57 s, remaining 86.14 s).
38700000 of 110000000 tuples (35%) done (elapsed 46.67 s, remaining 85.98 s).
38800000 of 110000000 tuples (35%) done (elapsed 46.84 s, remaining 85.96 s).
38900000 of 110000000 tuples (35%) done (elapsed 46.94 s, remaining 85.79 s).
39000000 of 110000000 tuples (35%) done (elapsed 47.04 s, remaining 85.63 s).
39100000 of 110000000 tuples (35%) done (elapsed 47.14 s, remaining 85.48 s).
39200000 of 110000000 tuples (35%) done (elapsed 47.24 s, remaining 85.32 s).
39300000 of 110000000 tuples (35%) done (elapsed 47.35 s, remaining 85.18 s).
39400000 of 110000000 tuples (35%) done (elapsed 47.54 s, remaining 85.19 s).
39500000 of 110000000 tuples (35%) done (elapsed 47.65 s, remaining 85.04 s).
39600000 of 110000000 tuples (36%) done (elapsed 47.75 s, remaining 84.90 s).
39700000 of 110000000 tuples (36%) done (elapsed 47.86 s, remaining 84.76 s).
39800000 of 110000000 tuples (36%) done (elapsed 47.97 s, remaining 84.62 s).
39900000 of 110000000 tuples (36%) done (elapsed 48.16 s, remaining 84.61 s).
40000000 of 110000000 tuples (36%) done (elapsed 48.27 s, remaining 84.47 s).
40100000 of 110000000 tuples (36%) done (elapsed 48.38 s, remaining 84.33 s).
40200000 of 110000000 tuples (36%) done (elapsed 48.49 s, remaining 84.19 s).
40300000 of 110000000 tuples (36%) done (elapsed 48.59 s, remaining 84.04 s).
40400000 of 110000000 tuples (36%) done (elapsed 48.70 s, remaining 83.90 s).
40500000 of 110000000 tuples (36%) done (elapsed 49.02 s, remaining 84.12 s).
40600000 of 110000000 tuples (36%) done (elapsed 49.20 s, remaining 84.09 s).
40700000 of 110000000 tuples (37%) done (elapsed 49.33 s, remaining 83.99 s).
40800000 of 110000000 tuples (37%) done (elapsed 49.43 s, remaining 83.83 s).
40900000 of 110000000 tuples (37%) done (elapsed 49.60 s, remaining 83.80 s).
41000000 of 110000000 tuples (37%) done (elapsed 50.57 s, remaining 85.11 s).
41100000 of 110000000 tuples (37%) done (elapsed 50.65 s, remaining 84.91 s).
41200000 of 110000000 tuples (37%) done (elapsed 51.26 s, remaining 85.59 s).
41300000 of 110000000 tuples (37%) done (elapsed 51.28 s, remaining 85.30 s).
41400000 of 110000000 tuples (37%) done (elapsed 51.31 s, remaining 85.02 s).
41500000 of 110000000 tuples (37%) done (elapsed 51.33 s, remaining 84.73 s).
41600000 of 110000000 tuples (37%) done (elapsed 51.40 s, remaining 84.52 s).
41700000 of 110000000 tuples (37%) done (elapsed 51.48 s, remaining 84.32 s).
41800000 of 110000000 tuples (38%) done (elapsed 51.58 s, remaining 84.16 s).
41900000 of 110000000 tuples (38%) done (elapsed 51.88 s, remaining 84.31 s).
42000000 of 110000000 tuples (38%) done (elapsed 52.17 s, remaining 84.46 s).
42100000 of 110000000 tuples (38%) done (elapsed 52.28 s, remaining 84.31 s).
42200000 of 110000000 tuples (38%) done (elapsed 52.35 s, remaining 84.11 s).
42300000 of 110000000 tuples (38%) done (elapsed 52.42 s, remaining 83.90 s).
42400000 of 110000000 tuples (38%) done (elapsed 52.68 s, remaining 84.00 s).
42500000 of 110000000 tuples (38%) done (elapsed 52.76 s, remaining 83.79 s).
42600000 of 110000000 tuples (38%) done (elapsed 52.92 s, remaining 83.73 s).
42700000 of 110000000 tuples (38%) done (elapsed 53.08 s, remaining 83.66 s).
42800000 of 110000000 tuples (38%) done (elapsed 53.24 s, remaining 83.59 s).
42900000 of 110000000 tuples (39%) done (elapsed 53.40 s, remaining 83.52 s).
43000000 of 110000000 tuples (39%) done (elapsed 53.69 s, remaining 83.66 s).
43100000 of 110000000 tuples (39%) done (elapsed 53.86 s, remaining 83.60 s).
43200000 of 110000000 tuples (39%) done (elapsed 54.03 s, remaining 83.55 s).
43300000 of 110000000 tuples (39%) done (elapsed 54.35 s, remaining 83.73 s).
43400000 of 110000000 tuples (39%) done (elapsed 54.53 s, remaining 83.68 s).
43500000 of 110000000 tuples (39%) done (elapsed 54.70 s, remaining 83.63 s).
43600000 of 110000000 tuples (39%) done (elapsed 55.03 s, remaining 83.80 s).
43700000 of 110000000 tuples (39%) done (elapsed 55.20 s, remaining 83.75 s).
43800000 of 110000000 tuples (39%) done (elapsed 55.37 s, remaining 83.69 s).
43900000 of 110000000 tuples (39%) done (elapsed 55.70 s, remaining 83.86 s).
44000000 of 110000000 tuples (40%) done (elapsed 56.54 s, remaining 84.82 s).
44100000 of 110000000 tuples (40%) done (elapsed 56.57 s, remaining 84.53 s).
44200000 of 110000000 tuples (40%) done (elapsed 56.59 s, remaining 84.25 s).
44300000 of 110000000 tuples (40%) done (elapsed 56.62 s, remaining 83.97 s).
44400000 of 110000000 tuples (40%) done (elapsed 56.69 s, remaining 83.76 s).
44500000 of 110000000 tuples (40%) done (elapsed 56.87 s, remaining 83.70 s).
44600000 of 110000000 tuples (40%) done (elapsed 57.19 s, remaining 83.86 s).
44700000 of 110000000 tuples (40%) done (elapsed 57.36 s, remaining 83.80 s).
44800000 of 110000000 tuples (40%) done (elapsed 57.54 s, remaining 83.74 s).
44900000 of 110000000 tuples (40%) done (elapsed 57.86 s, remaining 83.89 s).
45000000 of 110000000 tuples (40%) done (elapsed 58.03 s, remaining 83.83 s).
45100000 of 110000000 tuples (41%) done (elapsed 58.21 s, remaining 83.76 s).
45200000 of 110000000 tuples (41%) done (elapsed 58.38 s, remaining 83.70 s).
45300000 of 110000000 tuples (41%) done (elapsed 58.70 s, remaining 83.84 s).
45400000 of 110000000 tuples (41%) done (elapsed 58.86 s, remaining 83.75 s).
45500000 of 110000000 tuples (41%) done (elapsed 59.02 s, remaining 83.66 s).
45600000 of 110000000 tuples (41%) done (elapsed 59.31 s, remaining 83.76 s).
45700000 of 110000000 tuples (41%) done (elapsed 59.47 s, remaining 83.68 s).
45800000 of 110000000 tuples (41%) done (elapsed 59.63 s, remaining 83.58 s).
45900000 of 110000000 tuples (41%) done (elapsed 59.79 s, remaining 83.50 s).
46000000 of 110000000 tuples (41%) done (elapsed 60.08 s, remaining 83.60 s).
46100000 of 110000000 tuples (41%) done (elapsed 60.25 s, remaining 83.52 s).
46200000 of 110000000 tuples (42%) done (elapsed 60.43 s, remaining 83.44 s).
46300000 of 110000000 tuples (42%) done (elapsed 60.74 s, remaining 83.57 s).
46400000 of 110000000 tuples (42%) done (elapsed 61.48 s, remaining 84.27 s).
46500000 of 110000000 tuples (42%) done (elapsed 61.50 s, remaining 83.99 s).
46600000 of 110000000 tuples (42%) done (elapsed 61.53 s, remaining 83.71 s).
46700000 of 110000000 tuples (42%) done (elapsed 61.55 s, remaining 83.43 s).
46800000 of 110000000 tuples (42%) done (elapsed 61.71 s, remaining 83.34 s).
46900000 of 110000000 tuples (42%) done (elapsed 62.04 s, remaining 83.46 s).
47000000 of 110000000 tuples (42%) done (elapsed 62.21 s, remaining 83.39 s).
47100000 of 110000000 tuples (42%) done (elapsed 62.38 s, remaining 83.31 s).
47200000 of 110000000 tuples (42%) done (elapsed 62.56 s, remaining 83.23 s).
47300000 of 110000000 tuples (43%) done (elapsed 62.88 s, remaining 83.35 s).
47400000 of 110000000 tuples (43%) done (elapsed 63.05 s, remaining 83.27 s).
47500000 of 110000000 tuples (43%) done (elapsed 63.23 s, remaining 83.20 s).
47600000 of 110000000 tuples (43%) done (elapsed 63.55 s, remaining 83.31 s).
47700000 of 110000000 tuples (43%) done (elapsed 63.72 s, remaining 83.22 s).
47800000 of 110000000 tuples (43%) done (elapsed 63.89 s, remaining 83.14 s).
47900000 of 110000000 tuples (43%) done (elapsed 64.21 s, remaining 83.25 s).
48000000 of 110000000 tuples (43%) done (elapsed 64.39 s, remaining 83.17 s).
48100000 of 110000000 tuples (43%) done (elapsed 64.56 s, remaining 83.08 s).
48200000 of 110000000 tuples (43%) done (elapsed 64.88 s, remaining 83.19 s).
48300000 of 110000000 tuples (43%) done (elapsed 65.05 s, remaining 83.10 s).
48400000 of 110000000 tuples (44%) done (elapsed 65.22 s, remaining 83.01 s).
48500000 of 110000000 tuples (44%) done (elapsed 65.40 s, remaining 82.93 s).
48600000 of 110000000 tuples (44%) done (elapsed 65.72 s, remaining 83.02 s).
48700000 of 110000000 tuples (44%) done (elapsed 66.93 s, remaining 84.24 s).
48800000 of 110000000 tuples (44%) done (elapsed 66.95 s, remaining 83.96 s).
48900000 of 110000000 tuples (44%) done (elapsed 66.98 s, remaining 83.69 s).
49000000 of 110000000 tuples (44%) done (elapsed 67.00 s, remaining 83.41 s).
49100000 of 110000000 tuples (44%) done (elapsed 67.08 s, remaining 83.20 s).
49200000 of 110000000 tuples (44%) done (elapsed 67.15 s, remaining 82.98 s).
49300000 of 110000000 tuples (44%) done (elapsed 67.23 s, remaining 82.77 s).
49400000 of 110000000 tuples (44%) done (elapsed 67.38 s, remaining 82.66 s).
49500000 of 110000000 tuples (45%) done (elapsed 67.72 s, remaining 82.77 s).
49600000 of 110000000 tuples (45%) done (elapsed 67.91 s, remaining 82.69 s).
49700000 of 110000000 tuples (45%) done (elapsed 68.09 s, remaining 82.61 s).
49800000 of 110000000 tuples (45%) done (elapsed 68.43 s, remaining 82.72 s).
49900000 of 110000000 tuples (45%) done (elapsed 68.62 s, remaining 82.64 s).
50000000 of 110000000 tuples (45%) done (elapsed 68.79 s, remaining 82.55 s).
50100000 of 110000000 tuples (45%) done (elapsed 69.11 s, remaining 82.63 s).
50200000 of 110000000 tuples (45%) done (elapsed 69.22 s, remaining 82.46 s).
50300000 of 110000000 tuples (45%) done (elapsed 69.32 s, remaining 82.28 s).
50400000 of 110000000 tuples (45%) done (elapsed 69.42 s, remaining 82.10 s).
50500000 of 110000000 tuples (45%) done (elapsed 69.52 s, remaining 81.91 s).
50600000 of 110000000 tuples (46%) done (elapsed 69.62 s, remaining 81.73 s).
50700000 of 110000000 tuples (46%) done (elapsed 69.72 s, remaining 81.55 s).
50800000 of 110000000 tuples (46%) done (elapsed 69.89 s, remaining 81.45 s).
50900000 of 110000000 tuples (46%) done (elapsed 69.99 s, remaining 81.27 s).
51000000 of 110000000 tuples (46%) done (elapsed 70.10 s, remaining 81.09 s).
51100000 of 110000000 tuples (46%) done (elapsed 70.20 s, remaining 80.91 s).
51200000 of 110000000 tuples (46%) done (elapsed 70.30 s, remaining 80.73 s).
51300000 of 110000000 tuples (46%) done (elapsed 70.40 s, remaining 80.55 s).
51400000 of 110000000 tuples (46%) done (elapsed 70.50 s, remaining 80.37 s).
51500000 of 110000000 tuples (46%) done (elapsed 70.60 s, remaining 80.19 s).
51600000 of 110000000 tuples (46%) done (elapsed 70.77 s, remaining 80.10 s).
51700000 of 110000000 tuples (47%) done (elapsed 71.84 s, remaining 81.01 s).
51800000 of 110000000 tuples (47%) done (elapsed 71.87 s, remaining 80.75 s).
51900000 of 110000000 tuples (47%) done (elapsed 71.89 s, remaining 80.48 s).
52000000 of 110000000 tuples (47%) done (elapsed 71.92 s, remaining 80.21 s).
52100000 of 110000000 tuples (47%) done (elapsed 71.99 s, remaining 80.00 s).
52200000 of 110000000 tuples (47%) done (elapsed 72.06 s, remaining 79.80 s).
52300000 of 110000000 tuples (47%) done (elapsed 72.14 s, remaining 79.59 s).
52400000 of 110000000 tuples (47%) done (elapsed 72.21 s, remaining 79.38 s).
52500000 of 110000000 tuples (47%) done (elapsed 72.29 s, remaining 79.17 s).
52600000 of 110000000 tuples (47%) done (elapsed 72.36 s, remaining 78.96 s).
52700000 of 110000000 tuples (47%) done (elapsed 72.43 s, remaining 78.76 s).
52800000 of 110000000 tuples (48%) done (elapsed 72.51 s, remaining 78.55 s).
52900000 of 110000000 tuples (48%) done (elapsed 72.58 s, remaining 78.34 s).
53000000 of 110000000 tuples (48%) done (elapsed 72.65 s, remaining 78.14 s).
53100000 of 110000000 tuples (48%) done (elapsed 72.73 s, remaining 77.93 s).
53200000 of 110000000 tuples (48%) done (elapsed 72.80 s, remaining 77.73 s).
53300000 of 110000000 tuples (48%) done (elapsed 72.88 s, remaining 77.53 s).
53400000 of 110000000 tuples (48%) done (elapsed 72.95 s, remaining 77.32 s).
53500000 of 110000000 tuples (48%) done (elapsed 73.02 s, remaining 77.12 s).
53600000 of 110000000 tuples (48%) done (elapsed 73.10 s, remaining 76.92 s).
53700000 of 110000000 tuples (48%) done (elapsed 73.17 s, remaining 76.72 s).
53800000 of 110000000 tuples (48%) done (elapsed 73.25 s, remaining 76.51 s).
53900000 of 110000000 tuples (49%) done (elapsed 73.32 s, remaining 76.31 s).
54000000 of 110000000 tuples (49%) done (elapsed 73.39 s, remaining 76.11 s).
54100000 of 110000000 tuples (49%) done (elapsed 73.47 s, remaining 75.91 s).
54200000 of 110000000 tuples (49%) done (elapsed 73.54 s, remaining 75.71 s).
54300000 of 110000000 tuples (49%) done (elapsed 73.62 s, remaining 75.52 s).
54400000 of 110000000 tuples (49%) done (elapsed 73.69 s, remaining 75.32 s).
54500000 of 110000000 tuples (49%) done (elapsed 73.76 s, remaining 75.12 s).
54600000 of 110000000 tuples (49%) done (elapsed 73.86 s, remaining 74.94 s).
54700000 of 110000000 tuples (49%) done (elapsed 73.97 s, remaining 74.78 s).
54800000 of 110000000 tuples (49%) done (elapsed 74.16 s, remaining 74.70 s).
54900000 of 110000000 tuples (49%) done (elapsed 74.26 s, remaining 74.53 s).
55000000 of 110000000 tuples (50%) done (elapsed 74.36 s, remaining 74.36 s).
55100000 of 110000000 tuples (50%) done (elapsed 74.46 s, remaining 74.19 s).
55200000 of 110000000 tuples (50%) done (elapsed 74.56 s, remaining 74.02 s).
55300000 of 110000000 tuples (50%) done (elapsed 74.66 s, remaining 73.85 s).
55400000 of 110000000 tuples (50%) done (elapsed 74.76 s, remaining 73.68 s).
55500000 of 110000000 tuples (50%) done (elapsed 74.93 s, remaining 73.58 s).
55600000 of 110000000 tuples (50%) done (elapsed 75.03 s, remaining 73.41 s).
55700000 of 110000000 tuples (50%) done (elapsed 75.14 s, remaining 73.25 s).
55800000 of 110000000 tuples (50%) done (elapsed 75.25 s, remaining 73.09 s).
55900000 of 110000000 tuples (50%) done (elapsed 75.35 s, remaining 72.92 s).
56000000 of 110000000 tuples (50%) done (elapsed 75.44 s, remaining 72.75 s).
56100000 of 110000000 tuples (51%) done (elapsed 75.61 s, remaining 72.65 s).
56200000 of 110000000 tuples (51%) done (elapsed 75.71 s, remaining 72.48 s).
56300000 of 110000000 tuples (51%) done (elapsed 75.81 s, remaining 72.31 s).
56400000 of 110000000 tuples (51%) done (elapsed 75.89 s, remaining 72.12 s).
56500000 of 110000000 tuples (51%) done (elapsed 76.18 s, remaining 72.14 s).
56600000 of 110000000 tuples (51%) done (elapsed 76.34 s, remaining 72.03 s).
56700000 of 110000000 tuples (51%) done (elapsed 76.69 s, remaining 72.09 s).
56800000 of 110000000 tuples (51%) done (elapsed 76.76 s, remaining 71.90 s).
56900000 of 110000000 tuples (51%) done (elapsed 76.83 s, remaining 71.70 s).
57000000 of 110000000 tuples (51%) done (elapsed 76.91 s, remaining 71.51 s).
57100000 of 110000000 tuples (51%) done (elapsed 77.00 s, remaining 71.34 s).
57200000 of 110000000 tuples (52%) done (elapsed 77.10 s, remaining 71.17 s).
57300000 of 110000000 tuples (52%) done (elapsed 77.26 s, remaining 71.06 s).
57400000 of 110000000 tuples (52%) done (elapsed 77.36 s, remaining 70.89 s).
57500000 of 110000000 tuples (52%) done (elapsed 77.46 s, remaining 70.73 s).
57600000 of 110000000 tuples (52%) done (elapsed 77.56 s, remaining 70.56 s).
57700000 of 110000000 tuples (52%) done (elapsed 77.66 s, remaining 70.39 s).
57800000 of 110000000 tuples (52%) done (elapsed 77.75 s, remaining 70.22 s).
57900000 of 110000000 tuples (52%) done (elapsed 77.84 s, remaining 70.05 s).
58000000 of 110000000 tuples (52%) done (elapsed 78.00 s, remaining 69.93 s).
58100000 of 110000000 tuples (52%) done (elapsed 78.08 s, remaining 69.75 s).
58200000 of 110000000 tuples (52%) done (elapsed 78.17 s, remaining 69.57 s).
58300000 of 110000000 tuples (53%) done (elapsed 78.26 s, remaining 69.40 s).
58400000 of 110000000 tuples (53%) done (elapsed 78.35 s, remaining 69.22 s).
58500000 of 110000000 tuples (53%) done (elapsed 78.45 s, remaining 69.06 s).
58600000 of 110000000 tuples (53%) done (elapsed 78.61 s, remaining 68.95 s).
58700000 of 110000000 tuples (53%) done (elapsed 78.70 s, remaining 68.78 s).
58800000 of 110000000 tuples (53%) done (elapsed 78.79 s, remaining 68.61 s).
58900000 of 110000000 tuples (53%) done (elapsed 78.89 s, remaining 68.44 s).
59000000 of 110000000 tuples (53%) done (elapsed 78.98 s, remaining 68.27 s).
59100000 of 110000000 tuples (53%) done (elapsed 79.07 s, remaining 68.10 s).
59200000 of 110000000 tuples (53%) done (elapsed 79.15 s, remaining 67.92 s).
59300000 of 110000000 tuples (53%) done (elapsed 79.30 s, remaining 67.80 s).
59400000 of 110000000 tuples (54%) done (elapsed 79.38 s, remaining 67.62 s).
59500000 of 110000000 tuples (54%) done (elapsed 79.47 s, remaining 67.45 s).
59600000 of 110000000 tuples (54%) done (elapsed 79.55 s, remaining 67.27 s).
59700000 of 110000000 tuples (54%) done (elapsed 79.64 s, remaining 67.10 s).
59800000 of 110000000 tuples (54%) done (elapsed 79.73 s, remaining 66.93 s).
59900000 of 110000000 tuples (54%) done (elapsed 79.82 s, remaining 66.76 s).
60000000 of 110000000 tuples (54%) done (elapsed 79.99 s, remaining 66.66 s).
60100000 of 110000000 tuples (54%) done (elapsed 80.08 s, remaining 66.49 s).
60200000 of 110000000 tuples (54%) done (elapsed 80.17 s, remaining 66.32 s).
60300000 of 110000000 tuples (54%) done (elapsed 80.27 s, remaining 66.16 s).
60400000 of 110000000 tuples (54%) done (elapsed 80.36 s, remaining 65.99 s).
60500000 of 110000000 tuples (55%) done (elapsed 80.46 s, remaining 65.83 s).
60600000 of 110000000 tuples (55%) done (elapsed 80.62 s, remaining 65.72 s).
60700000 of 110000000 tuples (55%) done (elapsed 80.71 s, remaining 65.55 s).
60800000 of 110000000 tuples (55%) done (elapsed 80.80 s, remaining 65.38 s).
60900000 of 110000000 tuples (55%) done (elapsed 80.89 s, remaining 65.22 s).
61000000 of 110000000 tuples (55%) done (elapsed 81.19 s, remaining 65.22 s).
61100000 of 110000000 tuples (55%) done (elapsed 81.21 s, remaining 65.00 s).
61200000 of 110000000 tuples (55%) done (elapsed 81.24 s, remaining 64.78 s).
61300000 of 110000000 tuples (55%) done (elapsed 81.32 s, remaining 64.61 s).
61400000 of 110000000 tuples (55%) done (elapsed 81.42 s, remaining 64.45 s).
61500000 of 110000000 tuples (55%) done (elapsed 81.51 s, remaining 64.28 s).
61600000 of 110000000 tuples (56%) done (elapsed 81.61 s, remaining 64.12 s).
61700000 of 110000000 tuples (56%) done (elapsed 81.70 s, remaining 63.95 s).
61800000 of 110000000 tuples (56%) done (elapsed 84.20 s, remaining 65.67 s).
61900000 of 110000000 tuples (56%) done (elapsed 84.28 s, remaining 65.49 s).
62000000 of 110000000 tuples (56%) done (elapsed 84.35 s, remaining 65.30 s).
62100000 of 110000000 tuples (56%) done (elapsed 84.42 s, remaining 65.12 s).
62200000 of 110000000 tuples (56%) done (elapsed 84.50 s, remaining 64.94 s).
62300000 of 110000000 tuples (56%) done (elapsed 84.57 s, remaining 64.75 s).
62400000 of 110000000 tuples (56%) done (elapsed 84.64 s, remaining 64.57 s).
62500000 of 110000000 tuples (56%) done (elapsed 84.72 s, remaining 64.39 s).
62600000 of 110000000 tuples (56%) done (elapsed 84.79 s, remaining 64.20 s).
62700000 of 110000000 tuples (57%) done (elapsed 84.87 s, remaining 64.02 s).
62800000 of 110000000 tuples (57%) done (elapsed 84.94 s, remaining 63.84 s).
62900000 of 110000000 tuples (57%) done (elapsed 85.01 s, remaining 63.66 s).
63000000 of 110000000 tuples (57%) done (elapsed 85.09 s, remaining 63.48 s).
63100000 of 110000000 tuples (57%) done (elapsed 85.16 s, remaining 63.30 s).
63200000 of 110000000 tuples (57%) done (elapsed 85.23 s, remaining 63.12 s).
63300000 of 110000000 tuples (57%) done (elapsed 85.31 s, remaining 62.94 s).
63400000 of 110000000 tuples (57%) done (elapsed 85.38 s, remaining 62.76 s).
63500000 of 110000000 tuples (57%) done (elapsed 85.45 s, remaining 62.58 s).
63600000 of 110000000 tuples (57%) done (elapsed 85.53 s, remaining 62.40 s).
63700000 of 110000000 tuples (57%) done (elapsed 85.60 s, remaining 62.22 s).
63800000 of 110000000 tuples (58%) done (elapsed 85.68 s, remaining 62.04 s).
63900000 of 110000000 tuples (58%) done (elapsed 85.75 s, remaining 61.86 s).
64000000 of 110000000 tuples (58%) done (elapsed 85.87 s, remaining 61.72 s).
64100000 of 110000000 tuples (58%) done (elapsed 85.94 s, remaining 61.54 s).
64200000 of 110000000 tuples (58%) done (elapsed 86.02 s, remaining 61.37 s).
64300000 of 110000000 tuples (58%) done (elapsed 86.19 s, remaining 61.26 s).
64400000 of 110000000 tuples (58%) done (elapsed 86.22 s, remaining 61.05 s).
64500000 of 110000000 tuples (58%) done (elapsed 86.24 s, remaining 60.84 s).
64600000 of 110000000 tuples (58%) done (elapsed 86.59 s, remaining 60.85 s).
64700000 of 110000000 tuples (58%) done (elapsed 86.66 s, remaining 60.68 s).
64800000 of 110000000 tuples (58%) done (elapsed 86.74 s, remaining 60.50 s).
64900000 of 110000000 tuples (59%) done (elapsed 86.81 s, remaining 60.32 s).
65000000 of 110000000 tuples (59%) done (elapsed 86.88 s, remaining 60.15 s).
65100000 of 110000000 tuples (59%) done (elapsed 86.96 s, remaining 59.97 s).
65200000 of 110000000 tuples (59%) done (elapsed 87.03 s, remaining 59.80 s).
65300000 of 110000000 tuples (59%) done (elapsed 87.10 s, remaining 59.63 s).
65400000 of 110000000 tuples (59%) done (elapsed 87.18 s, remaining 59.45 s).
65500000 of 110000000 tuples (59%) done (elapsed 87.25 s, remaining 59.28 s).
65600000 of 110000000 tuples (59%) done (elapsed 87.32 s, remaining 59.10 s).
65700000 of 110000000 tuples (59%) done (elapsed 87.40 s, remaining 58.93 s).
65800000 of 110000000 tuples (59%) done (elapsed 87.47 s, remaining 58.76 s).
65900000 of 110000000 tuples (59%) done (elapsed 87.55 s, remaining 58.59 s).
66000000 of 110000000 tuples (60%) done (elapsed 87.62 s, remaining 58.41 s).
66100000 of 110000000 tuples (60%) done (elapsed 87.69 s, remaining 58.24 s).
66200000 of 110000000 tuples (60%) done (elapsed 87.77 s, remaining 58.07 s).
66300000 of 110000000 tuples (60%) done (elapsed 87.84 s, remaining 57.90 s).
66400000 of 110000000 tuples (60%) done (elapsed 87.91 s, remaining 57.73 s).
66500000 of 110000000 tuples (60%) done (elapsed 87.99 s, remaining 57.56 s).
66600000 of 110000000 tuples (60%) done (elapsed 88.06 s, remaining 57.39 s).
66700000 of 110000000 tuples (60%) done (elapsed 88.14 s, remaining 57.22 s).
66800000 of 110000000 tuples (60%) done (elapsed 88.21 s, remaining 57.05 s).
66900000 of 110000000 tuples (60%) done (elapsed 88.29 s, remaining 56.88 s).
67000000 of 110000000 tuples (60%) done (elapsed 88.36 s, remaining 56.71 s).
67100000 of 110000000 tuples (61%) done (elapsed 88.43 s, remaining 56.54 s).
67200000 of 110000000 tuples (61%) done (elapsed 88.51 s, remaining 56.37 s).
67300000 of 110000000 tuples (61%) done (elapsed 88.58 s, remaining 56.20 s).
67400000 of 110000000 tuples (61%) done (elapsed 88.66 s, remaining 56.03 s).
67500000 of 110000000 tuples (61%) done (elapsed 88.73 s, remaining 55.87 s).
67600000 of 110000000 tuples (61%) done (elapsed 88.80 s, remaining 55.70 s).
67700000 of 110000000 tuples (61%) done (elapsed 88.88 s, remaining 55.53 s).
67800000 of 110000000 tuples (61%) done (elapsed 88.95 s, remaining 55.36 s).
67900000 of 110000000 tuples (61%) done (elapsed 89.02 s, remaining 55.20 s).
68000000 of 110000000 tuples (61%) done (elapsed 89.10 s, remaining 55.03 s).
68100000 of 110000000 tuples (61%) done (elapsed 89.17 s, remaining 54.87 s).
68200000 of 110000000 tuples (62%) done (elapsed 89.25 s, remaining 54.70 s).
68300000 of 110000000 tuples (62%) done (elapsed 89.32 s, remaining 54.53 s).
68400000 of 110000000 tuples (62%) done (elapsed 89.39 s, remaining 54.37 s).
68500000 of 110000000 tuples (62%) done (elapsed 89.47 s, remaining 54.20 s).
68600000 of 110000000 tuples (62%) done (elapsed 89.54 s, remaining 54.04 s).
68700000 of 110000000 tuples (62%) done (elapsed 89.62 s, remaining 53.87 s).
68800000 of 110000000 tuples (62%) done (elapsed 89.69 s, remaining 53.71 s).
68900000 of 110000000 tuples (62%) done (elapsed 89.76 s, remaining 53.55 s).
69000000 of 110000000 tuples (62%) done (elapsed 89.84 s, remaining 53.38 s).
69100000 of 110000000 tuples (62%) done (elapsed 89.91 s, remaining 53.22 s).
69200000 of 110000000 tuples (62%) done (elapsed 90.00 s, remaining 53.06 s).
69300000 of 110000000 tuples (63%) done (elapsed 90.09 s, remaining 52.91 s).
69400000 of 110000000 tuples (63%) done (elapsed 90.18 s, remaining 52.76 s).
69500000 of 110000000 tuples (63%) done (elapsed 90.27 s, remaining 52.60 s).
69600000 of 110000000 tuples (63%) done (elapsed 90.36 s, remaining 52.45 s).
69700000 of 110000000 tuples (63%) done (elapsed 90.46 s, remaining 52.30 s).
69800000 of 110000000 tuples (63%) done (elapsed 90.62 s, remaining 52.19 s).
69900000 of 110000000 tuples (63%) done (elapsed 90.70 s, remaining 52.03 s).
70000000 of 110000000 tuples (63%) done (elapsed 90.80 s, remaining 51.88 s).
70100000 of 110000000 tuples (63%) done (elapsed 90.89 s, remaining 51.73 s).
70200000 of 110000000 tuples (63%) done (elapsed 90.98 s, remaining 51.58 s).
70300000 of 110000000 tuples (63%) done (elapsed 91.07 s, remaining 51.43 s).
70400000 of 110000000 tuples (64%) done (elapsed 91.30 s, remaining 51.35 s).
70500000 of 110000000 tuples (64%) done (elapsed 91.32 s, remaining 51.17 s).
70600000 of 110000000 tuples (64%) done (elapsed 91.41 s, remaining 51.01 s).
70700000 of 110000000 tuples (64%) done (elapsed 91.50 s, remaining 50.86 s).
70800000 of 110000000 tuples (64%) done (elapsed 91.59 s, remaining 50.71 s).
70900000 of 110000000 tuples (64%) done (elapsed 91.68 s, remaining 50.56 s).
71000000 of 110000000 tuples (64%) done (elapsed 91.77 s, remaining 50.41 s).
71100000 of 110000000 tuples (64%) done (elapsed 91.86 s, remaining 50.26 s).
71200000 of 110000000 tuples (64%) done (elapsed 92.02 s, remaining 50.14 s).
71300000 of 110000000 tuples (64%) done (elapsed 92.11 s, remaining 50.00 s).
71400000 of 110000000 tuples (64%) done (elapsed 92.20 s, remaining 49.85 s).
71500000 of 110000000 tuples (65%) done (elapsed 92.29 s, remaining 49.70 s).
71600000 of 110000000 tuples (65%) done (elapsed 92.38 s, remaining 49.55 s).
71700000 of 110000000 tuples (65%) done (elapsed 92.48 s, remaining 49.40 s).
71800000 of 110000000 tuples (65%) done (elapsed 92.56 s, remaining 49.25 s).
71900000 of 110000000 tuples (65%) done (elapsed 92.73 s, remaining 49.14 s).
72000000 of 110000000 tuples (65%) done (elapsed 92.81 s, remaining 48.98 s).
72100000 of 110000000 tuples (65%) done (elapsed 92.91 s, remaining 48.84 s).
72200000 of 110000000 tuples (65%) done (elapsed 93.00 s, remaining 48.69 s).
72300000 of 110000000 tuples (65%) done (elapsed 93.08 s, remaining 48.54 s).
72400000 of 110000000 tuples (65%) done (elapsed 93.18 s, remaining 48.39 s).
72500000 of 110000000 tuples (65%) done (elapsed 93.27 s, remaining 48.24 s).
72600000 of 110000000 tuples (66%) done (elapsed 93.54 s, remaining 48.19 s).
72700000 of 110000000 tuples (66%) done (elapsed 93.63 s, remaining 48.04 s).
72800000 of 110000000 tuples (66%) done (elapsed 93.72 s, remaining 47.89 s).
72900000 of 110000000 tuples (66%) done (elapsed 93.81 s, remaining 47.74 s).
73000000 of 110000000 tuples (66%) done (elapsed 94.65 s, remaining 47.97 s).
73100000 of 110000000 tuples (66%) done (elapsed 95.25 s, remaining 48.08 s).
73200000 of 110000000 tuples (66%) done (elapsed 95.35 s, remaining 47.94 s).
73300000 of 110000000 tuples (66%) done (elapsed 95.64 s, remaining 47.89 s).
73400000 of 110000000 tuples (66%) done (elapsed 95.71 s, remaining 47.73 s).
73500000 of 110000000 tuples (66%) done (elapsed 95.79 s, remaining 47.57 s).
73600000 of 110000000 tuples (66%) done (elapsed 95.86 s, remaining 47.41 s).
73700000 of 110000000 tuples (67%) done (elapsed 95.93 s, remaining 47.25 s).
73800000 of 110000000 tuples (67%) done (elapsed 96.01 s, remaining 47.09 s).
73900000 of 110000000 tuples (67%) done (elapsed 96.08 s, remaining 46.93 s).
74000000 of 110000000 tuples (67%) done (elapsed 96.15 s, remaining 46.78 s).
74100000 of 110000000 tuples (67%) done (elapsed 96.23 s, remaining 46.62 s).
74200000 of 110000000 tuples (67%) done (elapsed 96.33 s, remaining 46.48 s).
74300000 of 110000000 tuples (67%) done (elapsed 96.43 s, remaining 46.33 s).
74400000 of 110000000 tuples (67%) done (elapsed 96.51 s, remaining 46.18 s).
74500000 of 110000000 tuples (67%) done (elapsed 96.71 s, remaining 46.08 s).
74600000 of 110000000 tuples (67%) done (elapsed 96.85 s, remaining 45.96 s).
74700000 of 110000000 tuples (67%) done (elapsed 96.94 s, remaining 45.81 s).
74800000 of 110000000 tuples (68%) done (elapsed 97.04 s, remaining 45.67 s).
74900000 of 110000000 tuples (68%) done (elapsed 97.26 s, remaining 45.58 s).
75000000 of 110000000 tuples (68%) done (elapsed 97.42 s, remaining 45.46 s).
75100000 of 110000000 tuples (68%) done (elapsed 97.58 s, remaining 45.34 s).
75200000 of 110000000 tuples (68%) done (elapsed 97.73 s, remaining 45.23 s).
75300000 of 110000000 tuples (68%) done (elapsed 98.01 s, remaining 45.17 s).
75400000 of 110000000 tuples (68%) done (elapsed 98.17 s, remaining 45.05 s).
75500000 of 110000000 tuples (68%) done (elapsed 98.33 s, remaining 44.93 s).
75600000 of 110000000 tuples (68%) done (elapsed 98.62 s, remaining 44.88 s).
75700000 of 110000000 tuples (68%) done (elapsed 98.77 s, remaining 44.76 s).
75800000 of 110000000 tuples (68%) done (elapsed 98.93 s, remaining 44.64 s).
75900000 of 110000000 tuples (69%) done (elapsed 99.22 s, remaining 44.58 s).
76000000 of 110000000 tuples (69%) done (elapsed 99.37 s, remaining 44.46 s).
76100000 of 110000000 tuples (69%) done (elapsed 99.53 s, remaining 44.34 s).
76200000 of 110000000 tuples (69%) done (elapsed 99.82 s, remaining 44.28 s).
76300000 of 110000000 tuples (69%) done (elapsed 99.99 s, remaining 44.16 s).
76400000 of 110000000 tuples (69%) done (elapsed 100.15 s, remaining 44.04 s).
76500000 of 110000000 tuples (69%) done (elapsed 100.31 s, remaining 43.93 s).
76600000 of 110000000 tuples (69%) done (elapsed 100.62 s, remaining 43.87 s).
76700000 of 110000000 tuples (69%) done (elapsed 100.78 s, remaining 43.75 s).
76800000 of 110000000 tuples (69%) done (elapsed 100.94 s, remaining 43.64 s).
76900000 of 110000000 tuples (69%) done (elapsed 101.26 s, remaining 43.59 s).
77000000 of 110000000 tuples (70%) done (elapsed 104.49 s, remaining 44.78 s).
77100000 of 110000000 tuples (70%) done (elapsed 104.51 s, remaining 44.60 s).
77200000 of 110000000 tuples (70%) done (elapsed 104.54 s, remaining 44.41 s).
77300000 of 110000000 tuples (70%) done (elapsed 104.56 s, remaining 44.23 s).
77400000 of 110000000 tuples (70%) done (elapsed 104.64 s, remaining 44.07 s).
77500000 of 110000000 tuples (70%) done (elapsed 104.71 s, remaining 43.91 s).
77600000 of 110000000 tuples (70%) done (elapsed 104.78 s, remaining 43.75 s).
77700000 of 110000000 tuples (70%) done (elapsed 104.86 s, remaining 43.59 s).
77800000 of 110000000 tuples (70%) done (elapsed 104.93 s, remaining 43.43 s).
77900000 of 110000000 tuples (70%) done (elapsed 105.01 s, remaining 43.27 s).
78000000 of 110000000 tuples (70%) done (elapsed 105.10 s, remaining 43.12 s).
78100000 of 110000000 tuples (71%) done (elapsed 105.26 s, remaining 42.99 s).
78200000 of 110000000 tuples (71%) done (elapsed 105.37 s, remaining 42.85 s).
78300000 of 110000000 tuples (71%) done (elapsed 105.48 s, remaining 42.71 s).
78400000 of 110000000 tuples (71%) done (elapsed 105.59 s, remaining 42.56 s).
78500000 of 110000000 tuples (71%) done (elapsed 105.71 s, remaining 42.42 s).
78600000 of 110000000 tuples (71%) done (elapsed 105.82 s, remaining 42.28 s).
78700000 of 110000000 tuples (71%) done (elapsed 106.05 s, remaining 42.18 s).
78800000 of 110000000 tuples (71%) done (elapsed 106.17 s, remaining 42.04 s).
78900000 of 110000000 tuples (71%) done (elapsed 106.52 s, remaining 41.99 s).
79000000 of 110000000 tuples (71%) done (elapsed 106.55 s, remaining 41.81 s).
79100000 of 110000000 tuples (71%) done (elapsed 106.68 s, remaining 41.67 s).
79200000 of 110000000 tuples (72%) done (elapsed 106.82 s, remaining 41.54 s).
79300000 of 110000000 tuples (72%) done (elapsed 106.97 s, remaining 41.41 s).
79400000 of 110000000 tuples (72%) done (elapsed 107.24 s, remaining 41.33 s).
79500000 of 110000000 tuples (72%) done (elapsed 107.38 s, remaining 41.20 s).
79600000 of 110000000 tuples (72%) done (elapsed 107.52 s, remaining 41.06 s).
79700000 of 110000000 tuples (72%) done (elapsed 107.80 s, remaining 40.98 s).
79800000 of 110000000 tuples (72%) done (elapsed 107.96 s, remaining 40.86 s).
79900000 of 110000000 tuples (72%) done (elapsed 108.12 s, remaining 40.73 s).
80000000 of 110000000 tuples (72%) done (elapsed 108.28 s, remaining 40.60 s).
80100000 of 110000000 tuples (72%) done (elapsed 108.57 s, remaining 40.53 s).
80200000 of 110000000 tuples (72%) done (elapsed 108.73 s, remaining 40.40 s).
80300000 of 110000000 tuples (73%) done (elapsed 108.89 s, remaining 40.28 s).
80400000 of 110000000 tuples (73%) done (elapsed 109.20 s, remaining 40.20 s).
80500000 of 110000000 tuples (73%) done (elapsed 109.36 s, remaining 40.07 s).
80600000 of 110000000 tuples (73%) done (elapsed 109.52 s, remaining 39.95 s).
80700000 of 110000000 tuples (73%) done (elapsed 109.68 s, remaining 39.82 s).
80800000 of 110000000 tuples (73%) done (elapsed 109.93 s, remaining 39.73 s).
80900000 of 110000000 tuples (73%) done (elapsed 110.08 s, remaining 39.60 s).
81000000 of 110000000 tuples (73%) done (elapsed 110.23 s, remaining 39.47 s).
81100000 of 110000000 tuples (73%) done (elapsed 110.32 s, remaining 39.31 s).
81200000 of 110000000 tuples (73%) done (elapsed 110.48 s, remaining 39.19 s).
81300000 of 110000000 tuples (73%) done (elapsed 111.22 s, remaining 39.26 s).
81400000 of 110000000 tuples (74%) done (elapsed 111.59 s, remaining 39.21 s).
81500000 of 110000000 tuples (74%) done (elapsed 111.61 s, remaining 39.03 s).
81600000 of 110000000 tuples (74%) done (elapsed 111.64 s, remaining 38.85 s).
81700000 of 110000000 tuples (74%) done (elapsed 111.66 s, remaining 38.68 s).
81800000 of 110000000 tuples (74%) done (elapsed 111.74 s, remaining 38.52 s).
81900000 of 110000000 tuples (74%) done (elapsed 111.81 s, remaining 38.36 s).
82000000 of 110000000 tuples (74%) done (elapsed 111.88 s, remaining 38.20 s).
82100000 of 110000000 tuples (74%) done (elapsed 111.96 s, remaining 38.05 s).
82200000 of 110000000 tuples (74%) done (elapsed 112.03 s, remaining 37.89 s).
82300000 of 110000000 tuples (74%) done (elapsed 112.10 s, remaining 37.73 s).
82400000 of 110000000 tuples (74%) done (elapsed 112.18 s, remaining 37.57 s).
82500000 of 110000000 tuples (75%) done (elapsed 112.25 s, remaining 37.42 s).
82600000 of 110000000 tuples (75%) done (elapsed 112.32 s, remaining 37.26 s).
82700000 of 110000000 tuples (75%) done (elapsed 112.40 s, remaining 37.10 s).
82800000 of 110000000 tuples (75%) done (elapsed 112.47 s, remaining 36.95 s).
82900000 of 110000000 tuples (75%) done (elapsed 112.55 s, remaining 36.79 s).
83000000 of 110000000 tuples (75%) done (elapsed 112.62 s, remaining 36.64 s).
83100000 of 110000000 tuples (75%) done (elapsed 112.69 s, remaining 36.48 s).
83200000 of 110000000 tuples (75%) done (elapsed 112.77 s, remaining 36.32 s).
83300000 of 110000000 tuples (75%) done (elapsed 112.84 s, remaining 36.17 s).
83400000 of 110000000 tuples (75%) done (elapsed 112.91 s, remaining 36.01 s).
83500000 of 110000000 tuples (75%) done (elapsed 112.99 s, remaining 35.86 s).
83600000 of 110000000 tuples (76%) done (elapsed 113.06 s, remaining 35.70 s).
83700000 of 110000000 tuples (76%) done (elapsed 113.13 s, remaining 35.55 s).
83800000 of 110000000 tuples (76%) done (elapsed 113.21 s, remaining 35.39 s).
83900000 of 110000000 tuples (76%) done (elapsed 113.28 s, remaining 35.24 s).
84000000 of 110000000 tuples (76%) done (elapsed 113.35 s, remaining 35.09 s).
84100000 of 110000000 tuples (76%) done (elapsed 113.43 s, remaining 34.93 s).
84200000 of 110000000 tuples (76%) done (elapsed 113.50 s, remaining 34.78 s).
84300000 of 110000000 tuples (76%) done (elapsed 113.59 s, remaining 34.63 s).
84400000 of 110000000 tuples (76%) done (elapsed 113.69 s, remaining 34.48 s).
84500000 of 110000000 tuples (76%) done (elapsed 113.86 s, remaining 34.36 s).
84600000 of 110000000 tuples (76%) done (elapsed 113.96 s, remaining 34.21 s).
84700000 of 110000000 tuples (77%) done (elapsed 114.06 s, remaining 34.07 s).
84800000 of 110000000 tuples (77%) done (elapsed 114.16 s, remaining 33.93 s).
84900000 of 110000000 tuples (77%) done (elapsed 114.26 s, remaining 33.78 s).
85000000 of 110000000 tuples (77%) done (elapsed 114.36 s, remaining 33.63 s).
85100000 of 110000000 tuples (77%) done (elapsed 114.46 s, remaining 33.49 s).
85200000 of 110000000 tuples (77%) done (elapsed 114.63 s, remaining 33.37 s).
85300000 of 110000000 tuples (77%) done (elapsed 114.72 s, remaining 33.22 s).
85400000 of 110000000 tuples (77%) done (elapsed 114.82 s, remaining 33.07 s).
85500000 of 110000000 tuples (77%) done (elapsed 114.91 s, remaining 32.93 s).
85600000 of 110000000 tuples (77%) done (elapsed 115.01 s, remaining 32.78 s).
85700000 of 110000000 tuples (77%) done (elapsed 115.11 s, remaining 32.64 s).
85800000 of 110000000 tuples (78%) done (elapsed 115.28 s, remaining 32.52 s).
85900000 of 110000000 tuples (78%) done (elapsed 115.38 s, remaining 32.37 s).
86000000 of 110000000 tuples (78%) done (elapsed 115.48 s, remaining 32.23 s).
86100000 of 110000000 tuples (78%) done (elapsed 115.58 s, remaining 32.08 s).
86200000 of 110000000 tuples (78%) done (elapsed 115.67 s, remaining 31.94 s).
86300000 of 110000000 tuples (78%) done (elapsed 115.77 s, remaining 31.79 s).
86400000 of 110000000 tuples (78%) done (elapsed 115.94 s, remaining 31.67 s).
86500000 of 110000000 tuples (78%) done (elapsed 116.04 s, remaining 31.53 s).
86600000 of 110000000 tuples (78%) done (elapsed 116.14 s, remaining 31.38 s).
86700000 of 110000000 tuples (78%) done (elapsed 116.24 s, remaining 31.24 s).
86800000 of 110000000 tuples (78%) done (elapsed 116.34 s, remaining 31.09 s).
86900000 of 110000000 tuples (79%) done (elapsed 117.14 s, remaining 31.14 s).
87000000 of 110000000 tuples (79%) done (elapsed 117.16 s, remaining 30.97 s).
87100000 of 110000000 tuples (79%) done (elapsed 117.19 s, remaining 30.81 s).
87200000 of 110000000 tuples (79%) done (elapsed 117.21 s, remaining 30.65 s).
87300000 of 110000000 tuples (79%) done (elapsed 117.29 s, remaining 30.50 s).
87400000 of 110000000 tuples (79%) done (elapsed 117.36 s, remaining 30.35 s).
87500000 of 110000000 tuples (79%) done (elapsed 117.43 s, remaining 30.20 s).
87600000 of 110000000 tuples (79%) done (elapsed 117.51 s, remaining 30.05 s).
87700000 of 110000000 tuples (79%) done (elapsed 117.58 s, remaining 29.90 s).
87800000 of 110000000 tuples (79%) done (elapsed 117.65 s, remaining 29.75 s).
87900000 of 110000000 tuples (79%) done (elapsed 117.73 s, remaining 29.60 s).
88000000 of 110000000 tuples (80%) done (elapsed 117.80 s, remaining 29.45 s).
88100000 of 110000000 tuples (80%) done (elapsed 117.87 s, remaining 29.30 s).
88200000 of 110000000 tuples (80%) done (elapsed 117.95 s, remaining 29.15 s).
88300000 of 110000000 tuples (80%) done (elapsed 118.02 s, remaining 29.00 s).
88400000 of 110000000 tuples (80%) done (elapsed 118.09 s, remaining 28.86 s).
88500000 of 110000000 tuples (80%) done (elapsed 118.17 s, remaining 28.71 s).
88600000 of 110000000 tuples (80%) done (elapsed 118.28 s, remaining 28.57 s).
88700000 of 110000000 tuples (80%) done (elapsed 118.38 s, remaining 28.43 s).
88800000 of 110000000 tuples (80%) done (elapsed 118.48 s, remaining 28.29 s).
88900000 of 110000000 tuples (80%) done (elapsed 118.66 s, remaining 28.16 s).
89000000 of 110000000 tuples (80%) done (elapsed 118.75 s, remaining 28.02 s).
89100000 of 110000000 tuples (81%) done (elapsed 118.86 s, remaining 27.88 s).
89200000 of 110000000 tuples (81%) done (elapsed 118.96 s, remaining 27.74 s).
89300000 of 110000000 tuples (81%) done (elapsed 119.05 s, remaining 27.60 s).
89400000 of 110000000 tuples (81%) done (elapsed 119.16 s, remaining 27.46 s).
89500000 of 110000000 tuples (81%) done (elapsed 119.33 s, remaining 27.33 s).
89600000 of 110000000 tuples (81%) done (elapsed 119.43 s, remaining 27.19 s).
89700000 of 110000000 tuples (81%) done (elapsed 119.53 s, remaining 27.05 s).
89800000 of 110000000 tuples (81%) done (elapsed 119.63 s, remaining 26.91 s).
89900000 of 110000000 tuples (81%) done (elapsed 119.73 s, remaining 26.77 s).
90000000 of 110000000 tuples (81%) done (elapsed 119.84 s, remaining 26.63 s).
90100000 of 110000000 tuples (81%) done (elapsed 119.93 s, remaining 26.49 s).
90200000 of 110000000 tuples (82%) done (elapsed 120.11 s, remaining 26.37 s).
90300000 of 110000000 tuples (82%) done (elapsed 120.21 s, remaining 26.22 s).
90400000 of 110000000 tuples (82%) done (elapsed 120.31 s, remaining 26.08 s).
90500000 of 110000000 tuples (82%) done (elapsed 120.41 s, remaining 25.94 s).
90600000 of 110000000 tuples (82%) done (elapsed 120.51 s, remaining 25.80 s).
90700000 of 110000000 tuples (82%) done (elapsed 120.61 s, remaining 25.67 s).
90800000 of 110000000 tuples (82%) done (elapsed 120.78 s, remaining 25.54 s).
90900000 of 110000000 tuples (82%) done (elapsed 120.89 s, remaining 25.40 s).
91000000 of 110000000 tuples (82%) done (elapsed 120.99 s, remaining 25.26 s).
91100000 of 110000000 tuples (82%) done (elapsed 121.08 s, remaining 25.12 s).
91200000 of 110000000 tuples (82%) done (elapsed 121.19 s, remaining 24.98 s).
91300000 of 110000000 tuples (83%) done (elapsed 121.28 s, remaining 24.84 s).
91400000 of 110000000 tuples (83%) done (elapsed 121.39 s, remaining 24.70 s).
91500000 of 110000000 tuples (83%) done (elapsed 121.56 s, remaining 24.58 s).
91600000 of 110000000 tuples (83%) done (elapsed 122.50 s, remaining 24.61 s).
91700000 of 110000000 tuples (83%) done (elapsed 122.52 s, remaining 24.45 s).
91800000 of 110000000 tuples (83%) done (elapsed 122.55 s, remaining 24.30 s).
91900000 of 110000000 tuples (83%) done (elapsed 122.57 s, remaining 24.14 s).
92000000 of 110000000 tuples (83%) done (elapsed 122.65 s, remaining 24.00 s).
92100000 of 110000000 tuples (83%) done (elapsed 122.72 s, remaining 23.85 s).
92200000 of 110000000 tuples (83%) done (elapsed 122.79 s, remaining 23.71 s).
92300000 of 110000000 tuples (83%) done (elapsed 122.87 s, remaining 23.56 s).
92400000 of 110000000 tuples (84%) done (elapsed 122.94 s, remaining 23.42 s).
92500000 of 110000000 tuples (84%) done (elapsed 123.01 s, remaining 23.27 s).
92600000 of 110000000 tuples (84%) done (elapsed 123.09 s, remaining 23.13 s).
92700000 of 110000000 tuples (84%) done (elapsed 123.16 s, remaining 22.98 s).
92800000 of 110000000 tuples (84%) done (elapsed 123.23 s, remaining 22.84 s).
92900000 of 110000000 tuples (84%) done (elapsed 123.31 s, remaining 22.70 s).
93000000 of 110000000 tuples (84%) done (elapsed 123.38 s, remaining 22.55 s).
93100000 of 110000000 tuples (84%) done (elapsed 123.45 s, remaining 22.41 s).
93200000 of 110000000 tuples (84%) done (elapsed 123.53 s, remaining 22.27 s).
93300000 of 110000000 tuples (84%) done (elapsed 123.60 s, remaining 22.12 s).
93400000 of 110000000 tuples (84%) done (elapsed 123.67 s, remaining 21.98 s).
93500000 of 110000000 tuples (85%) done (elapsed 123.75 s, remaining 21.84 s).
93600000 of 110000000 tuples (85%) done (elapsed 123.82 s, remaining 21.70 s).
93700000 of 110000000 tuples (85%) done (elapsed 123.89 s, remaining 21.55 s).
93800000 of 110000000 tuples (85%) done (elapsed 123.97 s, remaining 21.41 s).
93900000 of 110000000 tuples (85%) done (elapsed 124.04 s, remaining 21.27 s).
94000000 of 110000000 tuples (85%) done (elapsed 124.12 s, remaining 21.13 s).
94100000 of 110000000 tuples (85%) done (elapsed 124.19 s, remaining 20.98 s).
94200000 of 110000000 tuples (85%) done (elapsed 124.28 s, remaining 20.85 s).
94300000 of 110000000 tuples (85%) done (elapsed 124.38 s, remaining 20.71 s).
94400000 of 110000000 tuples (85%) done (elapsed 124.55 s, remaining 20.58 s).
94500000 of 110000000 tuples (85%) done (elapsed 124.65 s, remaining 20.45 s).
94600000 of 110000000 tuples (86%) done (elapsed 124.75 s, remaining 20.31 s).
94700000 of 110000000 tuples (86%) done (elapsed 124.85 s, remaining 20.17 s).
94800000 of 110000000 tuples (86%) done (elapsed 125.37 s, remaining 20.10 s).
94900000 of 110000000 tuples (86%) done (elapsed 125.40 s, remaining 19.95 s).
95000000 of 110000000 tuples (86%) done (elapsed 125.42 s, remaining 19.80 s).
95100000 of 110000000 tuples (86%) done (elapsed 125.45 s, remaining 19.65 s).
95200000 of 110000000 tuples (86%) done (elapsed 125.52 s, remaining 19.51 s).
95300000 of 110000000 tuples (86%) done (elapsed 125.59 s, remaining 19.37 s).
95400000 of 110000000 tuples (86%) done (elapsed 125.67 s, remaining 19.23 s).
95500000 of 110000000 tuples (86%) done (elapsed 125.74 s, remaining 19.09 s).
95600000 of 110000000 tuples (86%) done (elapsed 125.84 s, remaining 18.96 s).
95700000 of 110000000 tuples (87%) done (elapsed 125.94 s, remaining 18.82 s).
95800000 of 110000000 tuples (87%) done (elapsed 126.12 s, remaining 18.69 s).
95900000 of 110000000 tuples (87%) done (elapsed 126.22 s, remaining 18.56 s).
96000000 of 110000000 tuples (87%) done (elapsed 126.32 s, remaining 18.42 s).
96100000 of 110000000 tuples (87%) done (elapsed 126.42 s, remaining 18.29 s).
96200000 of 110000000 tuples (87%) done (elapsed 126.52 s, remaining 18.15 s).
96300000 of 110000000 tuples (87%) done (elapsed 126.62 s, remaining 18.01 s).
96400000 of 110000000 tuples (87%) done (elapsed 126.90 s, remaining 17.90 s).
96500000 of 110000000 tuples (87%) done (elapsed 127.02 s, remaining 17.77 s).
96600000 of 110000000 tuples (87%) done (elapsed 127.12 s, remaining 17.63 s).
96700000 of 110000000 tuples (87%) done (elapsed 127.22 s, remaining 17.50 s).
96800000 of 110000000 tuples (88%) done (elapsed 127.32 s, remaining 17.36 s).
96900000 of 110000000 tuples (88%) done (elapsed 127.42 s, remaining 17.23 s).
97000000 of 110000000 tuples (88%) done (elapsed 127.59 s, remaining 17.10 s).
97100000 of 110000000 tuples (88%) done (elapsed 127.70 s, remaining 16.96 s).
97200000 of 110000000 tuples (88%) done (elapsed 127.79 s, remaining 16.83 s).
97300000 of 110000000 tuples (88%) done (elapsed 127.89 s, remaining 16.69 s).
97400000 of 110000000 tuples (88%) done (elapsed 127.99 s, remaining 16.56 s).
97500000 of 110000000 tuples (88%) done (elapsed 128.09 s, remaining 16.42 s).
97600000 of 110000000 tuples (88%) done (elapsed 128.27 s, remaining 16.30 s).
97700000 of 110000000 tuples (88%) done (elapsed 128.37 s, remaining 16.16 s).
97800000 of 110000000 tuples (88%) done (elapsed 128.47 s, remaining 16.03 s).
97900000 of 110000000 tuples (89%) done (elapsed 128.57 s, remaining 15.89 s).
98000000 of 110000000 tuples (89%) done (elapsed 128.67 s, remaining 15.76 s).
98100000 of 110000000 tuples (89%) done (elapsed 128.77 s, remaining 15.62 s).
98200000 of 110000000 tuples (89%) done (elapsed 128.94 s, remaining 15.49 s).
98300000 of 110000000 tuples (89%) done (elapsed 129.04 s, remaining 15.36 s).
98400000 of 110000000 tuples (89%) done (elapsed 129.14 s, remaining 15.22 s).
98500000 of 110000000 tuples (89%) done (elapsed 129.24 s, remaining 15.09 s).
98600000 of 110000000 tuples (89%) done (elapsed 129.34 s, remaining 14.95 s).
98700000 of 110000000 tuples (89%) done (elapsed 129.44 s, remaining 14.82 s).
98800000 of 110000000 tuples (89%) done (elapsed 129.54 s, remaining 14.68 s).
98900000 of 110000000 tuples (89%) done (elapsed 129.72 s, remaining 14.56 s).
99000000 of 110000000 tuples (90%) done (elapsed 129.81 s, remaining 14.42 s).
99100000 of 110000000 tuples (90%) done (elapsed 129.91 s, remaining 14.29 s).
99200000 of 110000000 tuples (90%) done (elapsed 130.02 s, remaining 14.15 s).
99300000 of 110000000 tuples (90%) done (elapsed 130.11 s, remaining 14.02 s).
99400000 of 110000000 tuples (90%) done (elapsed 130.22 s, remaining 13.89 s).
99500000 of 110000000 tuples (90%) done (elapsed 130.32 s, remaining 13.75 s).
99600000 of 110000000 tuples (90%) done (elapsed 130.49 s, remaining 13.63 s).
99700000 of 110000000 tuples (90%) done (elapsed 130.59 s, remaining 13.49 s).
99800000 of 110000000 tuples (90%) done (elapsed 130.70 s, remaining 13.36 s).
99900000 of 110000000 tuples (90%) done (elapsed 130.79 s, remaining 13.22 s).
100000000 of 110000000 tuples (90%) done (elapsed 130.89 s, remaining 13.09 s).
100100000 of 110000000 tuples (91%) done (elapsed 131.07 s, remaining 12.96 s).
100200000 of 110000000 tuples (91%) done (elapsed 131.17 s, remaining 12.83 s).
100300000 of 110000000 tuples (91%) done (elapsed 131.26 s, remaining 12.69 s).
100400000 of 110000000 tuples (91%) done (elapsed 131.35 s, remaining 12.56 s).
100500000 of 110000000 tuples (91%) done (elapsed 131.52 s, remaining 12.43 s).
100600000 of 110000000 tuples (91%) done (elapsed 131.61 s, remaining 12.30 s).
100700000 of 110000000 tuples (91%) done (elapsed 131.71 s, remaining 12.16 s).
100800000 of 110000000 tuples (91%) done (elapsed 131.80 s, remaining 12.03 s).
100900000 of 110000000 tuples (91%) done (elapsed 131.96 s, remaining 11.90 s).
101000000 of 110000000 tuples (91%) done (elapsed 132.05 s, remaining 11.77 s).
101100000 of 110000000 tuples (91%) done (elapsed 132.15 s, remaining 11.63 s).
101200000 of 110000000 tuples (92%) done (elapsed 132.24 s, remaining 11.50 s).
101300000 of 110000000 tuples (92%) done (elapsed 132.39 s, remaining 11.37 s).
101400000 of 110000000 tuples (92%) done (elapsed 132.47 s, remaining 11.24 s).
101500000 of 110000000 tuples (92%) done (elapsed 132.55 s, remaining 11.10 s).
101600000 of 110000000 tuples (92%) done (elapsed 132.64 s, remaining 10.97 s).
101700000 of 110000000 tuples (92%) done (elapsed 132.79 s, remaining 10.84 s).
101800000 of 110000000 tuples (92%) done (elapsed 132.88 s, remaining 10.70 s).
101900000 of 110000000 tuples (92%) done (elapsed 132.96 s, remaining 10.57 s).
102000000 of 110000000 tuples (92%) done (elapsed 133.05 s, remaining 10.44 s).
102100000 of 110000000 tuples (92%) done (elapsed 133.20 s, remaining 10.31 s).
102200000 of 110000000 tuples (92%) done (elapsed 133.30 s, remaining 10.17 s).
102300000 of 110000000 tuples (93%) done (elapsed 133.39 s, remaining 10.04 s).
102400000 of 110000000 tuples (93%) done (elapsed 133.48 s, remaining 9.91 s).
102500000 of 110000000 tuples (93%) done (elapsed 133.64 s, remaining 9.78 s).
102600000 of 110000000 tuples (93%) done (elapsed 133.73 s, remaining 9.64 s).
102700000 of 110000000 tuples (93%) done (elapsed 133.82 s, remaining 9.51 s).
102800000 of 110000000 tuples (93%) done (elapsed 133.97 s, remaining 9.38 s).
102900000 of 110000000 tuples (93%) done (elapsed 134.06 s, remaining 9.25 s).
103000000 of 110000000 tuples (93%) done (elapsed 134.15 s, remaining 9.12 s).
103100000 of 110000000 tuples (93%) done (elapsed 134.24 s, remaining 8.98 s).
103200000 of 110000000 tuples (93%) done (elapsed 134.40 s, remaining 8.86 s).
103300000 of 110000000 tuples (93%) done (elapsed 134.49 s, remaining 8.72 s).
103400000 of 110000000 tuples (94%) done (elapsed 134.57 s, remaining 8.59 s).
103500000 of 110000000 tuples (94%) done (elapsed 134.65 s, remaining 8.46 s).
103600000 of 110000000 tuples (94%) done (elapsed 134.74 s, remaining 8.32 s).
103700000 of 110000000 tuples (94%) done (elapsed 134.88 s, remaining 8.19 s).
103800000 of 110000000 tuples (94%) done (elapsed 134.97 s, remaining 8.06 s).
103900000 of 110000000 tuples (94%) done (elapsed 135.05 s, remaining 7.93 s).
104000000 of 110000000 tuples (94%) done (elapsed 135.14 s, remaining 7.80 s).
104100000 of 110000000 tuples (94%) done (elapsed 135.29 s, remaining 7.67 s).
104200000 of 110000000 tuples (94%) done (elapsed 135.37 s, remaining 7.53 s).
104300000 of 110000000 tuples (94%) done (elapsed 135.46 s, remaining 7.40 s).
104400000 of 110000000 tuples (94%) done (elapsed 135.54 s, remaining 7.27 s).
104500000 of 110000000 tuples (95%) done (elapsed 135.68 s, remaining 7.14 s).
104600000 of 110000000 tuples (95%) done (elapsed 135.77 s, remaining 7.01 s).
104700000 of 110000000 tuples (95%) done (elapsed 135.85 s, remaining 6.88 s).
104800000 of 110000000 tuples (95%) done (elapsed 135.94 s, remaining 6.75 s).
104900000 of 110000000 tuples (95%) done (elapsed 136.08 s, remaining 6.62 s).
105000000 of 110000000 tuples (95%) done (elapsed 136.17 s, remaining 6.48 s).
105100000 of 110000000 tuples (95%) done (elapsed 136.25 s, remaining 6.35 s).
105200000 of 110000000 tuples (95%) done (elapsed 136.33 s, remaining 6.22 s).
105300000 of 110000000 tuples (95%) done (elapsed 136.42 s, remaining 6.09 s).
105400000 of 110000000 tuples (95%) done (elapsed 136.56 s, remaining 5.96 s).
105500000 of 110000000 tuples (95%) done (elapsed 136.65 s, remaining 5.83 s).
105600000 of 110000000 tuples (96%) done (elapsed 136.73 s, remaining 5.70 s).
105700000 of 110000000 tuples (96%) done (elapsed 136.82 s, remaining 5.57 s).
105800000 of 110000000 tuples (96%) done (elapsed 136.96 s, remaining 5.44 s).
105900000 of 110000000 tuples (96%) done (elapsed 137.05 s, remaining 5.31 s).
106000000 of 110000000 tuples (96%) done (elapsed 138.05 s, remaining 5.21 s).
106100000 of 110000000 tuples (96%) done (elapsed 138.12 s, remaining 5.08 s).
106200000 of 110000000 tuples (96%) done (elapsed 138.20 s, remaining 4.94 s).
106300000 of 110000000 tuples (96%) done (elapsed 138.27 s, remaining 4.81 s).
106400000 of 110000000 tuples (96%) done (elapsed 138.34 s, remaining 4.68 s).
106500000 of 110000000 tuples (96%) done (elapsed 138.41 s, remaining 4.55 s).
106600000 of 110000000 tuples (96%) done (elapsed 138.53 s, remaining 4.42 s).
106700000 of 110000000 tuples (97%) done (elapsed 138.60 s, remaining 4.29 s).
106800000 of 110000000 tuples (97%) done (elapsed 138.67 s, remaining 4.15 s).
106900000 of 110000000 tuples (97%) done (elapsed 138.74 s, remaining 4.02 s).
107000000 of 110000000 tuples (97%) done (elapsed 138.81 s, remaining 3.89 s).
107100000 of 110000000 tuples (97%) done (elapsed 138.88 s, remaining 3.76 s).
107200000 of 110000000 tuples (97%) done (elapsed 138.96 s, remaining 3.63 s).
107300000 of 110000000 tuples (97%) done (elapsed 139.03 s, remaining 3.50 s).
107400000 of 110000000 tuples (97%) done (elapsed 139.10 s, remaining 3.37 s).
107500000 of 110000000 tuples (97%) done (elapsed 139.17 s, remaining 3.24 s).
107600000 of 110000000 tuples (97%) done (elapsed 139.29 s, remaining 3.11 s).
107700000 of 110000000 tuples (97%) done (elapsed 139.36 s, remaining 2.98 s).
107800000 of 110000000 tuples (98%) done (elapsed 139.43 s, remaining 2.85 s).
107900000 of 110000000 tuples (98%) done (elapsed 139.50 s, remaining 2.71 s).
108000000 of 110000000 tuples (98%) done (elapsed 139.57 s, remaining 2.58 s).
108100000 of 110000000 tuples (98%) done (elapsed 139.64 s, remaining 2.45 s).
108200000 of 110000000 tuples (98%) done (elapsed 139.71 s, remaining 2.32 s).
108300000 of 110000000 tuples (98%) done (elapsed 139.78 s, remaining 2.19 s).
108400000 of 110000000 tuples (98%) done (elapsed 139.85 s, remaining 2.06 s).
108500000 of 110000000 tuples (98%) done (elapsed 139.93 s, remaining 1.93 s).
108600000 of 110000000 tuples (98%) done (elapsed 140.04 s, remaining 1.81 s).
108700000 of 110000000 tuples (98%) done (elapsed 140.11 s, remaining 1.68 s).
108800000 of 110000000 tuples (98%) done (elapsed 140.19 s, remaining 1.55 s).
108900000 of 110000000 tuples (99%) done (elapsed 140.26 s, remaining 1.42 s).
109000000 of 110000000 tuples (99%) done (elapsed 140.33 s, remaining 1.29 s).
109100000 of 110000000 tuples (99%) done (elapsed 140.40 s, remaining 1.16 s).
109200000 of 110000000 tuples (99%) done (elapsed 140.47 s, remaining 1.03 s).
109300000 of 110000000 tuples (99%) done (elapsed 140.54 s, remaining 0.90 s).
109400000 of 110000000 tuples (99%) done (elapsed 140.61 s, remaining 0.77 s).
109500000 of 110000000 tuples (99%) done (elapsed 140.68 s, remaining 0.64 s).
109600000 of 110000000 tuples (99%) done (elapsed 140.80 s, remaining 0.51 s).
109700000 of 110000000 tuples (99%) done (elapsed 140.87 s, remaining 0.39 s).
109800000 of 110000000 tuples (99%) done (elapsed 140.95 s, remaining 0.26 s).
109900000 of 110000000 tuples (99%) done (elapsed 141.02 s, remaining 0.13 s).
110000000 of 110000000 tuples (100%) done (elapsed 141.09 s, remaining 0.00 s).
vacuum...
set primary keys...
done.
