vacuumdb: vacuuming database "pgbench"
vacuumdb: vacuuming database "postgres"
vacuumdb: vacuuming database "template1"
vacuumdb: vacuuming database "pgbench"
vacuumdb: vacuuming database "postgres"
vacuumdb: vacuuming database "template1"
