CHECKPOINT
transaction type: TPC-B (sort of)
scaling factor: 10
query mode: simple
number of clients: 8
number of threads: 8
duration: 1800 s
number of transactions actually processed: 4945613
latency average: 2.912 ms
tps = 2747.546712 (including connections establishing)
tps = 2747.551615 (excluding connections establishing)
