CHECKPOINT
transaction type: SELECT only
scaling factor: 140
query mode: simple
number of clients: 2
number of threads: 2
duration: 1800 s
number of transactions actually processed: 43014326
latency average: 0.084 ms
tps = 23896.845826 (including connections establishing)
tps = 23896.864287 (excluding connections establishing)
