NOTICE:  table "pgbench_history" does not exist, skipping
NOTICE:  table "pgbench_tellers" does not exist, skipping
NOTICE:  table "pgbench_accounts" does not exist, skipping
NOTICE:  table "pgbench_branches" does not exist, skipping
creating tables...
100000 of 110000000 tuples (0%) done (elapsed 0.02 s, remaining 26.14 s).
200000 of 110000000 tuples (0%) done (elapsed 0.05 s, remaining 26.21 s).
300000 of 110000000 tuples (0%) done (elapsed 0.07 s, remaining 26.02 s).
400000 of 110000000 tuples (0%) done (elapsed 0.09 s, remaining 25.91 s).
500000 of 110000000 tuples (0%) done (elapsed 0.15 s, remaining 33.83 s).
600000 of 110000000 tuples (0%) done (elapsed 0.49 s, remaining 90.14 s).
700000 of 110000000 tuples (0%) done (elapsed 0.55 s, remaining 86.30 s).
800000 of 110000000 tuples (0%) done (elapsed 0.61 s, remaining 83.46 s).
900000 of 110000000 tuples (0%) done (elapsed 0.88 s, remaining 106.70 s).
1000000 of 110000000 tuples (0%) done (elapsed 1.03 s, remaining 111.76 s).
1100000 of 110000000 tuples (1%) done (elapsed 1.08 s, remaining 107.38 s).
1200000 of 110000000 tuples (1%) done (elapsed 1.43 s, remaining 129.97 s).
1300000 of 110000000 tuples (1%) done (elapsed 1.49 s, remaining 124.55 s).
1400000 of 110000000 tuples (1%) done (elapsed 1.77 s, remaining 136.99 s).
1500000 of 110000000 tuples (1%) done (elapsed 1.91 s, remaining 138.33 s).
1600000 of 110000000 tuples (1%) done (elapsed 2.00 s, remaining 135.59 s).
1700000 of 110000000 tuples (1%) done (elapsed 2.06 s, remaining 131.00 s).
1800000 of 110000000 tuples (1%) done (elapsed 2.42 s, remaining 145.37 s).
1900000 of 110000000 tuples (1%) done (elapsed 2.67 s, remaining 151.95 s).
2000000 of 110000000 tuples (1%) done (elapsed 2.86 s, remaining 154.45 s).
2100000 of 110000000 tuples (1%) done (elapsed 2.92 s, remaining 149.80 s).
2200000 of 110000000 tuples (2%) done (elapsed 3.04 s, remaining 148.93 s).
2300000 of 110000000 tuples (2%) done (elapsed 3.33 s, remaining 156.11 s).
2400000 of 110000000 tuples (2%) done (elapsed 3.63 s, remaining 162.92 s).
2500000 of 110000000 tuples (2%) done (elapsed 3.81 s, remaining 164.04 s).
2600000 of 110000000 tuples (2%) done (elapsed 3.87 s, remaining 159.95 s).
2700000 of 110000000 tuples (2%) done (elapsed 3.96 s, remaining 157.33 s).
2800000 of 110000000 tuples (2%) done (elapsed 4.28 s, remaining 163.74 s).
2900000 of 110000000 tuples (2%) done (elapsed 4.57 s, remaining 168.95 s).
3000000 of 110000000 tuples (2%) done (elapsed 4.75 s, remaining 169.52 s).
3100000 of 110000000 tuples (2%) done (elapsed 4.81 s, remaining 165.82 s).
3200000 of 110000000 tuples (2%) done (elapsed 5.20 s, remaining 173.56 s).
3300000 of 110000000 tuples (3%) done (elapsed 5.26 s, remaining 169.93 s).
3400000 of 110000000 tuples (3%) done (elapsed 5.52 s, remaining 173.01 s).
3500000 of 110000000 tuples (3%) done (elapsed 5.70 s, remaining 173.51 s).
3600000 of 110000000 tuples (3%) done (elapsed 5.76 s, remaining 170.18 s).
3700000 of 110000000 tuples (3%) done (elapsed 5.85 s, remaining 168.00 s).
3800000 of 110000000 tuples (3%) done (elapsed 6.22 s, remaining 173.70 s).
3900000 of 110000000 tuples (3%) done (elapsed 6.47 s, remaining 176.12 s).
4000000 of 110000000 tuples (3%) done (elapsed 6.66 s, remaining 176.40 s).
4100000 of 110000000 tuples (3%) done (elapsed 6.71 s, remaining 173.39 s).
4200000 of 110000000 tuples (3%) done (elapsed 6.84 s, remaining 172.24 s).
4300000 of 110000000 tuples (3%) done (elapsed 7.14 s, remaining 175.57 s).
4400000 of 110000000 tuples (4%) done (elapsed 7.45 s, remaining 178.77 s).
4500000 of 110000000 tuples (4%) done (elapsed 7.62 s, remaining 178.61 s).
4600000 of 110000000 tuples (4%) done (elapsed 7.68 s, remaining 175.92 s).
4700000 of 110000000 tuples (4%) done (elapsed 8.07 s, remaining 180.73 s).
4800000 of 110000000 tuples (4%) done (elapsed 8.12 s, remaining 178.01 s).
4900000 of 110000000 tuples (4%) done (elapsed 8.42 s, remaining 180.60 s).
5000000 of 110000000 tuples (4%) done (elapsed 8.57 s, remaining 180.00 s).
5100000 of 110000000 tuples (4%) done (elapsed 8.66 s, remaining 178.10 s).
5200000 of 110000000 tuples (4%) done (elapsed 8.71 s, remaining 175.63 s).
5300000 of 110000000 tuples (4%) done (elapsed 9.10 s, remaining 179.68 s).
5400000 of 110000000 tuples (4%) done (elapsed 9.36 s, remaining 181.36 s).
5500000 of 110000000 tuples (5%) done (elapsed 9.54 s, remaining 181.26 s).
5600000 of 110000000 tuples (5%) done (elapsed 9.63 s, remaining 179.57 s).
5700000 of 110000000 tuples (5%) done (elapsed 9.72 s, remaining 177.94 s).
5800000 of 110000000 tuples (5%) done (elapsed 10.08 s, remaining 181.07 s).
5900000 of 110000000 tuples (5%) done (elapsed 10.37 s, remaining 182.90 s).
6000000 of 110000000 tuples (5%) done (elapsed 10.52 s, remaining 182.28 s).
6100000 of 110000000 tuples (5%) done (elapsed 10.60 s, remaining 180.62 s).
6200000 of 110000000 tuples (5%) done (elapsed 10.98 s, remaining 183.77 s).
6300000 of 110000000 tuples (5%) done (elapsed 11.28 s, remaining 185.60 s).
6400000 of 110000000 tuples (5%) done (elapsed 11.33 s, remaining 183.41 s).
6500000 of 110000000 tuples (5%) done (elapsed 11.52 s, remaining 183.40 s).
6600000 of 110000000 tuples (6%) done (elapsed 11.58 s, remaining 181.35 s).
6700000 of 110000000 tuples (6%) done (elapsed 11.99 s, remaining 184.85 s).
6800000 of 110000000 tuples (6%) done (elapsed 12.04 s, remaining 182.80 s).
6900000 of 110000000 tuples (6%) done (elapsed 12.35 s, remaining 184.58 s).
7000000 of 110000000 tuples (6%) done (elapsed 12.53 s, remaining 184.43 s).
7100000 of 110000000 tuples (6%) done (elapsed 12.59 s, remaining 182.48 s).
7200000 of 110000000 tuples (6%) done (elapsed 13.00 s, remaining 185.57 s).
7300000 of 110000000 tuples (6%) done (elapsed 13.29 s, remaining 187.04 s).
7400000 of 110000000 tuples (6%) done (elapsed 13.35 s, remaining 185.09 s).
7500000 of 110000000 tuples (6%) done (elapsed 13.54 s, remaining 185.07 s).
7600000 of 110000000 tuples (6%) done (elapsed 13.60 s, remaining 183.30 s).
7700000 of 110000000 tuples (7%) done (elapsed 14.01 s, remaining 186.13 s).
7800000 of 110000000 tuples (7%) done (elapsed 14.33 s, remaining 187.76 s).
7900000 of 110000000 tuples (7%) done (elapsed 14.52 s, remaining 187.69 s).
8000000 of 110000000 tuples (7%) done (elapsed 14.58 s, remaining 185.92 s).
8100000 of 110000000 tuples (7%) done (elapsed 14.71 s, remaining 185.10 s).
8200000 of 110000000 tuples (7%) done (elapsed 15.05 s, remaining 186.90 s).
8300000 of 110000000 tuples (7%) done (elapsed 15.26 s, remaining 186.99 s).
8400000 of 110000000 tuples (7%) done (elapsed 15.75 s, remaining 190.48 s).
8500000 of 110000000 tuples (7%) done (elapsed 15.80 s, remaining 188.72 s).
8600000 of 110000000 tuples (7%) done (elapsed 15.86 s, remaining 186.99 s).
8700000 of 110000000 tuples (7%) done (elapsed 16.31 s, remaining 189.89 s).
8800000 of 110000000 tuples (8%) done (elapsed 16.39 s, remaining 188.54 s).
8900000 of 110000000 tuples (8%) done (elapsed 16.68 s, remaining 189.51 s).
9000000 of 110000000 tuples (8%) done (elapsed 16.88 s, remaining 189.47 s).
9100000 of 110000000 tuples (8%) done (elapsed 16.94 s, remaining 187.82 s).
9200000 of 110000000 tuples (8%) done (elapsed 17.01 s, remaining 186.34 s).
9300000 of 110000000 tuples (8%) done (elapsed 17.58 s, remaining 190.38 s).
9400000 of 110000000 tuples (8%) done (elapsed 17.64 s, remaining 188.76 s).
9500000 of 110000000 tuples (8%) done (elapsed 17.72 s, remaining 187.51 s).
9600000 of 110000000 tuples (8%) done (elapsed 18.19 s, remaining 190.28 s).
9700000 of 110000000 tuples (8%) done (elapsed 18.25 s, remaining 188.70 s).
9800000 of 110000000 tuples (8%) done (elapsed 18.56 s, remaining 189.81 s).
9900000 of 110000000 tuples (9%) done (elapsed 18.78 s, remaining 189.90 s).
10000000 of 110000000 tuples (9%) done (elapsed 18.84 s, remaining 188.37 s).
10100000 of 110000000 tuples (9%) done (elapsed 18.95 s, remaining 187.40 s).
10200000 of 110000000 tuples (9%) done (elapsed 19.56 s, remaining 191.41 s).
10300000 of 110000000 tuples (9%) done (elapsed 19.62 s, remaining 189.87 s).
10400000 of 110000000 tuples (9%) done (elapsed 20.07 s, remaining 192.25 s).
10500000 of 110000000 tuples (9%) done (elapsed 20.16 s, remaining 191.02 s).
10600000 of 110000000 tuples (9%) done (elapsed 20.21 s, remaining 189.53 s).
10700000 of 110000000 tuples (9%) done (elapsed 20.55 s, remaining 190.75 s).
10800000 of 110000000 tuples (9%) done (elapsed 20.75 s, remaining 190.56 s).
10900000 of 110000000 tuples (9%) done (elapsed 20.85 s, remaining 189.53 s).
11000000 of 110000000 tuples (10%) done (elapsed 21.46 s, remaining 193.15 s).
11100000 of 110000000 tuples (10%) done (elapsed 21.52 s, remaining 191.70 s).
11200000 of 110000000 tuples (10%) done (elapsed 21.60 s, remaining 190.54 s).
11300000 of 110000000 tuples (10%) done (elapsed 22.04 s, remaining 192.54 s).
11400000 of 110000000 tuples (10%) done (elapsed 22.13 s, remaining 191.38 s).
11500000 of 110000000 tuples (10%) done (elapsed 22.48 s, remaining 192.55 s).
11600000 of 110000000 tuples (10%) done (elapsed 22.53 s, remaining 191.15 s).
11700000 of 110000000 tuples (10%) done (elapsed 22.74 s, remaining 191.05 s).
11800000 of 110000000 tuples (10%) done (elapsed 22.84 s, remaining 190.10 s).
11900000 of 110000000 tuples (10%) done (elapsed 23.42 s, remaining 193.08 s).
12000000 of 110000000 tuples (10%) done (elapsed 23.51 s, remaining 191.96 s).
12100000 of 110000000 tuples (11%) done (elapsed 23.56 s, remaining 190.62 s).
12200000 of 110000000 tuples (11%) done (elapsed 24.04 s, remaining 192.71 s).
12300000 of 110000000 tuples (11%) done (elapsed 24.12 s, remaining 191.60 s).
12400000 of 110000000 tuples (11%) done (elapsed 24.43 s, remaining 192.26 s).
12500000 of 110000000 tuples (11%) done (elapsed 24.63 s, remaining 192.15 s).
12600000 of 110000000 tuples (11%) done (elapsed 24.73 s, remaining 191.15 s).
12700000 of 110000000 tuples (11%) done (elapsed 24.78 s, remaining 189.87 s).
12800000 of 110000000 tuples (11%) done (elapsed 25.41 s, remaining 192.98 s).
12900000 of 110000000 tuples (11%) done (elapsed 25.50 s, remaining 191.92 s).
13000000 of 110000000 tuples (11%) done (elapsed 25.97 s, remaining 193.75 s).
13100000 of 110000000 tuples (11%) done (elapsed 26.05 s, remaining 192.70 s).
13200000 of 110000000 tuples (12%) done (elapsed 26.10 s, remaining 191.43 s).
13300000 of 110000000 tuples (12%) done (elapsed 26.46 s, remaining 192.36 s).
13400000 of 110000000 tuples (12%) done (elapsed 26.68 s, remaining 192.32 s).
13500000 of 110000000 tuples (12%) done (elapsed 26.75 s, remaining 191.20 s).
13600000 of 110000000 tuples (12%) done (elapsed 27.41 s, remaining 194.29 s).
13700000 of 110000000 tuples (12%) done (elapsed 27.49 s, remaining 193.25 s).
13800000 of 110000000 tuples (12%) done (elapsed 27.55 s, remaining 192.02 s).
13900000 of 110000000 tuples (12%) done (elapsed 28.04 s, remaining 193.84 s).
14000000 of 110000000 tuples (12%) done (elapsed 28.09 s, remaining 192.62 s).
14100000 of 110000000 tuples (12%) done (elapsed 28.44 s, remaining 193.45 s).
14200000 of 110000000 tuples (12%) done (elapsed 28.65 s, remaining 193.32 s).
14300000 of 110000000 tuples (13%) done (elapsed 28.75 s, remaining 192.38 s).
14400000 of 110000000 tuples (13%) done (elapsed 28.80 s, remaining 191.19 s).
14500000 of 110000000 tuples (13%) done (elapsed 29.49 s, remaining 194.23 s).
14600000 of 110000000 tuples (13%) done (elapsed 29.54 s, remaining 193.05 s).
14700000 of 110000000 tuples (13%) done (elapsed 30.04 s, remaining 194.75 s).
14800000 of 110000000 tuples (13%) done (elapsed 30.12 s, remaining 193.77 s).
14900000 of 110000000 tuples (13%) done (elapsed 30.45 s, remaining 194.35 s).
15000000 of 110000000 tuples (13%) done (elapsed 30.67 s, remaining 194.26 s).
15100000 of 110000000 tuples (13%) done (elapsed 30.73 s, remaining 193.11 s).
15200000 of 110000000 tuples (13%) done (elapsed 30.83 s, remaining 192.26 s).
15300000 of 110000000 tuples (13%) done (elapsed 31.39 s, remaining 194.31 s).
15400000 of 110000000 tuples (14%) done (elapsed 31.48 s, remaining 193.36 s).
15500000 of 110000000 tuples (14%) done (elapsed 31.53 s, remaining 192.24 s).
15600000 of 110000000 tuples (14%) done (elapsed 32.01 s, remaining 193.71 s).
15700000 of 110000000 tuples (14%) done (elapsed 32.36 s, remaining 194.38 s).
15800000 of 110000000 tuples (14%) done (elapsed 32.42 s, remaining 193.27 s).
15900000 of 110000000 tuples (14%) done (elapsed 32.63 s, remaining 193.11 s).
16000000 of 110000000 tuples (14%) done (elapsed 32.70 s, remaining 192.10 s).
16100000 of 110000000 tuples (14%) done (elapsed 32.78 s, remaining 191.19 s).
16200000 of 110000000 tuples (14%) done (elapsed 32.83 s, remaining 190.12 s).
16300000 of 110000000 tuples (14%) done (elapsed 32.92 s, remaining 189.22 s).
16400000 of 110000000 tuples (14%) done (elapsed 33.87 s, remaining 193.33 s).
16500000 of 110000000 tuples (15%) done (elapsed 33.96 s, remaining 192.42 s).
16600000 of 110000000 tuples (15%) done (elapsed 34.01 s, remaining 191.37 s).
16700000 of 110000000 tuples (15%) done (elapsed 34.50 s, remaining 192.75 s).
16800000 of 110000000 tuples (15%) done (elapsed 34.55 s, remaining 191.70 s).
16900000 of 110000000 tuples (15%) done (elapsed 34.64 s, remaining 190.82 s).
17000000 of 110000000 tuples (15%) done (elapsed 34.98 s, remaining 191.34 s).
17100000 of 110000000 tuples (15%) done (elapsed 35.16 s, remaining 191.02 s).
17200000 of 110000000 tuples (15%) done (elapsed 35.25 s, remaining 190.16 s).
17300000 of 110000000 tuples (15%) done (elapsed 35.89 s, remaining 192.31 s).
17400000 of 110000000 tuples (15%) done (elapsed 35.94 s, remaining 191.29 s).
17500000 of 110000000 tuples (15%) done (elapsed 36.03 s, remaining 190.43 s).
17600000 of 110000000 tuples (16%) done (elapsed 36.49 s, remaining 191.56 s).
17700000 of 110000000 tuples (16%) done (elapsed 36.57 s, remaining 190.70 s).
17800000 of 110000000 tuples (16%) done (elapsed 36.91 s, remaining 191.17 s).
17900000 of 110000000 tuples (16%) done (elapsed 36.96 s, remaining 190.17 s).
18000000 of 110000000 tuples (16%) done (elapsed 37.17 s, remaining 189.97 s).
18100000 of 110000000 tuples (16%) done (elapsed 37.25 s, remaining 189.16 s).
18200000 of 110000000 tuples (16%) done (elapsed 37.86 s, remaining 190.95 s).
18300000 of 110000000 tuples (16%) done (elapsed 37.91 s, remaining 189.97 s).
18400000 of 110000000 tuples (16%) done (elapsed 38.41 s, remaining 191.21 s).
18500000 of 110000000 tuples (16%) done (elapsed 38.46 s, remaining 190.23 s).
18600000 of 110000000 tuples (16%) done (elapsed 38.75 s, remaining 190.41 s).
18700000 of 110000000 tuples (17%) done (elapsed 38.95 s, remaining 190.16 s).
18800000 of 110000000 tuples (17%) done (elapsed 39.00 s, remaining 189.21 s).
18900000 of 110000000 tuples (17%) done (elapsed 39.09 s, remaining 188.44 s).
19000000 of 110000000 tuples (17%) done (elapsed 39.70 s, remaining 190.17 s).
19100000 of 110000000 tuples (17%) done (elapsed 39.79 s, remaining 189.36 s).
19200000 of 110000000 tuples (17%) done (elapsed 40.25 s, remaining 190.34 s).
19300000 of 110000000 tuples (17%) done (elapsed 40.30 s, remaining 189.40 s).
19400000 of 110000000 tuples (17%) done (elapsed 40.62 s, remaining 189.70 s).
19500000 of 110000000 tuples (17%) done (elapsed 40.67 s, remaining 188.77 s).
19600000 of 110000000 tuples (17%) done (elapsed 40.89 s, remaining 188.57 s).
19700000 of 110000000 tuples (17%) done (elapsed 40.94 s, remaining 187.66 s).
19800000 of 110000000 tuples (18%) done (elapsed 41.57 s, remaining 189.40 s).
19900000 of 110000000 tuples (18%) done (elapsed 41.66 s, remaining 188.61 s).
20000000 of 110000000 tuples (18%) done (elapsed 41.71 s, remaining 187.70 s).
20100000 of 110000000 tuples (18%) done (elapsed 42.17 s, remaining 188.62 s).
20200000 of 110000000 tuples (18%) done (elapsed 42.52 s, remaining 189.03 s).
20300000 of 110000000 tuples (18%) done (elapsed 42.58 s, remaining 188.13 s).
20400000 of 110000000 tuples (18%) done (elapsed 42.79 s, remaining 187.94 s).
20500000 of 110000000 tuples (18%) done (elapsed 42.86 s, remaining 187.11 s).
20600000 of 110000000 tuples (18%) done (elapsed 42.94 s, remaining 186.35 s).
20700000 of 110000000 tuples (18%) done (elapsed 42.99 s, remaining 185.48 s).
20800000 of 110000000 tuples (18%) done (elapsed 43.49 s, remaining 186.49 s).
20900000 of 110000000 tuples (19%) done (elapsed 44.09 s, remaining 187.98 s).
21000000 of 110000000 tuples (19%) done (elapsed 44.15 s, remaining 187.10 s).
21100000 of 110000000 tuples (19%) done (elapsed 44.23 s, remaining 186.35 s).
21200000 of 110000000 tuples (19%) done (elapsed 44.68 s, remaining 187.15 s).
21300000 of 110000000 tuples (19%) done (elapsed 44.76 s, remaining 186.41 s).
21400000 of 110000000 tuples (19%) done (elapsed 45.09 s, remaining 186.70 s).
21500000 of 110000000 tuples (19%) done (elapsed 45.15 s, remaining 185.84 s).
21600000 of 110000000 tuples (19%) done (elapsed 45.34 s, remaining 185.57 s).
21700000 of 110000000 tuples (19%) done (elapsed 45.43 s, remaining 184.85 s).
21800000 of 110000000 tuples (19%) done (elapsed 46.09 s, remaining 186.47 s).
21900000 of 110000000 tuples (19%) done (elapsed 46.14 s, remaining 185.62 s).
22000000 of 110000000 tuples (20%) done (elapsed 46.69 s, remaining 186.77 s).
22100000 of 110000000 tuples (20%) done (elapsed 46.75 s, remaining 185.93 s).
22200000 of 110000000 tuples (20%) done (elapsed 46.83 s, remaining 185.22 s).
22300000 of 110000000 tuples (20%) done (elapsed 46.89 s, remaining 184.39 s).
22400000 of 110000000 tuples (20%) done (elapsed 47.55 s, remaining 185.95 s).
22500000 of 110000000 tuples (20%) done (elapsed 47.60 s, remaining 185.13 s).
22600000 of 110000000 tuples (20%) done (elapsed 47.69 s, remaining 184.41 s).
22700000 of 110000000 tuples (20%) done (elapsed 47.77 s, remaining 183.72 s).
22800000 of 110000000 tuples (20%) done (elapsed 48.23 s, remaining 184.47 s).
22900000 of 110000000 tuples (20%) done (elapsed 48.32 s, remaining 183.78 s).
23000000 of 110000000 tuples (20%) done (elapsed 48.37 s, remaining 182.97 s).
23100000 of 110000000 tuples (21%) done (elapsed 48.45 s, remaining 182.28 s).
23200000 of 110000000 tuples (21%) done (elapsed 48.89 s, remaining 182.91 s).
23300000 of 110000000 tuples (21%) done (elapsed 48.94 s, remaining 182.11 s).
23400000 of 110000000 tuples (21%) done (elapsed 49.28 s, remaining 182.37 s).
23500000 of 110000000 tuples (21%) done (elapsed 49.48 s, remaining 182.15 s).
23600000 of 110000000 tuples (21%) done (elapsed 49.54 s, remaining 181.36 s).
23700000 of 110000000 tuples (21%) done (elapsed 49.64 s, remaining 180.76 s).
23800000 of 110000000 tuples (21%) done (elapsed 50.17 s, remaining 181.71 s).
23900000 of 110000000 tuples (21%) done (elapsed 50.25 s, remaining 181.04 s).
24000000 of 110000000 tuples (21%) done (elapsed 50.64 s, remaining 181.45 s).
24100000 of 110000000 tuples (21%) done (elapsed 50.69 s, remaining 180.68 s).
24200000 of 110000000 tuples (22%) done (elapsed 50.77 s, remaining 180.01 s).
24300000 of 110000000 tuples (22%) done (elapsed 51.03 s, remaining 179.97 s).
24400000 of 110000000 tuples (22%) done (elapsed 51.55 s, remaining 180.84 s).
24500000 of 110000000 tuples (22%) done (elapsed 51.60 s, remaining 180.08 s).
24600000 of 110000000 tuples (22%) done (elapsed 51.68 s, remaining 179.43 s).
24700000 of 110000000 tuples (22%) done (elapsed 51.74 s, remaining 178.68 s).
24800000 of 110000000 tuples (22%) done (elapsed 52.10 s, remaining 178.99 s).
24900000 of 110000000 tuples (22%) done (elapsed 52.40 s, remaining 179.07 s).
25000000 of 110000000 tuples (22%) done (elapsed 52.45 s, remaining 178.33 s).
25100000 of 110000000 tuples (22%) done (elapsed 52.62 s, remaining 177.98 s).
25200000 of 110000000 tuples (22%) done (elapsed 52.67 s, remaining 177.24 s).
25300000 of 110000000 tuples (23%) done (elapsed 53.22 s, remaining 178.15 s).
25400000 of 110000000 tuples (23%) done (elapsed 53.27 s, remaining 177.42 s).
25500000 of 110000000 tuples (23%) done (elapsed 53.77 s, remaining 178.19 s).
25600000 of 110000000 tuples (23%) done (elapsed 53.83 s, remaining 177.46 s).
25700000 of 110000000 tuples (23%) done (elapsed 53.91 s, remaining 176.83 s).
25800000 of 110000000 tuples (23%) done (elapsed 54.15 s, remaining 176.74 s).
25900000 of 110000000 tuples (23%) done (elapsed 54.34 s, remaining 176.46 s).
26000000 of 110000000 tuples (23%) done (elapsed 54.43 s, remaining 175.84 s).
26100000 of 110000000 tuples (23%) done (elapsed 54.48 s, remaining 175.13 s).
26200000 of 110000000 tuples (23%) done (elapsed 54.56 s, remaining 174.51 s).
26300000 of 110000000 tuples (23%) done (elapsed 54.62 s, remaining 173.82 s).
26400000 of 110000000 tuples (24%) done (elapsed 55.27 s, remaining 175.02 s).
26500000 of 110000000 tuples (24%) done (elapsed 55.35 s, remaining 174.41 s).
26600000 of 110000000 tuples (24%) done (elapsed 55.41 s, remaining 173.72 s).
26700000 of 110000000 tuples (24%) done (elapsed 55.77 s, remaining 173.98 s).
26800000 of 110000000 tuples (24%) done (elapsed 55.82 s, remaining 173.29 s).
26900000 of 110000000 tuples (24%) done (elapsed 55.90 s, remaining 172.70 s).
27000000 of 110000000 tuples (24%) done (elapsed 56.11 s, remaining 172.48 s).
27100000 of 110000000 tuples (24%) done (elapsed 56.28 s, remaining 172.15 s).
27200000 of 110000000 tuples (24%) done (elapsed 56.33 s, remaining 171.47 s).
27300000 of 110000000 tuples (24%) done (elapsed 56.41 s, remaining 170.89 s).
27400000 of 110000000 tuples (24%) done (elapsed 56.47 s, remaining 170.23 s).
27500000 of 110000000 tuples (25%) done (elapsed 56.55 s, remaining 169.65 s).
27600000 of 110000000 tuples (25%) done (elapsed 57.34 s, remaining 171.18 s).
27700000 of 110000000 tuples (25%) done (elapsed 57.39 s, remaining 170.51 s).
27800000 of 110000000 tuples (25%) done (elapsed 57.47 s, remaining 169.94 s).
27900000 of 110000000 tuples (25%) done (elapsed 57.53 s, remaining 169.28 s).
28000000 of 110000000 tuples (25%) done (elapsed 57.97 s, remaining 169.77 s).
28100000 of 110000000 tuples (25%) done (elapsed 58.05 s, remaining 169.20 s).
28200000 of 110000000 tuples (25%) done (elapsed 58.38 s, remaining 169.34 s).
28300000 of 110000000 tuples (25%) done (elapsed 58.43 s, remaining 168.69 s).
28400000 of 110000000 tuples (25%) done (elapsed 58.65 s, remaining 168.53 s).
28500000 of 110000000 tuples (25%) done (elapsed 58.72 s, remaining 167.92 s).
28600000 of 110000000 tuples (26%) done (elapsed 58.80 s, remaining 167.37 s).
28700000 of 110000000 tuples (26%) done (elapsed 58.89 s, remaining 166.82 s).
28800000 of 110000000 tuples (26%) done (elapsed 59.30 s, remaining 167.19 s).
28900000 of 110000000 tuples (26%) done (elapsed 59.75 s, remaining 167.69 s).
29000000 of 110000000 tuples (26%) done (elapsed 59.84 s, remaining 167.13 s).
29100000 of 110000000 tuples (26%) done (elapsed 59.89 s, remaining 166.50 s).
29200000 of 110000000 tuples (26%) done (elapsed 60.21 s, remaining 166.61 s).
29300000 of 110000000 tuples (26%) done (elapsed 60.27 s, remaining 165.99 s).
29400000 of 110000000 tuples (26%) done (elapsed 60.50 s, remaining 165.86 s).
29500000 of 110000000 tuples (26%) done (elapsed 60.55 s, remaining 165.24 s).
29600000 of 110000000 tuples (26%) done (elapsed 60.71 s, remaining 164.89 s).
29700000 of 110000000 tuples (27%) done (elapsed 60.76 s, remaining 164.27 s).
29800000 of 110000000 tuples (27%) done (elapsed 60.84 s, remaining 163.75 s).
29900000 of 110000000 tuples (27%) done (elapsed 60.90 s, remaining 163.14 s).
30000000 of 110000000 tuples (27%) done (elapsed 61.49 s, remaining 163.96 s).
30100000 of 110000000 tuples (27%) done (elapsed 61.54 s, remaining 163.35 s).
30200000 of 110000000 tuples (27%) done (elapsed 61.62 s, remaining 162.83 s).
30300000 of 110000000 tuples (27%) done (elapsed 61.71 s, remaining 162.31 s).
30400000 of 110000000 tuples (27%) done (elapsed 61.99 s, remaining 162.31 s).
30500000 of 110000000 tuples (27%) done (elapsed 62.07 s, remaining 161.79 s).
30600000 of 110000000 tuples (27%) done (elapsed 62.13 s, remaining 161.20 s).
30700000 of 110000000 tuples (27%) done (elapsed 62.35 s, remaining 161.06 s).
30800000 of 110000000 tuples (28%) done (elapsed 62.50 s, remaining 160.72 s).
30900000 of 110000000 tuples (28%) done (elapsed 62.55 s, remaining 160.13 s).
31000000 of 110000000 tuples (28%) done (elapsed 62.97 s, remaining 160.46 s).
31100000 of 110000000 tuples (28%) done (elapsed 63.02 s, remaining 159.88 s).
31200000 of 110000000 tuples (28%) done (elapsed 63.33 s, remaining 159.96 s).
31300000 of 110000000 tuples (28%) done (elapsed 63.39 s, remaining 159.38 s).
31400000 of 110000000 tuples (28%) done (elapsed 63.47 s, remaining 158.88 s).
31500000 of 110000000 tuples (28%) done (elapsed 63.68 s, remaining 158.70 s).
31600000 of 110000000 tuples (28%) done (elapsed 63.84 s, remaining 158.40 s).
31700000 of 110000000 tuples (28%) done (elapsed 63.93 s, remaining 157.91 s).
31800000 of 110000000 tuples (28%) done (elapsed 64.25 s, remaining 157.99 s).
31900000 of 110000000 tuples (29%) done (elapsed 64.33 s, remaining 157.49 s).
32000000 of 110000000 tuples (29%) done (elapsed 64.38 s, remaining 156.93 s).
32100000 of 110000000 tuples (29%) done (elapsed 64.73 s, remaining 157.08 s).
32200000 of 110000000 tuples (29%) done (elapsed 64.81 s, remaining 156.59 s).
32300000 of 110000000 tuples (29%) done (elapsed 65.02 s, remaining 156.40 s).
32400000 of 110000000 tuples (29%) done (elapsed 65.39 s, remaining 156.62 s).
32500000 of 110000000 tuples (29%) done (elapsed 65.45 s, remaining 156.06 s).
32600000 of 110000000 tuples (29%) done (elapsed 65.53 s, remaining 155.58 s).
32700000 of 110000000 tuples (29%) done (elapsed 65.80 s, remaining 155.55 s).
32800000 of 110000000 tuples (29%) done (elapsed 66.11 s, remaining 155.61 s).
32900000 of 110000000 tuples (29%) done (elapsed 66.18 s, remaining 155.10 s).
33000000 of 110000000 tuples (30%) done (elapsed 66.25 s, remaining 154.58 s).
33100000 of 110000000 tuples (30%) done (elapsed 66.34 s, remaining 154.12 s).
33200000 of 110000000 tuples (30%) done (elapsed 66.76 s, remaining 154.42 s).
33300000 of 110000000 tuples (30%) done (elapsed 66.85 s, remaining 153.97 s).
33400000 of 110000000 tuples (30%) done (elapsed 66.91 s, remaining 153.45 s).
33500000 of 110000000 tuples (30%) done (elapsed 67.28 s, remaining 153.65 s).
33600000 of 110000000 tuples (30%) done (elapsed 67.35 s, remaining 153.15 s).
33700000 of 110000000 tuples (30%) done (elapsed 67.50 s, remaining 152.83 s).
33800000 of 110000000 tuples (30%) done (elapsed 67.64 s, remaining 152.49 s).
33900000 of 110000000 tuples (30%) done (elapsed 67.80 s, remaining 152.21 s).
34000000 of 110000000 tuples (30%) done (elapsed 67.89 s, remaining 151.76 s).
34100000 of 110000000 tuples (31%) done (elapsed 68.33 s, remaining 152.08 s).
34200000 of 110000000 tuples (31%) done (elapsed 68.40 s, remaining 151.60 s).
34300000 of 110000000 tuples (31%) done (elapsed 68.82 s, remaining 151.88 s).
34400000 of 110000000 tuples (31%) done (elapsed 68.89 s, remaining 151.41 s).
34500000 of 110000000 tuples (31%) done (elapsed 68.97 s, remaining 150.93 s).
34600000 of 110000000 tuples (31%) done (elapsed 69.25 s, remaining 150.90 s).
34700000 of 110000000 tuples (31%) done (elapsed 69.41 s, remaining 150.63 s).
34800000 of 110000000 tuples (31%) done (elapsed 69.48 s, remaining 150.14 s).
34900000 of 110000000 tuples (31%) done (elapsed 70.04 s, remaining 150.73 s).
35000000 of 110000000 tuples (31%) done (elapsed 70.11 s, remaining 150.24 s).
35100000 of 110000000 tuples (31%) done (elapsed 70.56 s, remaining 150.56 s).
35200000 of 110000000 tuples (32%) done (elapsed 70.61 s, remaining 150.05 s).
35300000 of 110000000 tuples (32%) done (elapsed 70.68 s, remaining 149.57 s).
35400000 of 110000000 tuples (32%) done (elapsed 71.00 s, remaining 149.61 s).
35500000 of 110000000 tuples (32%) done (elapsed 71.17 s, remaining 149.35 s).
35600000 of 110000000 tuples (32%) done (elapsed 71.26 s, remaining 148.92 s).
35700000 of 110000000 tuples (32%) done (elapsed 71.83 s, remaining 149.49 s).
35800000 of 110000000 tuples (32%) done (elapsed 71.89 s, remaining 149.01 s).
35900000 of 110000000 tuples (32%) done (elapsed 71.95 s, remaining 148.52 s).
36000000 of 110000000 tuples (32%) done (elapsed 72.42 s, remaining 148.86 s).
36100000 of 110000000 tuples (32%) done (elapsed 72.47 s, remaining 148.35 s).
36200000 of 110000000 tuples (32%) done (elapsed 72.79 s, remaining 148.39 s).
36300000 of 110000000 tuples (33%) done (elapsed 72.98 s, remaining 148.17 s).
36400000 of 110000000 tuples (33%) done (elapsed 73.04 s, remaining 147.69 s).
36500000 of 110000000 tuples (33%) done (elapsed 73.64 s, remaining 148.28 s).
36600000 of 110000000 tuples (33%) done (elapsed 73.69 s, remaining 147.78 s).
36700000 of 110000000 tuples (33%) done (elapsed 74.16 s, remaining 148.13 s).
36800000 of 110000000 tuples (33%) done (elapsed 74.23 s, remaining 147.65 s).
36900000 of 110000000 tuples (33%) done (elapsed 74.29 s, remaining 147.17 s).
37000000 of 110000000 tuples (33%) done (elapsed 74.59 s, remaining 147.16 s).
37100000 of 110000000 tuples (33%) done (elapsed 74.76 s, remaining 146.89 s).
37200000 of 110000000 tuples (33%) done (elapsed 74.82 s, remaining 146.42 s).
37300000 of 110000000 tuples (33%) done (elapsed 74.90 s, remaining 145.99 s).
37400000 of 110000000 tuples (34%) done (elapsed 74.97 s, remaining 145.53 s).
37500000 of 110000000 tuples (34%) done (elapsed 75.02 s, remaining 145.05 s).
37600000 of 110000000 tuples (34%) done (elapsed 75.95 s, remaining 146.23 s).
37700000 of 110000000 tuples (34%) done (elapsed 76.01 s, remaining 145.77 s).
37800000 of 110000000 tuples (34%) done (elapsed 76.07 s, remaining 145.29 s).
37900000 of 110000000 tuples (34%) done (elapsed 76.41 s, remaining 145.35 s).
38000000 of 110000000 tuples (34%) done (elapsed 76.47 s, remaining 144.89 s).
38100000 of 110000000 tuples (34%) done (elapsed 76.75 s, remaining 144.84 s).
38200000 of 110000000 tuples (34%) done (elapsed 76.81 s, remaining 144.37 s).
38300000 of 110000000 tuples (34%) done (elapsed 76.96 s, remaining 144.07 s).
38400000 of 110000000 tuples (34%) done (elapsed 77.06 s, remaining 143.68 s).
38500000 of 110000000 tuples (35%) done (elapsed 77.53 s, remaining 143.99 s).
38600000 of 110000000 tuples (35%) done (elapsed 77.60 s, remaining 143.54 s).
38700000 of 110000000 tuples (35%) done (elapsed 77.69 s, remaining 143.13 s).
38800000 of 110000000 tuples (35%) done (elapsed 78.08 s, remaining 143.28 s).
38900000 of 110000000 tuples (35%) done (elapsed 78.16 s, remaining 142.87 s).
39000000 of 110000000 tuples (35%) done (elapsed 78.23 s, remaining 142.41 s).
39100000 of 110000000 tuples (35%) done (elapsed 78.51 s, remaining 142.36 s).
39200000 of 110000000 tuples (35%) done (elapsed 78.71 s, remaining 142.16 s).
39300000 of 110000000 tuples (35%) done (elapsed 78.81 s, remaining 141.78 s).
39400000 of 110000000 tuples (35%) done (elapsed 79.40 s, remaining 142.28 s).
39500000 of 110000000 tuples (35%) done (elapsed 79.46 s, remaining 141.82 s).
39600000 of 110000000 tuples (36%) done (elapsed 79.55 s, remaining 141.42 s).
39700000 of 110000000 tuples (36%) done (elapsed 79.99 s, remaining 141.64 s).
39800000 of 110000000 tuples (36%) done (elapsed 80.07 s, remaining 141.23 s).
39900000 of 110000000 tuples (36%) done (elapsed 80.40 s, remaining 141.26 s).
40000000 of 110000000 tuples (36%) done (elapsed 80.46 s, remaining 140.80 s).
40100000 of 110000000 tuples (36%) done (elapsed 80.67 s, remaining 140.61 s).
40200000 of 110000000 tuples (36%) done (elapsed 80.75 s, remaining 140.21 s).
40300000 of 110000000 tuples (36%) done (elapsed 81.32 s, remaining 140.65 s).
40400000 of 110000000 tuples (36%) done (elapsed 81.41 s, remaining 140.25 s).
40500000 of 110000000 tuples (36%) done (elapsed 81.47 s, remaining 139.81 s).
40600000 of 110000000 tuples (36%) done (elapsed 81.93 s, remaining 140.05 s).
40700000 of 110000000 tuples (37%) done (elapsed 82.00 s, remaining 139.61 s).
40800000 of 110000000 tuples (37%) done (elapsed 82.40 s, remaining 139.75 s).
40900000 of 110000000 tuples (37%) done (elapsed 82.48 s, remaining 139.35 s).
41000000 of 110000000 tuples (37%) done (elapsed 82.55 s, remaining 138.92 s).
41100000 of 110000000 tuples (37%) done (elapsed 82.84 s, remaining 138.87 s).
41200000 of 110000000 tuples (37%) done (elapsed 83.04 s, remaining 138.68 s).
41300000 of 110000000 tuples (37%) done (elapsed 83.12 s, remaining 138.26 s).
41400000 of 110000000 tuples (37%) done (elapsed 83.69 s, remaining 138.67 s).
41500000 of 110000000 tuples (37%) done (elapsed 83.75 s, remaining 138.25 s).
41600000 of 110000000 tuples (37%) done (elapsed 83.82 s, remaining 137.81 s).
41700000 of 110000000 tuples (37%) done (elapsed 84.23 s, remaining 137.95 s).
41800000 of 110000000 tuples (38%) done (elapsed 84.28 s, remaining 137.51 s).
41900000 of 110000000 tuples (38%) done (elapsed 84.56 s, remaining 137.44 s).
42000000 of 110000000 tuples (38%) done (elapsed 84.62 s, remaining 137.00 s).
42100000 of 110000000 tuples (38%) done (elapsed 84.81 s, remaining 136.78 s).
42200000 of 110000000 tuples (38%) done (elapsed 84.87 s, remaining 136.35 s).
42300000 of 110000000 tuples (38%) done (elapsed 85.35 s, remaining 136.60 s).
42400000 of 110000000 tuples (38%) done (elapsed 85.43 s, remaining 136.21 s).
42500000 of 110000000 tuples (38%) done (elapsed 85.49 s, remaining 135.78 s).
42600000 of 110000000 tuples (38%) done (elapsed 85.92 s, remaining 135.94 s).
42700000 of 110000000 tuples (38%) done (elapsed 85.98 s, remaining 135.51 s).
42800000 of 110000000 tuples (38%) done (elapsed 86.26 s, remaining 135.44 s).
42900000 of 110000000 tuples (39%) done (elapsed 86.46 s, remaining 135.23 s).
43000000 of 110000000 tuples (39%) done (elapsed 86.52 s, remaining 134.81 s).
43100000 of 110000000 tuples (39%) done (elapsed 86.62 s, remaining 134.45 s).
43200000 of 110000000 tuples (39%) done (elapsed 86.67 s, remaining 134.01 s).
43300000 of 110000000 tuples (39%) done (elapsed 86.76 s, remaining 133.64 s).
43400000 of 110000000 tuples (39%) done (elapsed 87.56 s, remaining 134.36 s).
43500000 of 110000000 tuples (39%) done (elapsed 87.65 s, remaining 134.00 s).
43600000 of 110000000 tuples (39%) done (elapsed 87.71 s, remaining 133.57 s).
43700000 of 110000000 tuples (39%) done (elapsed 87.77 s, remaining 133.16 s).
43800000 of 110000000 tuples (39%) done (elapsed 88.15 s, remaining 133.23 s).
43900000 of 110000000 tuples (39%) done (elapsed 88.22 s, remaining 132.83 s).
44000000 of 110000000 tuples (40%) done (elapsed 88.51 s, remaining 132.77 s).
44100000 of 110000000 tuples (40%) done (elapsed 88.58 s, remaining 132.37 s).
44200000 of 110000000 tuples (40%) done (elapsed 88.77 s, remaining 132.15 s).
44300000 of 110000000 tuples (40%) done (elapsed 88.84 s, remaining 131.76 s).
44400000 of 110000000 tuples (40%) done (elapsed 89.35 s, remaining 132.01 s).
44500000 of 110000000 tuples (40%) done (elapsed 89.42 s, remaining 131.62 s).
44600000 of 110000000 tuples (40%) done (elapsed 89.50 s, remaining 131.24 s).
44700000 of 110000000 tuples (40%) done (elapsed 89.86 s, remaining 131.27 s).
44800000 of 110000000 tuples (40%) done (elapsed 89.91 s, remaining 130.86 s).
44900000 of 110000000 tuples (40%) done (elapsed 90.17 s, remaining 130.73 s).
45000000 of 110000000 tuples (40%) done (elapsed 90.34 s, remaining 130.49 s).
45100000 of 110000000 tuples (41%) done (elapsed 90.41 s, remaining 130.10 s).
45200000 of 110000000 tuples (41%) done (elapsed 90.46 s, remaining 129.69 s).
45300000 of 110000000 tuples (41%) done (elapsed 90.91 s, remaining 129.85 s).
45400000 of 110000000 tuples (41%) done (elapsed 91.00 s, remaining 129.48 s).
45500000 of 110000000 tuples (41%) done (elapsed 91.37 s, remaining 129.52 s).
45600000 of 110000000 tuples (41%) done (elapsed 91.42 s, remaining 129.12 s).
45700000 of 110000000 tuples (41%) done (elapsed 91.51 s, remaining 128.75 s).
45800000 of 110000000 tuples (41%) done (elapsed 91.76 s, remaining 128.62 s).
45900000 of 110000000 tuples (41%) done (elapsed 91.91 s, remaining 128.35 s).
46000000 of 110000000 tuples (41%) done (elapsed 92.00 s, remaining 128.00 s).
46100000 of 110000000 tuples (41%) done (elapsed 92.43 s, remaining 128.11 s).
46200000 of 110000000 tuples (42%) done (elapsed 92.51 s, remaining 127.76 s).
46300000 of 110000000 tuples (42%) done (elapsed 92.57 s, remaining 127.36 s).
46400000 of 110000000 tuples (42%) done (elapsed 92.94 s, remaining 127.40 s).
46500000 of 110000000 tuples (42%) done (elapsed 93.00 s, remaining 127.00 s).
46600000 of 110000000 tuples (42%) done (elapsed 93.29 s, remaining 126.92 s).
46700000 of 110000000 tuples (42%) done (elapsed 93.34 s, remaining 126.52 s).
46800000 of 110000000 tuples (42%) done (elapsed 93.51 s, remaining 126.29 s).
46900000 of 110000000 tuples (42%) done (elapsed 93.58 s, remaining 125.90 s).
47000000 of 110000000 tuples (42%) done (elapsed 94.04 s, remaining 126.05 s).
47100000 of 110000000 tuples (42%) done (elapsed 94.10 s, remaining 125.67 s).
47200000 of 110000000 tuples (42%) done (elapsed 94.47 s, remaining 125.69 s).
47300000 of 110000000 tuples (43%) done (elapsed 94.52 s, remaining 125.30 s).
47400000 of 110000000 tuples (43%) done (elapsed 94.77 s, remaining 125.17 s).
47500000 of 110000000 tuples (43%) done (elapsed 94.83 s, remaining 124.77 s).
47600000 of 110000000 tuples (43%) done (elapsed 95.00 s, remaining 124.53 s).
47700000 of 110000000 tuples (43%) done (elapsed 95.06 s, remaining 124.16 s).
47800000 of 110000000 tuples (43%) done (elapsed 95.51 s, remaining 124.28 s).
47900000 of 110000000 tuples (43%) done (elapsed 95.56 s, remaining 123.89 s).
48000000 of 110000000 tuples (43%) done (elapsed 95.65 s, remaining 123.55 s).
48100000 of 110000000 tuples (43%) done (elapsed 96.01 s, remaining 123.56 s).
48200000 of 110000000 tuples (43%) done (elapsed 96.10 s, remaining 123.22 s).
48300000 of 110000000 tuples (43%) done (elapsed 96.37 s, remaining 123.11 s).
48400000 of 110000000 tuples (44%) done (elapsed 96.83 s, remaining 123.24 s).
48500000 of 110000000 tuples (44%) done (elapsed 96.89 s, remaining 122.85 s).
48600000 of 110000000 tuples (44%) done (elapsed 96.94 s, remaining 122.47 s).
48700000 of 110000000 tuples (44%) done (elapsed 97.26 s, remaining 122.43 s).
48800000 of 110000000 tuples (44%) done (elapsed 97.32 s, remaining 122.05 s).
48900000 of 110000000 tuples (44%) done (elapsed 97.58 s, remaining 121.93 s).
49000000 of 110000000 tuples (44%) done (elapsed 97.71 s, remaining 121.64 s).
49100000 of 110000000 tuples (44%) done (elapsed 97.77 s, remaining 121.27 s).
49200000 of 110000000 tuples (44%) done (elapsed 98.27 s, remaining 121.44 s).
49300000 of 110000000 tuples (44%) done (elapsed 98.33 s, remaining 121.07 s).
49400000 of 110000000 tuples (44%) done (elapsed 98.78 s, remaining 121.17 s).
49500000 of 110000000 tuples (45%) done (elapsed 98.83 s, remaining 120.80 s).
49600000 of 110000000 tuples (45%) done (elapsed 99.11 s, remaining 120.69 s).
49700000 of 110000000 tuples (45%) done (elapsed 99.17 s, remaining 120.32 s).
49800000 of 110000000 tuples (45%) done (elapsed 99.34 s, remaining 120.09 s).
49900000 of 110000000 tuples (45%) done (elapsed 99.40 s, remaining 119.72 s).
50000000 of 110000000 tuples (45%) done (elapsed 99.91 s, remaining 119.89 s).
50100000 of 110000000 tuples (45%) done (elapsed 99.98 s, remaining 119.53 s).
50200000 of 110000000 tuples (45%) done (elapsed 100.35 s, remaining 119.54 s).
50300000 of 110000000 tuples (45%) done (elapsed 100.41 s, remaining 119.17 s).
50400000 of 110000000 tuples (45%) done (elapsed 100.67 s, remaining 119.05 s).
50500000 of 110000000 tuples (45%) done (elapsed 100.72 s, remaining 118.68 s).
50600000 of 110000000 tuples (46%) done (elapsed 100.90 s, remaining 118.45 s).
50700000 of 110000000 tuples (46%) done (elapsed 100.96 s, remaining 118.08 s).
50800000 of 110000000 tuples (46%) done (elapsed 101.45 s, remaining 118.23 s).
50900000 of 110000000 tuples (46%) done (elapsed 101.51 s, remaining 117.86 s).
51000000 of 110000000 tuples (46%) done (elapsed 101.90 s, remaining 117.89 s).
51100000 of 110000000 tuples (46%) done (elapsed 101.96 s, remaining 117.52 s).
51200000 of 110000000 tuples (46%) done (elapsed 102.26 s, remaining 117.44 s).
51300000 of 110000000 tuples (46%) done (elapsed 102.31 s, remaining 117.07 s).
51400000 of 110000000 tuples (46%) done (elapsed 102.50 s, remaining 116.85 s).
51500000 of 110000000 tuples (46%) done (elapsed 102.56 s, remaining 116.50 s).
51600000 of 110000000 tuples (46%) done (elapsed 103.07 s, remaining 116.65 s).
51700000 of 110000000 tuples (47%) done (elapsed 103.15 s, remaining 116.32 s).
51800000 of 110000000 tuples (47%) done (elapsed 103.56 s, remaining 116.36 s).
51900000 of 110000000 tuples (47%) done (elapsed 103.62 s, remaining 116.00 s).
52000000 of 110000000 tuples (47%) done (elapsed 103.90 s, remaining 115.89 s).
52100000 of 110000000 tuples (47%) done (elapsed 103.96 s, remaining 115.53 s).
52200000 of 110000000 tuples (47%) done (elapsed 104.14 s, remaining 115.32 s).
52300000 of 110000000 tuples (47%) done (elapsed 104.20 s, remaining 114.96 s).
52400000 of 110000000 tuples (47%) done (elapsed 104.28 s, remaining 114.63 s).
52500000 of 110000000 tuples (47%) done (elapsed 104.34 s, remaining 114.27 s).
52600000 of 110000000 tuples (47%) done (elapsed 105.16 s, remaining 114.76 s).
52700000 of 110000000 tuples (47%) done (elapsed 105.22 s, remaining 114.40 s).
52800000 of 110000000 tuples (48%) done (elapsed 105.30 s, remaining 114.08 s).
52900000 of 110000000 tuples (48%) done (elapsed 105.36 s, remaining 113.72 s).
53000000 of 110000000 tuples (48%) done (elapsed 105.74 s, remaining 113.72 s).
53100000 of 110000000 tuples (48%) done (elapsed 105.80 s, remaining 113.37 s).
53200000 of 110000000 tuples (48%) done (elapsed 106.07 s, remaining 113.25 s).
53300000 of 110000000 tuples (48%) done (elapsed 106.22 s, remaining 113.00 s).
53400000 of 110000000 tuples (48%) done (elapsed 106.30 s, remaining 112.67 s).
53500000 of 110000000 tuples (48%) done (elapsed 106.39 s, remaining 112.35 s).
53600000 of 110000000 tuples (48%) done (elapsed 106.44 s, remaining 112.00 s).
53700000 of 110000000 tuples (48%) done (elapsed 107.37 s, remaining 112.56 s).
53800000 of 110000000 tuples (48%) done (elapsed 107.42 s, remaining 112.21 s).
53900000 of 110000000 tuples (49%) done (elapsed 107.49 s, remaining 111.88 s).
54000000 of 110000000 tuples (49%) done (elapsed 107.57 s, remaining 111.56 s).
54100000 of 110000000 tuples (49%) done (elapsed 107.92 s, remaining 111.51 s).
54200000 of 110000000 tuples (49%) done (elapsed 107.97 s, remaining 111.16 s).
54300000 of 110000000 tuples (49%) done (elapsed 108.06 s, remaining 110.84 s).
54400000 of 110000000 tuples (49%) done (elapsed 108.30 s, remaining 110.69 s).
54500000 of 110000000 tuples (49%) done (elapsed 108.49 s, remaining 110.49 s).
54600000 of 110000000 tuples (49%) done (elapsed 108.58 s, remaining 110.17 s).
54700000 of 110000000 tuples (49%) done (elapsed 108.64 s, remaining 109.83 s).
54800000 of 110000000 tuples (49%) done (elapsed 109.17 s, remaining 109.97 s).
54900000 of 110000000 tuples (49%) done (elapsed 109.22 s, remaining 109.62 s).
55000000 of 110000000 tuples (50%) done (elapsed 109.62 s, remaining 109.62 s).
55100000 of 110000000 tuples (50%) done (elapsed 109.70 s, remaining 109.30 s).
55200000 of 110000000 tuples (50%) done (elapsed 109.76 s, remaining 108.96 s).
55300000 of 110000000 tuples (50%) done (elapsed 110.03 s, remaining 108.84 s).
55400000 of 110000000 tuples (50%) done (elapsed 110.18 s, remaining 108.59 s).
55500000 of 110000000 tuples (50%) done (elapsed 110.27 s, remaining 108.28 s).
55600000 of 110000000 tuples (50%) done (elapsed 110.32 s, remaining 107.94 s).
55700000 of 110000000 tuples (50%) done (elapsed 110.41 s, remaining 107.63 s).
55800000 of 110000000 tuples (50%) done (elapsed 110.46 s, remaining 107.29 s).
55900000 of 110000000 tuples (50%) done (elapsed 111.18 s, remaining 107.60 s).
56000000 of 110000000 tuples (50%) done (elapsed 111.24 s, remaining 107.26 s).
56100000 of 110000000 tuples (51%) done (elapsed 111.32 s, remaining 106.96 s).
56200000 of 110000000 tuples (51%) done (elapsed 111.38 s, remaining 106.62 s).
56300000 of 110000000 tuples (51%) done (elapsed 111.74 s, remaining 106.58 s).
56400000 of 110000000 tuples (51%) done (elapsed 111.82 s, remaining 106.27 s).
56500000 of 110000000 tuples (51%) done (elapsed 112.29 s, remaining 106.33 s).
56600000 of 110000000 tuples (51%) done (elapsed 112.34 s, remaining 105.99 s).
56700000 of 110000000 tuples (51%) done (elapsed 112.42 s, remaining 105.68 s).
56800000 of 110000000 tuples (51%) done (elapsed 112.83 s, remaining 105.68 s).
56900000 of 110000000 tuples (51%) done (elapsed 112.89 s, remaining 105.35 s).
57000000 of 110000000 tuples (51%) done (elapsed 112.95 s, remaining 105.02 s).
57100000 of 110000000 tuples (51%) done (elapsed 113.23 s, remaining 104.90 s).
57200000 of 110000000 tuples (52%) done (elapsed 113.40 s, remaining 104.68 s).
57300000 of 110000000 tuples (52%) done (elapsed 113.46 s, remaining 104.35 s).
57400000 of 110000000 tuples (52%) done (elapsed 114.01 s, remaining 104.48 s).
57500000 of 110000000 tuples (52%) done (elapsed 114.09 s, remaining 104.17 s).
57600000 of 110000000 tuples (52%) done (elapsed 114.15 s, remaining 103.84 s).
57700000 of 110000000 tuples (52%) done (elapsed 114.57 s, remaining 103.85 s).
57800000 of 110000000 tuples (52%) done (elapsed 114.65 s, remaining 103.55 s).
57900000 of 110000000 tuples (52%) done (elapsed 114.96 s, remaining 103.44 s).
58000000 of 110000000 tuples (52%) done (elapsed 115.01 s, remaining 103.11 s).
58100000 of 110000000 tuples (52%) done (elapsed 115.20 s, remaining 102.91 s).
58200000 of 110000000 tuples (52%) done (elapsed 115.26 s, remaining 102.59 s).
58300000 of 110000000 tuples (53%) done (elapsed 115.82 s, remaining 102.71 s).
58400000 of 110000000 tuples (53%) done (elapsed 115.90 s, remaining 102.41 s).
58500000 of 110000000 tuples (53%) done (elapsed 115.96 s, remaining 102.08 s).
58600000 of 110000000 tuples (53%) done (elapsed 116.38 s, remaining 102.08 s).
58700000 of 110000000 tuples (53%) done (elapsed 116.44 s, remaining 101.76 s).
58800000 of 110000000 tuples (53%) done (elapsed 116.74 s, remaining 101.65 s).
58900000 of 110000000 tuples (53%) done (elapsed 116.89 s, remaining 101.41 s).
59000000 of 110000000 tuples (53%) done (elapsed 116.98 s, remaining 101.11 s).
59100000 of 110000000 tuples (53%) done (elapsed 117.03 s, remaining 100.79 s).
59200000 of 110000000 tuples (53%) done (elapsed 117.51 s, remaining 100.84 s).
59300000 of 110000000 tuples (53%) done (elapsed 117.56 s, remaining 100.51 s).
59400000 of 110000000 tuples (54%) done (elapsed 117.95 s, remaining 100.48 s).
59500000 of 110000000 tuples (54%) done (elapsed 118.02 s, remaining 100.16 s).
59600000 of 110000000 tuples (54%) done (elapsed 118.30 s, remaining 100.04 s).
59700000 of 110000000 tuples (54%) done (elapsed 118.36 s, remaining 99.72 s).
59800000 of 110000000 tuples (54%) done (elapsed 118.56 s, remaining 99.53 s).
59900000 of 110000000 tuples (54%) done (elapsed 118.62 s, remaining 99.22 s).
60000000 of 110000000 tuples (54%) done (elapsed 118.71 s, remaining 98.93 s).
60100000 of 110000000 tuples (54%) done (elapsed 118.77 s, remaining 98.61 s).
60200000 of 110000000 tuples (54%) done (elapsed 118.83 s, remaining 98.30 s).
60300000 of 110000000 tuples (54%) done (elapsed 119.64 s, remaining 98.61 s).
60400000 of 110000000 tuples (54%) done (elapsed 119.72 s, remaining 98.32 s).
60500000 of 110000000 tuples (55%) done (elapsed 119.78 s, remaining 98.00 s).
60600000 of 110000000 tuples (55%) done (elapsed 120.15 s, remaining 97.95 s).
60700000 of 110000000 tuples (55%) done (elapsed 120.21 s, remaining 97.63 s).
60800000 of 110000000 tuples (55%) done (elapsed 120.26 s, remaining 97.32 s).
60900000 of 110000000 tuples (55%) done (elapsed 120.54 s, remaining 97.18 s).
61000000 of 110000000 tuples (55%) done (elapsed 120.71 s, remaining 96.96 s).
61100000 of 110000000 tuples (55%) done (elapsed 120.80 s, remaining 96.68 s).
61200000 of 110000000 tuples (55%) done (elapsed 121.31 s, remaining 96.73 s).
61300000 of 110000000 tuples (55%) done (elapsed 121.37 s, remaining 96.42 s).
61400000 of 110000000 tuples (55%) done (elapsed 121.45 s, remaining 96.13 s).
61500000 of 110000000 tuples (55%) done (elapsed 121.83 s, remaining 96.08 s).
61600000 of 110000000 tuples (56%) done (elapsed 121.89 s, remaining 95.77 s).
61700000 of 110000000 tuples (56%) done (elapsed 122.16 s, remaining 95.63 s).
61800000 of 110000000 tuples (56%) done (elapsed 122.22 s, remaining 95.32 s).
61900000 of 110000000 tuples (56%) done (elapsed 122.39 s, remaining 95.10 s).
62000000 of 110000000 tuples (56%) done (elapsed 122.44 s, remaining 94.79 s).
62100000 of 110000000 tuples (56%) done (elapsed 122.95 s, remaining 94.83 s).
62200000 of 110000000 tuples (56%) done (elapsed 123.03 s, remaining 94.55 s).
62300000 of 110000000 tuples (56%) done (elapsed 123.08 s, remaining 94.24 s).
62400000 of 110000000 tuples (56%) done (elapsed 123.51 s, remaining 94.22 s).
62500000 of 110000000 tuples (56%) done (elapsed 123.59 s, remaining 93.93 s).
62600000 of 110000000 tuples (56%) done (elapsed 123.85 s, remaining 93.78 s).
62700000 of 110000000 tuples (57%) done (elapsed 124.04 s, remaining 93.57 s).
62800000 of 110000000 tuples (57%) done (elapsed 124.14 s, remaining 93.30 s).
62900000 of 110000000 tuples (57%) done (elapsed 124.66 s, remaining 93.35 s).
63000000 of 110000000 tuples (57%) done (elapsed 124.71 s, remaining 93.04 s).
63100000 of 110000000 tuples (57%) done (elapsed 124.80 s, remaining 92.76 s).
63200000 of 110000000 tuples (57%) done (elapsed 125.14 s, remaining 92.66 s).
63300000 of 110000000 tuples (57%) done (elapsed 125.22 s, remaining 92.38 s).
63400000 of 110000000 tuples (57%) done (elapsed 125.48 s, remaining 92.23 s).
63500000 of 110000000 tuples (57%) done (elapsed 125.53 s, remaining 91.93 s).
63600000 of 110000000 tuples (57%) done (elapsed 125.70 s, remaining 91.70 s).
63700000 of 110000000 tuples (57%) done (elapsed 125.82 s, remaining 91.45 s).
63800000 of 110000000 tuples (58%) done (elapsed 126.27 s, remaining 91.43 s).
63900000 of 110000000 tuples (58%) done (elapsed 126.34 s, remaining 91.15 s).
64000000 of 110000000 tuples (58%) done (elapsed 126.75 s, remaining 91.10 s).
64100000 of 110000000 tuples (58%) done (elapsed 126.83 s, remaining 90.82 s).
64200000 of 110000000 tuples (58%) done (elapsed 126.89 s, remaining 90.52 s).
64300000 of 110000000 tuples (58%) done (elapsed 127.15 s, remaining 90.37 s).
64400000 of 110000000 tuples (58%) done (elapsed 127.64 s, remaining 90.38 s).
64500000 of 110000000 tuples (58%) done (elapsed 127.73 s, remaining 90.11 s).
64600000 of 110000000 tuples (58%) done (elapsed 127.80 s, remaining 89.81 s).
64700000 of 110000000 tuples (58%) done (elapsed 128.13 s, remaining 89.71 s).
64800000 of 110000000 tuples (58%) done (elapsed 128.21 s, remaining 89.43 s).
64900000 of 110000000 tuples (59%) done (elapsed 128.43 s, remaining 89.25 s).
65000000 of 110000000 tuples (59%) done (elapsed 128.58 s, remaining 89.02 s).
65100000 of 110000000 tuples (59%) done (elapsed 128.64 s, remaining 88.72 s).
65200000 of 110000000 tuples (59%) done (elapsed 128.72 s, remaining 88.45 s).
65300000 of 110000000 tuples (59%) done (elapsed 128.80 s, remaining 88.17 s).
65400000 of 110000000 tuples (59%) done (elapsed 128.87 s, remaining 87.88 s).
65500000 of 110000000 tuples (59%) done (elapsed 129.55 s, remaining 88.02 s).
65600000 of 110000000 tuples (59%) done (elapsed 129.64 s, remaining 87.74 s).
65700000 of 110000000 tuples (59%) done (elapsed 129.72 s, remaining 87.47 s).
65800000 of 110000000 tuples (59%) done (elapsed 130.03 s, remaining 87.35 s).
65900000 of 110000000 tuples (59%) done (elapsed 130.11 s, remaining 87.07 s).
66000000 of 110000000 tuples (60%) done (elapsed 130.17 s, remaining 86.78 s).
66100000 of 110000000 tuples (60%) done (elapsed 130.43 s, remaining 86.62 s).
66200000 of 110000000 tuples (60%) done (elapsed 130.57 s, remaining 86.39 s).
66300000 of 110000000 tuples (60%) done (elapsed 130.65 s, remaining 86.12 s).
66400000 of 110000000 tuples (60%) done (elapsed 131.15 s, remaining 86.12 s).
66500000 of 110000000 tuples (60%) done (elapsed 131.24 s, remaining 85.85 s).
66600000 of 110000000 tuples (60%) done (elapsed 131.29 s, remaining 85.56 s).
66700000 of 110000000 tuples (60%) done (elapsed 131.72 s, remaining 85.51 s).
66800000 of 110000000 tuples (60%) done (elapsed 131.80 s, remaining 85.24 s).
66900000 of 110000000 tuples (60%) done (elapsed 132.07 s, remaining 85.08 s).
67000000 of 110000000 tuples (60%) done (elapsed 132.24 s, remaining 84.87 s).
67100000 of 110000000 tuples (61%) done (elapsed 132.33 s, remaining 84.60 s).
67200000 of 110000000 tuples (61%) done (elapsed 132.85 s, remaining 84.61 s).
67300000 of 110000000 tuples (61%) done (elapsed 132.94 s, remaining 84.34 s).
67400000 of 110000000 tuples (61%) done (elapsed 132.99 s, remaining 84.06 s).
67500000 of 110000000 tuples (61%) done (elapsed 133.41 s, remaining 84.00 s).
67600000 of 110000000 tuples (61%) done (elapsed 133.47 s, remaining 83.71 s).
67700000 of 110000000 tuples (61%) done (elapsed 133.76 s, remaining 83.57 s).
67800000 of 110000000 tuples (61%) done (elapsed 133.94 s, remaining 83.36 s).
67900000 of 110000000 tuples (61%) done (elapsed 133.99 s, remaining 83.08 s).
68000000 of 110000000 tuples (61%) done (elapsed 134.08 s, remaining 82.81 s).
68100000 of 110000000 tuples (61%) done (elapsed 134.65 s, remaining 82.84 s).
68200000 of 110000000 tuples (62%) done (elapsed 134.70 s, remaining 82.56 s).
68300000 of 110000000 tuples (62%) done (elapsed 135.12 s, remaining 82.49 s).
68400000 of 110000000 tuples (62%) done (elapsed 135.20 s, remaining 82.23 s).
68500000 of 110000000 tuples (62%) done (elapsed 135.46 s, remaining 82.07 s).
68600000 of 110000000 tuples (62%) done (elapsed 135.65 s, remaining 81.86 s).
68700000 of 110000000 tuples (62%) done (elapsed 135.70 s, remaining 81.58 s).
68800000 of 110000000 tuples (62%) done (elapsed 135.79 s, remaining 81.31 s).
68900000 of 110000000 tuples (62%) done (elapsed 136.33 s, remaining 81.32 s).
69000000 of 110000000 tuples (62%) done (elapsed 136.39 s, remaining 81.04 s).
69100000 of 110000000 tuples (62%) done (elapsed 136.78 s, remaining 80.96 s).
69200000 of 110000000 tuples (62%) done (elapsed 136.86 s, remaining 80.69 s).
69300000 of 110000000 tuples (63%) done (elapsed 137.13 s, remaining 80.53 s).
69400000 of 110000000 tuples (63%) done (elapsed 137.35 s, remaining 80.35 s).
69500000 of 110000000 tuples (63%) done (elapsed 137.41 s, remaining 80.07 s).
69600000 of 110000000 tuples (63%) done (elapsed 137.50 s, remaining 79.82 s).
69700000 of 110000000 tuples (63%) done (elapsed 137.56 s, remaining 79.54 s).
69800000 of 110000000 tuples (63%) done (elapsed 137.64 s, remaining 79.27 s).
69900000 of 110000000 tuples (63%) done (elapsed 137.70 s, remaining 78.99 s).
70000000 of 110000000 tuples (63%) done (elapsed 138.62 s, remaining 79.21 s).
70100000 of 110000000 tuples (63%) done (elapsed 138.68 s, remaining 78.93 s).
70200000 of 110000000 tuples (63%) done (elapsed 138.76 s, remaining 78.67 s).
70300000 of 110000000 tuples (63%) done (elapsed 138.81 s, remaining 78.39 s).
70400000 of 110000000 tuples (64%) done (elapsed 139.44 s, remaining 78.44 s).
70500000 of 110000000 tuples (64%) done (elapsed 139.52 s, remaining 78.17 s).
70600000 of 110000000 tuples (64%) done (elapsed 139.58 s, remaining 77.90 s).
70700000 of 110000000 tuples (64%) done (elapsed 140.06 s, remaining 77.85 s).
70800000 of 110000000 tuples (64%) done (elapsed 140.11 s, remaining 77.58 s).
70900000 of 110000000 tuples (64%) done (elapsed 140.20 s, remaining 77.32 s).
71000000 of 110000000 tuples (64%) done (elapsed 140.54 s, remaining 77.20 s).
71100000 of 110000000 tuples (64%) done (elapsed 140.72 s, remaining 76.99 s).
71200000 of 110000000 tuples (64%) done (elapsed 140.82 s, remaining 76.74 s).
71300000 of 110000000 tuples (64%) done (elapsed 140.88 s, remaining 76.46 s).
71400000 of 110000000 tuples (64%) done (elapsed 141.47 s, remaining 76.48 s).
71500000 of 110000000 tuples (65%) done (elapsed 141.52 s, remaining 76.20 s).
71600000 of 110000000 tuples (65%) done (elapsed 141.91 s, remaining 76.11 s).
71700000 of 110000000 tuples (65%) done (elapsed 141.99 s, remaining 75.85 s).
71800000 of 110000000 tuples (65%) done (elapsed 142.04 s, remaining 75.57 s).
71900000 of 110000000 tuples (65%) done (elapsed 142.39 s, remaining 75.45 s).
72000000 of 110000000 tuples (65%) done (elapsed 142.59 s, remaining 75.26 s).
72100000 of 110000000 tuples (65%) done (elapsed 142.66 s, remaining 74.99 s).
72200000 of 110000000 tuples (65%) done (elapsed 143.27 s, remaining 75.01 s).
72300000 of 110000000 tuples (65%) done (elapsed 143.32 s, remaining 74.73 s).
72400000 of 110000000 tuples (65%) done (elapsed 143.41 s, remaining 74.48 s).
72500000 of 110000000 tuples (65%) done (elapsed 143.85 s, remaining 74.40 s).
72600000 of 110000000 tuples (66%) done (elapsed 143.93 s, remaining 74.15 s).
72700000 of 110000000 tuples (66%) done (elapsed 144.41 s, remaining 74.09 s).
72800000 of 110000000 tuples (66%) done (elapsed 144.46 s, remaining 73.82 s).
72900000 of 110000000 tuples (66%) done (elapsed 144.55 s, remaining 73.56 s).
73000000 of 110000000 tuples (66%) done (elapsed 144.87 s, remaining 73.43 s).
73100000 of 110000000 tuples (66%) done (elapsed 145.08 s, remaining 73.24 s).
73200000 of 110000000 tuples (66%) done (elapsed 145.19 s, remaining 72.99 s).
73300000 of 110000000 tuples (66%) done (elapsed 145.25 s, remaining 72.72 s).
73400000 of 110000000 tuples (66%) done (elapsed 145.84 s, remaining 72.72 s).
73500000 of 110000000 tuples (66%) done (elapsed 145.92 s, remaining 72.46 s).
73600000 of 110000000 tuples (66%) done (elapsed 146.37 s, remaining 72.39 s).
73700000 of 110000000 tuples (67%) done (elapsed 146.45 s, remaining 72.13 s).
73800000 of 110000000 tuples (67%) done (elapsed 146.50 s, remaining 71.86 s).
73900000 of 110000000 tuples (67%) done (elapsed 146.85 s, remaining 71.74 s).
74000000 of 110000000 tuples (67%) done (elapsed 147.07 s, remaining 71.55 s).
74100000 of 110000000 tuples (67%) done (elapsed 147.13 s, remaining 71.28 s).
74200000 of 110000000 tuples (67%) done (elapsed 147.75 s, remaining 71.29 s).
74300000 of 110000000 tuples (67%) done (elapsed 147.81 s, remaining 71.02 s).
74400000 of 110000000 tuples (67%) done (elapsed 147.89 s, remaining 70.76 s).
74500000 of 110000000 tuples (67%) done (elapsed 148.29 s, remaining 70.66 s).
74600000 of 110000000 tuples (67%) done (elapsed 148.35 s, remaining 70.39 s).
74700000 of 110000000 tuples (67%) done (elapsed 148.63 s, remaining 70.23 s).
74800000 of 110000000 tuples (68%) done (elapsed 148.81 s, remaining 70.03 s).
74900000 of 110000000 tuples (68%) done (elapsed 148.86 s, remaining 69.76 s).
75000000 of 110000000 tuples (68%) done (elapsed 148.95 s, remaining 69.51 s).
75100000 of 110000000 tuples (68%) done (elapsed 149.46 s, remaining 69.45 s).
75200000 of 110000000 tuples (68%) done (elapsed 149.55 s, remaining 69.20 s).
75300000 of 110000000 tuples (68%) done (elapsed 149.93 s, remaining 69.09 s).
75400000 of 110000000 tuples (68%) done (elapsed 149.99 s, remaining 68.83 s).
75500000 of 110000000 tuples (68%) done (elapsed 150.11 s, remaining 68.59 s).
75600000 of 110000000 tuples (68%) done (elapsed 150.31 s, remaining 68.39 s).
75700000 of 110000000 tuples (68%) done (elapsed 150.49 s, remaining 68.19 s).
75800000 of 110000000 tuples (68%) done (elapsed 150.59 s, remaining 67.94 s).
75900000 of 110000000 tuples (69%) done (elapsed 150.64 s, remaining 67.68 s).
76000000 of 110000000 tuples (69%) done (elapsed 151.17 s, remaining 67.63 s).
76100000 of 110000000 tuples (69%) done (elapsed 151.26 s, remaining 67.38 s).
76200000 of 110000000 tuples (69%) done (elapsed 151.71 s, remaining 67.29 s).
76300000 of 110000000 tuples (69%) done (elapsed 151.79 s, remaining 67.04 s).
76400000 of 110000000 tuples (69%) done (elapsed 152.11 s, remaining 66.90 s).
76500000 of 110000000 tuples (69%) done (elapsed 152.32 s, remaining 66.70 s).
76600000 of 110000000 tuples (69%) done (elapsed 152.37 s, remaining 66.44 s).
76700000 of 110000000 tuples (69%) done (elapsed 152.44 s, remaining 66.18 s).
76800000 of 110000000 tuples (69%) done (elapsed 153.06 s, remaining 66.17 s).
76900000 of 110000000 tuples (69%) done (elapsed 153.14 s, remaining 65.92 s).
77000000 of 110000000 tuples (70%) done (elapsed 153.20 s, remaining 65.66 s).
77100000 of 110000000 tuples (70%) done (elapsed 153.69 s, remaining 65.58 s).
77200000 of 110000000 tuples (70%) done (elapsed 153.74 s, remaining 65.32 s).
77300000 of 110000000 tuples (70%) done (elapsed 154.08 s, remaining 65.18 s).
77400000 of 110000000 tuples (70%) done (elapsed 154.29 s, remaining 64.99 s).
77500000 of 110000000 tuples (70%) done (elapsed 154.35 s, remaining 64.73 s).
77600000 of 110000000 tuples (70%) done (elapsed 154.44 s, remaining 64.48 s).
77700000 of 110000000 tuples (70%) done (elapsed 154.52 s, remaining 64.24 s).
77800000 of 110000000 tuples (70%) done (elapsed 154.58 s, remaining 63.98 s).
77900000 of 110000000 tuples (70%) done (elapsed 155.59 s, remaining 64.11 s).
78000000 of 110000000 tuples (70%) done (elapsed 155.65 s, remaining 63.86 s).
78100000 of 110000000 tuples (71%) done (elapsed 155.73 s, remaining 63.61 s).
78200000 of 110000000 tuples (71%) done (elapsed 156.24 s, remaining 63.53 s).
78300000 of 110000000 tuples (71%) done (elapsed 156.29 s, remaining 63.28 s).
78400000 of 110000000 tuples (71%) done (elapsed 156.38 s, remaining 63.03 s).
78500000 of 110000000 tuples (71%) done (elapsed 156.64 s, remaining 62.85 s).
78600000 of 110000000 tuples (71%) done (elapsed 156.84 s, remaining 62.66 s).
78700000 of 110000000 tuples (71%) done (elapsed 156.90 s, remaining 62.40 s).
78800000 of 110000000 tuples (71%) done (elapsed 157.00 s, remaining 62.16 s).
78900000 of 110000000 tuples (71%) done (elapsed 157.62 s, remaining 62.13 s).
79000000 of 110000000 tuples (71%) done (elapsed 157.67 s, remaining 61.87 s).
79100000 of 110000000 tuples (71%) done (elapsed 158.16 s, remaining 61.78 s).
79200000 of 110000000 tuples (72%) done (elapsed 158.21 s, remaining 61.53 s).
79300000 of 110000000 tuples (72%) done (elapsed 158.57 s, remaining 61.39 s).
79400000 of 110000000 tuples (72%) done (elapsed 158.77 s, remaining 61.19 s).
79500000 of 110000000 tuples (72%) done (elapsed 158.83 s, remaining 60.93 s).
79600000 of 110000000 tuples (72%) done (elapsed 158.93 s, remaining 60.70 s).
79700000 of 110000000 tuples (72%) done (elapsed 158.98 s, remaining 60.44 s).
79800000 of 110000000 tuples (72%) done (elapsed 159.07 s, remaining 60.20 s).
79900000 of 110000000 tuples (72%) done (elapsed 159.12 s, remaining 59.94 s).
80000000 of 110000000 tuples (72%) done (elapsed 160.17 s, remaining 60.06 s).
80100000 of 110000000 tuples (72%) done (elapsed 160.22 s, remaining 59.81 s).
80200000 of 110000000 tuples (72%) done (elapsed 160.30 s, remaining 59.56 s).
80300000 of 110000000 tuples (73%) done (elapsed 160.66 s, remaining 59.42 s).
80400000 of 110000000 tuples (73%) done (elapsed 160.72 s, remaining 59.17 s).
80500000 of 110000000 tuples (73%) done (elapsed 161.14 s, remaining 59.05 s).
80600000 of 110000000 tuples (73%) done (elapsed 161.19 s, remaining 58.80 s).
80700000 of 110000000 tuples (73%) done (elapsed 161.28 s, remaining 58.56 s).
80800000 of 110000000 tuples (73%) done (elapsed 161.57 s, remaining 58.39 s).
80900000 of 110000000 tuples (73%) done (elapsed 161.78 s, remaining 58.19 s).
81000000 of 110000000 tuples (73%) done (elapsed 161.84 s, remaining 57.94 s).
81100000 of 110000000 tuples (73%) done (elapsed 161.95 s, remaining 57.71 s).
81200000 of 110000000 tuples (73%) done (elapsed 162.01 s, remaining 57.46 s).
81300000 of 110000000 tuples (73%) done (elapsed 162.09 s, remaining 57.22 s).
81400000 of 110000000 tuples (74%) done (elapsed 162.93 s, remaining 57.24 s).
81500000 of 110000000 tuples (74%) done (elapsed 162.98 s, remaining 56.99 s).
81600000 of 110000000 tuples (74%) done (elapsed 163.07 s, remaining 56.75 s).
81700000 of 110000000 tuples (74%) done (elapsed 163.12 s, remaining 56.50 s).
81800000 of 110000000 tuples (74%) done (elapsed 163.51 s, remaining 56.37 s).
81900000 of 110000000 tuples (74%) done (elapsed 163.57 s, remaining 56.12 s).
82000000 of 110000000 tuples (74%) done (elapsed 163.87 s, remaining 55.96 s).
82100000 of 110000000 tuples (74%) done (elapsed 163.93 s, remaining 55.71 s).
82200000 of 110000000 tuples (74%) done (elapsed 164.09 s, remaining 55.50 s).
82300000 of 110000000 tuples (74%) done (elapsed 164.15 s, remaining 55.25 s).
82400000 of 110000000 tuples (74%) done (elapsed 164.59 s, remaining 55.13 s).
82500000 of 110000000 tuples (75%) done (elapsed 164.67 s, remaining 54.89 s).
82600000 of 110000000 tuples (75%) done (elapsed 164.73 s, remaining 54.64 s).
82700000 of 110000000 tuples (75%) done (elapsed 165.07 s, remaining 54.49 s).
82800000 of 110000000 tuples (75%) done (elapsed 165.34 s, remaining 54.32 s).
82900000 of 110000000 tuples (75%) done (elapsed 165.40 s, remaining 54.07 s).
83000000 of 110000000 tuples (75%) done (elapsed 165.56 s, remaining 53.86 s).
83100000 of 110000000 tuples (75%) done (elapsed 165.61 s, remaining 53.61 s).
83200000 of 110000000 tuples (75%) done (elapsed 166.04 s, remaining 53.48 s).
83300000 of 110000000 tuples (75%) done (elapsed 166.09 s, remaining 53.24 s).
83400000 of 110000000 tuples (75%) done (elapsed 166.18 s, remaining 53.00 s).
83500000 of 110000000 tuples (75%) done (elapsed 166.53 s, remaining 52.85 s).
83600000 of 110000000 tuples (76%) done (elapsed 166.58 s, remaining 52.60 s).
83700000 of 110000000 tuples (76%) done (elapsed 166.87 s, remaining 52.43 s).
83800000 of 110000000 tuples (76%) done (elapsed 167.00 s, remaining 52.21 s).
83900000 of 110000000 tuples (76%) done (elapsed 167.09 s, remaining 51.98 s).
84000000 of 110000000 tuples (76%) done (elapsed 167.64 s, remaining 51.89 s).
84100000 of 110000000 tuples (76%) done (elapsed 167.69 s, remaining 51.64 s).
84200000 of 110000000 tuples (76%) done (elapsed 167.77 s, remaining 51.41 s).
84300000 of 110000000 tuples (76%) done (elapsed 168.15 s, remaining 51.26 s).
84400000 of 110000000 tuples (76%) done (elapsed 168.24 s, remaining 51.03 s).
84500000 of 110000000 tuples (76%) done (elapsed 168.29 s, remaining 50.79 s).
84600000 of 110000000 tuples (76%) done (elapsed 168.61 s, remaining 50.62 s).
84700000 of 110000000 tuples (77%) done (elapsed 168.75 s, remaining 50.40 s).
84800000 of 110000000 tuples (77%) done (elapsed 168.83 s, remaining 50.17 s).
84900000 of 110000000 tuples (77%) done (elapsed 169.34 s, remaining 50.06 s).
85000000 of 110000000 tuples (77%) done (elapsed 169.39 s, remaining 49.82 s).
85100000 of 110000000 tuples (77%) done (elapsed 169.48 s, remaining 49.59 s).
85200000 of 110000000 tuples (77%) done (elapsed 169.91 s, remaining 49.46 s).
85300000 of 110000000 tuples (77%) done (elapsed 170.00 s, remaining 49.23 s).
85400000 of 110000000 tuples (77%) done (elapsed 170.05 s, remaining 48.98 s).
85500000 of 110000000 tuples (77%) done (elapsed 170.39 s, remaining 48.82 s).
85600000 of 110000000 tuples (77%) done (elapsed 170.60 s, remaining 48.63 s).
85700000 of 110000000 tuples (77%) done (elapsed 170.69 s, remaining 48.40 s).
85800000 of 110000000 tuples (78%) done (elapsed 171.25 s, remaining 48.30 s).
85900000 of 110000000 tuples (78%) done (elapsed 171.31 s, remaining 48.06 s).
86000000 of 110000000 tuples (78%) done (elapsed 171.39 s, remaining 47.83 s).
86100000 of 110000000 tuples (78%) done (elapsed 171.87 s, remaining 47.71 s).
86200000 of 110000000 tuples (78%) done (elapsed 171.92 s, remaining 47.47 s).
86300000 of 110000000 tuples (78%) done (elapsed 172.19 s, remaining 47.29 s).
86400000 of 110000000 tuples (78%) done (elapsed 172.37 s, remaining 47.08 s).
86500000 of 110000000 tuples (78%) done (elapsed 172.43 s, remaining 46.84 s).
86600000 of 110000000 tuples (78%) done (elapsed 172.75 s, remaining 46.68 s).
86700000 of 110000000 tuples (78%) done (elapsed 172.81 s, remaining 46.44 s).
86800000 of 110000000 tuples (78%) done (elapsed 172.89 s, remaining 46.21 s).
86900000 of 110000000 tuples (79%) done (elapsed 172.95 s, remaining 45.97 s).
87000000 of 110000000 tuples (79%) done (elapsed 173.45 s, remaining 45.85 s).
87100000 of 110000000 tuples (79%) done (elapsed 173.50 s, remaining 45.62 s).
87200000 of 110000000 tuples (79%) done (elapsed 173.59 s, remaining 45.39 s).
87300000 of 110000000 tuples (79%) done (elapsed 173.92 s, remaining 45.22 s).
87400000 of 110000000 tuples (79%) done (elapsed 173.97 s, remaining 44.99 s).
87500000 of 110000000 tuples (79%) done (elapsed 174.06 s, remaining 44.76 s).
87600000 of 110000000 tuples (79%) done (elapsed 174.27 s, remaining 44.56 s).
87700000 of 110000000 tuples (79%) done (elapsed 174.43 s, remaining 44.35 s).
87800000 of 110000000 tuples (79%) done (elapsed 174.51 s, remaining 44.12 s).
87900000 of 110000000 tuples (79%) done (elapsed 174.56 s, remaining 43.89 s).
88000000 of 110000000 tuples (80%) done (elapsed 174.65 s, remaining 43.66 s).
88100000 of 110000000 tuples (80%) done (elapsed 174.70 s, remaining 43.43 s).
88200000 of 110000000 tuples (80%) done (elapsed 175.29 s, remaining 43.33 s).
88300000 of 110000000 tuples (80%) done (elapsed 175.37 s, remaining 43.10 s).
88400000 of 110000000 tuples (80%) done (elapsed 175.43 s, remaining 42.86 s).
88500000 of 110000000 tuples (80%) done (elapsed 175.51 s, remaining 42.64 s).
88600000 of 110000000 tuples (80%) done (elapsed 175.79 s, remaining 42.46 s).
88700000 of 110000000 tuples (80%) done (elapsed 175.87 s, remaining 42.23 s).
88800000 of 110000000 tuples (80%) done (elapsed 176.19 s, remaining 42.06 s).
88900000 of 110000000 tuples (80%) done (elapsed 176.24 s, remaining 41.83 s).
89000000 of 110000000 tuples (80%) done (elapsed 176.33 s, remaining 41.61 s).
89100000 of 110000000 tuples (81%) done (elapsed 176.56 s, remaining 41.42 s).
89200000 of 110000000 tuples (81%) done (elapsed 176.69 s, remaining 41.20 s).
89300000 of 110000000 tuples (81%) done (elapsed 176.77 s, remaining 40.98 s).
89400000 of 110000000 tuples (81%) done (elapsed 177.17 s, remaining 40.83 s).
89500000 of 110000000 tuples (81%) done (elapsed 177.23 s, remaining 40.59 s).
89600000 of 110000000 tuples (81%) done (elapsed 177.31 s, remaining 40.37 s).
89700000 of 110000000 tuples (81%) done (elapsed 177.60 s, remaining 40.19 s).
89800000 of 110000000 tuples (81%) done (elapsed 177.68 s, remaining 39.97 s).
89900000 of 110000000 tuples (81%) done (elapsed 177.91 s, remaining 39.78 s).
90000000 of 110000000 tuples (81%) done (elapsed 177.97 s, remaining 39.55 s).
90100000 of 110000000 tuples (81%) done (elapsed 178.13 s, remaining 39.34 s).
90200000 of 110000000 tuples (82%) done (elapsed 178.18 s, remaining 39.11 s).
90300000 of 110000000 tuples (82%) done (elapsed 178.26 s, remaining 38.89 s).
90400000 of 110000000 tuples (82%) done (elapsed 178.35 s, remaining 38.67 s).
90500000 of 110000000 tuples (82%) done (elapsed 178.40 s, remaining 38.44 s).
90600000 of 110000000 tuples (82%) done (elapsed 179.03 s, remaining 38.33 s).
90700000 of 110000000 tuples (82%) done (elapsed 179.08 s, remaining 38.11 s).
90800000 of 110000000 tuples (82%) done (elapsed 179.17 s, remaining 37.89 s).
90900000 of 110000000 tuples (82%) done (elapsed 179.47 s, remaining 37.71 s).
91000000 of 110000000 tuples (82%) done (elapsed 179.53 s, remaining 37.48 s).
91100000 of 110000000 tuples (82%) done (elapsed 179.61 s, remaining 37.26 s).
91200000 of 110000000 tuples (82%) done (elapsed 179.84 s, remaining 37.07 s).
91300000 of 110000000 tuples (83%) done (elapsed 179.97 s, remaining 36.86 s).
91400000 of 110000000 tuples (83%) done (elapsed 180.06 s, remaining 36.64 s).
91500000 of 110000000 tuples (83%) done (elapsed 180.45 s, remaining 36.48 s).
91600000 of 110000000 tuples (83%) done (elapsed 180.53 s, remaining 36.26 s).
91700000 of 110000000 tuples (83%) done (elapsed 180.88 s, remaining 36.10 s).
91800000 of 110000000 tuples (83%) done (elapsed 180.94 s, remaining 35.87 s).
91900000 of 110000000 tuples (83%) done (elapsed 181.02 s, remaining 35.65 s).
92000000 of 110000000 tuples (83%) done (elapsed 181.27 s, remaining 35.47 s).
92100000 of 110000000 tuples (83%) done (elapsed 181.46 s, remaining 35.27 s).
92200000 of 110000000 tuples (83%) done (elapsed 181.51 s, remaining 35.04 s).
92300000 of 110000000 tuples (83%) done (elapsed 181.61 s, remaining 34.83 s).
92400000 of 110000000 tuples (84%) done (elapsed 181.92 s, remaining 34.65 s).
92500000 of 110000000 tuples (84%) done (elapsed 181.97 s, remaining 34.43 s).
92600000 of 110000000 tuples (84%) done (elapsed 182.36 s, remaining 34.27 s).
92700000 of 110000000 tuples (84%) done (elapsed 182.41 s, remaining 34.04 s).
92800000 of 110000000 tuples (84%) done (elapsed 182.53 s, remaining 33.83 s).
92900000 of 110000000 tuples (84%) done (elapsed 182.72 s, remaining 33.63 s).
93000000 of 110000000 tuples (84%) done (elapsed 182.84 s, remaining 33.42 s).
93100000 of 110000000 tuples (84%) done (elapsed 182.93 s, remaining 33.21 s).
93200000 of 110000000 tuples (84%) done (elapsed 183.34 s, remaining 33.05 s).
93300000 of 110000000 tuples (84%) done (elapsed 183.42 s, remaining 32.83 s).
93400000 of 110000000 tuples (84%) done (elapsed 183.48 s, remaining 32.61 s).
93500000 of 110000000 tuples (85%) done (elapsed 183.85 s, remaining 32.44 s).
93600000 of 110000000 tuples (85%) done (elapsed 183.90 s, remaining 32.22 s).
93700000 of 110000000 tuples (85%) done (elapsed 184.19 s, remaining 32.04 s).
93800000 of 110000000 tuples (85%) done (elapsed 184.33 s, remaining 31.83 s).
93900000 of 110000000 tuples (85%) done (elapsed 184.41 s, remaining 31.62 s).
94000000 of 110000000 tuples (85%) done (elapsed 184.85 s, remaining 31.46 s).
94100000 of 110000000 tuples (85%) done (elapsed 184.90 s, remaining 31.24 s).
94200000 of 110000000 tuples (85%) done (elapsed 184.99 s, remaining 31.03 s).
94300000 of 110000000 tuples (85%) done (elapsed 185.27 s, remaining 30.85 s).
94400000 of 110000000 tuples (85%) done (elapsed 185.36 s, remaining 30.63 s).
94500000 of 110000000 tuples (85%) done (elapsed 185.56 s, remaining 30.44 s).
94600000 of 110000000 tuples (86%) done (elapsed 185.71 s, remaining 30.23 s).
94700000 of 110000000 tuples (86%) done (elapsed 185.77 s, remaining 30.01 s).
94800000 of 110000000 tuples (86%) done (elapsed 185.85 s, remaining 29.80 s).
94900000 of 110000000 tuples (86%) done (elapsed 186.25 s, remaining 29.64 s).
95000000 of 110000000 tuples (86%) done (elapsed 186.30 s, remaining 29.42 s).
95100000 of 110000000 tuples (86%) done (elapsed 186.63 s, remaining 29.24 s).
95200000 of 110000000 tuples (86%) done (elapsed 186.69 s, remaining 29.02 s).
95300000 of 110000000 tuples (86%) done (elapsed 186.94 s, remaining 28.84 s).
95400000 of 110000000 tuples (86%) done (elapsed 186.99 s, remaining 28.62 s).
95500000 of 110000000 tuples (86%) done (elapsed 187.15 s, remaining 28.41 s).
95600000 of 110000000 tuples (86%) done (elapsed 187.20 s, remaining 28.20 s).
95700000 of 110000000 tuples (87%) done (elapsed 187.65 s, remaining 28.04 s).
95800000 of 110000000 tuples (87%) done (elapsed 187.70 s, remaining 27.82 s).
95900000 of 110000000 tuples (87%) done (elapsed 188.07 s, remaining 27.65 s).
96000000 of 110000000 tuples (87%) done (elapsed 188.13 s, remaining 27.44 s).
96100000 of 110000000 tuples (87%) done (elapsed 188.21 s, remaining 27.22 s).
96200000 of 110000000 tuples (87%) done (elapsed 188.43 s, remaining 27.03 s).
96300000 of 110000000 tuples (87%) done (elapsed 188.56 s, remaining 26.82 s).
96400000 of 110000000 tuples (87%) done (elapsed 188.98 s, remaining 26.66 s).
96500000 of 110000000 tuples (87%) done (elapsed 189.03 s, remaining 26.44 s).
96600000 of 110000000 tuples (87%) done (elapsed 189.12 s, remaining 26.23 s).
96700000 of 110000000 tuples (87%) done (elapsed 189.43 s, remaining 26.05 s).
96800000 of 110000000 tuples (88%) done (elapsed 189.51 s, remaining 25.84 s).
96900000 of 110000000 tuples (88%) done (elapsed 189.74 s, remaining 25.65 s).
97000000 of 110000000 tuples (88%) done (elapsed 189.90 s, remaining 25.45 s).
97100000 of 110000000 tuples (88%) done (elapsed 189.96 s, remaining 25.24 s).
97200000 of 110000000 tuples (88%) done (elapsed 190.44 s, remaining 25.08 s).
97300000 of 110000000 tuples (88%) done (elapsed 190.52 s, remaining 24.87 s).
97400000 of 110000000 tuples (88%) done (elapsed 190.58 s, remaining 24.65 s).
97500000 of 110000000 tuples (88%) done (elapsed 190.97 s, remaining 24.48 s).
97600000 of 110000000 tuples (88%) done (elapsed 191.02 s, remaining 24.27 s).
97700000 of 110000000 tuples (88%) done (elapsed 191.30 s, remaining 24.08 s).
97800000 of 110000000 tuples (88%) done (elapsed 191.44 s, remaining 23.88 s).
97900000 of 110000000 tuples (89%) done (elapsed 191.50 s, remaining 23.67 s).
98000000 of 110000000 tuples (89%) done (elapsed 191.92 s, remaining 23.50 s).
98100000 of 110000000 tuples (89%) done (elapsed 192.00 s, remaining 23.29 s).
98200000 of 110000000 tuples (89%) done (elapsed 192.06 s, remaining 23.08 s).
98300000 of 110000000 tuples (89%) done (elapsed 192.39 s, remaining 22.90 s).
98400000 of 110000000 tuples (89%) done (elapsed 192.44 s, remaining 22.69 s).
98500000 of 110000000 tuples (89%) done (elapsed 192.67 s, remaining 22.49 s).
98600000 of 110000000 tuples (89%) done (elapsed 192.83 s, remaining 22.29 s).
98700000 of 110000000 tuples (89%) done (elapsed 192.88 s, remaining 22.08 s).
98800000 of 110000000 tuples (89%) done (elapsed 192.97 s, remaining 21.88 s).
98900000 of 110000000 tuples (89%) done (elapsed 193.03 s, remaining 21.66 s).
99000000 of 110000000 tuples (90%) done (elapsed 193.09 s, remaining 21.45 s).
99100000 of 110000000 tuples (90%) done (elapsed 193.65 s, remaining 21.30 s).
99200000 of 110000000 tuples (90%) done (elapsed 193.75 s, remaining 21.09 s).
99300000 of 110000000 tuples (90%) done (elapsed 193.80 s, remaining 20.88 s).
99400000 of 110000000 tuples (90%) done (elapsed 194.12 s, remaining 20.70 s).
99500000 of 110000000 tuples (90%) done (elapsed 194.18 s, remaining 20.49 s).
99600000 of 110000000 tuples (90%) done (elapsed 194.41 s, remaining 20.30 s).
99700000 of 110000000 tuples (90%) done (elapsed 194.47 s, remaining 20.09 s).
99800000 of 110000000 tuples (90%) done (elapsed 194.61 s, remaining 19.89 s).
99900000 of 110000000 tuples (90%) done (elapsed 194.66 s, remaining 19.68 s).
100000000 of 110000000 tuples (90%) done (elapsed 195.04 s, remaining 19.50 s).
100100000 of 110000000 tuples (91%) done (elapsed 195.13 s, remaining 19.30 s).
100200000 of 110000000 tuples (91%) done (elapsed 195.43 s, remaining 19.11 s).
100300000 of 110000000 tuples (91%) done (elapsed 195.48 s, remaining 18.91 s).
100400000 of 110000000 tuples (91%) done (elapsed 195.56 s, remaining 18.70 s).
100500000 of 110000000 tuples (91%) done (elapsed 195.79 s, remaining 18.51 s).
100600000 of 110000000 tuples (91%) done (elapsed 195.93 s, remaining 18.31 s).
100700000 of 110000000 tuples (91%) done (elapsed 195.98 s, remaining 18.10 s).
100800000 of 110000000 tuples (91%) done (elapsed 196.06 s, remaining 17.89 s).
100900000 of 110000000 tuples (91%) done (elapsed 196.14 s, remaining 17.69 s).
101000000 of 110000000 tuples (91%) done (elapsed 196.71 s, remaining 17.53 s).
101100000 of 110000000 tuples (91%) done (elapsed 196.76 s, remaining 17.32 s).
101200000 of 110000000 tuples (92%) done (elapsed 196.84 s, remaining 17.12 s).
101300000 of 110000000 tuples (92%) done (elapsed 196.90 s, remaining 16.91 s).
101400000 of 110000000 tuples (92%) done (elapsed 197.19 s, remaining 16.72 s).
101500000 of 110000000 tuples (92%) done (elapsed 197.27 s, remaining 16.52 s).
101600000 of 110000000 tuples (92%) done (elapsed 197.47 s, remaining 16.33 s).
101700000 of 110000000 tuples (92%) done (elapsed 197.61 s, remaining 16.13 s).
101800000 of 110000000 tuples (92%) done (elapsed 198.03 s, remaining 15.95 s).
101900000 of 110000000 tuples (92%) done (elapsed 198.09 s, remaining 15.75 s).
102000000 of 110000000 tuples (92%) done (elapsed 198.17 s, remaining 15.54 s).
102100000 of 110000000 tuples (92%) done (elapsed 198.24 s, remaining 15.34 s).
102200000 of 110000000 tuples (92%) done (elapsed 198.54 s, remaining 15.15 s).
102300000 of 110000000 tuples (93%) done (elapsed 198.62 s, remaining 14.95 s).
102400000 of 110000000 tuples (93%) done (elapsed 198.70 s, remaining 14.75 s).
102500000 of 110000000 tuples (93%) done (elapsed 198.94 s, remaining 14.56 s).
102600000 of 110000000 tuples (93%) done (elapsed 199.10 s, remaining 14.36 s).
102700000 of 110000000 tuples (93%) done (elapsed 199.16 s, remaining 14.16 s).
102800000 of 110000000 tuples (93%) done (elapsed 199.24 s, remaining 13.95 s).
102900000 of 110000000 tuples (93%) done (elapsed 199.32 s, remaining 13.75 s).
103000000 of 110000000 tuples (93%) done (elapsed 199.37 s, remaining 13.55 s).
103100000 of 110000000 tuples (93%) done (elapsed 199.94 s, remaining 13.38 s).
103200000 of 110000000 tuples (93%) done (elapsed 200.02 s, remaining 13.18 s).
103300000 of 110000000 tuples (93%) done (elapsed 200.09 s, remaining 12.98 s).
103400000 of 110000000 tuples (94%) done (elapsed 200.15 s, remaining 12.78 s).
103500000 of 110000000 tuples (94%) done (elapsed 200.55 s, remaining 12.59 s).
103600000 of 110000000 tuples (94%) done (elapsed 200.62 s, remaining 12.39 s).
103700000 of 110000000 tuples (94%) done (elapsed 200.68 s, remaining 12.19 s).
103800000 of 110000000 tuples (94%) done (elapsed 200.76 s, remaining 11.99 s).
103900000 of 110000000 tuples (94%) done (elapsed 201.08 s, remaining 11.81 s).
104000000 of 110000000 tuples (94%) done (elapsed 201.16 s, remaining 11.61 s).
104100000 of 110000000 tuples (94%) done (elapsed 201.38 s, remaining 11.41 s).
104200000 of 110000000 tuples (94%) done (elapsed 201.51 s, remaining 11.22 s).
104300000 of 110000000 tuples (94%) done (elapsed 201.90 s, remaining 11.03 s).
104400000 of 110000000 tuples (94%) done (elapsed 201.96 s, remaining 10.83 s).
104500000 of 110000000 tuples (95%) done (elapsed 202.04 s, remaining 10.63 s).
104600000 of 110000000 tuples (95%) done (elapsed 202.12 s, remaining 10.43 s).
104700000 of 110000000 tuples (95%) done (elapsed 202.45 s, remaining 10.25 s).
104800000 of 110000000 tuples (95%) done (elapsed 202.51 s, remaining 10.05 s).
104900000 of 110000000 tuples (95%) done (elapsed 202.74 s, remaining 9.86 s).
105000000 of 110000000 tuples (95%) done (elapsed 202.92 s, remaining 9.66 s).
105100000 of 110000000 tuples (95%) done (elapsed 202.97 s, remaining 9.46 s).
105200000 of 110000000 tuples (95%) done (elapsed 203.06 s, remaining 9.26 s).
105300000 of 110000000 tuples (95%) done (elapsed 203.43 s, remaining 9.08 s).
105400000 of 110000000 tuples (95%) done (elapsed 203.51 s, remaining 8.88 s).
105500000 of 110000000 tuples (95%) done (elapsed 203.56 s, remaining 8.68 s).
105600000 of 110000000 tuples (96%) done (elapsed 203.88 s, remaining 8.50 s).
105700000 of 110000000 tuples (96%) done (elapsed 203.96 s, remaining 8.30 s).
105800000 of 110000000 tuples (96%) done (elapsed 204.19 s, remaining 8.11 s).
105900000 of 110000000 tuples (96%) done (elapsed 204.36 s, remaining 7.91 s).
106000000 of 110000000 tuples (96%) done (elapsed 204.44 s, remaining 7.71 s).
106100000 of 110000000 tuples (96%) done (elapsed 204.49 s, remaining 7.52 s).
106200000 of 110000000 tuples (96%) done (elapsed 204.91 s, remaining 7.33 s).
106300000 of 110000000 tuples (96%) done (elapsed 204.99 s, remaining 7.14 s).
106400000 of 110000000 tuples (96%) done (elapsed 205.04 s, remaining 6.94 s).
106500000 of 110000000 tuples (96%) done (elapsed 205.40 s, remaining 6.75 s).
106600000 of 110000000 tuples (96%) done (elapsed 205.48 s, remaining 6.55 s).
106700000 of 110000000 tuples (97%) done (elapsed 205.72 s, remaining 6.36 s).
106800000 of 110000000 tuples (97%) done (elapsed 205.90 s, remaining 6.17 s).
106900000 of 110000000 tuples (97%) done (elapsed 205.99 s, remaining 5.97 s).
107000000 of 110000000 tuples (97%) done (elapsed 206.04 s, remaining 5.78 s).
107100000 of 110000000 tuples (97%) done (elapsed 206.48 s, remaining 5.59 s).
107200000 of 110000000 tuples (97%) done (elapsed 206.56 s, remaining 5.40 s).
107300000 of 110000000 tuples (97%) done (elapsed 206.86 s, remaining 5.21 s).
107400000 of 110000000 tuples (97%) done (elapsed 206.94 s, remaining 5.01 s).
107500000 of 110000000 tuples (97%) done (elapsed 207.18 s, remaining 4.82 s).
107600000 of 110000000 tuples (97%) done (elapsed 207.23 s, remaining 4.62 s).
107700000 of 110000000 tuples (97%) done (elapsed 207.39 s, remaining 4.43 s).
107800000 of 110000000 tuples (98%) done (elapsed 207.47 s, remaining 4.23 s).
107900000 of 110000000 tuples (98%) done (elapsed 207.84 s, remaining 4.05 s).
108000000 of 110000000 tuples (98%) done (elapsed 207.92 s, remaining 3.85 s).
108100000 of 110000000 tuples (98%) done (elapsed 208.25 s, remaining 3.66 s).
108200000 of 110000000 tuples (98%) done (elapsed 208.31 s, remaining 3.47 s).
108300000 of 110000000 tuples (98%) done (elapsed 208.39 s, remaining 3.27 s).
108400000 of 110000000 tuples (98%) done (elapsed 208.61 s, remaining 3.08 s).
108500000 of 110000000 tuples (98%) done (elapsed 208.76 s, remaining 2.89 s).
108600000 of 110000000 tuples (98%) done (elapsed 208.81 s, remaining 2.69 s).
108700000 of 110000000 tuples (98%) done (elapsed 208.90 s, remaining 2.50 s).
108800000 of 110000000 tuples (98%) done (elapsed 209.28 s, remaining 2.31 s).
108900000 of 110000000 tuples (99%) done (elapsed 209.33 s, remaining 2.11 s).
109000000 of 110000000 tuples (99%) done (elapsed 209.65 s, remaining 1.92 s).
109100000 of 110000000 tuples (99%) done (elapsed 209.73 s, remaining 1.73 s).
109200000 of 110000000 tuples (99%) done (elapsed 209.97 s, remaining 1.54 s).
109300000 of 110000000 tuples (99%) done (elapsed 210.02 s, remaining 1.35 s).
109400000 of 110000000 tuples (99%) done (elapsed 210.16 s, remaining 1.15 s).
109500000 of 110000000 tuples (99%) done (elapsed 210.24 s, remaining 0.96 s).
109600000 of 110000000 tuples (99%) done (elapsed 210.63 s, remaining 0.77 s).
109700000 of 110000000 tuples (99%) done (elapsed 210.69 s, remaining 0.58 s).
109800000 of 110000000 tuples (99%) done (elapsed 210.77 s, remaining 0.38 s).
109900000 of 110000000 tuples (99%) done (elapsed 211.10 s, remaining 0.19 s).
110000000 of 110000000 tuples (100%) done (elapsed 211.15 s, remaining 0.00 s).
vacuum...
set primary keys...
done.
